EESchema Schematic File Version 4
LIBS:mixer-cache
EELAYER 26 0
EELAYER END
$Descr A4 11693 8268
encoding utf-8
Sheet 1 1
Title ""
Date ""
Rev ""
Comp ""
Comment1 ""
Comment2 ""
Comment3 ""
Comment4 ""
$EndDescr
$Comp
L mixer-rescue:ADE-25MH- U1
U 1 1 5AA989A0
P 7500 3550
F 0 "U1" H 7500 3650 60  0000 C CNN
F 1 "ADE-25MH" H 7500 3800 60  0000 C CNN
F 2 "lib_kicad:PL-052" H 7500 3550 60  0001 C CNN
F 3 "" H 7500 3550 60  0001 C CNN
	1    7500 3550
	1    0    0    -1  
$EndComp
$Comp
L mixer-rescue:SMA- J2
U 1 1 5AA989E6
P 9050 3850
F 0 "J2" H 9175 4165 60  0000 C CNN
F 1 "SMA" H 9240 4090 60  0000 C CNN
F 2 "lib_kicad:SMA" H 9225 4020 50  0000 C CNN
F 3 "" H 9050 3850 60  0001 C CNN
	1    9050 3850
	1    0    0    -1  
$EndComp
$Comp
L mixer-rescue:SMA- J1
U 1 1 5AA98A29
P 2750 3900
F 0 "J1" H 2875 4215 60  0000 C CNN
F 1 "SMA" H 2940 4140 60  0000 C CNN
F 2 "lib_kicad:SMA" H 2925 4070 50  0000 C CNN
F 3 "" H 2750 3900 60  0001 C CNN
	1    2750 3900
	-1   0    0    -1  
$EndComp
$Comp
L mixer-rescue:SMA- J3
U 1 1 5AA98A52
P 5500 5300
F 0 "J3" H 5625 5615 60  0000 C CNN
F 1 "SMA" H 5690 5540 60  0000 C CNN
F 2 "lib_kicad:SMA" H 5675 5470 50  0000 C CNN
F 3 "" H 5500 5300 60  0001 C CNN
	1    5500 5300
	-1   0    0    -1  
$EndComp
Wire Wire Line
	2700 3800 2750 3800
Connection ~ 2750 3800
Connection ~ 2800 3800
Wire Wire Line
	7750 4000 7850 4000
Connection ~ 7850 4000
Wire Wire Line
	8450 3550 8900 3550
Wire Wire Line
	8950 3750 9000 3750
Connection ~ 9050 3750
Connection ~ 9000 3750
$Comp
L mixer-rescue:GND- #PWR0101
U 1 1 5AA98BEE
P 5600 5300
F 0 "#PWR0101" H 5600 5050 50  0001 C CNN
F 1 "GND" H 5600 5150 50  0000 C CNN
F 2 "" H 5600 5300 50  0001 C CNN
F 3 "" H 5600 5300 50  0001 C CNN
	1    5600 5300
	1    0    0    -1  
$EndComp
$Comp
L mixer-rescue:GND- #PWR0102
U 1 1 5AA98C0A
P 2800 3900
F 0 "#PWR0102" H 2800 3650 50  0001 C CNN
F 1 "GND" H 2800 3750 50  0000 C CNN
F 2 "" H 2800 3900 50  0001 C CNN
F 3 "" H 2800 3900 50  0001 C CNN
	1    2800 3900
	1    0    0    -1  
$EndComp
$Comp
L mixer-rescue:GND- #PWR0103
U 1 1 5AA98C26
P 9050 3850
F 0 "#PWR0103" H 9050 3600 50  0001 C CNN
F 1 "GND" H 9050 3700 50  0000 C CNN
F 2 "" H 9050 3850 50  0001 C CNN
F 3 "" H 9050 3850 50  0001 C CNN
	1    9050 3850
	1    0    0    -1  
$EndComp
Wire Wire Line
	9050 3850 9050 3750
Wire Wire Line
	2800 3900 2800 3800
$Comp
L mixer-rescue:GND- #PWR0104
U 1 1 5AA98C6D
P 7850 4150
F 0 "#PWR0104" H 7850 3900 50  0001 C CNN
F 1 "GND" H 7850 4000 50  0000 C CNN
F 2 "" H 7850 4150 50  0001 C CNN
F 3 "" H 7850 4150 50  0001 C CNN
	1    7850 4150
	1    0    0    -1  
$EndComp
Wire Wire Line
	7850 4150 7850 4000
Wire Wire Line
	2750 3800 2800 3800
Wire Wire Line
	2800 3800 2850 3800
Wire Wire Line
	7850 4000 7950 4000
Wire Wire Line
	9050 3750 9100 3750
Wire Wire Line
	9000 3750 9050 3750
$Comp
L Device:R R32
U 1 1 5B8EE860
P 6200 5000
F 0 "R32" H 6270 5046 50  0000 L CNN
F 1 "R" H 6270 4955 50  0000 L CNN
F 2 "Resistor_SMD:R_0603_1608Metric_Pad1.05x0.95mm_HandSolder" V 6130 5000 50  0001 C CNN
F 3 "~" H 6200 5000 50  0001 C CNN
	1    6200 5000
	0    1    1    0   
$EndComp
$Comp
L Device:R R33
U 1 1 5B8EE8C3
P 6550 5150
F 0 "R33" V 6343 5150 50  0000 C CNN
F 1 "R" V 6434 5150 50  0000 C CNN
F 2 "Resistor_SMD:R_0603_1608Metric_Pad1.05x0.95mm_HandSolder" V 6480 5150 50  0001 C CNN
F 3 "~" H 6550 5150 50  0001 C CNN
	1    6550 5150
	-1   0    0    1   
$EndComp
$Comp
L Device:R R31
U 1 1 5B8EE8FE
P 5900 5150
F 0 "R31" V 5693 5150 50  0000 C CNN
F 1 "R" V 5784 5150 50  0000 C CNN
F 2 "Resistor_SMD:R_0603_1608Metric_Pad1.05x0.95mm_HandSolder" V 5830 5150 50  0001 C CNN
F 3 "~" H 5900 5150 50  0001 C CNN
	1    5900 5150
	-1   0    0    1   
$EndComp
Wire Wire Line
	6550 5000 6350 5000
Connection ~ 6550 5000
Wire Wire Line
	6050 5000 5900 5000
Wire Wire Line
	5900 5000 5650 5000
Connection ~ 5900 5000
Wire Wire Line
	5450 5200 5500 5200
Wire Wire Line
	5500 5200 5550 5200
Connection ~ 5500 5200
Wire Wire Line
	5550 5200 5600 5200
Connection ~ 5550 5200
Wire Wire Line
	5600 5200 5600 5300
Connection ~ 5600 5200
$Comp
L mixer-rescue:GND- #PWR0105
U 1 1 5B8F0C0B
P 5900 5350
F 0 "#PWR0105" H 5900 5100 50  0001 C CNN
F 1 "GND" H 5900 5200 50  0000 C CNN
F 2 "" H 5900 5350 50  0001 C CNN
F 3 "" H 5900 5350 50  0001 C CNN
	1    5900 5350
	1    0    0    -1  
$EndComp
$Comp
L mixer-rescue:GND- #PWR0106
U 1 1 5B8F0C24
P 6550 5350
F 0 "#PWR0106" H 6550 5100 50  0001 C CNN
F 1 "GND" H 6550 5200 50  0000 C CNN
F 2 "" H 6550 5350 50  0001 C CNN
F 3 "" H 6550 5350 50  0001 C CNN
	1    6550 5350
	1    0    0    -1  
$EndComp
Wire Wire Line
	6550 5350 6550 5300
Wire Wire Line
	5900 5350 5900 5300
Wire Wire Line
	7500 5000 7500 3950
Wire Wire Line
	6550 5000 7500 5000
$Comp
L Device:R_POT RV11
U 1 1 5B8F1C6F
P 5350 3250
F 0 "RV11" H 5280 3296 50  0000 R CNN
F 1 "R_POT" H 5280 3205 50  0000 R CNN
F 2 "Potentiometer_SMD:Potentiometer_Bourns_3314J_Vertical" H 5350 3250 50  0001 C CNN
F 3 "~" H 5350 3250 50  0001 C CNN
	1    5350 3250
	-1   0    0    -1  
$EndComp
$Comp
L Device:R_POT RV21
U 1 1 5B8F1CBB
P 5750 4050
F 0 "RV21" H 5680 4096 50  0000 R CNN
F 1 "R_POT" H 5680 4005 50  0000 R CNN
F 2 "Potentiometer_SMD:Potentiometer_Bourns_3314J_Vertical" H 5750 4050 50  0001 C CNN
F 3 "~" H 5750 4050 50  0001 C CNN
	1    5750 4050
	-1   0    0    1   
$EndComp
$Comp
L Device:R R21
U 1 1 5B8F20AF
P 4850 4200
F 0 "R21" H 4920 4246 50  0000 L CNN
F 1 "50R" H 4920 4155 50  0000 L CNN
F 2 "Resistor_THT:R_Axial_Power_L25.0mm_W9.0mm_P27.94mm" V 4780 4200 50  0001 C CNN
F 3 "~" H 4850 4200 50  0001 C CNN
	1    4850 4200
	1    0    0    -1  
$EndComp
$Comp
L Device:R R22
U 1 1 5B8F2123
P 5300 4050
F 0 "R22" V 5093 4050 50  0000 C CNN
F 1 "1K5" V 5184 4050 50  0000 C CNN
F 2 "Resistor_SMD:R_0603_1608Metric_Pad1.05x0.95mm_HandSolder" V 5230 4050 50  0001 C CNN
F 3 "~" H 5300 4050 50  0001 C CNN
	1    5300 4050
	0    1    1    0   
$EndComp
$Comp
L mixer-rescue:GND- #PWR0107
U 1 1 5B8F2173
P 4850 4400
F 0 "#PWR0107" H 4850 4150 50  0001 C CNN
F 1 "GND" H 4850 4250 50  0000 C CNN
F 2 "" H 4850 4400 50  0001 C CNN
F 3 "" H 4850 4400 50  0001 C CNN
	1    4850 4400
	1    0    0    -1  
$EndComp
$Comp
L mixer-rescue:GND- #PWR0108
U 1 1 5B8F2194
P 5750 4250
F 0 "#PWR0108" H 5750 4000 50  0001 C CNN
F 1 "GND" H 5750 4100 50  0000 C CNN
F 2 "" H 5750 4250 50  0001 C CNN
F 3 "" H 5750 4250 50  0001 C CNN
	1    5750 4250
	1    0    0    -1  
$EndComp
$Comp
L mixer-rescue:GND- #PWR0109
U 1 1 5B8F2A88
P 5350 3450
F 0 "#PWR0109" H 5350 3200 50  0001 C CNN
F 1 "GND" H 5350 3300 50  0000 C CNN
F 2 "" H 5350 3450 50  0001 C CNN
F 3 "" H 5350 3450 50  0001 C CNN
	1    5350 3450
	1    0    0    -1  
$EndComp
Wire Wire Line
	4850 4400 4850 4350
Wire Wire Line
	4650 4050 4850 4050
Wire Wire Line
	5450 4050 5600 4050
Wire Wire Line
	5750 4250 5750 4200
Wire Wire Line
	5350 3450 5350 3400
Wire Wire Line
	7100 3550 6900 3550
Wire Wire Line
	5750 3900 5750 3650
Wire Wire Line
	5750 3650 5900 3650
Wire Wire Line
	5750 3100 5350 3100
Wire Wire Line
	5200 3250 4700 3250
Text GLabel 4200 1950 2    50   Input ~ 0
RX_mix
Text GLabel 2750 1950 0    50   Input ~ 0
RX_E
Text GLabel 2750 2150 0    50   Input ~ 0
TX_E
Text GLabel 4200 2150 2    50   Input ~ 0
TX_mix
Text GLabel 2800 2050 0    50   Input ~ 0
Entree
Text GLabel 4200 2050 2    50   Input ~ 0
Mixer
Wire Wire Line
	2750 1950 2900 1950
Wire Wire Line
	2750 2150 2900 2150
Wire Wire Line
	2900 2050 2800 2050
Text GLabel 3500 3600 2    50   Input ~ 0
Entree
Text GLabel 6900 3550 0    50   Input ~ 0
Mixer
Text GLabel 4700 3250 0    50   Input ~ 0
RX_E
Text GLabel 4650 4050 0    50   Input ~ 0
TX_E
Connection ~ 4850 4050
Wire Wire Line
	4850 4050 5150 4050
Text GLabel 5750 3100 2    50   Input ~ 0
RX_mix
Text GLabel 5900 3650 2    50   Input ~ 0
TX_mix
$Comp
L Regulator_Linear:AMS1117-5.0 U2
U 1 1 5B8F0685
P 1900 1050
F 0 "U2" H 1900 1292 50  0000 C CNN
F 1 "AMS1117-5.0" H 1900 1201 50  0000 C CNN
F 2 "Package_TO_SOT_SMD:SOT-223-3_TabPin2" H 1900 1250 50  0001 C CNN
F 3 "http://www.advanced-monolithic.com/pdf/ds1117.pdf" H 2000 800 50  0001 C CNN
	1    1900 1050
	1    0    0    -1  
$EndComp
$Comp
L power:GND #PWR0110
U 1 1 5B8F0873
P 1900 1450
F 0 "#PWR0110" H 1900 1200 50  0001 C CNN
F 1 "GND" H 1905 1277 50  0000 C CNN
F 2 "" H 1900 1450 50  0001 C CNN
F 3 "" H 1900 1450 50  0001 C CNN
	1    1900 1450
	1    0    0    -1  
$EndComp
$Comp
L Connector:Conn_01x01_Male J4
U 1 1 5B8F0924
P 1050 1050
F 0 "J4" H 1156 1228 50  0000 C CNN
F 1 "Conn_01x01_Male" H 1156 1137 50  0000 C CNN
F 2 "TestPoint:TestPoint_Pad_4.0x4.0mm" H 1050 1050 50  0001 C CNN
F 3 "~" H 1050 1050 50  0001 C CNN
	1    1050 1050
	1    0    0    -1  
$EndComp
Wire Wire Line
	1250 1050 1450 1050
Wire Wire Line
	1900 1350 1900 1450
Wire Wire Line
	2200 1050 2450 1050
Wire Wire Line
	2850 1050 2850 1450
Wire Wire Line
	2850 1450 3150 1450
$Comp
L Device:C C41
U 1 1 5B8F291F
P 1450 1200
F 0 "C41" H 1565 1246 50  0000 L CNN
F 1 "C" H 1565 1155 50  0000 L CNN
F 2 "Capacitor_SMD:C_0603_1608Metric_Pad1.05x0.95mm_HandSolder" H 1488 1050 50  0001 C CNN
F 3 "~" H 1450 1200 50  0001 C CNN
	1    1450 1200
	1    0    0    -1  
$EndComp
Connection ~ 1450 1050
Wire Wire Line
	1450 1050 1600 1050
$Comp
L Device:C C42
U 1 1 5B8F2994
P 2450 1200
F 0 "C42" H 2565 1246 50  0000 L CNN
F 1 "C" H 2565 1155 50  0000 L CNN
F 2 "Capacitor_SMD:C_0603_1608Metric_Pad1.05x0.95mm_HandSolder" H 2488 1050 50  0001 C CNN
F 3 "~" H 2450 1200 50  0001 C CNN
	1    2450 1200
	1    0    0    -1  
$EndComp
Connection ~ 2450 1050
Wire Wire Line
	2450 1050 2850 1050
$Comp
L power:GND #PWR0111
U 1 1 5B8F29D8
P 1450 1500
F 0 "#PWR0111" H 1450 1250 50  0001 C CNN
F 1 "GND" H 1455 1327 50  0000 C CNN
F 2 "" H 1450 1500 50  0001 C CNN
F 3 "" H 1450 1500 50  0001 C CNN
	1    1450 1500
	1    0    0    -1  
$EndComp
$Comp
L power:GND #PWR0112
U 1 1 5B8F2A03
P 2450 1500
F 0 "#PWR0112" H 2450 1250 50  0001 C CNN
F 1 "GND" H 2455 1327 50  0000 C CNN
F 2 "" H 2450 1500 50  0001 C CNN
F 3 "" H 2450 1500 50  0001 C CNN
	1    2450 1500
	1    0    0    -1  
$EndComp
Wire Wire Line
	2450 1500 2450 1350
Wire Wire Line
	1450 1500 1450 1350
$Comp
L Connector:Conn_01x01_Male J5
U 1 1 5B8F7C45
P 4200 1450
F 0 "J5" H 4173 1380 50  0000 R CNN
F 1 "Conn_01x01_Male" H 4173 1471 50  0000 R CNN
F 2 "TestPoint:TestPoint_Pad_4.0x4.0mm" H 4200 1450 50  0001 C CNN
F 3 "~" H 4200 1450 50  0001 C CNN
	1    4200 1450
	-1   0    0    1   
$EndComp
$Comp
L tq2-5v:TQ2-5V U3
U 1 1 5B91C41D
P 3400 1950
F 0 "U3" V 3830 1850 60  0000 C CNN
F 1 "TQ2-5V" V 3936 1850 60  0000 C CNN
F 2 "lib_kicad:TQ2-5V" H 3400 1950 60  0001 C CNN
F 3 "" H 3400 1950 60  0001 C CNN
	1    3400 1950
	0    -1   1    0   
$EndComp
Wire Wire Line
	4200 2050 4100 2050
Wire Wire Line
	4200 2150 4100 2150
Wire Wire Line
	4200 1950 4100 1950
Wire Wire Line
	3350 1450 3450 1450
$Comp
L Diode:LL4148 D1
U 1 1 5BAA9CD0
P 3300 1250
F 0 "D1" H 3300 1466 50  0000 C CNN
F 1 "LL4148" H 3300 1375 50  0000 C CNN
F 2 "Diode_SMD:D_MiniMELF" H 3300 1075 50  0001 C CNN
F 3 "http://www.vishay.com/docs/85557/ll4148.pdf" H 3300 1250 50  0001 C CNN
	1    3300 1250
	1    0    0    -1  
$EndComp
Wire Wire Line
	3150 1250 3150 1450
Connection ~ 3150 1450
Wire Wire Line
	3150 1450 3250 1450
Wire Wire Line
	3450 1250 3450 1450
Connection ~ 3450 1450
Wire Wire Line
	3450 1450 4000 1450
$Comp
L Diode:LL4148 D51
U 1 1 5BAABC72
P 1750 5150
F 0 "D51" H 1750 4934 50  0000 C CNN
F 1 "LL4148" H 1750 5025 50  0000 C CNN
F 2 "Diode_SMD:D_MiniMELF" H 1750 4975 50  0001 C CNN
F 3 "http://www.vishay.com/docs/85557/ll4148.pdf" H 1750 5150 50  0001 C CNN
	1    1750 5150
	-1   0    0    1   
$EndComp
Text GLabel 1500 5150 0    50   Input ~ 0
Entree
Wire Wire Line
	1500 5150 1600 5150
$Comp
L Device:C C51
U 1 1 5BAB0570
P 1950 5350
F 0 "C51" H 2065 5396 50  0000 L CNN
F 1 "10p" H 2065 5305 50  0000 L CNN
F 2 "Capacitor_SMD:C_0603_1608Metric_Pad1.05x0.95mm_HandSolder" H 1988 5200 50  0001 C CNN
F 3 "~" H 1950 5350 50  0001 C CNN
	1    1950 5350
	1    0    0    -1  
$EndComp
$Comp
L Device:C C52
U 1 1 5BAB05BC
P 2350 5350
F 0 "C52" H 2465 5396 50  0000 L CNN
F 1 "4u7" H 2465 5305 50  0000 L CNN
F 2 "Capacitor_SMD:C_0603_1608Metric_Pad1.05x0.95mm_HandSolder" H 2388 5200 50  0001 C CNN
F 3 "~" H 2350 5350 50  0001 C CNN
	1    2350 5350
	1    0    0    -1  
$EndComp
$Comp
L power:GND #PWR01
U 1 1 5BAB09EA
P 1950 5550
F 0 "#PWR01" H 1950 5300 50  0001 C CNN
F 1 "GND" H 1955 5377 50  0000 C CNN
F 2 "" H 1950 5550 50  0001 C CNN
F 3 "" H 1950 5550 50  0001 C CNN
	1    1950 5550
	1    0    0    -1  
$EndComp
$Comp
L power:GND #PWR02
U 1 1 5BAB0A4B
P 2350 5550
F 0 "#PWR02" H 2350 5300 50  0001 C CNN
F 1 "GND" H 2355 5377 50  0000 C CNN
F 2 "" H 2350 5550 50  0001 C CNN
F 3 "" H 2350 5550 50  0001 C CNN
	1    2350 5550
	1    0    0    -1  
$EndComp
Wire Wire Line
	1900 5150 1950 5150
Wire Wire Line
	1950 5550 1950 5500
Wire Wire Line
	2350 5550 2350 5500
Wire Wire Line
	2350 5200 2350 5150
Connection ~ 2350 5150
Wire Wire Line
	2350 5150 2550 5150
Wire Wire Line
	1950 5200 1950 5150
Connection ~ 1950 5150
Wire Wire Line
	1950 5150 2350 5150
$Comp
L Device:R R51
U 1 1 5BAB8337
P 2700 5150
F 0 "R51" V 2493 5150 50  0000 C CNN
F 1 "10k" V 2584 5150 50  0000 C CNN
F 2 "Resistor_SMD:R_0603_1608Metric_Pad1.05x0.95mm_HandSolder" V 2630 5150 50  0001 C CNN
F 3 "~" H 2700 5150 50  0001 C CNN
	1    2700 5150
	0    1    1    0   
$EndComp
Wire Wire Line
	2850 5150 3050 5150
$Comp
L Connector:Conn_01x01_Male J51
U 1 1 5BABD061
P 3250 5150
F 0 "J51" H 3223 5080 50  0000 R CNN
F 1 "Conn_01x01_Male" H 3223 5171 50  0000 R CNN
F 2 "TestPoint:TestPoint_Pad_4.0x4.0mm" H 3250 5150 50  0001 C CNN
F 3 "~" H 3250 5150 50  0001 C CNN
	1    3250 5150
	-1   0    0    1   
$EndComp
$Comp
L Device:C C61
U 1 1 5C16D569
P 3200 3600
F 0 "C61" V 2948 3600 50  0000 C CNN
F 1 "1n" V 3039 3600 50  0000 C CNN
F 2 "Capacitor_SMD:C_0603_1608Metric_Pad1.05x0.95mm_HandSolder" H 3238 3450 50  0001 C CNN
F 3 "~" H 3200 3600 50  0001 C CNN
	1    3200 3600
	0    1    1    0   
$EndComp
Wire Wire Line
	3050 3600 2900 3600
Wire Wire Line
	3350 3600 3500 3600
$Comp
L Device:C C62
U 1 1 5C171D4A
P 8300 3550
F 0 "C62" V 8048 3550 50  0000 C CNN
F 1 "100p" V 8139 3550 50  0000 C CNN
F 2 "Capacitor_SMD:C_0603_1608Metric_Pad1.05x0.95mm_HandSolder" H 8338 3400 50  0001 C CNN
F 3 "~" H 8300 3550 50  0001 C CNN
	1    8300 3550
	0    1    1    0   
$EndComp
Wire Wire Line
	8150 3550 7900 3550
$EndSCHEMATC
