EESchema Schematic File Version 2
LIBS:power
LIBS:device
LIBS:switches
LIBS:relays
LIBS:motors
LIBS:transistors
LIBS:conn
LIBS:linear
LIBS:regul
LIBS:74xx
LIBS:cmos4000
LIBS:adc-dac
LIBS:memory
LIBS:xilinx
LIBS:microcontrollers
LIBS:dsp
LIBS:microchip
LIBS:analog_switches
LIBS:motorola
LIBS:texas
LIBS:intel
LIBS:audio
LIBS:interface
LIBS:digital-audio
LIBS:philips
LIBS:display
LIBS:cypress
LIBS:siliconi
LIBS:opto
LIBS:atmel
LIBS:contrib
LIBS:valves
EELAYER 25 0
EELAYER END
$Descr A4 11693 8268
encoding utf-8
Sheet 1 1
Title ""
Date ""
Rev ""
Comp ""
Comment1 ""
Comment2 ""
Comment3 ""
Comment4 ""
$EndDescr
$Comp
L Conn_Coaxial J1
U 1 1 5AA99898
P 4350 3100
F 0 "J1" H 4360 3220 50  0000 C CNN
F 1 "Conn_Coaxial" V 4465 3100 50  0000 C CNN
F 2 "lib_kicad:SMA" H 4350 3100 50  0001 C CNN
F 3 "" H 4350 3100 50  0001 C CNN
	1    4350 3100
	-1   0    0    -1  
$EndComp
$Comp
L Conn_Coaxial J2
U 1 1 5AA998CB
P 5400 3100
F 0 "J2" H 5410 3220 50  0000 C CNN
F 1 "Conn_Coaxial" V 5515 3100 50  0000 C CNN
F 2 "lib_kicad:SMA" H 5400 3100 50  0001 C CNN
F 3 "" H 5400 3100 50  0001 C CNN
	1    5400 3100
	1    0    0    -1  
$EndComp
$Comp
L C C1
U 1 1 5AA99969
P 4650 3650
F 0 "C1" H 4675 3750 50  0000 L CNN
F 1 "C" H 4675 3550 50  0000 L CNN
F 2 "Capacitors_SMD:C_0603_HandSoldering" H 4688 3500 50  0001 C CNN
F 3 "" H 4650 3650 50  0001 C CNN
	1    4650 3650
	1    0    0    -1  
$EndComp
$Comp
L C C2
U 1 1 5AA999BF
P 5000 3650
F 0 "C2" H 5025 3750 50  0000 L CNN
F 1 "C" H 5025 3550 50  0000 L CNN
F 2 "Capacitors_SMD:C_0603_HandSoldering" H 5038 3500 50  0001 C CNN
F 3 "" H 5000 3650 50  0001 C CNN
	1    5000 3650
	1    0    0    -1  
$EndComp
$Comp
L GND #PWR01
U 1 1 5AA999E7
P 4650 2850
F 0 "#PWR01" H 4650 2600 50  0001 C CNN
F 1 "GND" H 4650 2700 50  0000 C CNN
F 2 "" H 4650 2850 50  0001 C CNN
F 3 "" H 4650 2850 50  0001 C CNN
	1    4650 2850
	-1   0    0    1   
$EndComp
$Comp
L GND #PWR02
U 1 1 5AA99A1F
P 5000 2850
F 0 "#PWR02" H 5000 2600 50  0001 C CNN
F 1 "GND" H 5000 2700 50  0000 C CNN
F 2 "" H 5000 2850 50  0001 C CNN
F 3 "" H 5000 2850 50  0001 C CNN
	1    5000 2850
	-1   0    0    1   
$EndComp
$Comp
L GND #PWR03
U 1 1 5AA99A36
P 5400 3300
F 0 "#PWR03" H 5400 3050 50  0001 C CNN
F 1 "GND" H 5400 3150 50  0000 C CNN
F 2 "" H 5400 3300 50  0001 C CNN
F 3 "" H 5400 3300 50  0001 C CNN
	1    5400 3300
	1    0    0    -1  
$EndComp
$Comp
L GND #PWR04
U 1 1 5AA99A5A
P 5000 3800
F 0 "#PWR04" H 5000 3550 50  0001 C CNN
F 1 "GND" H 5000 3650 50  0000 C CNN
F 2 "" H 5000 3800 50  0001 C CNN
F 3 "" H 5000 3800 50  0001 C CNN
	1    5000 3800
	1    0    0    -1  
$EndComp
$Comp
L GND #PWR05
U 1 1 5AA99A87
P 4650 3800
F 0 "#PWR05" H 4650 3550 50  0001 C CNN
F 1 "GND" H 4650 3650 50  0000 C CNN
F 2 "" H 4650 3800 50  0001 C CNN
F 3 "" H 4650 3800 50  0001 C CNN
	1    4650 3800
	1    0    0    -1  
$EndComp
$Comp
L GND #PWR06
U 1 1 5AA99A9E
P 4350 3300
F 0 "#PWR06" H 4350 3050 50  0001 C CNN
F 1 "GND" H 4350 3150 50  0000 C CNN
F 2 "" H 4350 3300 50  0001 C CNN
F 3 "" H 4350 3300 50  0001 C CNN
	1    4350 3300
	1    0    0    -1  
$EndComp
Wire Wire Line
	4650 3500 4650 2850
Wire Wire Line
	5000 2850 5000 3500
Wire Wire Line
	5250 3100 5000 3100
Connection ~ 5000 3100
Wire Wire Line
	4500 3100 4650 3100
Connection ~ 4650 3100
$EndSCHEMATC
