EESchema Schematic File Version 4
EELAYER 30 0
EELAYER END
$Descr A4 11693 8268
encoding utf-8
Sheet 1 1
Title ""
Date ""
Rev ""
Comp ""
Comment1 ""
Comment2 ""
Comment3 ""
Comment4 ""
$EndDescr
$Comp
L PTT-rescue:HRS2H-S-HRS2H-S U20
U 1 1 5CD8CE7B
P 7000 3400
F 0 "U20" H 7328 3446 50  0000 L CNN
F 1 "HRS2H-S" H 7328 3355 50  0000 L CNN
F 2 "Relay_THT:Relay_DPDT_Omron_G5V-2" H 7000 3400 50  0001 C CNN
F 3 "" H 7000 3400 50  0001 C CNN
	1    7000 3400
	1    0    0    -1  
$EndComp
$Comp
L Connector_Generic:Conn_01x05 J20
U 1 1 5CD8E1E6
P 1550 4900
F 0 "J20" H 1468 5317 50  0000 C CNN
F 1 "Conn_01x05" H 1468 5226 50  0000 C CNN
F 2 "Connector_PinHeader_2.54mm:PinHeader_1x05_P2.54mm_Vertical" H 1550 4900 50  0001 C CNN
F 3 "~" H 1550 4900 50  0001 C CNN
	1    1550 4900
	-1   0    0    -1  
$EndComp
Wire Wire Line
	1750 5000 2150 5000
Wire Wire Line
	1750 5100 1950 5100
Wire Wire Line
	1950 5100 1950 5400
$Comp
L power:GND #PWR0101
U 1 1 5CD8ED42
P 1950 5400
F 0 "#PWR0101" H 1950 5150 50  0001 C CNN
F 1 "GND" H 1955 5227 50  0000 C CNN
F 2 "" H 1950 5400 50  0001 C CNN
F 3 "" H 1950 5400 50  0001 C CNN
	1    1950 5400
	1    0    0    -1  
$EndComp
$Comp
L power:+8V #PWR0102
U 1 1 5CD8F393
P 6300 3050
F 0 "#PWR0102" H 6300 2900 50  0001 C CNN
F 1 "+8V" H 6315 3223 50  0000 C CNN
F 2 "" H 6300 3050 50  0001 C CNN
F 3 "" H 6300 3050 50  0001 C CNN
	1    6300 3050
	1    0    0    -1  
$EndComp
Wire Wire Line
	6300 3150 6450 3150
$Comp
L Regulator_Linear:AMS1117-5.0 U11
U 1 1 5CD8FAAC
P 3400 1350
F 0 "U11" H 3400 1592 50  0000 C CNN
F 1 "AMS1117-5.0" H 3400 1501 50  0000 C CNN
F 2 "Package_TO_SOT_SMD:SOT-223-3_TabPin2" H 3400 1550 50  0001 C CNN
F 3 "http://www.advanced-monolithic.com/pdf/ds1117.pdf" H 3500 1100 50  0001 C CNN
	1    3400 1350
	1    0    0    -1  
$EndComp
$Comp
L Regulator_Linear:L78L08_SOT89 U10
U 1 1 5CD907AF
P 2350 1350
F 0 "U10" H 2350 1592 50  0000 C CNN
F 1 "L78L08_SOT89" H 2350 1501 50  0000 C CNN
F 2 "Package_TO_SOT_SMD:SOT-89-3" H 2350 1550 50  0001 C CIN
F 3 "http://www.st.com/content/ccc/resource/technical/document/datasheet/15/55/e5/aa/23/5b/43/fd/CD00000446.pdf/files/CD00000446.pdf/jcr:content/translations/en.CD00000446.pdf" H 2350 1300 50  0001 C CNN
	1    2350 1350
	1    0    0    -1  
$EndComp
$Comp
L power:GND #PWR0103
U 1 1 5CD911BD
P 2350 1700
F 0 "#PWR0103" H 2350 1450 50  0001 C CNN
F 1 "GND" H 2355 1527 50  0000 C CNN
F 2 "" H 2350 1700 50  0001 C CNN
F 3 "" H 2350 1700 50  0001 C CNN
	1    2350 1700
	1    0    0    -1  
$EndComp
$Comp
L power:GND #PWR0104
U 1 1 5CD91296
P 3400 1700
F 0 "#PWR0104" H 3400 1450 50  0001 C CNN
F 1 "GND" H 3405 1527 50  0000 C CNN
F 2 "" H 3400 1700 50  0001 C CNN
F 3 "" H 3400 1700 50  0001 C CNN
	1    3400 1700
	1    0    0    -1  
$EndComp
Wire Wire Line
	2350 1700 2350 1650
Wire Wire Line
	3400 1700 3400 1650
Wire Wire Line
	2050 1350 1750 1350
Wire Wire Line
	3700 1350 4150 1350
$Comp
L power:+5V #PWR0105
U 1 1 5CD92125
P 4150 1250
F 0 "#PWR0105" H 4150 1100 50  0001 C CNN
F 1 "+5V" H 4165 1423 50  0000 C CNN
F 2 "" H 4150 1250 50  0001 C CNN
F 3 "" H 4150 1250 50  0001 C CNN
	1    4150 1250
	1    0    0    -1  
$EndComp
$Comp
L power:+8V #PWR0106
U 1 1 5CD92677
P 2850 1250
F 0 "#PWR0106" H 2850 1100 50  0001 C CNN
F 1 "+8V" H 2865 1423 50  0000 C CNN
F 2 "" H 2850 1250 50  0001 C CNN
F 3 "" H 2850 1250 50  0001 C CNN
	1    2850 1250
	1    0    0    -1  
$EndComp
$Comp
L power:+12V #PWR0107
U 1 1 5CD92AE8
P 1400 1250
F 0 "#PWR0107" H 1400 1100 50  0001 C CNN
F 1 "+12V" H 1415 1423 50  0000 C CNN
F 2 "" H 1400 1250 50  0001 C CNN
F 3 "" H 1400 1250 50  0001 C CNN
	1    1400 1250
	1    0    0    -1  
$EndComp
Wire Wire Line
	4150 1250 4150 1350
Wire Wire Line
	2650 1350 2850 1350
Wire Wire Line
	2850 1250 2850 1350
Connection ~ 2850 1350
Wire Wire Line
	2850 1350 3100 1350
Wire Wire Line
	1400 1250 1400 1350
$Comp
L Device:C C10
U 1 1 5CD93E0F
P 1750 1500
F 0 "C10" H 1865 1546 50  0000 L CNN
F 1 "1u" H 1865 1455 50  0000 L CNN
F 2 "Capacitor_THT:C_Radial_D5.0mm_H5.0mm_P2.00mm" H 1788 1350 50  0001 C CNN
F 3 "~" H 1750 1500 50  0001 C CNN
	1    1750 1500
	1    0    0    -1  
$EndComp
Connection ~ 1750 1350
Wire Wire Line
	1750 1350 1400 1350
$Comp
L Device:C C11
U 1 1 5CD94034
P 2850 1500
F 0 "C11" H 2965 1546 50  0000 L CNN
F 1 "1u" H 2965 1455 50  0000 L CNN
F 2 "Capacitor_THT:C_Radial_D5.0mm_H5.0mm_P2.00mm" H 2888 1350 50  0001 C CNN
F 3 "~" H 2850 1500 50  0001 C CNN
	1    2850 1500
	1    0    0    -1  
$EndComp
$Comp
L Device:C C12
U 1 1 5CD94364
P 4150 1500
F 0 "C12" H 4265 1546 50  0000 L CNN
F 1 "1u" H 4265 1455 50  0000 L CNN
F 2 "Capacitor_THT:C_Radial_D5.0mm_H5.0mm_P2.00mm" H 4188 1350 50  0001 C CNN
F 3 "~" H 4150 1500 50  0001 C CNN
	1    4150 1500
	1    0    0    -1  
$EndComp
Connection ~ 4150 1350
$Comp
L power:GND #PWR0108
U 1 1 5CD945DC
P 1750 1650
F 0 "#PWR0108" H 1750 1400 50  0001 C CNN
F 1 "GND" H 1755 1477 50  0000 C CNN
F 2 "" H 1750 1650 50  0001 C CNN
F 3 "" H 1750 1650 50  0001 C CNN
	1    1750 1650
	1    0    0    -1  
$EndComp
$Comp
L power:GND #PWR0109
U 1 1 5CD9475A
P 2850 1650
F 0 "#PWR0109" H 2850 1400 50  0001 C CNN
F 1 "GND" H 2855 1477 50  0000 C CNN
F 2 "" H 2850 1650 50  0001 C CNN
F 3 "" H 2850 1650 50  0001 C CNN
	1    2850 1650
	1    0    0    -1  
$EndComp
$Comp
L power:GND #PWR0110
U 1 1 5CD949E8
P 4150 1650
F 0 "#PWR0110" H 4150 1400 50  0001 C CNN
F 1 "GND" H 4155 1477 50  0000 C CNN
F 2 "" H 4150 1650 50  0001 C CNN
F 3 "" H 4150 1650 50  0001 C CNN
	1    4150 1650
	1    0    0    -1  
$EndComp
Text GLabel 7000 2450 1    50   Input ~ 0
COM_TRX
$Comp
L power:+5V #PWR0111
U 1 1 5CD9A014
P 7200 2800
F 0 "#PWR0111" H 7200 2650 50  0001 C CNN
F 1 "+5V" H 7215 2973 50  0000 C CNN
F 2 "" H 7200 2800 50  0001 C CNN
F 3 "" H 7200 2800 50  0001 C CNN
	1    7200 2800
	1    0    0    -1  
$EndComp
$Comp
L power:GND #PWR0112
U 1 1 5CD9A3F7
P 7100 2650
F 0 "#PWR0112" H 7100 2400 50  0001 C CNN
F 1 "GND" H 7105 2477 50  0000 C CNN
F 2 "" H 7100 2650 50  0001 C CNN
F 3 "" H 7100 2650 50  0001 C CNN
	1    7100 2650
	-1   0    0    1   
$EndComp
Wire Wire Line
	7000 2450 7000 2800
Wire Wire Line
	7100 2800 7100 2650
Wire Wire Line
	7100 4000 7100 4300
Wire Wire Line
	7100 4300 7400 4300
Wire Wire Line
	7200 4000 7200 4150
Wire Wire Line
	7200 4150 7400 4150
Text GLabel 7400 4300 2    50   Input ~ 0
RX
Text GLabel 7400 4150 2    50   Input ~ 0
TX
Wire Wire Line
	7000 4300 7000 4000
Text GLabel 2150 5000 2    50   Input ~ 0
TX_GND_817
Text GLabel 5750 3450 0    50   Input ~ 0
TX_GND_817
$Comp
L Connector_Generic:Conn_01x04 J24
U 1 1 5CDA466A
P 8950 2850
F 0 "J24" H 9030 2842 50  0000 L CNN
F 1 "Conn_01x04" H 9030 2751 50  0000 L CNN
F 2 "Connector_PinHeader_2.54mm:PinHeader_1x04_P2.54mm_Vertical" H 8950 2850 50  0001 C CNN
F 3 "~" H 8950 2850 50  0001 C CNN
	1    8950 2850
	1    0    0    -1  
$EndComp
Text GLabel 8750 2750 0    50   Input ~ 0
COM_TRX
Text GLabel 8750 2850 0    50   Input ~ 0
RX
Text GLabel 8750 2950 0    50   Input ~ 0
TX
$Comp
L power:GND #PWR0114
U 1 1 5CDA5118
P 8750 3050
F 0 "#PWR0114" H 8750 2800 50  0001 C CNN
F 1 "GND" H 8755 2877 50  0000 C CNN
F 2 "" H 8750 3050 50  0001 C CNN
F 3 "" H 8750 3050 50  0001 C CNN
	1    8750 3050
	1    0    0    -1  
$EndComp
$Comp
L Diode:1N4148 D1
U 1 1 5CDA624E
P 5950 3300
F 0 "D1" V 5904 3379 50  0000 L CNN
F 1 "1N4148" V 5995 3379 50  0000 L CNN
F 2 "Diode_THT:D_DO-35_SOD27_P7.62mm_Horizontal" H 5950 3125 50  0001 C CNN
F 3 "https://assets.nexperia.com/documents/data-sheet/1N4148_1N4448.pdf" H 5950 3300 50  0001 C CNN
	1    5950 3300
	0    1    1    0   
$EndComp
Wire Wire Line
	5750 3450 5950 3450
Wire Wire Line
	5950 3450 6450 3450
Connection ~ 5950 3450
Wire Wire Line
	5950 3150 6300 3150
Connection ~ 6300 3150
Wire Wire Line
	6300 3050 6300 3150
Wire Wire Line
	6450 3250 6450 3450
Text GLabel 2150 4900 2    50   Input ~ 0
TX_HIN_817
Text GLabel 2150 4800 2    50   Input ~ 0
UART_TX_817
Text GLabel 2150 4700 2    50   Input ~ 0
UART_RX_817
Wire Wire Line
	1750 4700 2150 4700
Wire Wire Line
	2150 4900 1750 4900
Wire Wire Line
	1750 4800 2150 4800
$Comp
L power:GND #PWR0115
U 1 1 5CDAE319
P 5100 6850
F 0 "#PWR0115" H 5100 6600 50  0001 C CNN
F 1 "GND" H 5105 6677 50  0000 C CNN
F 2 "" H 5100 6850 50  0001 C CNN
F 3 "" H 5100 6850 50  0001 C CNN
	1    5100 6850
	1    0    0    -1  
$EndComp
Wire Wire Line
	5100 6850 5100 6650
Wire Wire Line
	5300 4450 5300 4350
$Comp
L power:+5V #PWR0116
U 1 1 5CDAFFC1
P 5300 4350
F 0 "#PWR0116" H 5300 4200 50  0001 C CNN
F 1 "+5V" H 5315 4523 50  0000 C CNN
F 2 "" H 5300 4350 50  0001 C CNN
F 3 "" H 5300 4350 50  0001 C CNN
	1    5300 4350
	1    0    0    -1  
$EndComp
Text GLabel 3750 4550 0    50   Input ~ 0
TX_GND_817
Text GLabel 3750 4650 0    50   Input ~ 0
TX_HIN_817
$Comp
L PTT-rescue:Arduino_UNO_R2-MCU_Module A21
U 1 1 5CDB22CC
P 5100 5450
F 0 "A21" H 5100 6631 50  0000 C CNN
F 1 "Arduino_UNO_R2" H 5100 6540 50  0000 C CNN
F 2 "Module:Arduino_UNO_R2" H 5250 4400 50  0001 L CNN
F 3 "https://www.arduino.cc/en/Main/arduinoBoardUno" H 4900 6500 50  0001 C CNN
	1    5100 5450
	1    0    0    -1  
$EndComp
Wire Wire Line
	5200 6550 5200 6650
Wire Wire Line
	5200 6650 5100 6650
Connection ~ 5100 6650
Wire Wire Line
	5100 6650 5100 6550
Wire Wire Line
	5100 6650 5000 6650
Wire Wire Line
	5000 6650 5000 6550
$Comp
L Connector_Generic:Conn_01x02 J10
U 1 1 5CDB52FE
P 1050 1350
F 0 "J10" H 968 1567 50  0000 C CNN
F 1 "Conn_01x02" H 968 1476 50  0000 C CNN
F 2 "Connector_PinHeader_2.54mm:PinHeader_1x02_P2.54mm_Vertical" H 1050 1350 50  0001 C CNN
F 3 "~" H 1050 1350 50  0001 C CNN
	1    1050 1350
	-1   0    0    -1  
$EndComp
Wire Wire Line
	1250 1350 1400 1350
Connection ~ 1400 1350
$Comp
L power:GND #PWR0117
U 1 1 5CDB662D
P 1350 1550
F 0 "#PWR0117" H 1350 1300 50  0001 C CNN
F 1 "GND" H 1355 1377 50  0000 C CNN
F 2 "" H 1350 1550 50  0001 C CNN
F 3 "" H 1350 1550 50  0001 C CNN
	1    1350 1550
	1    0    0    -1  
$EndComp
Wire Wire Line
	1250 1450 1350 1450
Wire Wire Line
	1350 1450 1350 1550
$Comp
L power:+12V #PWR0113
U 1 1 5CDBD7D8
P 7000 4300
F 0 "#PWR0113" H 7000 4150 50  0001 C CNN
F 1 "+12V" H 7015 4473 50  0000 C CNN
F 2 "" H 7000 4300 50  0001 C CNN
F 3 "" H 7000 4300 50  0001 C CNN
	1    7000 4300
	-1   0    0    1   
$EndComp
$Comp
L Connector_Generic:Conn_01x08 J21
U 1 1 5CE1A723
P 4100 5150
F 0 "J21" H 4018 5667 50  0000 C CNN
F 1 "Conn_01x08" H 4018 5576 50  0000 C CNN
F 2 "Connector_PinHeader_2.54mm:PinHeader_1x08_P2.54mm_Vertical" H 4100 5150 50  0001 C CNN
F 3 "~" H 4100 5150 50  0001 C CNN
	1    4100 5150
	-1   0    0    -1  
$EndComp
Wire Wire Line
	4300 4850 4600 4850
Wire Wire Line
	4600 4950 4550 4950
Wire Wire Line
	4300 5050 4450 5050
Wire Wire Line
	4600 5150 4300 5150
Wire Wire Line
	4300 5250 4350 5250
Wire Wire Line
	4600 5350 4300 5350
Wire Wire Line
	4300 5450 4600 5450
Wire Wire Line
	4600 5550 4300 5550
Wire Wire Line
	4450 4550 4450 5050
Wire Wire Line
	3750 4550 4450 4550
Connection ~ 4450 5050
Wire Wire Line
	4450 5050 4600 5050
Wire Wire Line
	4350 4650 4350 5250
Wire Wire Line
	3750 4650 4350 4650
Connection ~ 4350 5250
Wire Wire Line
	4350 5250 4600 5250
$Comp
L Connector_Generic:Conn_01x07 J22
U 1 1 5CE25CE2
P 4100 5950
F 0 "J22" H 4018 6467 50  0000 C CNN
F 1 "Conn_01x07" H 4018 6376 50  0000 C CNN
F 2 "Connector_PinHeader_2.54mm:PinHeader_1x07_P2.54mm_Vertical" H 4100 5950 50  0001 C CNN
F 3 "~" H 4100 5950 50  0001 C CNN
	1    4100 5950
	-1   0    0    -1  
$EndComp
Wire Wire Line
	4300 5650 4600 5650
Wire Wire Line
	4600 5750 4300 5750
Wire Wire Line
	4300 5850 4600 5850
Wire Wire Line
	4600 5950 4300 5950
Wire Wire Line
	4300 6050 4600 6050
Wire Wire Line
	4600 6150 4300 6150
Wire Wire Line
	4300 6250 4300 6650
Wire Wire Line
	4300 6650 5000 6650
Connection ~ 5000 6650
$Comp
L Connector_Generic:Conn_01x06 J23
U 1 1 5CE2F6D5
P 6050 5650
F 0 "J23" H 6130 5642 50  0000 L CNN
F 1 "Conn_01x06" H 6130 5551 50  0000 L CNN
F 2 "Connector_PinHeader_2.54mm:PinHeader_1x06_P2.54mm_Vertical" H 6050 5650 50  0001 C CNN
F 3 "~" H 6050 5650 50  0001 C CNN
	1    6050 5650
	1    0    0    -1  
$EndComp
Wire Wire Line
	5600 5450 5850 5450
Wire Wire Line
	5600 5550 5850 5550
Wire Wire Line
	5600 5650 5850 5650
Wire Wire Line
	5600 5750 5850 5750
Wire Wire Line
	5600 5850 5850 5850
Wire Wire Line
	5600 5950 5850 5950
$Comp
L Connector_Generic:Conn_01x06 J11
U 1 1 5CE38497
P 5950 1100
F 0 "J11" V 5822 712 50  0000 R CNN
F 1 "Conn_01x06" V 5913 712 50  0000 R CNN
F 2 "Connector_PinHeader_2.54mm:PinHeader_1x06_P2.54mm_Vertical" H 5950 1100 50  0001 C CNN
F 3 "~" H 5950 1100 50  0001 C CNN
	1    5950 1100
	0    -1   1    0   
$EndComp
$Comp
L Connector_Generic:Conn_01x06 J12
U 1 1 5CE39FFD
P 5950 1450
F 0 "J12" V 5914 1062 50  0000 R CNN
F 1 "Conn_01x06" V 5823 1062 50  0000 R CNN
F 2 "Connector_PinHeader_2.54mm:PinHeader_1x06_P2.54mm_Vertical" H 5950 1450 50  0001 C CNN
F 3 "~" H 5950 1450 50  0001 C CNN
	1    5950 1450
	0    -1   -1   0   
$EndComp
$Comp
L power:+5V #PWR0118
U 1 1 5CE3D6A1
P 5750 850
F 0 "#PWR0118" H 5750 700 50  0001 C CNN
F 1 "+5V" H 5765 1023 50  0000 C CNN
F 2 "" H 5750 850 50  0001 C CNN
F 3 "" H 5750 850 50  0001 C CNN
	1    5750 850 
	1    0    0    -1  
$EndComp
Wire Wire Line
	5750 900  5750 850 
Wire Wire Line
	5750 900  5850 900 
Connection ~ 5750 900 
Wire Wire Line
	5850 900  5950 900 
Connection ~ 5850 900 
Wire Wire Line
	5950 900  6050 900 
Connection ~ 5950 900 
Wire Wire Line
	6150 900  6250 900 
Wire Wire Line
	6150 900  6050 900 
Connection ~ 6150 900 
Connection ~ 6050 900 
$Comp
L power:GND #PWR0119
U 1 1 5CE4761D
P 5750 1800
F 0 "#PWR0119" H 5750 1550 50  0001 C CNN
F 1 "GND" H 5755 1627 50  0000 C CNN
F 2 "" H 5750 1800 50  0001 C CNN
F 3 "" H 5750 1800 50  0001 C CNN
	1    5750 1800
	1    0    0    -1  
$EndComp
Wire Wire Line
	5750 1800 5750 1650
Wire Wire Line
	5750 1650 5850 1650
Connection ~ 5750 1650
Wire Wire Line
	5850 1650 5950 1650
Connection ~ 5850 1650
Wire Wire Line
	6150 1650 6250 1650
Wire Wire Line
	6150 1650 6050 1650
Connection ~ 6150 1650
Wire Wire Line
	6050 1650 5950 1650
Connection ~ 6050 1650
Connection ~ 5950 1650
Text GLabel 3750 4200 0    50   Input ~ 0
UART_RX_817
Text GLabel 3750 4300 0    50   Input ~ 0
UART_TX_817
Wire Wire Line
	3750 4200 4600 4200
Wire Wire Line
	4600 4200 4600 4850
Connection ~ 4600 4850
Wire Wire Line
	3750 4300 4550 4300
Wire Wire Line
	4550 4300 4550 4950
Connection ~ 4550 4950
Wire Wire Line
	4550 4950 4300 4950
$EndSCHEMATC
