EESchema Schematic File Version 2
LIBS:power
LIBS:device
LIBS:switches
LIBS:relays
LIBS:motors
LIBS:transistors
LIBS:conn
LIBS:linear
LIBS:regul
LIBS:74xx
LIBS:cmos4000
LIBS:adc-dac
LIBS:memory
LIBS:xilinx
LIBS:microcontrollers
LIBS:dsp
LIBS:microchip
LIBS:analog_switches
LIBS:motorola
LIBS:texas
LIBS:intel
LIBS:audio
LIBS:interface
LIBS:digital-audio
LIBS:philips
LIBS:display
LIBS:cypress
LIBS:siliconi
LIBS:opto
LIBS:atmel
LIBS:contrib
LIBS:valves
LIBS:tq2-5v
LIBS:sma
EELAYER 25 0
EELAYER END
$Descr A4 11693 8268
encoding utf-8
Sheet 1 1
Title ""
Date ""
Rev ""
Comp ""
Comment1 ""
Comment2 ""
Comment3 ""
Comment4 ""
$EndDescr
$Comp
L TQ2-5V U1
U 1 1 5B3E8544
P 5550 2800
F 0 "U1" H 5350 2600 60  0000 C CNN
F 1 "TQ2-5V" H 5450 2700 60  0000 C CNN
F 2 "lib_kicad:TQ2-5V" H 5550 2800 60  0001 C CNN
F 3 "" H 5550 2800 60  0001 C CNN
	1    5550 2800
	1    0    0    -1  
$EndComp
$Comp
L SMA J4
U 1 1 5B3E858C
P 5950 1650
F 0 "J4" H 6075 1965 60  0000 C CNN
F 1 "SMA" H 6140 1890 60  0000 C CNN
F 2 "lib_kicad:SMA" H 6125 1820 50  0000 C CNN
F 3 "" H 5950 1650 60  0001 C CNN
	1    5950 1650
	1    0    0    -1  
$EndComp
$Comp
L GND #PWR3
U 1 1 5B3E8673
P 5850 1650
F 0 "#PWR3" H 5850 1400 50  0001 C CNN
F 1 "GND" H 5850 1500 50  0000 C CNN
F 2 "" H 5850 1650 50  0001 C CNN
F 3 "" H 5850 1650 50  0001 C CNN
	1    5850 1650
	1    0    0    -1  
$EndComp
Wire Wire Line
	5850 1650 5850 1550
Wire Wire Line
	5850 1550 6000 1550
Connection ~ 5900 1550
Connection ~ 5950 1550
$Comp
L SMA J6
U 1 1 5B3E8740
P 6550 2550
F 0 "J6" H 6675 2865 60  0000 C CNN
F 1 "SMA" H 6740 2790 60  0000 C CNN
F 2 "lib_kicad:SMA" H 6725 2720 50  0000 C CNN
F 3 "" H 6550 2550 60  0001 C CNN
	1    6550 2550
	1    0    0    -1  
$EndComp
$Comp
L GND #PWR5
U 1 1 5B3E8746
P 6450 2550
F 0 "#PWR5" H 6450 2300 50  0001 C CNN
F 1 "GND" H 6450 2400 50  0000 C CNN
F 2 "" H 6450 2550 50  0001 C CNN
F 3 "" H 6450 2550 50  0001 C CNN
	1    6450 2550
	1    0    0    -1  
$EndComp
Wire Wire Line
	6450 2550 6450 2450
Wire Wire Line
	6450 2450 6600 2450
Connection ~ 6500 2450
Connection ~ 6550 2450
$Comp
L SMA J3
U 1 1 5B3E87C2
P 5200 2200
F 0 "J3" H 5325 2515 60  0000 C CNN
F 1 "SMA" H 5390 2440 60  0000 C CNN
F 2 "lib_kicad:SMA" H 5375 2370 50  0000 C CNN
F 3 "" H 5200 2200 60  0001 C CNN
	1    5200 2200
	-1   0    0    -1  
$EndComp
$Comp
L GND #PWR2
U 1 1 5B3E87C8
P 5300 2200
F 0 "#PWR2" H 5300 1950 50  0001 C CNN
F 1 "GND" H 5300 2050 50  0000 C CNN
F 2 "" H 5300 2200 50  0001 C CNN
F 3 "" H 5300 2200 50  0001 C CNN
	1    5300 2200
	-1   0    0    -1  
$EndComp
Wire Wire Line
	5300 2100 5300 2200
Wire Wire Line
	5150 2100 5300 2100
Connection ~ 5250 2100
Connection ~ 5200 2100
Wire Wire Line
	5350 1900 5550 1900
Wire Wire Line
	5550 1900 5550 2300
Wire Wire Line
	5650 2300 5650 1350
Wire Wire Line
	5650 1350 5800 1350
Wire Wire Line
	6400 2250 5750 2250
Wire Wire Line
	5750 2250 5750 2300
$Comp
L Conn_01x02 J1
U 1 1 5B3E889A
P 4550 2650
F 0 "J1" H 4550 2750 50  0000 C CNN
F 1 "Conn_01x02" H 4550 2450 50  0000 C CNN
F 2 "Pin_Headers:Pin_Header_Straight_1x02_Pitch2.54mm" H 4550 2650 50  0001 C CNN
F 3 "" H 4550 2650 50  0001 C CNN
	1    4550 2650
	-1   0    0    -1  
$EndComp
Wire Wire Line
	4750 2650 5050 2650
Wire Wire Line
	4750 2750 5050 2750
$Comp
L SMA J5
U 1 1 5B3E8C8D
P 5950 4150
F 0 "J5" H 6075 4465 60  0000 C CNN
F 1 "SMA" H 6140 4390 60  0000 C CNN
F 2 "lib_kicad:SMA" H 6125 4320 50  0000 C CNN
F 3 "" H 5950 4150 60  0001 C CNN
	1    5950 4150
	1    0    0    -1  
$EndComp
$Comp
L GND #PWR4
U 1 1 5B3E8C93
P 5850 4150
F 0 "#PWR4" H 5850 3900 50  0001 C CNN
F 1 "GND" H 5850 4000 50  0000 C CNN
F 2 "" H 5850 4150 50  0001 C CNN
F 3 "" H 5850 4150 50  0001 C CNN
	1    5850 4150
	1    0    0    -1  
$EndComp
Wire Wire Line
	5850 4150 5850 4050
Wire Wire Line
	5850 4050 6000 4050
Connection ~ 5900 4050
Connection ~ 5950 4050
$Comp
L SMA J7
U 1 1 5B3E8C9D
P 6550 3900
F 0 "J7" H 6675 4215 60  0000 C CNN
F 1 "SMA" H 6740 4140 60  0000 C CNN
F 2 "lib_kicad:SMA" H 6725 4070 50  0000 C CNN
F 3 "" H 6550 3900 60  0001 C CNN
	1    6550 3900
	1    0    0    -1  
$EndComp
$Comp
L GND #PWR6
U 1 1 5B3E8CA3
P 6450 3900
F 0 "#PWR6" H 6450 3650 50  0001 C CNN
F 1 "GND" H 6450 3750 50  0000 C CNN
F 2 "" H 6450 3900 50  0001 C CNN
F 3 "" H 6450 3900 50  0001 C CNN
	1    6450 3900
	1    0    0    -1  
$EndComp
Wire Wire Line
	6450 3900 6450 3800
Wire Wire Line
	6450 3800 6600 3800
Connection ~ 6500 3800
Connection ~ 6550 3800
$Comp
L SMA J2
U 1 1 5B3E8CAD
P 5000 3800
F 0 "J2" H 5125 4115 60  0000 C CNN
F 1 "SMA" H 5190 4040 60  0000 C CNN
F 2 "lib_kicad:SMA" H 5175 3970 50  0000 C CNN
F 3 "" H 5000 3800 60  0001 C CNN
	1    5000 3800
	-1   0    0    -1  
$EndComp
$Comp
L GND #PWR1
U 1 1 5B3E8CB3
P 5100 3800
F 0 "#PWR1" H 5100 3550 50  0001 C CNN
F 1 "GND" H 5100 3650 50  0000 C CNN
F 2 "" H 5100 3800 50  0001 C CNN
F 3 "" H 5100 3800 50  0001 C CNN
	1    5100 3800
	-1   0    0    -1  
$EndComp
Wire Wire Line
	5100 3700 5100 3800
Wire Wire Line
	4950 3700 5100 3700
Connection ~ 5050 3700
Connection ~ 5000 3700
Wire Wire Line
	5150 3500 5550 3500
Wire Wire Line
	5650 3850 5800 3850
Wire Wire Line
	5650 3500 5650 3850
Wire Wire Line
	5750 3500 5750 3600
Wire Wire Line
	5750 3600 6400 3600
$EndSCHEMATC
