EESchema Schematic File Version 2
LIBS:power
LIBS:device
LIBS:switches
LIBS:relays
LIBS:motors
LIBS:transistors
LIBS:conn
LIBS:linear
LIBS:regul
LIBS:74xx
LIBS:cmos4000
LIBS:adc-dac
LIBS:memory
LIBS:xilinx
LIBS:microcontrollers
LIBS:dsp
LIBS:microchip
LIBS:analog_switches
LIBS:motorola
LIBS:texas
LIBS:intel
LIBS:audio
LIBS:interface
LIBS:digital-audio
LIBS:philips
LIBS:display
LIBS:cypress
LIBS:siliconi
LIBS:opto
LIBS:atmel
LIBS:contrib
LIBS:valves
LIBS:sma
LIBS:era-5sm
LIBS:arduino_nano
LIBS:ams1117
LIBS:ADF4350-cache
EELAYER 25 0
EELAYER END
$Descr A4 11693 8268
encoding utf-8
Sheet 1 1
Title ""
Date ""
Rev ""
Comp ""
Comment1 ""
Comment2 ""
Comment3 ""
Comment4 ""
$EndDescr
$Comp
L R R6
U 1 1 5AD6615D
P 8700 1950
F 0 "R6" V 8780 1950 50  0000 C CNN
F 1 "1k" V 8700 1950 50  0000 C CNN
F 2 "Resistors_SMD:R_0603_HandSoldering" V 8630 1950 50  0001 C CNN
F 3 "" H 8700 1950 50  0001 C CNN
	1    8700 1950
	1    0    0    -1  
$EndComp
$Comp
L R R5
U 1 1 5AD661A4
P 8500 1950
F 0 "R5" V 8580 1950 50  0000 C CNN
F 1 "1k" V 8500 1950 50  0000 C CNN
F 2 "Resistors_SMD:R_0603_HandSoldering" V 8430 1950 50  0001 C CNN
F 3 "" H 8500 1950 50  0001 C CNN
	1    8500 1950
	1    0    0    -1  
$EndComp
$Comp
L R R4
U 1 1 5AD661CA
P 8300 1950
F 0 "R4" V 8380 1950 50  0000 C CNN
F 1 "1k" V 8300 1950 50  0000 C CNN
F 2 "Resistors_SMD:R_0603_HandSoldering" V 8230 1950 50  0001 C CNN
F 3 "" H 8300 1950 50  0001 C CNN
	1    8300 1950
	1    0    0    -1  
$EndComp
$Comp
L R R3
U 1 1 5AD66224
P 7950 1650
F 0 "R3" V 8030 1650 50  0000 C CNN
F 1 "470" V 7950 1650 50  0000 C CNN
F 2 "Resistors_SMD:R_0603_HandSoldering" V 7880 1650 50  0001 C CNN
F 3 "" H 7950 1650 50  0001 C CNN
	1    7950 1650
	0    1    1    0   
$EndComp
$Comp
L R R2
U 1 1 5AD6625D
P 7950 1450
F 0 "R2" V 8030 1450 50  0000 C CNN
F 1 "470" V 7950 1450 50  0000 C CNN
F 2 "Resistors_SMD:R_0603_HandSoldering" V 7880 1450 50  0001 C CNN
F 3 "" H 7950 1450 50  0001 C CNN
	1    7950 1450
	0    1    1    0   
$EndComp
$Comp
L R R1
U 1 1 5AD662B4
P 7950 1250
F 0 "R1" V 8030 1250 50  0000 C CNN
F 1 "470" V 7950 1250 50  0000 C CNN
F 2 "Resistors_SMD:R_0603_HandSoldering" V 7880 1250 50  0001 C CNN
F 3 "" H 7950 1250 50  0001 C CNN
	1    7950 1250
	0    1    1    0   
$EndComp
$Comp
L GND #PWR01
U 1 1 5AD663C1
P 8500 2400
F 0 "#PWR01" H 8500 2150 50  0001 C CNN
F 1 "GND" H 8500 2250 50  0000 C CNN
F 2 "" H 8500 2400 50  0001 C CNN
F 3 "" H 8500 2400 50  0001 C CNN
	1    8500 2400
	1    0    0    -1  
$EndComp
$Comp
L SMA J50
U 1 1 5AD664FC
P 6300 5200
F 0 "J50" H 6425 5515 60  0000 C CNN
F 1 "SMA" H 6490 5440 60  0000 C CNN
F 2 "lib_kicad:SMA" H 6475 5370 50  0000 C CNN
F 3 "" H 6300 5200 60  0001 C CNN
	1    6300 5200
	-1   0    0    -1  
$EndComp
$Comp
L ERA-5SM U50
U 1 1 5AD66540
P 7500 4900
F 0 "U50" H 7300 5100 60  0000 C CNN
F 1 "ERA-5SM" H 7250 4700 60  0000 C CNN
F 2 "lib_kicad:WW107" H 7500 4900 60  0001 C CNN
F 3 "" H 7500 4900 60  0001 C CNN
	1    7500 4900
	1    0    0    -1  
$EndComp
$Comp
L R R51
U 1 1 5AD66579
P 9000 5050
F 0 "R51" V 9080 5050 50  0000 C CNN
F 1 "R" V 9000 5050 50  0000 C CNN
F 2 "Resistors_SMD:R_0603_HandSoldering" V 8930 5050 50  0001 C CNN
F 3 "" H 9000 5050 50  0001 C CNN
	1    9000 5050
	1    0    0    -1  
$EndComp
$Comp
L R R53
U 1 1 5AD665D8
P 9550 5050
F 0 "R53" V 9630 5050 50  0000 C CNN
F 1 "R" V 9550 5050 50  0000 C CNN
F 2 "Resistors_SMD:R_0603_HandSoldering" V 9480 5050 50  0001 C CNN
F 3 "" H 9550 5050 50  0001 C CNN
	1    9550 5050
	1    0    0    -1  
$EndComp
$Comp
L R R52
U 1 1 5AD66613
P 9250 4900
F 0 "R52" V 9330 4900 50  0000 C CNN
F 1 "R" V 9250 4900 50  0000 C CNN
F 2 "Resistors_SMD:R_0603_HandSoldering" V 9180 4900 50  0001 C CNN
F 3 "" H 9250 4900 50  0001 C CNN
	1    9250 4900
	0    1    1    0   
$EndComp
$Comp
L SMA J51
U 1 1 5AD66657
P 10000 5200
F 0 "J51" H 10125 5515 60  0000 C CNN
F 1 "SMA" H 10190 5440 60  0000 C CNN
F 2 "lib_kicad:SMA" H 10175 5370 50  0000 C CNN
F 3 "" H 10000 5200 60  0001 C CNN
	1    10000 5200
	1    0    0    -1  
$EndComp
$Comp
L GND #PWR02
U 1 1 5AD666D5
P 10050 5200
F 0 "#PWR02" H 10050 4950 50  0001 C CNN
F 1 "GND" H 10050 5050 50  0000 C CNN
F 2 "" H 10050 5200 50  0001 C CNN
F 3 "" H 10050 5200 50  0001 C CNN
	1    10050 5200
	1    0    0    -1  
$EndComp
$Comp
L GND #PWR03
U 1 1 5AD6670E
P 9550 5300
F 0 "#PWR03" H 9550 5050 50  0001 C CNN
F 1 "GND" H 9550 5150 50  0000 C CNN
F 2 "" H 9550 5300 50  0001 C CNN
F 3 "" H 9550 5300 50  0001 C CNN
	1    9550 5300
	1    0    0    -1  
$EndComp
$Comp
L GND #PWR04
U 1 1 5AD66740
P 9000 5300
F 0 "#PWR04" H 9000 5050 50  0001 C CNN
F 1 "GND" H 9000 5150 50  0000 C CNN
F 2 "" H 9000 5300 50  0001 C CNN
F 3 "" H 9000 5300 50  0001 C CNN
	1    9000 5300
	1    0    0    -1  
$EndComp
$Comp
L GND #PWR05
U 1 1 5AD66772
P 7500 5500
F 0 "#PWR05" H 7500 5250 50  0001 C CNN
F 1 "GND" H 7500 5350 50  0000 C CNN
F 2 "" H 7500 5500 50  0001 C CNN
F 3 "" H 7500 5500 50  0001 C CNN
	1    7500 5500
	1    0    0    -1  
$EndComp
$Comp
L GND #PWR06
U 1 1 5AD667A4
P 7500 4300
F 0 "#PWR06" H 7500 4050 50  0001 C CNN
F 1 "GND" H 7500 4150 50  0000 C CNN
F 2 "" H 7500 4300 50  0001 C CNN
F 3 "" H 7500 4300 50  0001 C CNN
	1    7500 4300
	-1   0    0    1   
$EndComp
$Comp
L GND #PWR07
U 1 1 5AD667D6
P 6400 5200
F 0 "#PWR07" H 6400 4950 50  0001 C CNN
F 1 "GND" H 6400 5050 50  0000 C CNN
F 2 "" H 6400 5200 50  0001 C CNN
F 3 "" H 6400 5200 50  0001 C CNN
	1    6400 5200
	1    0    0    -1  
$EndComp
$Comp
L C C51
U 1 1 5AD6692E
P 8700 4900
F 0 "C51" H 8725 5000 50  0000 L CNN
F 1 "100p" H 8725 4800 50  0000 L CNN
F 2 "Capacitors_SMD:C_0603_HandSoldering" H 8738 4750 50  0001 C CNN
F 3 "" H 8700 4900 50  0001 C CNN
	1    8700 4900
	0    1    1    0   
$EndComp
$Comp
L Arduino_Nano U2
U 1 1 5ADFA443
P 4350 5750
F 0 "U2" H 4350 5750 60  0000 C CNN
F 1 "Arduino_Nano" H 4350 5650 60  0000 C CNN
F 2 "lib_kicad:Arduino_nano" H 4350 5750 60  0001 C CNN
F 3 "" H 4350 5750 60  0001 C CNN
	1    4350 5750
	1    0    0    -1  
$EndComp
Text Label 7400 1250 0    60   ~ 0
CLK
Text Label 7400 1450 0    60   ~ 0
DATA
Text Label 7400 1650 0    60   ~ 0
LE
Text Label 3700 6550 2    60   ~ 0
CLK
Text Label 3700 6350 2    60   ~ 0
DATA
Text Label 3700 5550 2    60   ~ 0
LE
$Comp
L +5V #PWR08
U 1 1 5ADFA787
P 4350 4400
F 0 "#PWR08" H 4350 4250 50  0001 C CNN
F 1 "+5V" H 4350 4540 50  0000 C CNN
F 2 "" H 4350 4400 50  0001 C CNN
F 3 "" H 4350 4400 50  0001 C CNN
	1    4350 4400
	1    0    0    -1  
$EndComp
$Comp
L +5V #PWR012
U 1 1 5ADFAEEB
P 5000 1300
F 0 "#PWR012" H 5000 1150 50  0001 C CNN
F 1 "+5V" H 5000 1440 50  0000 C CNN
F 2 "" H 5000 1300 50  0001 C CNN
F 3 "" H 5000 1300 50  0001 C CNN
	1    5000 1300
	1    0    0    -1  
$EndComp
$Comp
L +12V #PWR013
U 1 1 5ADFB019
P 1800 1100
F 0 "#PWR013" H 1800 950 50  0001 C CNN
F 1 "+12V" H 1800 1240 50  0000 C CNN
F 2 "" H 1800 1100 50  0001 C CNN
F 3 "" H 1800 1100 50  0001 C CNN
	1    1800 1100
	1    0    0    -1  
$EndComp
$Comp
L L7808 U1
U 1 1 5ADFB07D
P 2500 1300
F 0 "U1" H 2350 1425 50  0000 C CNN
F 1 "L7808" H 2500 1425 50  0000 L CNN
F 2 "TO_SOT_Packages_SMD:SOT-89-3_Handsoldering" H 2525 1150 50  0001 L CIN
F 3 "" H 2500 1250 50  0001 C CNN
	1    2500 1300
	1    0    0    -1  
$EndComp
$Comp
L C C1
U 1 1 5ADFB209
P 1800 1600
F 0 "C1" H 1825 1700 50  0000 L CNN
F 1 "10u" H 1825 1500 50  0000 L CNN
F 2 "Capacitors_SMD:C_0603_HandSoldering" H 1838 1450 50  0001 C CNN
F 3 "" H 1800 1600 50  0001 C CNN
	1    1800 1600
	1    0    0    -1  
$EndComp
$Comp
L C C2
U 1 1 5ADFB25B
P 2000 1600
F 0 "C2" H 2025 1700 50  0000 L CNN
F 1 "0.33u" H 2025 1500 50  0000 L CNN
F 2 "Capacitors_SMD:C_0603_HandSoldering" H 2038 1450 50  0001 C CNN
F 3 "" H 2000 1600 50  0001 C CNN
	1    2000 1600
	1    0    0    -1  
$EndComp
$Comp
L C C3
U 1 1 5ADFB2A5
P 2950 1550
F 0 "C3" H 2975 1650 50  0000 L CNN
F 1 "10u" H 2975 1450 50  0000 L CNN
F 2 "Capacitors_SMD:C_0603_HandSoldering" H 2988 1400 50  0001 C CNN
F 3 "" H 2950 1550 50  0001 C CNN
	1    2950 1550
	1    0    0    -1  
$EndComp
$Comp
L C C4
U 1 1 5ADFB302
P 3250 1550
F 0 "C4" H 3275 1650 50  0000 L CNN
F 1 "0.1u" H 3275 1450 50  0000 L CNN
F 2 "Capacitors_SMD:C_0603_HandSoldering" H 3288 1400 50  0001 C CNN
F 3 "" H 3250 1550 50  0001 C CNN
	1    3250 1550
	1    0    0    -1  
$EndComp
$Comp
L AMS1117 U3
U 1 1 5ADFB83C
P 3900 1300
F 0 "U3" H 3700 1050 60  0000 C CNN
F 1 "AMS1117" H 3850 1450 60  0000 C CNN
F 2 "TO_SOT_Packages_SMD:SOT-223-3Lead_TabPin2" H 3900 1300 60  0001 C CNN
F 3 "" H 3900 1300 60  0001 C CNN
	1    3900 1300
	1    0    0    -1  
$EndComp
$Comp
L C C5
U 1 1 5ADFBB68
P 4500 1550
F 0 "C5" H 4525 1650 50  0000 L CNN
F 1 "22u" H 4525 1450 50  0000 L CNN
F 2 "Capacitors_SMD:C_0603_HandSoldering" H 4538 1400 50  0001 C CNN
F 3 "" H 4500 1550 50  0001 C CNN
	1    4500 1550
	1    0    0    -1  
$EndComp
$Comp
L C C6
U 1 1 5ADFBB6E
P 4800 1550
F 0 "C6" H 4825 1650 50  0000 L CNN
F 1 "0.1u" H 4825 1450 50  0000 L CNN
F 2 "Capacitors_SMD:C_0603_HandSoldering" H 4838 1400 50  0001 C CNN
F 3 "" H 4800 1550 50  0001 C CNN
	1    4800 1550
	1    0    0    -1  
$EndComp
$Comp
L L L50
U 1 1 5ADFBD6C
P 8350 4700
F 0 "L50" V 8300 4700 50  0000 C CNN
F 1 "100nH" V 8425 4700 50  0000 C CNN
F 2 "Inductors_SMD:L_0603_HandSoldering" H 8350 4700 50  0001 C CNN
F 3 "" H 8350 4700 50  0001 C CNN
	1    8350 4700
	1    0    0    -1  
$EndComp
$Comp
L R R50
U 1 1 5ADFBDBB
P 8350 4350
F 0 "R50" V 8430 4350 50  0000 C CNN
F 1 "48R" V 8350 4350 50  0000 C CNN
F 2 "Resistors_SMD:R_0603_HandSoldering" V 8280 4350 50  0001 C CNN
F 3 "" H 8350 4350 50  0001 C CNN
	1    8350 4350
	1    0    0    -1  
$EndComp
$Comp
L +8V #PWR021
U 1 1 5ADFBEBB
P 3100 1200
F 0 "#PWR021" H 3100 1050 50  0001 C CNN
F 1 "+8V" H 3100 1340 50  0000 C CNN
F 2 "" H 3100 1200 50  0001 C CNN
F 3 "" H 3100 1200 50  0001 C CNN
	1    3100 1200
	1    0    0    -1  
$EndComp
$Comp
L +8V #PWR022
U 1 1 5ADFC047
P 8350 3600
F 0 "#PWR022" H 8350 3450 50  0001 C CNN
F 1 "+8V" H 8350 3740 50  0000 C CNN
F 2 "" H 8350 3600 50  0001 C CNN
F 3 "" H 8350 3600 50  0001 C CNN
	1    8350 3600
	1    0    0    -1  
$EndComp
$Comp
L SW_DIP_x05 SW1
U 1 1 5ADFC3FD
P 1200 5850
F 0 "SW1" H 1200 6200 50  0000 C CNN
F 1 "SW_DIP_x05" H 1200 5500 50  0000 C CNN
F 2 "Buttons_Switches_THT:SW_DIP_x5_W7.62mm_Slide" H 1200 5850 50  0001 C CNN
F 3 "" H 1200 5850 50  0001 C CNN
	1    1200 5850
	1    0    0    -1  
$EndComp
$Comp
L R R7
U 1 1 5ADFC992
P 1600 6350
F 0 "R7" V 1680 6350 50  0000 C CNN
F 1 "1k" V 1600 6350 50  0000 C CNN
F 2 "Resistors_SMD:R_0603_HandSoldering" V 1530 6350 50  0001 C CNN
F 3 "" H 1600 6350 50  0001 C CNN
	1    1600 6350
	1    0    0    -1  
$EndComp
$Comp
L R R8
U 1 1 5ADFC9FC
P 1700 6350
F 0 "R8" V 1780 6350 50  0000 C CNN
F 1 "1k" V 1700 6350 50  0000 C CNN
F 2 "Resistors_SMD:R_0603_HandSoldering" V 1630 6350 50  0001 C CNN
F 3 "" H 1700 6350 50  0001 C CNN
	1    1700 6350
	1    0    0    -1  
$EndComp
$Comp
L R R9
U 1 1 5ADFCA48
P 1800 6350
F 0 "R9" V 1880 6350 50  0000 C CNN
F 1 "1k" V 1800 6350 50  0000 C CNN
F 2 "Resistors_SMD:R_0603_HandSoldering" V 1730 6350 50  0001 C CNN
F 3 "" H 1800 6350 50  0001 C CNN
	1    1800 6350
	1    0    0    -1  
$EndComp
$Comp
L R R10
U 1 1 5ADFCAB8
P 1900 6350
F 0 "R10" V 1980 6350 50  0000 C CNN
F 1 "1k" V 1900 6350 50  0000 C CNN
F 2 "Resistors_SMD:R_0603_HandSoldering" V 1830 6350 50  0001 C CNN
F 3 "" H 1900 6350 50  0001 C CNN
	1    1900 6350
	1    0    0    -1  
$EndComp
$Comp
L R R11
U 1 1 5ADFCB30
P 2000 6350
F 0 "R11" V 2080 6350 50  0000 C CNN
F 1 "1k" V 2000 6350 50  0000 C CNN
F 2 "Resistors_SMD:R_0603_HandSoldering" V 1930 6350 50  0001 C CNN
F 3 "" H 2000 6350 50  0001 C CNN
	1    2000 6350
	1    0    0    -1  
$EndComp
$Comp
L +5V #PWR023
U 1 1 5ADFD12F
P 900 5350
F 0 "#PWR023" H 900 5200 50  0001 C CNN
F 1 "+5V" H 900 5490 50  0000 C CNN
F 2 "" H 900 5350 50  0001 C CNN
F 3 "" H 900 5350 50  0001 C CNN
	1    900  5350
	1    0    0    -1  
$EndComp
$Comp
L Conn_01x03 J3
U 1 1 5ADFD2F6
P 5750 6000
F 0 "J3" H 5750 6200 50  0000 C CNN
F 1 "TMP36" H 5750 5800 50  0000 C CNN
F 2 "Pin_Headers:Pin_Header_Straight_1x03_Pitch2.54mm" H 5750 6000 50  0001 C CNN
F 3 "" H 5750 6000 50  0001 C CNN
	1    5750 6000
	1    0    0    -1  
$EndComp
$Comp
L +5V #PWR026
U 1 1 5ADFD6ED
P 5550 5750
F 0 "#PWR026" H 5550 5600 50  0001 C CNN
F 1 "+5V" H 5550 5890 50  0000 C CNN
F 2 "" H 5550 5750 50  0001 C CNN
F 3 "" H 5550 5750 50  0001 C CNN
	1    5550 5750
	1    0    0    -1  
$EndComp
$Comp
L Conn_01x02 J1
U 1 1 5AE0E806
P 950 1300
F 0 "J1" H 950 1400 50  0000 C CNN
F 1 "Conn_01x02" H 950 1100 50  0000 C CNN
F 2 "Pin_Headers:Pin_Header_Straight_1x02_Pitch2.54mm" H 950 1300 50  0001 C CNN
F 3 "" H 950 1300 50  0001 C CNN
	1    950  1300
	-1   0    0    -1  
$EndComp
$Comp
L C C50
U 1 1 5AE0EBA1
P 6650 4900
F 0 "C50" H 6675 5000 50  0000 L CNN
F 1 "100p" H 6675 4800 50  0000 L CNN
F 2 "Capacitors_SMD:C_0603_HandSoldering" H 6688 4750 50  0001 C CNN
F 3 "" H 6650 4900 50  0001 C CNN
	1    6650 4900
	0    1    1    0   
$EndComp
$Comp
L Conn_02x05_Odd_Even J2
U 1 1 5AE0FF46
P 10100 1450
F 0 "J2" H 10150 1750 50  0000 C CNN
F 1 "Conn_02x05_Odd_Even" H 10150 1150 50  0000 C CNN
F 2 "lib_kicad:ADF4350_EVAL" H 10100 1450 50  0001 C CNN
F 3 "" H 10100 1450 50  0001 C CNN
	1    10100 1450
	1    0    0    -1  
$EndComp
$Comp
L +3.3V #PWR028
U 1 1 5AE10395
P 9900 2100
F 0 "#PWR028" H 9900 1950 50  0001 C CNN
F 1 "+3.3V" H 9900 2240 50  0000 C CNN
F 2 "" H 9900 2100 50  0001 C CNN
F 3 "" H 9900 2100 50  0001 C CNN
	1    9900 2100
	-1   0    0    1   
$EndComp
$Comp
L GND #PWR029
U 1 1 5AE11083
P 10400 1900
F 0 "#PWR029" H 10400 1650 50  0001 C CNN
F 1 "GND" H 10400 1750 50  0000 C CNN
F 2 "" H 10400 1900 50  0001 C CNN
F 3 "" H 10400 1900 50  0001 C CNN
	1    10400 1900
	1    0    0    -1  
$EndComp
$Comp
L C C54
U 1 1 5AE14620
P 8700 3650
F 0 "C54" H 8725 3750 50  0000 L CNN
F 1 "1n" H 8725 3550 50  0000 L CNN
F 2 "Capacitors_SMD:C_0603_HandSoldering" H 8738 3500 50  0001 C CNN
F 3 "" H 8700 3650 50  0001 C CNN
	1    8700 3650
	0    1    1    0   
$EndComp
$Comp
L C C53
U 1 1 5AE146B5
P 8700 3900
F 0 "C53" H 8725 4000 50  0000 L CNN
F 1 "100p" H 8725 3800 50  0000 L CNN
F 2 "Capacitors_SMD:C_0603_HandSoldering" H 8738 3750 50  0001 C CNN
F 3 "" H 8700 3900 50  0001 C CNN
	1    8700 3900
	0    1    1    0   
$EndComp
$Comp
L C C52
U 1 1 5AE14739
P 8700 4150
F 0 "C52" H 8725 4250 50  0000 L CNN
F 1 "10p" H 8725 4050 50  0000 L CNN
F 2 "Capacitors_SMD:C_0603_HandSoldering" H 8738 4000 50  0001 C CNN
F 3 "" H 8700 4150 50  0001 C CNN
	1    8700 4150
	0    1    1    0   
$EndComp
Wire Wire Line
	7800 1250 7400 1250
Wire Wire Line
	7800 1450 7400 1450
Wire Wire Line
	7800 1650 7400 1650
Wire Wire Line
	8100 1250 9650 1250
Wire Wire Line
	8100 1450 9900 1450
Wire Wire Line
	8100 1650 9650 1650
Wire Wire Line
	8300 1800 8300 1250
Connection ~ 8300 1250
Wire Wire Line
	8500 1800 8500 1450
Connection ~ 8500 1450
Wire Wire Line
	8700 1650 8700 1800
Connection ~ 8700 1650
Wire Wire Line
	8700 2400 8700 2100
Wire Wire Line
	8500 2100 8500 2400
Wire Wire Line
	8300 2100 8300 2400
Wire Wire Line
	8300 2400 8700 2400
Connection ~ 8500 2400
Wire Wire Line
	9650 1650 9650 2400
Wire Wire Line
	6250 5100 6400 5100
Connection ~ 6300 5100
Connection ~ 6350 5100
Wire Wire Line
	6400 5100 6400 5200
Wire Wire Line
	8200 4900 8550 4900
Wire Wire Line
	8850 4900 9100 4900
Connection ~ 9000 4900
Wire Wire Line
	9400 4900 9850 4900
Connection ~ 9550 4900
Wire Wire Line
	9550 5200 9550 5300
Wire Wire Line
	9000 5200 9000 5300
Wire Wire Line
	7500 4400 7500 4300
Wire Wire Line
	7500 5400 7500 5500
Wire Wire Line
	9900 5100 10050 5100
Connection ~ 9950 5100
Connection ~ 10000 5100
Wire Wire Line
	10050 5100 10050 5200
Wire Wire Line
	4250 7100 4250 7050
Wire Wire Line
	4450 7100 4450 7050
Wire Wire Line
	4350 4550 4350 4400
Wire Wire Line
	1150 1300 2200 1300
Wire Wire Line
	1800 1100 1800 1450
Wire Wire Line
	2500 1700 2500 1600
Connection ~ 1800 1300
Wire Wire Line
	2000 1300 2000 1450
Connection ~ 2000 1300
Wire Wire Line
	2800 1300 3450 1300
Wire Wire Line
	2950 1400 2950 1300
Connection ~ 2950 1300
Wire Wire Line
	3250 1300 3250 1400
Wire Wire Line
	1800 1750 1800 1850
Wire Wire Line
	2000 1750 2000 1850
Wire Wire Line
	2950 1700 2950 1850
Wire Wire Line
	3250 1700 3250 1850
Wire Wire Line
	3900 1800 3900 1700
Connection ~ 3250 1300
Wire Wire Line
	4350 1300 5000 1300
Wire Wire Line
	4500 1400 4500 1300
Connection ~ 4500 1300
Wire Wire Line
	4800 1300 4800 1400
Wire Wire Line
	4500 1700 4500 1850
Wire Wire Line
	4800 1700 4800 1850
Connection ~ 4800 1300
Wire Wire Line
	3100 1200 3100 1300
Connection ~ 3100 1300
Wire Wire Line
	8350 3600 8350 4200
Wire Wire Line
	8350 4500 8350 4550
Wire Wire Line
	8350 4850 8350 4900
Connection ~ 8350 4900
Wire Wire Line
	1500 5650 3700 5650
Wire Wire Line
	1500 5750 3700 5750
Wire Wire Line
	1500 5850 3700 5850
Wire Wire Line
	1500 5950 3700 5950
Wire Wire Line
	1500 6050 3700 6050
Wire Wire Line
	1600 5650 1600 6200
Connection ~ 1600 5650
Wire Wire Line
	1700 5750 1700 6200
Connection ~ 1700 5750
Wire Wire Line
	1800 5850 1800 6200
Connection ~ 1800 5850
Wire Wire Line
	1900 5950 1900 6200
Connection ~ 1900 5950
Wire Wire Line
	2000 6050 2000 6200
Connection ~ 2000 6050
Wire Wire Line
	2000 6550 2000 6500
Wire Wire Line
	1600 6550 2000 6550
Wire Wire Line
	1600 6550 1600 6500
Wire Wire Line
	1700 6500 1700 6550
Connection ~ 1700 6550
Wire Wire Line
	1800 6500 1800 6650
Connection ~ 1800 6550
Wire Wire Line
	1900 6500 1900 6550
Connection ~ 1900 6550
Wire Wire Line
	900  5350 900  6050
Connection ~ 900  5950
Connection ~ 900  5850
Connection ~ 900  5750
Connection ~ 900  5650
Wire Wire Line
	5550 6000 5150 6000
Wire Wire Line
	5550 5900 5550 5750
Wire Wire Line
	5550 6100 5550 6350
Wire Wire Line
	1150 1400 1350 1400
Wire Wire Line
	6850 4900 6800 4900
Wire Wire Line
	6500 4900 6450 4900
Wire Wire Line
	9900 1650 9900 2100
Wire Wire Line
	9650 1250 9650 1050
Wire Wire Line
	9650 1050 10550 1050
Wire Wire Line
	10550 1050 10550 1350
Wire Wire Line
	10550 1350 10400 1350
Wire Wire Line
	10400 1450 10700 1450
Wire Wire Line
	10700 1450 10700 2400
Wire Wire Line
	10700 2400 9650 2400
Wire Wire Line
	10400 1900 10400 1650
Wire Wire Line
	8550 4150 8350 4150
Connection ~ 8350 4150
Wire Wire Line
	8550 3900 8350 3900
Connection ~ 8350 3900
Wire Wire Line
	8550 3650 8350 3650
Connection ~ 8350 3650
Wire Wire Line
	8850 3650 8850 4350
Connection ~ 8850 3900
Connection ~ 8850 4150
$Comp
L GND #PWR030
U 1 1 5AE151E7
P 8850 4350
F 0 "#PWR030" H 8850 4100 50  0001 C CNN
F 1 "GND" H 8850 4200 50  0000 C CNN
F 2 "" H 8850 4350 50  0001 C CNN
F 3 "" H 8850 4350 50  0001 C CNN
	1    8850 4350
	1    0    0    -1  
$EndComp
$Comp
L AMS1117 U4
U 1 1 5AE88D63
P 4000 2750
F 0 "U4" H 3800 2500 60  0000 C CNN
F 1 "AMS1117-3.3" H 3950 2900 60  0000 C CNN
F 2 "TO_SOT_Packages_SMD:SOT-223-3Lead_TabPin2" H 4000 2750 60  0001 C CNN
F 3 "" H 4000 2750 60  0001 C CNN
	1    4000 2750
	1    0    0    -1  
$EndComp
$Comp
L C C7
U 1 1 5AE88D69
P 4600 3000
F 0 "C7" H 4625 3100 50  0000 L CNN
F 1 "22u" H 4625 2900 50  0000 L CNN
F 2 "Capacitors_SMD:C_0603_HandSoldering" H 4638 2850 50  0001 C CNN
F 3 "" H 4600 3000 50  0001 C CNN
	1    4600 3000
	1    0    0    -1  
$EndComp
$Comp
L C C8
U 1 1 5AE88D6F
P 4900 3000
F 0 "C8" H 4925 3100 50  0000 L CNN
F 1 "0.1u" H 4925 2900 50  0000 L CNN
F 2 "Capacitors_SMD:C_0603_HandSoldering" H 4938 2850 50  0001 C CNN
F 3 "" H 4900 3000 50  0001 C CNN
	1    4900 3000
	1    0    0    -1  
$EndComp
Wire Wire Line
	4000 3250 4000 3150
Wire Wire Line
	4450 2750 5100 2750
Wire Wire Line
	4600 2850 4600 2750
Connection ~ 4600 2750
Wire Wire Line
	4900 2750 4900 2850
Wire Wire Line
	4600 3150 4600 3300
Wire Wire Line
	4900 3150 4900 3300
Connection ~ 4900 2750
$Comp
L +5V #PWR034
U 1 1 5AE89039
P 3550 2750
F 0 "#PWR034" H 3550 2600 50  0001 C CNN
F 1 "+5V" H 3550 2890 50  0000 C CNN
F 2 "" H 3550 2750 50  0001 C CNN
F 3 "" H 3550 2750 50  0001 C CNN
	1    3550 2750
	1    0    0    -1  
$EndComp
$Comp
L +3.3V #PWR035
U 1 1 5AE890BF
P 5100 2750
F 0 "#PWR035" H 5100 2600 50  0001 C CNN
F 1 "+3.3V" H 5100 2890 50  0000 C CNN
F 2 "" H 5100 2750 50  0001 C CNN
F 3 "" H 5100 2750 50  0001 C CNN
	1    5100 2750
	1    0    0    -1  
$EndComp
$Comp
L GND #PWR?
U 1 1 5AE8CCE6
P 5550 6350
F 0 "#PWR?" H 5550 6100 50  0001 C CNN
F 1 "GND" H 5550 6200 50  0000 C CNN
F 2 "" H 5550 6350 50  0001 C CNN
F 3 "" H 5550 6350 50  0001 C CNN
	1    5550 6350
	1    0    0    -1  
$EndComp
$Comp
L GND #PWR?
U 1 1 5AE8CD69
P 4450 7100
F 0 "#PWR?" H 4450 6850 50  0001 C CNN
F 1 "GND" H 4450 6950 50  0000 C CNN
F 2 "" H 4450 7100 50  0001 C CNN
F 3 "" H 4450 7100 50  0001 C CNN
	1    4450 7100
	1    0    0    -1  
$EndComp
$Comp
L GND #PWR?
U 1 1 5AE8CDEC
P 4250 7100
F 0 "#PWR?" H 4250 6850 50  0001 C CNN
F 1 "GND" H 4250 6950 50  0000 C CNN
F 2 "" H 4250 7100 50  0001 C CNN
F 3 "" H 4250 7100 50  0001 C CNN
	1    4250 7100
	1    0    0    -1  
$EndComp
$Comp
L GND #PWR?
U 1 1 5AE8CFB0
P 1800 6650
F 0 "#PWR?" H 1800 6400 50  0001 C CNN
F 1 "GND" H 1800 6500 50  0000 C CNN
F 2 "" H 1800 6650 50  0001 C CNN
F 3 "" H 1800 6650 50  0001 C CNN
	1    1800 6650
	1    0    0    -1  
$EndComp
$Comp
L GND #PWR?
U 1 1 5AE8D033
P 4000 3250
F 0 "#PWR?" H 4000 3000 50  0001 C CNN
F 1 "GND" H 4000 3100 50  0000 C CNN
F 2 "" H 4000 3250 50  0001 C CNN
F 3 "" H 4000 3250 50  0001 C CNN
	1    4000 3250
	1    0    0    -1  
$EndComp
$Comp
L GND #PWR?
U 1 1 5AE8D2F3
P 4600 3300
F 0 "#PWR?" H 4600 3050 50  0001 C CNN
F 1 "GND" H 4600 3150 50  0000 C CNN
F 2 "" H 4600 3300 50  0001 C CNN
F 3 "" H 4600 3300 50  0001 C CNN
	1    4600 3300
	1    0    0    -1  
$EndComp
$Comp
L GND #PWR?
U 1 1 5AE8D376
P 4900 3300
F 0 "#PWR?" H 4900 3050 50  0001 C CNN
F 1 "GND" H 4900 3150 50  0000 C CNN
F 2 "" H 4900 3300 50  0001 C CNN
F 3 "" H 4900 3300 50  0001 C CNN
	1    4900 3300
	1    0    0    -1  
$EndComp
$Comp
L GND #PWR?
U 1 1 5AE8D3F9
P 4800 1850
F 0 "#PWR?" H 4800 1600 50  0001 C CNN
F 1 "GND" H 4800 1700 50  0000 C CNN
F 2 "" H 4800 1850 50  0001 C CNN
F 3 "" H 4800 1850 50  0001 C CNN
	1    4800 1850
	1    0    0    -1  
$EndComp
$Comp
L GND #PWR?
U 1 1 5AE8D70A
P 4500 1850
F 0 "#PWR?" H 4500 1600 50  0001 C CNN
F 1 "GND" H 4500 1700 50  0000 C CNN
F 2 "" H 4500 1850 50  0001 C CNN
F 3 "" H 4500 1850 50  0001 C CNN
	1    4500 1850
	1    0    0    -1  
$EndComp
$Comp
L GND #PWR?
U 1 1 5AE8D78D
P 3900 1800
F 0 "#PWR?" H 3900 1550 50  0001 C CNN
F 1 "GND" H 3900 1650 50  0000 C CNN
F 2 "" H 3900 1800 50  0001 C CNN
F 3 "" H 3900 1800 50  0001 C CNN
	1    3900 1800
	1    0    0    -1  
$EndComp
$Comp
L GND #PWR?
U 1 1 5AE8D810
P 3250 1850
F 0 "#PWR?" H 3250 1600 50  0001 C CNN
F 1 "GND" H 3250 1700 50  0000 C CNN
F 2 "" H 3250 1850 50  0001 C CNN
F 3 "" H 3250 1850 50  0001 C CNN
	1    3250 1850
	1    0    0    -1  
$EndComp
$Comp
L GND #PWR?
U 1 1 5AE8DBDF
P 2950 1850
F 0 "#PWR?" H 2950 1600 50  0001 C CNN
F 1 "GND" H 2950 1700 50  0000 C CNN
F 2 "" H 2950 1850 50  0001 C CNN
F 3 "" H 2950 1850 50  0001 C CNN
	1    2950 1850
	1    0    0    -1  
$EndComp
$Comp
L GND #PWR?
U 1 1 5AE8DC62
P 2500 1700
F 0 "#PWR?" H 2500 1450 50  0001 C CNN
F 1 "GND" H 2500 1550 50  0000 C CNN
F 2 "" H 2500 1700 50  0001 C CNN
F 3 "" H 2500 1700 50  0001 C CNN
	1    2500 1700
	1    0    0    -1  
$EndComp
$Comp
L GND #PWR?
U 1 1 5AE8DCE5
P 2000 1850
F 0 "#PWR?" H 2000 1600 50  0001 C CNN
F 1 "GND" H 2000 1700 50  0000 C CNN
F 2 "" H 2000 1850 50  0001 C CNN
F 3 "" H 2000 1850 50  0001 C CNN
	1    2000 1850
	1    0    0    -1  
$EndComp
$Comp
L GND #PWR?
U 1 1 5AE8DD68
P 1800 1850
F 0 "#PWR?" H 1800 1600 50  0001 C CNN
F 1 "GND" H 1800 1700 50  0000 C CNN
F 2 "" H 1800 1850 50  0001 C CNN
F 3 "" H 1800 1850 50  0001 C CNN
	1    1800 1850
	1    0    0    -1  
$EndComp
$Comp
L GND #PWR?
U 1 1 5AE8E041
P 1350 1400
F 0 "#PWR?" H 1350 1150 50  0001 C CNN
F 1 "GND" H 1350 1250 50  0000 C CNN
F 2 "" H 1350 1400 50  0001 C CNN
F 3 "" H 1350 1400 50  0001 C CNN
	1    1350 1400
	1    0    0    -1  
$EndComp
$EndSCHEMATC
