(export (version D)
  (design
    (source /home/nop/Radioamateur/git/Transverter_23cm/Ligne_RX/pcb/Ligne_RX/Ligne_RX.sch)
    (date "lun. 01 oct. 2018 22:44:26 CEST")
    (tool "Eeschema 5.0.0")
    (sheet (number 1) (name /) (tstamps /)
      (title_block
        (title)
        (company)
        (rev)
        (date)
        (source Ligne_RX.sch)
        (comment (number 1) (value ""))
        (comment (number 2) (value ""))
        (comment (number 3) (value ""))
        (comment (number 4) (value "")))))
  (components
    (comp (ref U11)
      (value ERA-5SM)
      (footprint lib_kicad:WW107)
      (libsource (lib Ligne_RX-rescue) (part ERA-5SM-) (description ""))
      (sheetpath (names /) (tstamps /))
      (tstamp 5AC681E4))
    (comp (ref C12)
      (value 10p)
      (footprint Capacitor_SMD:C_0603_1608Metric_Pad1.05x0.95mm_HandSolder)
      (libsource (lib Ligne_RX-rescue) (part C-) (description ""))
      (sheetpath (names /) (tstamps /))
      (tstamp 5AC68275))
    (comp (ref C13)
      (value 1n)
      (footprint Capacitor_SMD:C_0603_1608Metric_Pad1.05x0.95mm_HandSolder)
      (libsource (lib Ligne_RX-rescue) (part C-) (description ""))
      (sheetpath (names /) (tstamps /))
      (tstamp 5AC682A0))
    (comp (ref C14)
      (value 0.1u)
      (footprint Capacitor_SMD:C_0603_1608Metric_Pad1.05x0.95mm_HandSolder)
      (libsource (lib Ligne_RX-rescue) (part C-) (description ""))
      (sheetpath (names /) (tstamps /))
      (tstamp 5AC682BD))
    (comp (ref L11)
      (value 230uH)
      (footprint Inductor_SMD:L_0603_1608Metric_Pad1.05x0.95mm_HandSolder)
      (libsource (lib Ligne_RX-rescue) (part L-) (description ""))
      (sheetpath (names /) (tstamps /))
      (tstamp 5AC682E6))
    (comp (ref R11)
      (value 230nH)
      (footprint Resistor_SMD:R_0603_1608Metric_Pad1.05x0.95mm_HandSolder)
      (libsource (lib Ligne_RX-rescue) (part R-) (description ""))
      (sheetpath (names /) (tstamps /))
      (tstamp 5AC68313))
    (comp (ref C15)
      (value 10p)
      (footprint Capacitor_SMD:C_0603_1608Metric_Pad1.05x0.95mm_HandSolder)
      (libsource (lib Ligne_RX-rescue) (part C-) (description ""))
      (sheetpath (names /) (tstamps /))
      (tstamp 5AC68632))
    (comp (ref C11)
      (value 10p)
      (footprint Capacitor_SMD:C_0603_1608Metric_Pad1.05x0.95mm_HandSolder)
      (libsource (lib Ligne_RX-rescue) (part C-) (description ""))
      (sheetpath (names /) (tstamps /))
      (tstamp 5AC686A5))
    (comp (ref J1)
      (value SMA)
      (footprint lib_kicad:SMA)
      (libsource (lib Ligne_RX-rescue) (part SMA-) (description ""))
      (sheetpath (names /) (tstamps /))
      (tstamp 5AC687B2))
    (comp (ref L21)
      (value 230uH)
      (footprint Inductor_SMD:L_0603_1608Metric_Pad1.05x0.95mm_HandSolder)
      (libsource (lib Ligne_RX-rescue) (part L-) (description ""))
      (sheetpath (names /) (tstamps /))
      (tstamp 5AC52820))
    (comp (ref C24)
      (value 0.1u)
      (footprint Capacitor_SMD:C_0603_1608Metric_Pad1.05x0.95mm_HandSolder)
      (libsource (lib Ligne_RX-rescue) (part C-) (description ""))
      (sheetpath (names /) (tstamps /))
      (tstamp 5AC52950))
    (comp (ref C23)
      (value 100p)
      (footprint Capacitor_SMD:C_0603_1608Metric_Pad1.05x0.95mm_HandSolder)
      (libsource (lib Ligne_RX-rescue) (part C-) (description ""))
      (sheetpath (names /) (tstamps /))
      (tstamp 5AC5299B))
    (comp (ref C22)
      (value 10p)
      (footprint Capacitor_SMD:C_0603_1608Metric_Pad1.05x0.95mm_HandSolder)
      (libsource (lib Ligne_RX-rescue) (part C-) (description ""))
      (sheetpath (names /) (tstamps /))
      (tstamp 5AC529D9))
    (comp (ref J2)
      (value SMA)
      (footprint lib_kicad:SMA)
      (libsource (lib Ligne_RX-rescue) (part SMA-) (description ""))
      (sheetpath (names /) (tstamps /))
      (tstamp 5AC52A8A))
    (comp (ref C21)
      (value 100p)
      (footprint Capacitor_SMD:C_0603_1608Metric_Pad1.05x0.95mm_HandSolder)
      (libsource (lib Ligne_RX-rescue) (part C-) (description ""))
      (sheetpath (names /) (tstamps /))
      (tstamp 5AC52BFD))
    (comp (ref U22)
      (value SPF5189Z)
      (footprint Package_TO_SOT_SMD:SOT-89-3_Handsoldering)
      (libsource (lib spf5189z) (part SPF5189Z) (description ""))
      (sheetpath (names /) (tstamps /))
      (tstamp 5AC52D1C))
    (comp (ref U1)
      (value L7808)
      (footprint Package_TO_SOT_SMD:SOT-89-3_Handsoldering)
      (datasheet http://www.st.com/content/ccc/resource/technical/document/datasheet/41/4f/b3/b0/12/d4/47/88/CD00000444.pdf/files/CD00000444.pdf/jcr:content/translations/en.CD00000444.pdf)
      (libsource (lib Regulator_Linear) (part L7808) (description "Positive 1.5A 35V Linear Regulator, Fixed Output 8V, TO-220/TO-263/TO-252"))
      (sheetpath (names /) (tstamps /))
      (tstamp 5B8E4563))
    (comp (ref U2)
      (value AMS1117-5.0)
      (footprint Package_TO_SOT_SMD:SOT-223-3_TabPin2)
      (datasheet http://www.advanced-monolithic.com/pdf/ds1117.pdf)
      (libsource (lib Regulator_Linear) (part AMS1117-5.0) (description "1A Low Dropout regulator, positive, 5.0V fixed output, SOT-223"))
      (sheetpath (names /) (tstamps /))
      (tstamp 5B8E4709))
    (comp (ref J3)
      (value Conn_01x01_Male)
      (footprint TestPoint:TestPoint_Pad_4.0x4.0mm)
      (datasheet ~)
      (libsource (lib Connector) (part Conn_01x01_Male) (description "Generic connector, single row, 01x01, script generated (kicad-library-utils/schlib/autogen/connector/)"))
      (sheetpath (names /) (tstamps /))
      (tstamp 5B8E8DB2)))
  (libparts
    (libpart (lib Connector) (part Conn_01x01_Male)
      (description "Generic connector, single row, 01x01, script generated (kicad-library-utils/schlib/autogen/connector/)")
      (docs ~)
      (footprints
        (fp Connector*:*))
      (fields
        (field (name Reference) J)
        (field (name Value) Conn_01x01_Male))
      (pins
        (pin (num 1) (name Pin_1) (type passive))))
    (libpart (lib Ligne_RX-rescue) (part C-)
      (footprints
        (fp C_*))
      (fields
        (field (name Reference) C)
        (field (name Value) C-))
      (pins
        (pin (num 1) (name ~) (type passive))
        (pin (num 2) (name ~) (type passive))))
    (libpart (lib Ligne_RX-rescue) (part ERA-5SM-)
      (fields
        (field (name Reference) U)
        (field (name Value) ERA-5SM-))
      (pins
        (pin (num 1) (name RFin) (type input))
        (pin (num 2) (name GND) (type input))
        (pin (num 3) (name RFout) (type input))
        (pin (num 4) (name GND) (type input))))
    (libpart (lib Ligne_RX-rescue) (part L-)
      (footprints
        (fp Choke_*)
        (fp *Coil*)
        (fp Inductor_*)
        (fp L_*))
      (fields
        (field (name Reference) L)
        (field (name Value) L-))
      (pins
        (pin (num 1) (name 1) (type passive))
        (pin (num 2) (name 2) (type passive))))
    (libpart (lib Ligne_RX-rescue) (part R-)
      (footprints
        (fp R_*)
        (fp R_*))
      (fields
        (field (name Reference) R)
        (field (name Value) R-))
      (pins
        (pin (num 1) (name ~) (type passive))
        (pin (num 2) (name ~) (type passive))))
    (libpart (lib Ligne_RX-rescue) (part SMA-)
      (fields
        (field (name Reference) J)
        (field (name Value) SMA-)
        (field (name Footprint) SMA))
      (pins
        (pin (num 1) (name RF) (type power_in))
        (pin (num 2) (name GND1) (type power_in))
        (pin (num 3) (name GND2) (type power_in))
        (pin (num 4) (name GND3) (type power_in))
        (pin (num 5) (name GND4) (type power_in))))
    (libpart (lib Regulator_Linear) (part AP1117-15)
      (aliases
        (alias AP1117-18)
        (alias AP1117-25)
        (alias AP1117-33)
        (alias AP1117-50)
        (alias LD1117S33TR_SOT223)
        (alias LD1117S12TR_SOT223)
        (alias LD1117S18TR_SOT223)
        (alias LD1117S25TR_SOT223)
        (alias LD1117S50TR_SOT223)
        (alias NCP1117-12_SOT223)
        (alias NCP1117-1.5_SOT223)
        (alias NCP1117-1.8_SOT223)
        (alias NCP1117-2.0_SOT223)
        (alias NCP1117-2.5_SOT223)
        (alias NCP1117-2.85_SOT223)
        (alias NCP1117-3.3_SOT223)
        (alias NCP1117-5.0_SOT223)
        (alias AMS1117-1.5)
        (alias AMS1117-1.8)
        (alias AMS1117-2.5)
        (alias AMS1117-2.85)
        (alias AMS1117-3.3)
        (alias AMS1117-5.0))
      (description "1A Low Dropout regulator, positive, 1.5V fixed output, SOT-223")
      (docs http://www.diodes.com/datasheets/AP1117.pdf)
      (footprints
        (fp SOT?223*TabPin2*))
      (fields
        (field (name Reference) U)
        (field (name Value) AP1117-15)
        (field (name Footprint) Package_TO_SOT_SMD:SOT-223-3_TabPin2))
      (pins
        (pin (num 1) (name GND) (type power_in))
        (pin (num 2) (name VO) (type power_out))
        (pin (num 3) (name VI) (type power_in))))
    (libpart (lib Regulator_Linear) (part L7805)
      (aliases
        (alias L7806)
        (alias L7808)
        (alias L7885)
        (alias L7809)
        (alias L7812)
        (alias L7815)
        (alias L7818)
        (alias L7824))
      (description "Positive 1.5A 35V Linear Regulator, Fixed Output 5V, TO-220/TO-263/TO-252")
      (docs http://www.st.com/content/ccc/resource/technical/document/datasheet/41/4f/b3/b0/12/d4/47/88/CD00000444.pdf/files/CD00000444.pdf/jcr:content/translations/en.CD00000444.pdf)
      (footprints
        (fp TO?252*)
        (fp TO?263*)
        (fp TO?220*))
      (fields
        (field (name Reference) U)
        (field (name Value) L7805))
      (pins
        (pin (num 1) (name IN) (type power_in))
        (pin (num 2) (name GND) (type power_in))
        (pin (num 3) (name OUT) (type power_out))))
    (libpart (lib spf5189z) (part SPF5189Z)
      (fields
        (field (name Reference) U)
        (field (name Value) SPF5189Z))
      (pins
        (pin (num 1) (name In) (type input))
        (pin (num 2) (name GND) (type input))
        (pin (num 3) (name RFout) (type input))
        (pin (num 4) (name GND) (type input)))))
  (libraries
    (library (logical Connector)
      (uri /usr/share/kicad/library/Connector.lib))
    (library (logical Ligne_RX-rescue)
      (uri /home/nop/Radioamateur/git/Transverter_23cm/Ligne_RX/pcb/Ligne_RX/Ligne_RX-rescue.lib))
    (library (logical Regulator_Linear)
      (uri /usr/share/kicad/library/Regulator_Linear.lib))
    (library (logical spf5189z)
      (uri /home/nop/Radioamateur/git/Librairie_Kicad/Librairie_Kicad/lib_kicad/spf5189z.lib)))
  (nets
    (net (code 1) (name "Net-(C21-Pad2)")
      (node (ref L21) (pin 2))
      (node (ref U22) (pin 3))
      (node (ref C21) (pin 2)))
    (net (code 2) (name "Net-(C21-Pad1)")
      (node (ref C21) (pin 1))
      (node (ref J2) (pin 1)))
    (net (code 3) (name GND)
      (node (ref C23) (pin 2))
      (node (ref U1) (pin 2))
      (node (ref C14) (pin 2))
      (node (ref J1) (pin 2))
      (node (ref C24) (pin 2))
      (node (ref U2) (pin 1))
      (node (ref C22) (pin 2))
      (node (ref J2) (pin 2))
      (node (ref J2) (pin 3))
      (node (ref J2) (pin 4))
      (node (ref J2) (pin 5))
      (node (ref C12) (pin 2))
      (node (ref U11) (pin 4))
      (node (ref U11) (pin 2))
      (node (ref C13) (pin 2))
      (node (ref U22) (pin 4))
      (node (ref U22) (pin 2))
      (node (ref J1) (pin 3))
      (node (ref J1) (pin 4))
      (node (ref J1) (pin 5)))
    (net (code 4) (name "Net-(C15-Pad1)")
      (node (ref U22) (pin 1))
      (node (ref C15) (pin 1)))
    (net (code 5) (name +8V)
      (node (ref C12) (pin 1))
      (node (ref C13) (pin 1))
      (node (ref C14) (pin 1))
      (node (ref U2) (pin 3))
      (node (ref R11) (pin 1))
      (node (ref U1) (pin 3)))
    (net (code 6) (name +5V)
      (node (ref C22) (pin 1))
      (node (ref C24) (pin 1))
      (node (ref U2) (pin 2))
      (node (ref L21) (pin 1))
      (node (ref C23) (pin 1)))
    (net (code 7) (name "Net-(J3-Pad1)")
      (node (ref U1) (pin 1))
      (node (ref J3) (pin 1)))
    (net (code 8) (name "Net-(L11-Pad1)")
      (node (ref L11) (pin 1))
      (node (ref R11) (pin 2)))
    (net (code 9) (name "Net-(C15-Pad2)")
      (node (ref L11) (pin 2))
      (node (ref C15) (pin 2))
      (node (ref U11) (pin 3)))
    (net (code 10) (name "Net-(C11-Pad1)")
      (node (ref U11) (pin 1))
      (node (ref C11) (pin 1)))
    (net (code 11) (name "Net-(C11-Pad2)")
      (node (ref J1) (pin 1))
      (node (ref C11) (pin 2)))))