EESchema Schematic File Version 4
LIBS:Ligne_RX-cache
EELAYER 26 0
EELAYER END
$Descr A4 11693 8268
encoding utf-8
Sheet 1 1
Title ""
Date ""
Rev ""
Comp ""
Comment1 ""
Comment2 ""
Comment3 ""
Comment4 ""
$EndDescr
$Comp
L Ligne_RX-rescue:ERA-5SM- U11
U 1 1 5AC681E4
P 3400 3850
F 0 "U11" H 3200 4050 60  0000 C CNN
F 1 "ERA-5SM" H 3150 3650 60  0000 C CNN
F 2 "lib_kicad:WW107" H 3400 3850 60  0001 C CNN
F 3 "" H 3400 3850 60  0001 C CNN
	1    3400 3850
	1    0    0    -1  
$EndComp
$Comp
L Ligne_RX-rescue:GND- #PWR0101
U 1 1 5AC68232
P 3400 3200
F 0 "#PWR0101" H 3400 2950 50  0001 C CNN
F 1 "GND" H 3400 3050 50  0000 C CNN
F 2 "" H 3400 3200 50  0001 C CNN
F 3 "" H 3400 3200 50  0001 C CNN
	1    3400 3200
	-1   0    0    1   
$EndComp
$Comp
L Ligne_RX-rescue:GND- #PWR0102
U 1 1 5AC68248
P 3400 4450
F 0 "#PWR0102" H 3400 4200 50  0001 C CNN
F 1 "GND" H 3400 4300 50  0000 C CNN
F 2 "" H 3400 4450 50  0001 C CNN
F 3 "" H 3400 4450 50  0001 C CNN
	1    3400 4450
	1    0    0    -1  
$EndComp
$Comp
L Ligne_RX-rescue:GND- #PWR0103
U 1 1 5AC6825F
P 4550 3100
F 0 "#PWR0103" H 4550 2850 50  0001 C CNN
F 1 "GND" H 4550 2950 50  0000 C CNN
F 2 "" H 4550 3100 50  0001 C CNN
F 3 "" H 4550 3100 50  0001 C CNN
	1    4550 3100
	1    0    0    -1  
$EndComp
$Comp
L Ligne_RX-rescue:C- C12
U 1 1 5AC68275
P 4550 2850
F 0 "C12" H 4575 2950 50  0000 L CNN
F 1 "10p" H 4575 2750 50  0000 L CNN
F 2 "Capacitor_SMD:C_0603_1608Metric_Pad1.05x0.95mm_HandSolder" H 4588 2700 50  0001 C CNN
F 3 "" H 4550 2850 50  0001 C CNN
	1    4550 2850
	1    0    0    -1  
$EndComp
$Comp
L Ligne_RX-rescue:C- C13
U 1 1 5AC682A0
P 4800 2850
F 0 "C13" H 4825 2950 50  0000 L CNN
F 1 "1n" H 4825 2750 50  0000 L CNN
F 2 "Capacitor_SMD:C_0603_1608Metric_Pad1.05x0.95mm_HandSolder" H 4838 2700 50  0001 C CNN
F 3 "" H 4800 2850 50  0001 C CNN
	1    4800 2850
	1    0    0    -1  
$EndComp
$Comp
L Ligne_RX-rescue:C- C14
U 1 1 5AC682BD
P 5050 2850
F 0 "C14" H 5075 2950 50  0000 L CNN
F 1 "0.1u" H 5075 2750 50  0000 L CNN
F 2 "Capacitor_SMD:C_0603_1608Metric_Pad1.05x0.95mm_HandSolder" H 5088 2700 50  0001 C CNN
F 3 "" H 5050 2850 50  0001 C CNN
	1    5050 2850
	1    0    0    -1  
$EndComp
$Comp
L Ligne_RX-rescue:L- L11
U 1 1 5AC682E6
P 4200 3700
F 0 "L11" V 4150 3700 50  0000 C CNN
F 1 "230uH" V 4275 3700 50  0000 C CNN
F 2 "Inductor_SMD:L_0603_1608Metric_Pad1.05x0.95mm_HandSolder" H 4200 3700 50  0001 C CNN
F 3 "" H 4200 3700 50  0001 C CNN
	1    4200 3700
	1    0    0    -1  
$EndComp
$Comp
L Ligne_RX-rescue:R- R11
U 1 1 5AC68313
P 4200 3150
F 0 "R11" V 4280 3150 50  0000 C CNN
F 1 "230nH" V 4200 3150 50  0000 C CNN
F 2 "Resistor_SMD:R_0603_1608Metric_Pad1.05x0.95mm_HandSolder" V 4130 3150 50  0001 C CNN
F 3 "" H 4200 3150 50  0001 C CNN
	1    4200 3150
	1    0    0    -1  
$EndComp
Wire Wire Line
	4200 2650 4200 3000
Wire Wire Line
	4550 2700 4550 2650
Connection ~ 4550 2650
Wire Wire Line
	4800 2700 4800 2650
Connection ~ 4800 2650
Wire Wire Line
	5050 2700 5050 2650
Wire Wire Line
	4550 3000 4800 3000
Connection ~ 4800 3000
Wire Wire Line
	4550 3000 4550 3100
Wire Wire Line
	3400 3200 3400 3350
Wire Wire Line
	3400 4450 3400 4350
Wire Wire Line
	4100 3850 4200 3850
Connection ~ 4200 3850
$Comp
L Ligne_RX-rescue:C- C15
U 1 1 5AC68632
P 5100 3850
F 0 "C15" H 5125 3950 50  0000 L CNN
F 1 "10p" H 5125 3750 50  0000 L CNN
F 2 "Capacitor_SMD:C_0603_1608Metric_Pad1.05x0.95mm_HandSolder" H 5138 3700 50  0001 C CNN
F 3 "" H 5100 3850 50  0001 C CNN
	1    5100 3850
	0    1    1    0   
$EndComp
$Comp
L Ligne_RX-rescue:C- C11
U 1 1 5AC686A5
P 2400 3850
F 0 "C11" H 2425 3950 50  0000 L CNN
F 1 "10p" H 2425 3750 50  0000 L CNN
F 2 "Capacitor_SMD:C_0603_1608Metric_Pad1.05x0.95mm_HandSolder" H 2438 3700 50  0001 C CNN
F 3 "" H 2400 3850 50  0001 C CNN
	1    2400 3850
	0    1    1    0   
$EndComp
Wire Wire Line
	2750 3850 2550 3850
Wire Wire Line
	2250 3850 2000 3850
$Comp
L Ligne_RX-rescue:SMA- J1
U 1 1 5AC687B2
P 1850 4150
F 0 "J1" H 1975 4465 60  0000 C CNN
F 1 "SMA" H 2040 4390 60  0000 C CNN
F 2 "lib_kicad:SMA" H 2025 4320 50  0000 C CNN
F 3 "" H 1850 4150 60  0001 C CNN
	1    1850 4150
	-1   0    0    -1  
$EndComp
$Comp
L Ligne_RX-rescue:GND- #PWR0104
U 1 1 5AC68A39
P 1800 4150
F 0 "#PWR0104" H 1800 3900 50  0001 C CNN
F 1 "GND" H 1800 4000 50  0000 C CNN
F 2 "" H 1800 4150 50  0001 C CNN
F 3 "" H 1800 4150 50  0001 C CNN
	1    1800 4150
	1    0    0    -1  
$EndComp
Wire Wire Line
	1800 4050 1800 4150
Wire Wire Line
	1800 4050 1850 4050
Connection ~ 1850 4050
Connection ~ 1900 4050
Connection ~ 1800 4050
Connection ~ 4550 3000
Wire Wire Line
	4550 2650 4300 2650
Wire Wire Line
	4800 2650 4550 2650
Wire Wire Line
	5050 2650 4800 2650
Wire Wire Line
	4800 3000 5050 3000
Wire Wire Line
	4200 3850 4950 3850
Wire Wire Line
	1850 4050 1900 4050
Wire Wire Line
	1900 4050 1950 4050
$Comp
L Ligne_RX-rescue:L- L21
U 1 1 5AC52820
P 7150 3700
F 0 "L21" V 7100 3700 50  0000 C CNN
F 1 "230uH" V 7225 3700 50  0000 C CNN
F 2 "Inductor_SMD:L_0603_1608Metric_Pad1.05x0.95mm_HandSolder" H 7150 3700 50  0001 C CNN
F 3 "" H 7150 3700 50  0001 C CNN
	1    7150 3700
	1    0    0    -1  
$EndComp
Wire Wire Line
	7150 2650 7150 3550
$Comp
L Ligne_RX-rescue:C- C24
U 1 1 5AC52950
P 6350 2900
F 0 "C24" H 6375 3000 50  0000 L CNN
F 1 "0.1u" H 6375 2800 50  0000 L CNN
F 2 "Capacitor_SMD:C_0603_1608Metric_Pad1.05x0.95mm_HandSolder" H 6388 2750 50  0001 C CNN
F 3 "" H 6350 2900 50  0001 C CNN
	1    6350 2900
	1    0    0    -1  
$EndComp
$Comp
L Ligne_RX-rescue:C- C23
U 1 1 5AC5299B
P 6600 2900
F 0 "C23" H 6625 3000 50  0000 L CNN
F 1 "100p" H 6625 2800 50  0000 L CNN
F 2 "Capacitor_SMD:C_0603_1608Metric_Pad1.05x0.95mm_HandSolder" H 6638 2750 50  0001 C CNN
F 3 "" H 6600 2900 50  0001 C CNN
	1    6600 2900
	1    0    0    -1  
$EndComp
$Comp
L Ligne_RX-rescue:C- C22
U 1 1 5AC529D9
P 6900 2900
F 0 "C22" H 6925 3000 50  0000 L CNN
F 1 "10p" H 6925 2800 50  0000 L CNN
F 2 "Capacitor_SMD:C_0603_1608Metric_Pad1.05x0.95mm_HandSolder" H 6938 2750 50  0001 C CNN
F 3 "" H 6900 2900 50  0001 C CNN
	1    6900 2900
	1    0    0    -1  
$EndComp
$Comp
L Ligne_RX-rescue:SMA- J2
U 1 1 5AC52A8A
P 7750 4150
F 0 "J2" H 7875 4465 60  0000 C CNN
F 1 "SMA" H 7940 4390 60  0000 C CNN
F 2 "lib_kicad:SMA" H 7925 4320 50  0000 C CNN
F 3 "" H 7750 4150 60  0001 C CNN
	1    7750 4150
	1    0    0    -1  
$EndComp
$Comp
L Ligne_RX-rescue:C- C21
U 1 1 5AC52BFD
P 7400 3850
F 0 "C21" H 7425 3950 50  0000 L CNN
F 1 "100p" H 7425 3750 50  0000 L CNN
F 2 "Capacitor_SMD:C_0603_1608Metric_Pad1.05x0.95mm_HandSolder" H 7438 3700 50  0001 C CNN
F 3 "" H 7400 3850 50  0001 C CNN
	1    7400 3850
	0    1    1    0   
$EndComp
$Comp
L spf5189z:SPF5189Z U22
U 1 1 5AC52D1C
P 5950 3850
F 0 "U22" H 5950 3900 60  0000 C CNN
F 1 "SPF5189Z" H 6050 3800 60  0000 C CNN
F 2 "Package_TO_SOT_SMD:SOT-89-3_Handsoldering" H 5950 3850 60  0001 C CNN
F 3 "" H 5950 3850 60  0001 C CNN
	1    5950 3850
	1    0    0    -1  
$EndComp
$Comp
L Ligne_RX-rescue:GND- #PWR0105
U 1 1 5AC52E45
P 7650 4150
F 0 "#PWR0105" H 7650 3900 50  0001 C CNN
F 1 "GND" H 7650 4000 50  0000 C CNN
F 2 "" H 7650 4150 50  0001 C CNN
F 3 "" H 7650 4150 50  0001 C CNN
	1    7650 4150
	1    0    0    -1  
$EndComp
$Comp
L Ligne_RX-rescue:GND- #PWR0106
U 1 1 5AC52E6D
P 5950 4450
F 0 "#PWR0106" H 5950 4200 50  0001 C CNN
F 1 "GND" H 5950 4300 50  0000 C CNN
F 2 "" H 5950 4450 50  0001 C CNN
F 3 "" H 5950 4450 50  0001 C CNN
	1    5950 4450
	1    0    0    -1  
$EndComp
$Comp
L Ligne_RX-rescue:GND- #PWR0107
U 1 1 5AC52E95
P 5950 3250
F 0 "#PWR0107" H 5950 3000 50  0001 C CNN
F 1 "GND" H 5950 3100 50  0000 C CNN
F 2 "" H 5950 3250 50  0001 C CNN
F 3 "" H 5950 3250 50  0001 C CNN
	1    5950 3250
	-1   0    0    1   
$EndComp
$Comp
L Ligne_RX-rescue:GND- #PWR0108
U 1 1 5AC52F37
P 6350 3100
F 0 "#PWR0108" H 6350 2850 50  0001 C CNN
F 1 "GND" H 6350 2950 50  0000 C CNN
F 2 "" H 6350 3100 50  0001 C CNN
F 3 "" H 6350 3100 50  0001 C CNN
	1    6350 3100
	1    0    0    -1  
$EndComp
$Comp
L Ligne_RX-rescue:GND- #PWR0109
U 1 1 5AC52F5F
P 6600 3100
F 0 "#PWR0109" H 6600 2850 50  0001 C CNN
F 1 "GND" H 6600 2950 50  0000 C CNN
F 2 "" H 6600 3100 50  0001 C CNN
F 3 "" H 6600 3100 50  0001 C CNN
	1    6600 3100
	1    0    0    -1  
$EndComp
$Comp
L Ligne_RX-rescue:GND- #PWR0110
U 1 1 5AC52F87
P 6900 3100
F 0 "#PWR0110" H 6900 2850 50  0001 C CNN
F 1 "GND" H 6900 2950 50  0000 C CNN
F 2 "" H 6900 3100 50  0001 C CNN
F 3 "" H 6900 3100 50  0001 C CNN
	1    6900 3100
	1    0    0    -1  
$EndComp
Wire Wire Line
	6750 3850 7150 3850
Connection ~ 7150 3850
Wire Wire Line
	7550 3850 7600 3850
Wire Wire Line
	7650 4050 7700 4050
Connection ~ 7750 4050
Wire Wire Line
	7650 4150 7650 4050
Connection ~ 7700 4050
Wire Wire Line
	6900 3100 6900 3050
Wire Wire Line
	6600 3100 6600 3050
Wire Wire Line
	6350 3100 6350 3050
Wire Wire Line
	6350 2650 6350 2750
Wire Wire Line
	6600 2750 6600 2650
Connection ~ 6600 2650
Wire Wire Line
	6900 2750 6900 2650
Connection ~ 6900 2650
Wire Wire Line
	5950 4350 5950 4450
Connection ~ 7650 4050
Wire Wire Line
	7150 3850 7250 3850
Wire Wire Line
	7750 4050 7800 4050
Wire Wire Line
	7700 4050 7750 4050
Wire Wire Line
	6600 2650 6900 2650
Wire Wire Line
	6900 2650 7150 2650
Wire Wire Line
	6350 2650 6500 2650
Wire Wire Line
	5250 3850 5500 3850
Wire Wire Line
	5950 3350 5950 3250
Wire Wire Line
	4200 3300 4200 3550
$Comp
L Regulator_Linear:L7808 U1
U 1 1 5B8E4563
P 3500 1600
F 0 "U1" H 3500 1842 50  0000 C CNN
F 1 "L7808" H 3500 1751 50  0000 C CNN
F 2 "Package_TO_SOT_SMD:SOT-89-3_Handsoldering" H 3525 1450 50  0001 L CIN
F 3 "http://www.st.com/content/ccc/resource/technical/document/datasheet/41/4f/b3/b0/12/d4/47/88/CD00000444.pdf/files/CD00000444.pdf/jcr:content/translations/en.CD00000444.pdf" H 3500 1550 50  0001 C CNN
	1    3500 1600
	1    0    0    -1  
$EndComp
$Comp
L Regulator_Linear:AMS1117-5.0 U2
U 1 1 5B8E4709
P 4500 1600
F 0 "U2" H 4500 1842 50  0000 C CNN
F 1 "AMS1117-5.0" H 4500 1751 50  0000 C CNN
F 2 "Package_TO_SOT_SMD:SOT-223-3_TabPin2" H 4500 1800 50  0001 C CNN
F 3 "http://www.advanced-monolithic.com/pdf/ds1117.pdf" H 4600 1350 50  0001 C CNN
	1    4500 1600
	1    0    0    -1  
$EndComp
$Comp
L power:GND #PWR0111
U 1 1 5B8E48BA
P 3500 1950
F 0 "#PWR0111" H 3500 1700 50  0001 C CNN
F 1 "GND" H 3505 1777 50  0000 C CNN
F 2 "" H 3500 1950 50  0001 C CNN
F 3 "" H 3500 1950 50  0001 C CNN
	1    3500 1950
	1    0    0    -1  
$EndComp
$Comp
L power:GND #PWR0112
U 1 1 5B8E4912
P 4500 1950
F 0 "#PWR0112" H 4500 1700 50  0001 C CNN
F 1 "GND" H 4505 1777 50  0000 C CNN
F 2 "" H 4500 1950 50  0001 C CNN
F 3 "" H 4500 1950 50  0001 C CNN
	1    4500 1950
	1    0    0    -1  
$EndComp
$Comp
L power:+8V #PWR0113
U 1 1 5B8E56BF
P 4300 2650
F 0 "#PWR0113" H 4300 2500 50  0001 C CNN
F 1 "+8V" H 4315 2823 50  0000 C CNN
F 2 "" H 4300 2650 50  0001 C CNN
F 3 "" H 4300 2650 50  0001 C CNN
	1    4300 2650
	1    0    0    -1  
$EndComp
Connection ~ 4300 2650
Wire Wire Line
	4300 2650 4200 2650
$Comp
L power:+8V #PWR0114
U 1 1 5B8E5719
P 4000 1600
F 0 "#PWR0114" H 4000 1450 50  0001 C CNN
F 1 "+8V" H 4015 1773 50  0000 C CNN
F 2 "" H 4000 1600 50  0001 C CNN
F 3 "" H 4000 1600 50  0001 C CNN
	1    4000 1600
	1    0    0    -1  
$EndComp
$Comp
L power:+5V #PWR0115
U 1 1 5B8E57B0
P 4950 1600
F 0 "#PWR0115" H 4950 1450 50  0001 C CNN
F 1 "+5V" H 4965 1773 50  0000 C CNN
F 2 "" H 4950 1600 50  0001 C CNN
F 3 "" H 4950 1600 50  0001 C CNN
	1    4950 1600
	1    0    0    -1  
$EndComp
$Comp
L power:+5V #PWR0116
U 1 1 5B8E5808
P 6500 2650
F 0 "#PWR0116" H 6500 2500 50  0001 C CNN
F 1 "+5V" H 6515 2823 50  0000 C CNN
F 2 "" H 6500 2650 50  0001 C CNN
F 3 "" H 6500 2650 50  0001 C CNN
	1    6500 2650
	1    0    0    -1  
$EndComp
Connection ~ 6500 2650
Wire Wire Line
	6500 2650 6600 2650
Wire Wire Line
	3500 1950 3500 1900
Wire Wire Line
	4500 1950 4500 1900
Wire Wire Line
	4800 1600 4950 1600
Wire Wire Line
	4200 1600 4000 1600
Wire Wire Line
	3800 1600 4000 1600
Connection ~ 4000 1600
Wire Wire Line
	3200 1600 2850 1600
$Comp
L Connector:Conn_01x01_Male J3
U 1 1 5B8E8DB2
P 2650 1600
F 0 "J3" H 2756 1778 50  0000 C CNN
F 1 "Conn_01x01_Male" H 2756 1687 50  0000 C CNN
F 2 "TestPoint:TestPoint_Pad_4.0x4.0mm" H 2650 1600 50  0001 C CNN
F 3 "~" H 2650 1600 50  0001 C CNN
	1    2650 1600
	1    0    0    -1  
$EndComp
$EndSCHEMATC
