(kicad_pcb (version 20171130) (host pcbnew 5.0.1-33cea8e~67~ubuntu18.04.1)

  (general
    (thickness 1.6)
    (drawings 0)
    (tracks 0)
    (zones 0)
    (modules 0)
    (nets 1)
  )

  (page A4)
  (layers
    (0 F.Cu signal)
    (31 B.Cu signal)
    (32 B.Adhes user)
    (33 F.Adhes user)
    (34 B.Paste user)
    (35 F.Paste user)
    (36 B.SilkS user)
    (37 F.SilkS user)
    (38 B.Mask user)
    (39 F.Mask user)
    (40 Dwgs.User user)
    (41 Cmts.User user)
    (42 Eco1.User user)
    (43 Eco2.User user)
    (44 Edge.Cuts user)
    (45 Margin user)
    (46 B.CrtYd user)
    (47 F.CrtYd user)
    (48 B.Fab user)
    (49 F.Fab user)
  )

  (setup
    (last_trace_width 0.25)
    (trace_clearance 0.2)
    (zone_clearance 0.508)
    (zone_45_only no)
    (trace_min 0.2)
    (segment_width 0.2)
    (edge_width 0.15)
    (via_size 0.8)
    (via_drill 0.4)
    (via_min_size 0.4)
    (via_min_drill 0.3)
    (uvia_size 0.3)
    (uvia_drill 0.1)
    (uvias_allowed no)
    (uvia_min_size 0.2)
    (uvia_min_drill 0.1)
    (pcb_text_width 0.3)
    (pcb_text_size 1.5 1.5)
    (mod_edge_width 0.15)
    (mod_text_size 1 1)
    (mod_text_width 0.15)
    (pad_size 1.524 1.524)
    (pad_drill 0.762)
    (pad_to_mask_clearance 0.051)
    (solder_mask_min_width 0.25)
    (aux_axis_origin 0 0)
    (visible_elements FFFFFF7F)
    (pcbplotparams
      (layerselection 0x010fc_ffffffff)
      (usegerberextensions false)
      (usegerberattributes false)
      (usegerberadvancedattributes false)
      (creategerberjobfile false)
      (excludeedgelayer true)
      (linewidth 0.150000)
      (plotframeref false)
      (viasonmask false)
      (mode 1)
      (useauxorigin false)
      (hpglpennumber 1)
      (hpglpenspeed 20)
      (hpglpendiameter 15.000000)
      (psnegative false)
      (psa4output false)
      (plotreference true)
      (plotvalue true)
      (plotinvisibletext false)
      (padsonsilk false)
      (subtractmaskfromsilk false)
      (outputformat 1)
      (mirror false)
      (drillshape 1)
      (scaleselection 1)
      (outputdirectory ""))
  )

  (net 0 "")

  (net_class Default "This is the default net class."
    (clearance 0.2)
    (trace_width 0.25)
    (via_dia 0.8)
    (via_drill 0.4)
    (uvia_dia 0.3)
    (uvia_drill 0.1)
  )

  (module MLIN (layer F.Cu) (tedit 0) (tstamp 0)
    (at 14.25 22.25 0)
    (fp_text reference MS1 (at 0 0.5) (layer F.SilkS)
      (effects (font (size 0.25 0.25) (thickness 0.05)))
    )
    (fp_text value microstrip_line (at 0 -0.5) (layer F.Fab)
      (effects (font (size 0.25 0.25) (thickness 0.05)))
    )
    (fp_poly (pts
      (xy -2.25 0.25)
      (xy 2.25 0.25)
      (xy 2.25 -0.25)
      (xy -2.25 -0.25)
      ) (layer F.Cu) (width 0)
    )
  )

  (module MLIN (layer F.Cu) (tedit 0) (tstamp 0)
    (at 17.25 22.25 0)
    (fp_text reference MS2 (at 0 0.5) (layer F.SilkS)
      (effects (font (size 0.25 0.25) (thickness 0.05)))
    )
    (fp_text value microstrip_line (at 0 -0.5) (layer F.Fab)
      (effects (font (size 0.25 0.25) (thickness 0.05)))
    )
    (fp_poly (pts
      (xy -0.75 10.25)
      (xy 0.75 10.25)
      (xy 0.75 -10.25)
      (xy -0.75 -10.25)
      ) (layer F.Cu) (width 0)
    )
  )

  (module MLIN (layer F.Cu) (tedit 0) (tstamp 0)
    (at 27 22.25 0)
    (fp_text reference MS3 (at 0 0.5) (layer F.SilkS)
      (effects (font (size 0.25 0.25) (thickness 0.05)))
    )
    (fp_text value microstrip_line (at 0 -0.5) (layer F.Fab)
      (effects (font (size 0.25 0.25) (thickness 0.05)))
    )
    (fp_poly (pts
      (xy -9 0.25)
      (xy 9 0.25)
      (xy 9 -0.25)
      (xy -9 -0.25)
      ) (layer F.Cu) (width 0)
    )
  )

  (module MLIN (layer F.Cu) (tedit 0) (tstamp 0)
    (at 37.25 22.25 0)
    (fp_text reference MS4 (at 0 0.5) (layer F.SilkS)
      (effects (font (size 0.25 0.25) (thickness 0.05)))
    )
    (fp_text value microstrip_line (at 0 -0.5) (layer F.Fab)
      (effects (font (size 0.25 0.25) (thickness 0.05)))
    )
    (fp_poly (pts
      (xy -1.25 10.25)
      (xy 1.25 10.25)
      (xy 1.25 -10.25)
      (xy -1.25 -10.25)
      ) (layer F.Cu) (width 0)
    )
  )

  (module MLIN (layer F.Cu) (tedit 0) (tstamp 0)
    (at 47.5 22.25 0)
    (fp_text reference MS5 (at 0 0.5) (layer F.SilkS)
      (effects (font (size 0.25 0.25) (thickness 0.05)))
    )
    (fp_text value microstrip_line (at 0 -0.5) (layer F.Fab)
      (effects (font (size 0.25 0.25) (thickness 0.05)))
    )
    (fp_poly (pts
      (xy -9 0.25)
      (xy 9 0.25)
      (xy 9 -0.25)
      (xy -9 -0.25)
      ) (layer F.Cu) (width 0)
    )
  )

  (module MLIN (layer F.Cu) (tedit 0) (tstamp 0)
    (at 57.25 22.25 0)
    (fp_text reference MS6 (at 0 0.5) (layer F.SilkS)
      (effects (font (size 0.25 0.25) (thickness 0.05)))
    )
    (fp_text value microstrip_line (at 0 -0.5) (layer F.Fab)
      (effects (font (size 0.25 0.25) (thickness 0.05)))
    )
    (fp_poly (pts
      (xy -0.75 10.25)
      (xy 0.75 10.25)
      (xy 0.75 -10.25)
      (xy -0.75 -10.25)
      ) (layer F.Cu) (width 0)
    )
  )

  (module MLIN (layer F.Cu) (tedit 0) (tstamp 0)
    (at 60.25 22.25 0)
    (fp_text reference MS7 (at 0 0.5) (layer F.SilkS)
      (effects (font (size 0.25 0.25) (thickness 0.05)))
    )
    (fp_text value microstrip_line (at 0 -0.5) (layer F.Fab)
      (effects (font (size 0.25 0.25) (thickness 0.05)))
    )
    (fp_poly (pts
      (xy -2.25 0.25)
      (xy 2.25 0.25)
      (xy 2.25 -0.25)
      (xy -2.25 -0.25)
      ) (layer F.Cu) (width 0)
    )
  )

)
