<?xml version='1.0' encoding='UTF-8' standalone='no'?>
<svg xmlns:xlink="http://www.w3.org/1999/xlink" height="432pt" viewBox="0 0 576 432" xmlns="http://www.w3.org/2000/svg" width="576pt">
 <title>gl2ps_renderer figure</title>
 <desc>
Creator: GL2PS 1.4.2, (C) 1999-2020 C. Geuzaine
For: Octave
CreationDate: Tue Jun 16 23:07:06 2020
</desc>
 <defs/>
 <polygon fill="#ffffff" points="0,0 576,0 576,432 0,432"/>
 <g>
  <polygon fill="#ffffff" shape-rendering="crispEdges" points="0,432 576,432 576,0 0,0"/>
  <clipPath id="cp00576432">
   <polygon points="0,432 576,432 576,0 0,0"/>
  </clipPath>
  <g clip-path="url(#cp00576432)">
   <polygon fill="#ffffff" shape-rendering="crispEdges" points="74.88,384.48 521.28,384.48 521.28,32.4 74.88,32.4"/>
   <polyline stroke="#262626" fill="none" stroke-linejoin="miter" stroke-dasharray="16,0" stroke-linecap="butt" stroke-opacity="0.15" stroke-width="0.5" points="74.88,384.48 74.88,32.4"/>
   <polyline stroke="#262626" fill="none" stroke-linejoin="miter" stroke-dasharray="16,0" stroke-linecap="butt" stroke-opacity="0.15" stroke-width="0.5" points="164.16,384.48 164.16,32.4"/>
   <polyline stroke="#262626" fill="none" stroke-linejoin="miter" stroke-dasharray="16,0" stroke-linecap="butt" stroke-opacity="0.15" stroke-width="0.5" points="253.44,384.48 253.44,32.4"/>
   <polyline stroke="#262626" fill="none" stroke-linejoin="miter" stroke-dasharray="16,0" stroke-linecap="butt" stroke-opacity="0.15" stroke-width="0.5" points="342.72,384.48 342.72,32.4"/>
   <polyline stroke="#262626" fill="none" stroke-linejoin="miter" stroke-dasharray="16,0" stroke-linecap="butt" stroke-opacity="0.15" stroke-width="0.5" points="432,384.48 432,32.4"/>
   <polyline stroke="#262626" fill="none" stroke-linejoin="miter" stroke-dasharray="16,0" stroke-linecap="butt" stroke-opacity="0.15" stroke-width="0.5" points="521.28,384.48 521.28,32.4"/>
   <polyline stroke="#262626" fill="none" stroke-linejoin="miter" stroke-linecap="butt" stroke-width="0.5" points="74.88,384.48 74.88,380.015"/>
   <polyline stroke="#262626" fill="none" stroke-linejoin="miter" stroke-linecap="butt" stroke-width="0.5" points="74.88,32.4 74.88,36.865"/>
   <polyline stroke="#262626" fill="none" stroke-linejoin="miter" stroke-linecap="butt" stroke-width="0.5" points="164.16,384.48 164.16,380.015"/>
   <polyline stroke="#262626" fill="none" stroke-linejoin="miter" stroke-linecap="butt" stroke-width="0.5" points="164.16,32.4 164.16,36.865"/>
   <polyline stroke="#262626" fill="none" stroke-linejoin="miter" stroke-linecap="butt" stroke-width="0.5" points="253.44,384.48 253.44,380.015"/>
   <polyline stroke="#262626" fill="none" stroke-linejoin="miter" stroke-linecap="butt" stroke-width="0.5" points="253.44,32.4 253.44,36.865"/>
   <polyline stroke="#262626" fill="none" stroke-linejoin="miter" stroke-linecap="butt" stroke-width="0.5" points="342.72,384.48 342.72,380.015"/>
   <polyline stroke="#262626" fill="none" stroke-linejoin="miter" stroke-linecap="butt" stroke-width="0.5" points="342.72,32.4 342.72,36.865"/>
   <polyline stroke="#262626" fill="none" stroke-linejoin="miter" stroke-linecap="butt" stroke-width="0.5" points="432,384.48 432,380.015"/>
   <polyline stroke="#262626" fill="none" stroke-linejoin="miter" stroke-linecap="butt" stroke-width="0.5" points="432,32.4 432,36.865"/>
   <polyline stroke="#262626" fill="none" stroke-linejoin="miter" stroke-linecap="butt" stroke-width="0.5" points="521.28,384.48 521.28,380.015"/>
   <polyline stroke="#262626" fill="none" stroke-linejoin="miter" stroke-linecap="butt" stroke-width="0.5" points="521.28,32.4 521.28,36.865"/>
   <text font-family="FreeSans" font-size="10" font-style="normal" xml:space="preserve" transform="translate(71.88,399.982) rotate(-0,3,-8)" font-weight="normal">
    <tspan fill="rgb(38,38,38)" y="-0" x="0 ">0</tspan>
   </text>
   <text font-family="FreeSans" font-size="10" font-style="normal" xml:space="preserve" transform="translate(152.16,399.982) rotate(-0,12,-8)" font-weight="normal">
    <tspan fill="rgb(38,38,38)" y="-0" x="0 6 12 18 ">1000</tspan>
   </text>
   <text font-family="FreeSans" font-size="10" font-style="normal" xml:space="preserve" transform="translate(241.44,399.982) rotate(-0,12,-8)" font-weight="normal">
    <tspan fill="rgb(38,38,38)" y="-0" x="0 6 12 18 ">2000</tspan>
   </text>
   <text font-family="FreeSans" font-size="10" font-style="normal" xml:space="preserve" transform="translate(330.72,399.982) rotate(-0,12,-8)" font-weight="normal">
    <tspan fill="rgb(38,38,38)" y="-0" x="0 6 12 18 ">3000</tspan>
   </text>
   <text font-family="FreeSans" font-size="10" font-style="normal" xml:space="preserve" transform="translate(420,399.982) rotate(-0,12,-8)" font-weight="normal">
    <tspan fill="rgb(38,38,38)" y="-0" x="0 6 12 18 ">4000</tspan>
   </text>
   <text font-family="FreeSans" font-size="10" font-style="normal" xml:space="preserve" transform="translate(509.28,399.982) rotate(-0,12,-8)" font-weight="normal">
    <tspan fill="rgb(38,38,38)" y="-0" x="0 6 12 18 ">5000</tspan>
   </text>
   <polyline stroke="#262626" fill="none" stroke-linejoin="miter" stroke-dasharray="16,0" stroke-linecap="butt" stroke-opacity="0.15" stroke-width="0.5" points="74.88,384.48 521.28,384.48"/>
   <polyline stroke="#262626" fill="none" stroke-linejoin="miter" stroke-dasharray="16,0" stroke-linecap="butt" stroke-opacity="0.15" stroke-width="0.5" points="74.88,334.183 521.28,334.183"/>
   <polyline stroke="#262626" fill="none" stroke-linejoin="miter" stroke-dasharray="16,0" stroke-linecap="butt" stroke-opacity="0.15" stroke-width="0.5" points="74.88,283.886 521.28,283.886"/>
   <polyline stroke="#262626" fill="none" stroke-linejoin="miter" stroke-dasharray="16,0" stroke-linecap="butt" stroke-opacity="0.15" stroke-width="0.5" points="74.88,233.589 521.28,233.589"/>
   <polyline stroke="#262626" fill="none" stroke-linejoin="miter" stroke-dasharray="16,0" stroke-linecap="butt" stroke-opacity="0.15" stroke-width="0.5" points="74.88,183.291 521.28,183.291"/>
   <polyline stroke="#262626" fill="none" stroke-linejoin="miter" stroke-dasharray="16,0" stroke-linecap="butt" stroke-opacity="0.15" stroke-width="0.5" points="74.88,132.994 521.28,132.994"/>
   <polyline stroke="#262626" fill="none" stroke-linejoin="miter" stroke-dasharray="16,0" stroke-linecap="butt" stroke-opacity="0.15" stroke-width="0.5" points="74.88,82.6971 521.28,82.6971"/>
   <polyline stroke="#262626" fill="none" stroke-linejoin="miter" stroke-dasharray="16,0" stroke-linecap="butt" stroke-opacity="0.15" stroke-width="0.5" points="74.88,32.4 521.28,32.4"/>
   <polyline stroke="#262626" fill="none" stroke-linejoin="miter" stroke-linecap="butt" stroke-width="0.5" points="74.88,384.48 79.348,384.48"/>
   <polyline stroke="#262626" fill="none" stroke-linejoin="miter" stroke-linecap="butt" stroke-width="0.5" points="521.28,384.48 516.812,384.48"/>
   <polyline stroke="#262626" fill="none" stroke-linejoin="miter" stroke-linecap="butt" stroke-width="0.5" points="74.88,334.183 79.348,334.183"/>
   <polyline stroke="#262626" fill="none" stroke-linejoin="miter" stroke-linecap="butt" stroke-width="0.5" points="521.28,334.183 516.812,334.183"/>
   <polyline stroke="#262626" fill="none" stroke-linejoin="miter" stroke-linecap="butt" stroke-width="0.5" points="74.88,283.886 79.348,283.886"/>
   <polyline stroke="#262626" fill="none" stroke-linejoin="miter" stroke-linecap="butt" stroke-width="0.5" points="521.28,283.886 516.812,283.886"/>
   <polyline stroke="#262626" fill="none" stroke-linejoin="miter" stroke-linecap="butt" stroke-width="0.5" points="74.88,233.589 79.348,233.589"/>
   <polyline stroke="#262626" fill="none" stroke-linejoin="miter" stroke-linecap="butt" stroke-width="0.5" points="521.28,233.589 516.812,233.589"/>
   <polyline stroke="#262626" fill="none" stroke-linejoin="miter" stroke-linecap="butt" stroke-width="0.5" points="74.88,183.291 79.348,183.291"/>
   <polyline stroke="#262626" fill="none" stroke-linejoin="miter" stroke-linecap="butt" stroke-width="0.5" points="521.28,183.291 516.812,183.291"/>
   <polyline stroke="#262626" fill="none" stroke-linejoin="miter" stroke-linecap="butt" stroke-width="0.5" points="74.88,132.994 79.348,132.994"/>
   <polyline stroke="#262626" fill="none" stroke-linejoin="miter" stroke-linecap="butt" stroke-width="0.5" points="521.28,132.994 516.812,132.994"/>
   <polyline stroke="#262626" fill="none" stroke-linejoin="miter" stroke-linecap="butt" stroke-width="0.5" points="74.88,82.6971 79.348,82.6971"/>
   <polyline stroke="#262626" fill="none" stroke-linejoin="miter" stroke-linecap="butt" stroke-width="0.5" points="521.28,82.6971 516.812,82.6971"/>
   <polyline stroke="#262626" fill="none" stroke-linejoin="miter" stroke-linecap="butt" stroke-width="0.5" points="74.88,32.4 79.348,32.4"/>
   <polyline stroke="#262626" fill="none" stroke-linejoin="miter" stroke-linecap="butt" stroke-width="0.5" points="521.28,32.4 516.812,32.4"/>
   <text font-family="FreeSans" font-size="10" font-style="normal" xml:space="preserve" transform="translate(54.8755,388.48) rotate(-0,15,-4)" font-weight="normal">
    <tspan fill="rgb(38,38,38)" y="-0" x="0 3 9 ">-70</tspan>
   </text>
   <text font-family="FreeSans" font-size="10" font-style="normal" xml:space="preserve" transform="translate(54.8755,338.183) rotate(-0,15,-4)" font-weight="normal">
    <tspan fill="rgb(38,38,38)" y="-0" x="0 3 9 ">-60</tspan>
   </text>
   <text font-family="FreeSans" font-size="10" font-style="normal" xml:space="preserve" transform="translate(54.8755,287.886) rotate(-0,15,-4)" font-weight="normal">
    <tspan fill="rgb(38,38,38)" y="-0" x="0 3 9 ">-50</tspan>
   </text>
   <text font-family="FreeSans" font-size="10" font-style="normal" xml:space="preserve" transform="translate(54.8755,237.589) rotate(-0,15,-4)" font-weight="normal">
    <tspan fill="rgb(38,38,38)" y="-0" x="0 3 9 ">-40</tspan>
   </text>
   <text font-family="FreeSans" font-size="10" font-style="normal" xml:space="preserve" transform="translate(54.8755,187.291) rotate(-0,15,-4)" font-weight="normal">
    <tspan fill="rgb(38,38,38)" y="-0" x="0 3 9 ">-30</tspan>
   </text>
   <text font-family="FreeSans" font-size="10" font-style="normal" xml:space="preserve" transform="translate(54.8755,136.994) rotate(-0,15,-4)" font-weight="normal">
    <tspan fill="rgb(38,38,38)" y="-0" x="0 3 9 ">-20</tspan>
   </text>
   <text font-family="FreeSans" font-size="10" font-style="normal" xml:space="preserve" transform="translate(54.8755,86.6971) rotate(-0,15,-4)" font-weight="normal">
    <tspan fill="rgb(38,38,38)" y="-0" x="0 3 9 ">-10</tspan>
   </text>
   <text font-family="FreeSans" font-size="10" font-style="normal" xml:space="preserve" transform="translate(63.8755,36.4) rotate(-0,6,-4)" font-weight="normal">
    <tspan fill="rgb(38,38,38)" y="-0" x="0 ">0</tspan>
   </text>
   <polyline stroke="#262626" fill="none" stroke-linejoin="miter" stroke-dasharray="16,0" stroke-linecap="square" stroke-width="0.5" points="74.88,384.48 521.28,384.48"/>
   <polyline stroke="#262626" fill="none" stroke-linejoin="miter" stroke-dasharray="16,0" stroke-linecap="square" stroke-width="0.5" points="74.88,32.4 521.28,32.4"/>
   <polyline stroke="#262626" fill="none" stroke-linejoin="miter" stroke-dasharray="16,0" stroke-linecap="square" stroke-width="0.5" points="74.88,384.48 74.88,32.4"/>
   <polyline stroke="#262626" fill="none" stroke-linejoin="miter" stroke-dasharray="16,0" stroke-linecap="square" stroke-width="0.5" points="521.28,384.48 521.28,32.4"/>
   <text font-family="FreeSans" font-size="11" font-style="normal" xml:space="preserve" transform="translate(252.58,416.982) rotate(-0,45.5,-12)" font-weight="normal">
    <tspan fill="rgb(38,38,38)" y="-3" x="0 7 11 17 23 29 35 41 47 52 55 58 61 65 74 82 87 ">Frequency f (MHz)</tspan>
   </text>
   <text font-family="FreeSans" font-size="11" font-style="normal" xml:space="preserve" transform="translate(5.37552,208.44) rotate(-90,44.5,0)" font-weight="normal">
    <tspan fill="rgb(38,38,38)" y="-3" x="0 7 10 16 22 26 32 41 47 50 56 60 65 68 72 78 85 ">S parameters (dB)</tspan>
   </text>
   <text font-family="FreeSans" font-size="11" font-style="normal" xml:space="preserve" transform="translate(263.58,22.4) rotate(-0,34.5,0)" font-weight="bold">
    <tspan fill="rgb(0,0,0)" y="-3" x="0 7 10 17 23 27 33 43 49 53 59 63 ">S parameters</tspan>
   </text>
   <polyline stroke="#ff00ff" fill="none" stroke-linejoin="round" stroke-linecap="butt" stroke-width="2" points="76.6656,124.329 77.5584,124.364 78.4512,124.398 79.344,124.419 80.2368,124.422 81.1296,124.407 82.0224,124.377 82.9152,124.343 83.808,124.314 84.7008,124.303 85.5936,124.318 86.4864,124.36 87.3792,124.428 88.272,124.513 89.1648,124.603 90.0576,124.688 90.9504,124.76 91.8432,124.819 92.736,124.869 93.6288,124.919 94.5216,124.98 95.4144,125.065 96.3072,125.181 97.2,125.331 98.0928,125.512 98.9856,125.717 99.8784,125.935 100.771,126.155 101.664,126.373 102.557,126.587 103.45,126.801 104.342,127.025 105.235,127.271 106.128,127.551 107.021,127.872 107.914,128.238 108.806,128.646 109.699,129.088 110.592,129.556 111.485,130.04 112.378,130.534 113.27,131.037 114.163,131.556 115.056,132.1 115.949,132.68 116.842,133.31 117.734,133.998 118.627,134.748 119.52,135.56 120.413,136.426 121.306,137.339 122.198,138.291 123.091,139.277 123.984,140.298 124.877,141.359 125.77,142.472 126.662,143.653 127.555,144.916 128.448,146.276 129.341,147.739 130.234,149.31 131.126,150.988 132.019,152.768 132.912,154.647 133.805,156.624 134.698,158.706 135.59,160.908 136.483,163.25 137.376,165.763 138.269,168.482 139.162,171.442 140.054,174.684 140.947,178.245 141.84,182.167 142.733,186.499 143.626,191.304 144.518,196.671 145.411,202.735 146.304,209.705 147.197,217.918 148.09,227.948 148.982,240.869 149.875,259.052 150.768,289.449 151.661,333.043 152.554,282.83 153.446,256.422 154.339,240.236 155.232,228.764 156.125,220.007 157.018,213.022 157.91,207.287 158.803,202.483 159.696,198.403 160.589,194.906 161.482,191.899 162.374,189.318 163.267,187.124 164.16,185.291 165.053,183.807 165.946,182.666 166.838,181.867 167.731,181.414 168.624,181.315 169.517,181.581 170.41,182.229 171.302,183.285 172.195,184.787 173.088,186.792 173.981,189.378 174.874,192.655 175.766,196.773 176.659,201.92 177.552,208.303 178.445,215.984 179.338,224.226 180.23,229.697 181.123,226.823 182.016,216.318 182.909,203.815 183.802,192.093 184.694,181.672 185.587,172.441 186.48,164.191 187.373,156.735 188.266,149.926 189.158,143.654 190.051,137.836 190.944,132.409 191.837,127.325 192.73,122.544 193.622,118.035 194.515,113.771 195.408,109.73 196.301,105.892 197.194,102.239 198.086,98.7588 198.979,95.4388 199.872,92.27 200.765,89.245 201.658,86.3578 202.55,83.6035 203.443,80.9776 204.336,78.4758 205.229,76.0938 206.122,73.8274 207.014,71.6721 207.907,69.6239 208.8,67.6787 209.693,65.8328 210.586,64.0828 211.478,62.4254 212.371,60.8575 213.264,59.3759 214.157,57.9771 215.05,56.6577 215.942,55.414 216.835,54.2421 217.728,53.1384 218.621,52.0993 219.514,51.1213 220.406,50.2015 221.299,49.3367 222.192,48.5241 223.085,47.7609 223.978,47.0441 224.87,46.3708 225.763,45.7382 226.656,45.1434 227.549,44.5836 228.442,44.0564 229.334,43.5599 230.227,43.092 231.12,42.6514 232.013,42.2365 232.906,41.8458 233.798,41.4778 234.691,41.1312 235.584,40.804 236.477,40.4947 237.37,40.2017 238.262,39.9236 239.155,39.6595 240.048,39.4085 240.941,39.17 241.834,38.9436 242.726,38.729 243.619,38.5256 244.512,38.3328 245.405,38.1497 246.298,37.9755 247.19,37.8091 248.083,37.6497 248.976,37.4966 249.869,37.3494 250.762,37.2079 251.654,37.0723 252.547,36.9425 253.44,36.8187 254.333,36.7007 255.226,36.5882 256.118,36.4807 257.011,36.3775 257.904,36.278 258.797,36.1814 259.69,36.0876 260.582,35.9963 261.475,35.9077 262.368,35.8221 263.261,35.7399 264.154,35.6611 265.046,35.5859 265.939,35.514 266.832,35.4449 267.725,35.3781 268.618,35.313 269.51,35.2492 270.403,35.1865 271.296,35.1249 272.189,35.0646 273.082,35.0061 273.974,34.9498 274.867,34.8959 275.76,34.8445 276.653,34.7953 277.546,34.7479 278.438,34.7018 279.331,34.6565 280.224,34.6116 281.117,34.5669 282.01,34.5226 282.902,34.4791 283.795,34.4368 284.688,34.3962 285.581,34.3574 286.474,34.3206 287.366,34.2854 288.259,34.2515 289.152,34.2182 290.045,34.1852 290.938,34.152 291.83,34.1188 292.723,34.0855 293.616,34.0528 294.509,34.021 295.402,33.9906 296.294,33.9618 297.187,33.9346 298.08,33.9088 298.973,33.8837 299.866,33.859 300.758,33.8342 301.651,33.809 302.544,33.7834 303.437,33.7577 304.33,33.7323 305.222,33.7078 306.115,33.6844 307.008,33.6627 307.901,33.6423 308.794,33.6229 309.686,33.6042 310.579,33.5855 311.472,33.5665 312.365,33.5468 313.258,33.5267 314.15,33.5063 315.043,33.4862 315.936,33.4669 316.829,33.4489 317.722,33.4323 318.614,33.4169 319.507,33.4024 320.4,33.3883 321.293,33.3741 322.186,33.3592 323.078,33.3437 323.971,33.3275 324.864,33.311 325.757,33.2949 326.65,33.2796 327.542,33.2655 328.435,33.2528 329.328,33.2413 330.221,33.2305 331.114,33.22 332.006,33.2091 332.899,33.1974 333.792,33.1849 334.685,33.1718 335.578,33.1583 336.47,33.1452 337.363,33.133 338.256,33.122 339.149,33.1125 340.042,33.104 340.934,33.0963 341.827,33.0885 342.72,33.0802 343.613,33.071 344.506,33.0608 345.398,33.0499 346.291,33.0388 347.184,33.028 348.077,33.0182 348.97,33.0099 349.862,33.0029 350.755,32.997 351.648,32.9916 352.541,32.9862 353.434,32.98 354.326,32.9727 355.219,32.9643 356.112,32.9551 357.005,32.9457 357.898,32.937 358.79,32.9292 359.683,32.923 360.576,32.9182 361.469,32.9145 362.362,32.9113 363.254,32.9077 364.147,32.9032 365.04,32.8974 365.933,32.8904 366.826,32.8825 367.718,32.8746 368.611,32.8672 369.504,32.8613 370.397,32.8569 371.29,32.8541 372.182,32.8524 373.075,32.851 373.968,32.8491 374.861,32.846 375.754,32.8414 376.646,32.8354 377.539,32.8285 378.432,32.8216 379.325,32.8156 380.218,32.811 381.11,32.8084 382.003,32.8074 382.896,32.8076 383.789,32.8079 384.682,32.8076 385.574,32.8056 386.467,32.8019 387.36,32.7966 388.253,32.7903 389.146,32.7841 390.038,32.7791 390.931,32.7758 391.824,32.7748 392.717,32.7757 393.61,32.7778 394.502,32.7799 395.395,32.7809 396.288,32.78 397.181,32.7769 398.074,32.7719 398.966,32.7658 399.859,32.7599 400.752,32.7556 401.645,32.7535 402.538,32.7542 403.43,32.7572 404.323,32.7614 405.216,32.7655 406.109,32.7681 407.002,32.7681 407.894,32.7653 408.787,32.76 409.68,32.7536 410.573,32.7477 411.466,32.7437 412.358,32.743 413.251,32.7457 414.144,32.7515 415.037,32.7587 415.93,32.7656 416.822,32.7702 417.715,32.7713 418.608,32.7685 419.501,32.7626 420.394,32.7552 421.286,32.7486 422.179,32.7451 423.072,32.7463 423.965,32.7526 424.858,32.7632 425.75,32.7759 426.643,32.7881 427.536,32.7969 428.429,32.8003 429.322,32.7979 430.214,32.791 431.107,32.782 432,32.775 432.893,32.7735 433.786,32.7805 434.678,32.7968 435.571,32.8212 436.464,32.8503 437.357,32.8793 438.25,32.9034 439.142,32.9189 440.035,32.9247 440.928,32.9236 441.821,32.9221 442.714,32.9296 443.606,32.9572 444.499,33.0156 445.392,33.1129 446.285,33.2527 447.178,33.433 448.07,33.6454 448.963,33.8759 449.856,34.1059 450.749,34.3156 451.642,34.4861 452.534,34.603 453.427,34.6584 454.32,34.652 455.213,34.5909 456.106,34.487 456.998,34.3551 457.891,34.2097 458.784,34.0626 459.677,33.9219 460.57,33.7912 461.462,33.6707 462.355,33.5582 463.248,33.4507 464.141,33.3463 465.034,33.2444 465.926,33.147 466.819,33.0577 467.712,32.981 468.605,32.921 469.498,32.8801 470.39,32.8583 471.283,32.8532 472.176,32.8599 473.069,32.8719 473.962,32.8831 474.854,32.8881 475.747,32.8841 476.64,32.8709 477.533,32.8511 478.426,32.8289 479.318,32.8091 480.211,32.796 481.104,32.7919 481.997,32.7973 482.89,32.81 483.782,32.8261 484.675,32.8413 485.568,32.8515 486.461,32.8541 487.354,32.8487 488.246,32.837 489.139,32.8225 490.032,32.8093 490.925,32.8011 491.818,32.8003 492.71,32.8073 493.603,32.8206 494.496,32.837 495.389,32.8525 496.282,32.8633 497.174,32.8673 498.067,32.8638 498.96,32.8545 499.853,32.8425 500.746,32.8315 501.638,32.8253 502.531,32.826 503.424,32.8343 504.317,32.8484 505.21,32.8654 506.102,32.8813 506.995,32.8927 507.888,32.8971 508.781,32.8941 509.674,32.8854 510.566,32.874 511.459,32.864 512.352,32.8588 513.245,32.8607 514.138,32.8704 515.03,32.8859 515.923,32.9041 516.816,32.9211 517.709,32.933 518.602,32.9375 519.494,32.9343 520.387,32.9252 521.28,32.9135"/>
   <polyline stroke="#00ff00" fill="none" stroke-linejoin="round" stroke-linecap="butt" stroke-width="2" points="76.6656,38.0398 77.5584,38.0838 78.4512,38.1273 79.344,38.1591 80.2368,38.1718 81.1296,38.1631 82.0224,38.136 82.9152,38.0981 83.808,38.0597 84.7008,38.0311 85.5936,38.0203 86.4864,38.0307 87.3792,38.0599 88.272,38.1005 89.1648,38.1416 90.0576,38.1727 90.9504,38.1861 91.8432,38.1789 92.736,38.1536 93.6288,38.1177 94.5216,38.0807 95.4144,38.0529 96.3072,38.0417 97.2,38.0503 98.0928,38.0766 98.9856,38.1137 99.8784,38.1521 100.771,38.1821 101.664,38.1964 102.557,38.1921 103.45,38.1714 104.342,38.1405 105.235,38.1083 106.128,38.0839 107.021,38.0741 107.914,38.0819 108.806,38.1056 109.699,38.1394 110.592,38.1751 111.485,38.204 112.378,38.2197 113.27,38.2195 114.163,38.2049 115.056,38.1812 115.949,38.156 116.842,38.1371 117.734,38.1306 118.627,38.1393 119.52,38.1619 120.413,38.1936 121.306,38.2276 122.198,38.2566 123.091,38.2751 123.984,38.2804 124.877,38.2737 125.77,38.2593 126.662,38.2433 127.555,38.2324 128.448,38.2316 129.341,38.2435 130.234,38.2672 131.126,38.2991 132.019,38.3336 132.912,38.3647 133.805,38.3877 134.698,38.4004 135.59,38.4034 136.483,38.4 137.376,38.3952 138.269,38.3942 139.162,38.4013 140.054,38.4187 140.947,38.4459 141.84,38.4801 142.733,38.5169 143.626,38.5517 144.518,38.5805 145.411,38.6014 146.304,38.6147 147.197,38.6227 148.09,38.6293 148.982,38.6387 149.875,38.6542 150.768,38.6776 151.661,38.7088 152.554,38.7457 153.446,38.7849 154.339,38.8229 155.232,38.8565 156.125,38.8842 157.018,38.9059 157.91,38.9233 158.803,38.9394 159.696,38.9571 160.589,38.9792 161.482,39.0071 162.374,39.0409 163.267,39.0792 164.16,39.1196 165.053,39.1594 165.946,39.1964 166.838,39.2292 167.731,39.2581 168.624,39.284 169.517,39.3092 170.41,39.336 171.302,39.3666 172.195,39.4023 173.088,39.4435 173.981,39.4893 174.874,39.5385 175.766,39.5894 176.659,39.6408 177.552,39.6921 178.445,39.7437 179.338,39.7966 180.23,39.8528 181.123,39.9146 182.016,39.9838 182.909,40.0621 183.802,40.1503 184.694,40.2489 185.587,40.3578 186.48,40.4768 187.373,40.6061 188.266,40.7463 189.158,40.8986 190.051,41.0647 190.944,41.2471 191.837,41.4481 192.73,41.67 193.622,41.9153 194.515,42.1855 195.408,42.4822 196.301,42.8066 197.194,43.16 198.086,43.5437 198.979,43.9591 199.872,44.408 200.765,44.8922 201.658,45.4135 202.55,45.9738 203.443,46.5745 204.336,47.2167 205.229,47.9013 206.122,48.6287 207.014,49.3992 207.907,50.2128 208.8,51.0693 209.693,51.9686 210.586,52.9102 211.478,53.8934 212.371,54.9173 213.264,55.9805 214.157,57.0813 215.05,58.218 215.942,59.3885 216.835,60.5909 217.728,61.8234 218.621,63.0843 219.514,64.3721 220.406,65.6851 221.299,67.0218 222.192,68.3804 223.085,69.7585 223.978,71.1541 224.87,72.5643 225.763,73.9869 226.656,75.4196 227.549,76.8607 228.442,78.3088 229.334,79.7632 230.227,81.2234 231.12,82.6891 232.013,84.1597 232.906,85.6345 233.798,87.1121 234.691,88.5907 235.584,90.0685 236.477,91.5435 237.37,93.0141 238.262,94.4794 239.155,95.9391 240.048,97.3936 240.941,98.8438 241.834,100.29 242.726,101.734 243.619,103.175 244.512,104.612 245.405,106.045 246.298,107.471 247.19,108.889 248.083,110.297 248.976,111.695 249.869,113.082 250.762,114.46 251.654,115.83 252.547,117.193 253.44,118.552 254.333,119.907 255.226,121.258 256.118,122.603 257.011,123.941 257.904,125.269 258.797,126.586 259.69,127.891 260.582,129.183 261.475,130.464 262.368,131.737 263.261,133.003 264.154,134.264 265.046,135.522 265.939,136.778 266.832,138.029 267.725,139.273 268.618,140.509 269.51,141.733 270.403,142.944 271.296,144.141 272.189,145.327 273.082,146.503 273.974,147.673 274.867,148.839 275.76,150.004 276.653,151.167 277.546,152.328 278.438,153.485 279.331,154.633 280.224,155.771 281.117,156.895 282.01,158.005 282.902,159.102 283.795,160.188 284.688,161.268 285.581,162.345 286.474,163.421 287.366,164.499 288.259,165.578 289.152,166.655 290.045,167.725 290.938,168.786 291.83,169.832 292.723,170.862 293.616,171.877 294.509,172.88 295.402,173.876 296.294,174.869 297.187,175.864 298.08,176.863 298.973,177.866 299.866,178.871 300.758,179.872 301.651,180.864 302.544,181.841 303.437,182.8 304.33,183.74 305.222,184.666 306.115,185.583 307.008,186.496 307.901,187.414 308.794,188.34 309.686,189.274 310.579,190.214 311.472,191.154 312.365,192.086 313.258,193.003 314.15,193.898 315.043,194.771 315.936,195.624 316.829,196.464 317.722,197.301 318.614,198.144 319.507,198.999 320.4,199.87 321.293,200.753 322.186,201.64 323.078,202.522 323.971,203.387 324.864,204.225 325.757,205.034 326.65,205.817 327.542,206.581 328.435,207.341 329.328,208.109 330.221,208.896 331.114,209.707 332.006,210.539 332.899,211.384 333.792,212.225 334.685,213.047 335.578,213.836 336.47,214.585 337.363,215.297 338.256,215.982 339.149,216.66 340.042,217.349 340.934,218.067 341.827,218.822 342.72,219.611 343.613,220.423 344.506,221.235 345.398,222.024 346.291,222.769 347.184,223.458 348.077,224.094 348.97,224.691 349.862,225.276 350.755,225.878 351.648,226.522 352.541,227.221 353.434,227.975 354.326,228.765 355.219,229.562 356.112,230.329 357.005,231.035 357.898,231.66 358.79,232.207 359.683,232.697 360.576,233.17 361.469,233.667 362.362,234.227 363.254,234.871 364.147,235.597 365.04,236.38 365.933,237.177 366.826,237.933 367.718,238.599 368.611,239.147 369.504,239.578 370.397,239.927 371.29,240.251 372.182,240.614 373.075,241.072 373.968,241.655 374.861,242.362 375.754,243.156 376.646,243.97 377.539,244.723 378.432,245.341 379.325,245.78 380.218,246.046 381.11,246.192 382.003,246.309 382.896,246.49 383.789,246.818 384.682,247.333 385.574,248.032 386.467,248.857 387.36,249.71 388.253,250.464 389.146,251.009 390.038,251.281 390.931,251.296 391.824,251.144 392.717,250.964 393.61,250.898 394.502,251.058 395.395,251.497 396.288,252.204 397.181,253.092 398.074,254.007 398.966,254.762 399.859,255.185 400.752,255.19 401.645,254.82 402.538,254.23 403.43,253.634 404.323,253.236 405.216,253.183 406.109,253.543 407.002,254.285 407.894,255.279 408.787,256.293 409.68,257.039 410.573,257.259 411.466,256.841 412.358,255.885 413.251,254.66 414.144,253.487 415.037,252.647 415.93,252.323 416.822,252.587 417.715,253.387 418.608,254.531 419.501,255.676 420.394,256.379 421.286,256.242 422.179,255.132 423.072,253.268 423.965,251.1 424.858,249.096 425.75,247.613 426.643,246.864 427.536,246.916 428.429,247.693 429.322,248.93 430.214,250.129 431.107,250.602 432,249.73 432.893,247.37 433.786,243.974 434.678,240.263 435.571,236.871 436.464,234.204 437.357,232.47 438.25,231.716 439.142,231.828 440.035,232.461 440.928,232.924 441.821,232.191 442.714,229.335 443.606,224.256 444.499,217.753 445.392,210.839 446.285,204.227 447.178,198.287 448.07,193.171 448.963,188.92 449.856,185.529 450.749,182.973 451.642,181.229 452.534,180.272 453.427,180.087 454.32,180.665 455.213,182.006 456.106,184.117 456.998,187.019 457.891,190.743 458.784,195.34 459.677,200.88 460.57,207.465 461.462,215.242 462.355,224.429 463.248,235.363 464.141,248.608 465.034,265.196 465.926,287.318 466.819,320.502 467.712,354.84 468.605,324.104 469.498,305.86 470.39,297.034 471.283,293.279 472.176,292.876 473.069,295.041 473.962,299.363 474.854,305.522 475.747,312.945 476.64,320.18 477.533,324.461 478.426,323.693 479.318,319.325 480.211,314.246 481.104,310.146 481.997,307.646 482.89,306.931 483.782,308.079 484.675,311.149 485.568,316.162 486.461,322.882 487.354,330.134 488.246,334.733 489.139,333.208 490.032,326.955 490.925,319.944 491.818,314.329 492.71,310.75 493.603,309.341 494.496,310.146 495.389,313.248 496.282,318.754 497.174,326.57 498.067,335.439 498.96,340.8 499.853,337.493 500.746,328.862 501.638,320.449 502.531,314.232 503.424,310.508 504.317,309.225 505.21,310.354 506.102,313.947 506.995,320.087 507.888,328.521 508.781,337.268 509.674,340.519 510.566,334.755 511.459,325.523 512.352,317.523 513.245,311.982 514.138,308.983 515.03,308.435 515.923,310.296 516.816,314.576 517.709,321.157 518.602,329.127 519.494,335.156 520.387,334.213 521.28,327.12"/>
  </g>
  <clipPath id="cp00576432">
   <polygon points="0,432 576,432 576,0 0,0"/>
  </clipPath>
  <g clip-path="url(#cp00576432)">
   <polygon fill="#ffffff" shape-rendering="crispEdges" points="465.693,70.8236 510.297,70.8236 510.297,43.3832 465.693,43.3832"/>
   <polyline stroke="#262626" fill="none" stroke-linejoin="miter" stroke-dasharray="16,0" stroke-linecap="square" stroke-width="0.5" points="465.693,70.8236 510.297,70.8236"/>
   <polyline stroke="#262626" fill="none" stroke-linejoin="miter" stroke-dasharray="16,0" stroke-linecap="square" stroke-width="0.5" points="465.693,43.3832 510.297,43.3832"/>
   <polyline stroke="#262626" fill="none" stroke-linejoin="miter" stroke-dasharray="16,0" stroke-linecap="square" stroke-width="0.5" points="465.693,70.8236 465.693,43.3832"/>
   <polyline stroke="#262626" fill="none" stroke-linejoin="miter" stroke-dasharray="16,0" stroke-linecap="square" stroke-width="0.5" points="510.297,70.8236 510.297,43.3832"/>
   <text font-family="FreeSans" font-size="9" font-style="normal" xml:space="preserve" transform="translate(492.693,54.2433) rotate(-0,-0,-4)" font-weight="normal">
    <tspan fill="rgb(0,0,0)" y="-0" x="0 4 9 ">s11</tspan>
   </text>
   <text font-family="FreeSans" font-size="9" font-style="normal" xml:space="preserve" transform="translate(492.693,67.9635) rotate(-0,-0,-4)" font-weight="normal">
    <tspan fill="rgb(0,0,0)" y="-0" x="0 4 9 ">s21</tspan>
   </text>
   <polyline stroke="#ff00ff" fill="none" stroke-linejoin="round" stroke-linecap="butt" stroke-width="2" points="468.896,50.2433 489.49,50.2433"/>
   <polyline stroke="#00ff00" fill="none" stroke-linejoin="round" stroke-linecap="butt" stroke-width="2" points="468.896,63.9635 489.49,63.9635"/>
  </g>
 </g>
</svg>
