(export (version D)
  (design
    (source /home/nop/Radioamateur/git/Transverter_23cm/Filtre/LPF_1.8GHz/LPF_1800GHz/LPF_1800GHz.sch)
    (date "jeu. 16 janv. 2020 22:04:25 CET")
    (tool "Eeschema 5.1.5")
    (sheet (number 1) (name /) (tstamps /)
      (title_block
        (title)
        (company)
        (rev)
        (date)
        (source LPF_1800GHz.sch)
        (comment (number 1) (value ""))
        (comment (number 2) (value ""))
        (comment (number 3) (value ""))
        (comment (number 4) (value "")))))
  (components
    (comp (ref J2)
      (value Conn_Coaxial)
      (footprint lib_kicad:SMA)
      (datasheet " ~")
      (libsource (lib Connector) (part Conn_Coaxial) (description "coaxial connector (BNC, SMA, SMB, SMC, Cinch/RCA, ...)"))
      (sheetpath (names /) (tstamps /))
      (tstamp 5E1F809F))
    (comp (ref J1)
      (value Conn_Coaxial)
      (footprint lib_kicad:SMA)
      (datasheet " ~")
      (libsource (lib Connector) (part Conn_Coaxial) (description "coaxial connector (BNC, SMA, SMB, SMC, Cinch/RCA, ...)"))
      (sheetpath (names /) (tstamps /))
      (tstamp 5E1F9271)))
  (libparts
    (libpart (lib Connector) (part Conn_Coaxial)
      (description "coaxial connector (BNC, SMA, SMB, SMC, Cinch/RCA, ...)")
      (docs " ~")
      (footprints
        (fp *BNC*)
        (fp *SMA*)
        (fp *SMB*)
        (fp *SMC*)
        (fp *Cinch*))
      (fields
        (field (name Reference) J)
        (field (name Value) Conn_Coaxial))
      (pins
        (pin (num 1) (name In) (type passive))
        (pin (num 2) (name Ext) (type passive)))))
  (libraries
    (library (logical Connector)
      (uri /usr/share/kicad/library/Connector.lib)))
  (nets
    (net (code 1) (name GND)
      (node (ref J2) (pin 2))
      (node (ref J1) (pin 2)))
    (net (code 2) (name "Net-(J1-Pad1)")
      (node (ref J2) (pin 1))
      (node (ref J1) (pin 1)))))