EESchema Schematic File Version 4
LIBS:COMMUT_TRX-cache
EELAYER 29 0
EELAYER END
$Descr A4 11693 8268
encoding utf-8
Sheet 1 1
Title ""
Date ""
Rev ""
Comp ""
Comment1 ""
Comment2 ""
Comment3 ""
Comment4 ""
$EndDescr
$Comp
L tq2-5v:TQ2-5V U30
U 1 1 5B3E8544
P 8600 5300
F 0 "U30" H 8400 5100 60  0000 C CNN
F 1 "TQ2-5V" H 8500 5200 60  0000 C CNN
F 2 "Librairie_Kicad:TQ2-5V" H 8600 5300 60  0001 C CNN
F 3 "" H 8600 5300 60  0001 C CNN
	1    8600 5300
	1    0    0    -1  
$EndComp
$Comp
L sma:SMA J32
U 1 1 5B3E858C
P 9000 4150
F 0 "J32" H 9125 4465 60  0000 C CNN
F 1 "SMA" H 9190 4390 60  0000 C CNN
F 2 "Librairie_Kicad:SMA" H 9175 4320 50  0000 C CNN
F 3 "" H 9000 4150 60  0001 C CNN
	1    9000 4150
	1    0    0    -1  
$EndComp
$Comp
L power:GND #PWR0101
U 1 1 5B3E8673
P 8900 4150
F 0 "#PWR0101" H 8900 3900 50  0001 C CNN
F 1 "GND" H 8900 4000 50  0000 C CNN
F 2 "" H 8900 4150 50  0001 C CNN
F 3 "" H 8900 4150 50  0001 C CNN
	1    8900 4150
	1    0    0    -1  
$EndComp
Wire Wire Line
	8900 4150 8900 4050
Wire Wire Line
	8900 4050 8950 4050
Connection ~ 8950 4050
Connection ~ 9000 4050
$Comp
L sma:SMA J31
U 1 1 5B3E8740
P 9600 5050
F 0 "J31" H 9725 5365 60  0000 C CNN
F 1 "SMA" H 9790 5290 60  0000 C CNN
F 2 "Librairie_Kicad:SMA" H 9775 5220 50  0000 C CNN
F 3 "" H 9600 5050 60  0001 C CNN
	1    9600 5050
	1    0    0    -1  
$EndComp
$Comp
L power:GND #PWR0102
U 1 1 5B3E8746
P 9500 5050
F 0 "#PWR0102" H 9500 4800 50  0001 C CNN
F 1 "GND" H 9500 4900 50  0000 C CNN
F 2 "" H 9500 5050 50  0001 C CNN
F 3 "" H 9500 5050 50  0001 C CNN
	1    9500 5050
	1    0    0    -1  
$EndComp
Wire Wire Line
	9500 5050 9500 4950
Wire Wire Line
	9500 4950 9550 4950
Connection ~ 9550 4950
Connection ~ 9600 4950
$Comp
L sma:SMA J30
U 1 1 5B3E87C2
P 8250 4700
F 0 "J30" H 8375 5015 60  0000 C CNN
F 1 "SMA" H 8440 4940 60  0000 C CNN
F 2 "Librairie_Kicad:SMA" H 8425 4870 50  0000 C CNN
F 3 "" H 8250 4700 60  0001 C CNN
	1    8250 4700
	-1   0    0    -1  
$EndComp
$Comp
L power:GND #PWR0103
U 1 1 5B3E87C8
P 8350 4700
F 0 "#PWR0103" H 8350 4450 50  0001 C CNN
F 1 "GND" H 8350 4550 50  0000 C CNN
F 2 "" H 8350 4700 50  0001 C CNN
F 3 "" H 8350 4700 50  0001 C CNN
	1    8350 4700
	-1   0    0    -1  
$EndComp
Wire Wire Line
	8350 4600 8350 4700
Wire Wire Line
	8200 4600 8250 4600
Connection ~ 8300 4600
Connection ~ 8250 4600
Wire Wire Line
	8400 4400 8600 4400
Wire Wire Line
	8700 3850 8850 3850
Wire Wire Line
	9450 4750 8800 4750
Wire Wire Line
	8800 4750 8800 4800
Wire Wire Line
	8950 4050 9000 4050
Wire Wire Line
	9000 4050 9050 4050
Wire Wire Line
	9550 4950 9600 4950
Wire Wire Line
	9600 4950 9650 4950
Wire Wire Line
	8300 4600 8350 4600
Wire Wire Line
	8250 4600 8300 4600
$Comp
L Diode:LL4148 D30
U 1 1 5BAAAB6C
P 7550 5200
F 0 "D30" V 7504 5279 50  0000 L CNN
F 1 "LL4148" V 7595 5279 50  0000 L CNN
F 2 "Diode_SMD:D_MiniMELF" H 7550 5025 50  0001 C CNN
F 3 "http://www.vishay.com/docs/85557/ll4148.pdf" H 7550 5200 50  0001 C CNN
	1    7550 5200
	0    1    1    0   
$EndComp
Wire Wire Line
	8600 4400 8600 4800
Wire Wire Line
	8700 3850 8700 4800
Wire Wire Line
	8100 5250 8100 5350
Wire Wire Line
	8100 5350 7550 5350
Wire Wire Line
	8100 5050 8100 5150
$Comp
L Device:C C12
U 1 1 5BABEA6E
P 3700 1300
F 0 "C12" H 3815 1346 50  0000 L CNN
F 1 "100nF" H 3815 1255 50  0000 L CNN
F 2 "Capacitor_SMD:C_0603_1608Metric_Pad1.05x0.95mm_HandSolder" H 3738 1150 50  0001 C CNN
F 3 "~" H 3700 1300 50  0001 C CNN
	1    3700 1300
	1    0    0    -1  
$EndComp
$Comp
L power:GND #PWR0104
U 1 1 5BAC42C4
P 3100 1600
F 0 "#PWR0104" H 3100 1350 50  0001 C CNN
F 1 "GND" H 3105 1427 50  0000 C CNN
F 2 "" H 3100 1600 50  0001 C CNN
F 3 "" H 3100 1600 50  0001 C CNN
	1    3100 1600
	1    0    0    -1  
$EndComp
$Comp
L power:GND #PWR0105
U 1 1 5BAC42E9
P 3700 1500
F 0 "#PWR0105" H 3700 1250 50  0001 C CNN
F 1 "GND" H 3705 1327 50  0000 C CNN
F 2 "" H 3700 1500 50  0001 C CNN
F 3 "" H 3700 1500 50  0001 C CNN
	1    3700 1500
	1    0    0    -1  
$EndComp
Wire Wire Line
	3700 1500 3700 1450
Wire Wire Line
	3100 1600 3100 1550
$Comp
L ams1117:AMS1117 U11
U 1 1 5BAC681C
P 3100 1150
F 0 "U11" H 3100 1437 60  0000 C CNN
F 1 "AMS1117" H 3100 1331 60  0000 C CNN
F 2 "Package_TO_SOT_SMD:SOT-223-3_TabPin2" H 3100 1150 60  0001 C CNN
F 3 "" H 3100 1150 60  0001 C CNN
	1    3100 1150
	1    0    0    -1  
$EndComp
Wire Wire Line
	3550 1150 3700 1150
Connection ~ 3700 1150
Wire Wire Line
	3700 1150 4250 1150
Connection ~ 8350 4600
Connection ~ 8900 4050
Connection ~ 9500 4950
$Comp
L COMMUT_TRX-rescue:AS179-92LF-AS179-92LF-rescue U20
U 1 1 5AD5E732
P 8200 2250
F 0 "U20" H 8200 2550 60  0000 C CNN
F 1 "AS179-92LF" H 8200 1950 60  0000 C CNN
F 2 "Package_TO_SOT_SMD:SOT-363_SC-70-6_Handsoldering" H 8200 2250 60  0001 C CNN
F 3 "" H 8200 2250 60  0001 C CNN
	1    8200 2250
	1    0    0    -1  
$EndComp
$Comp
L COMMUT_TRX-rescue:C-AS179-92LF-rescue C20
U 1 1 5AD5E773
P 7300 2050
F 0 "C20" H 7325 2150 50  0000 L CNN
F 1 "15pF" H 7325 1950 50  0000 L CNN
F 2 "Capacitor_SMD:C_0603_1608Metric_Pad1.05x0.95mm_HandSolder" H 7338 1900 50  0001 C CNN
F 3 "" H 7300 2050 50  0001 C CNN
	1    7300 2050
	0    1    1    0   
$EndComp
$Comp
L COMMUT_TRX-rescue:C-AS179-92LF-rescue C21
U 1 1 5AD5E86E
P 7300 2450
F 0 "C21" H 7325 2550 50  0000 L CNN
F 1 "15pF" H 7325 2350 50  0000 L CNN
F 2 "Capacitor_SMD:C_0603_1608Metric_Pad1.05x0.95mm_HandSolder" H 7338 2300 50  0001 C CNN
F 3 "" H 7300 2450 50  0001 C CNN
	1    7300 2450
	0    1    1    0   
$EndComp
$Comp
L COMMUT_TRX-rescue:C-AS179-92LF-rescue C22
U 1 1 5AD5E897
P 9150 2250
F 0 "C22" H 9175 2350 50  0000 L CNN
F 1 "15pF" H 9175 2150 50  0000 L CNN
F 2 "Capacitor_SMD:C_0603_1608Metric_Pad1.05x0.95mm_HandSolder" H 9188 2100 50  0001 C CNN
F 3 "" H 9150 2250 50  0001 C CNN
	1    9150 2250
	0    1    1    0   
$EndComp
Wire Wire Line
	7450 2050 7650 2050
Wire Wire Line
	7450 2450 7650 2450
Wire Wire Line
	7150 2450 6500 2450
Wire Wire Line
	7150 2050 6750 2050
Wire Wire Line
	8750 2250 9000 2250
Wire Wire Line
	9300 2250 9650 2250
$Comp
L sma:SMA J23
U 1 1 5AD5EA2A
P 9800 2550
F 0 "J23" H 9925 2865 60  0000 C CNN
F 1 "SMA" H 9990 2790 60  0000 C CNN
F 2 "Librairie_Kicad:SMA" H 9975 2720 50  0000 C CNN
F 3 "" H 9800 2550 60  0001 C CNN
	1    9800 2550
	1    0    0    -1  
$EndComp
$Comp
L sma:SMA J20
U 1 1 5AD5EADF
P 6600 2350
F 0 "J20" H 6725 2665 60  0000 C CNN
F 1 "SMA" H 6790 2590 60  0000 C CNN
F 2 "Librairie_Kicad:SMA" H 6775 2520 50  0000 C CNN
F 3 "" H 6600 2350 60  0001 C CNN
	1    6600 2350
	-1   0    0    -1  
$EndComp
$Comp
L sma:SMA J21
U 1 1 5AD5EB71
P 6350 2750
F 0 "J21" H 6475 3065 60  0000 C CNN
F 1 "SMA" H 6540 2990 60  0000 C CNN
F 2 "Librairie_Kicad:SMA" H 6525 2920 50  0000 C CNN
F 3 "" H 6350 2750 60  0001 C CNN
	1    6350 2750
	-1   0    0    -1  
$EndComp
Wire Wire Line
	6550 2250 6600 2250
Wire Wire Line
	6600 2250 6650 2250
Connection ~ 6600 2250
Connection ~ 6650 2250
Wire Wire Line
	6300 2650 6350 2650
Connection ~ 6350 2650
Connection ~ 6400 2650
Wire Wire Line
	6450 2650 6450 2700
Wire Wire Line
	7600 2250 7650 2250
Wire Wire Line
	8750 2450 9350 2450
Wire Wire Line
	9350 2450 9350 1950
Wire Wire Line
	8750 2050 9150 2050
Wire Wire Line
	9150 2050 9150 1850
Wire Wire Line
	9700 2450 9750 2450
Connection ~ 9750 2450
Connection ~ 9800 2450
Wire Wire Line
	9850 2450 9850 2500
$Comp
L power:GND #PWR0106
U 1 1 5AD5EDCE
P 9850 2500
F 0 "#PWR0106" H 9850 2250 50  0001 C CNN
F 1 "GND" H 9850 2350 50  0000 C CNN
F 2 "" H 9850 2500 50  0001 C CNN
F 3 "" H 9850 2500 50  0001 C CNN
	1    9850 2500
	1    0    0    -1  
$EndComp
$Comp
L power:GND #PWR0107
U 1 1 5AD5EE1B
P 7600 2250
F 0 "#PWR0107" H 7600 2000 50  0001 C CNN
F 1 "GND" H 7600 2100 50  0000 C CNN
F 2 "" H 7600 2250 50  0001 C CNN
F 3 "" H 7600 2250 50  0001 C CNN
	1    7600 2250
	1    0    0    -1  
$EndComp
$Comp
L power:GND #PWR0108
U 1 1 5AD5EE3E
P 6750 2250
F 0 "#PWR0108" H 6750 2000 50  0001 C CNN
F 1 "GND" H 6750 2100 50  0000 C CNN
F 2 "" H 6750 2250 50  0001 C CNN
F 3 "" H 6750 2250 50  0001 C CNN
	1    6750 2250
	1    0    0    -1  
$EndComp
$Comp
L power:GND #PWR0109
U 1 1 5AD5EE61
P 6450 2700
F 0 "#PWR0109" H 6450 2450 50  0001 C CNN
F 1 "GND" H 6450 2550 50  0000 C CNN
F 2 "" H 6450 2700 50  0001 C CNN
F 3 "" H 6450 2700 50  0001 C CNN
	1    6450 2700
	1    0    0    -1  
$EndComp
Wire Wire Line
	6650 2250 6700 2250
Wire Wire Line
	6350 2650 6400 2650
Wire Wire Line
	6400 2650 6450 2650
Wire Wire Line
	9750 2450 9800 2450
Wire Wire Line
	9800 2450 9850 2450
$Comp
L Transistor_FET:2N7002 Q10
U 1 1 5C6C6D47
P 2650 3300
F 0 "Q10" H 2855 3346 50  0000 L CNN
F 1 "2N7002" H 2855 3255 50  0000 L CNN
F 2 "Package_TO_SOT_SMD:SOT-23" H 2850 3225 50  0001 L CIN
F 3 "https://www.fairchildsemi.com/datasheets/2N/2N7002.pdf" H 2650 3300 50  0001 L CNN
	1    2650 3300
	1    0    0    -1  
$EndComp
$Comp
L Device:R R12
U 1 1 5C6C6DC5
P 2750 2850
F 0 "R12" H 2820 2896 50  0000 L CNN
F 1 "910R" H 2820 2805 50  0000 L CNN
F 2 "Resistor_SMD:R_0603_1608Metric_Pad1.05x0.95mm_HandSolder" V 2680 2850 50  0001 C CNN
F 3 "~" H 2750 2850 50  0001 C CNN
	1    2750 2850
	1    0    0    -1  
$EndComp
Wire Wire Line
	2750 3100 2750 3050
Wire Wire Line
	2750 2700 2750 2600
$Comp
L power:+8V #PWR0110
U 1 1 5C6C7E8D
P 2400 1100
F 0 "#PWR0110" H 2400 950 50  0001 C CNN
F 1 "+8V" H 2415 1273 50  0000 C CNN
F 2 "" H 2400 1100 50  0001 C CNN
F 3 "" H 2400 1100 50  0001 C CNN
	1    2400 1100
	1    0    0    -1  
$EndComp
Wire Wire Line
	2400 1100 2400 1150
Wire Wire Line
	1600 1150 1450 1150
$Comp
L power:GND #PWR0111
U 1 1 5C6C8B3F
P 1900 1500
F 0 "#PWR0111" H 1900 1250 50  0001 C CNN
F 1 "GND" H 1905 1327 50  0000 C CNN
F 2 "" H 1900 1500 50  0001 C CNN
F 3 "" H 1900 1500 50  0001 C CNN
	1    1900 1500
	1    0    0    -1  
$EndComp
Wire Wire Line
	1900 1500 1900 1450
Wire Wire Line
	1300 3300 1400 3300
Wire Wire Line
	2750 3500 2750 3600
$Comp
L power:GND #PWR0112
U 1 1 5C6CA89D
P 2750 3600
F 0 "#PWR0112" H 2750 3350 50  0001 C CNN
F 1 "GND" H 2755 3427 50  0000 C CNN
F 2 "" H 2750 3600 50  0001 C CNN
F 3 "" H 2750 3600 50  0001 C CNN
	1    2750 3600
	1    0    0    -1  
$EndComp
$Comp
L Transistor_FET:2N7002 Q11
U 1 1 5C6CA957
P 3650 3250
F 0 "Q11" H 3855 3296 50  0000 L CNN
F 1 "2N7002" H 3855 3205 50  0000 L CNN
F 2 "Package_TO_SOT_SMD:SOT-23" H 3850 3175 50  0001 L CIN
F 3 "https://www.fairchildsemi.com/datasheets/2N/2N7002.pdf" H 3650 3250 50  0001 L CNN
	1    3650 3250
	1    0    0    -1  
$EndComp
$Comp
L Device:R R15
U 1 1 5C6CA95E
P 3750 2800
F 0 "R15" H 3820 2846 50  0000 L CNN
F 1 "910R" H 3820 2755 50  0000 L CNN
F 2 "Resistor_SMD:R_0603_1608Metric_Pad1.05x0.95mm_HandSolder" V 3680 2800 50  0001 C CNN
F 3 "~" H 3750 2800 50  0001 C CNN
	1    3750 2800
	1    0    0    -1  
$EndComp
Wire Wire Line
	3750 3050 3750 3000
Wire Wire Line
	3750 2650 3750 2600
Wire Wire Line
	3750 3450 3750 3550
$Comp
L power:GND #PWR0113
U 1 1 5C6CA96F
P 3750 3550
F 0 "#PWR0113" H 3750 3300 50  0001 C CNN
F 1 "GND" H 3755 3377 50  0000 C CNN
F 2 "" H 3750 3550 50  0001 C CNN
F 3 "" H 3750 3550 50  0001 C CNN
	1    3750 3550
	1    0    0    -1  
$EndComp
Wire Wire Line
	3450 3250 3350 3250
Wire Wire Line
	3350 3250 3350 3050
Connection ~ 2750 3050
Wire Wire Line
	2750 3050 2750 3000
Text GLabel 3000 3050 1    50   Input ~ 0
V1
Wire Wire Line
	3750 3000 4100 3000
Connection ~ 3750 3000
Wire Wire Line
	3750 3000 3750 2950
Text GLabel 4100 3000 2    50   Input ~ 0
V2
Text GLabel 9350 1700 1    50   Input ~ 0
V1
Text GLabel 9150 1700 1    50   Input ~ 0
V2
$Comp
L COMMUT_TRX-rescue:C-AS179-92LF-rescue C11
U 1 1 5C6CC55B
P 2300 1300
F 0 "C11" H 2415 1346 50  0000 L CNN
F 1 "100nF" H 2415 1255 50  0000 L CNN
F 2 "Capacitor_SMD:C_0603_1608Metric_Pad1.05x0.95mm_HandSolder" H 2338 1150 50  0001 C CNN
F 3 "" H 2300 1300 50  0001 C CNN
	1    2300 1300
	1    0    0    -1  
$EndComp
$Comp
L power:GND #PWR0114
U 1 1 5C6CC5D1
P 2300 1450
F 0 "#PWR0114" H 2300 1200 50  0001 C CNN
F 1 "GND" H 2305 1277 50  0000 C CNN
F 2 "" H 2300 1450 50  0001 C CNN
F 3 "" H 2300 1450 50  0001 C CNN
	1    2300 1450
	1    0    0    -1  
$EndComp
$Comp
L COMMUT_TRX-rescue:C-AS179-92LF-rescue C10
U 1 1 5C6CC5F8
P 1450 1300
F 0 "C10" H 1565 1346 50  0000 L CNN
F 1 "1uF" H 1565 1255 50  0000 L CNN
F 2 "Capacitor_SMD:C_0603_1608Metric_Pad1.05x0.95mm_HandSolder" H 1488 1150 50  0001 C CNN
F 3 "" H 1450 1300 50  0001 C CNN
	1    1450 1300
	1    0    0    -1  
$EndComp
Connection ~ 1450 1150
Wire Wire Line
	1450 1150 1300 1150
$Comp
L power:GND #PWR0115
U 1 1 5C6CC671
P 1450 1450
F 0 "#PWR0115" H 1450 1200 50  0001 C CNN
F 1 "GND" H 1455 1277 50  0000 C CNN
F 2 "" H 1450 1450 50  0001 C CNN
F 3 "" H 1450 1450 50  0001 C CNN
	1    1450 1450
	1    0    0    -1  
$EndComp
$Comp
L COMMUT_TRX-rescue:C-AS179-92LF-rescue C24
U 1 1 5C6CC69A
P 9500 1950
F 0 "C24" V 9248 1950 50  0000 C CNN
F 1 "C" V 9339 1950 50  0000 C CNN
F 2 "Capacitor_SMD:C_0603_1608Metric_Pad1.05x0.95mm_HandSolder" H 9538 1800 50  0001 C CNN
F 3 "" H 9500 1950 50  0001 C CNN
	1    9500 1950
	0    1    1    0   
$EndComp
Connection ~ 9350 1950
Wire Wire Line
	9350 1950 9350 1700
$Comp
L COMMUT_TRX-rescue:C-AS179-92LF-rescue C23
U 1 1 5C6CC765
P 9000 1850
F 0 "C23" V 9252 1850 50  0000 C CNN
F 1 "C" V 9161 1850 50  0000 C CNN
F 2 "Capacitor_SMD:C_0603_1608Metric_Pad1.05x0.95mm_HandSolder" H 9038 1700 50  0001 C CNN
F 3 "" H 9000 1850 50  0001 C CNN
	1    9000 1850
	0    -1   -1   0   
$EndComp
Connection ~ 9150 1850
Wire Wire Line
	9150 1850 9150 1700
$Comp
L power:GND #PWR0116
U 1 1 5C6CD892
P 8850 1850
F 0 "#PWR0116" H 8850 1600 50  0001 C CNN
F 1 "GND" V 8855 1722 50  0000 R CNN
F 2 "" H 8850 1850 50  0001 C CNN
F 3 "" H 8850 1850 50  0001 C CNN
	1    8850 1850
	0    1    1    0   
$EndComp
$Comp
L power:GND #PWR0117
U 1 1 5C6CD914
P 9650 1950
F 0 "#PWR0117" H 9650 1700 50  0001 C CNN
F 1 "GND" V 9655 1822 50  0000 R CNN
F 2 "" H 9650 1950 50  0001 C CNN
F 3 "" H 9650 1950 50  0001 C CNN
	1    9650 1950
	0    -1   -1   0   
$EndComp
Connection ~ 6450 2650
Connection ~ 6700 2250
Wire Wire Line
	6700 2250 6750 2250
Connection ~ 9850 2450
$Comp
L Connector_Generic:Conn_01x01 J10
U 1 1 5C6D03CE
P 1100 1150
F 0 "J10" H 1020 925 50  0000 C CNN
F 1 "Conn_01x01" H 1020 1016 50  0000 C CNN
F 2 "TestPoint:TestPoint_Pad_4.0x4.0mm" H 1100 1150 50  0001 C CNN
F 3 "~" H 1100 1150 50  0001 C CNN
	1    1100 1150
	-1   0    0    1   
$EndComp
$Comp
L Connector_Generic:Conn_01x01 J11
U 1 1 5C6D0450
P 1100 3300
F 0 "J11" H 1020 3075 50  0000 C CNN
F 1 "Conn_01x01" H 1020 3166 50  0000 C CNN
F 2 "TestPoint:TestPoint_Pad_4.0x4.0mm" H 1100 3300 50  0001 C CNN
F 3 "~" H 1100 3300 50  0001 C CNN
	1    1100 3300
	-1   0    0    1   
$EndComp
$Comp
L Regulator_Linear:L78L08_SOT89 U10
U 1 1 5C6DC973
P 1900 1150
F 0 "U10" H 1900 1392 50  0000 C CNN
F 1 "L78L08_SOT89" H 1900 1301 50  0000 C CNN
F 2 "Package_TO_SOT_SMD:SOT-89-3" H 1900 1350 50  0001 C CIN
F 3 "http://www.st.com/content/ccc/resource/technical/document/datasheet/15/55/e5/aa/23/5b/43/fd/CD00000446.pdf/files/CD00000446.pdf/jcr:content/translations/en.CD00000446.pdf" H 1900 1100 50  0001 C CNN
	1    1900 1150
	1    0    0    -1  
$EndComp
$Comp
L Device:R R11
U 1 1 5C6DD865
P 2300 3450
F 0 "R11" H 2370 3496 50  0000 L CNN
F 1 "33k" H 2370 3405 50  0000 L CNN
F 2 "Resistor_SMD:R_0603_1608Metric_Pad1.05x0.95mm_HandSolder" V 2230 3450 50  0001 C CNN
F 3 "~" H 2300 3450 50  0001 C CNN
	1    2300 3450
	1    0    0    -1  
$EndComp
Connection ~ 2300 3300
Wire Wire Line
	2300 3300 2450 3300
$Comp
L Device:R R14
U 1 1 5C6DD8B5
P 3350 3400
F 0 "R14" H 3420 3446 50  0000 L CNN
F 1 "33k" H 3420 3355 50  0000 L CNN
F 2 "Resistor_SMD:R_0603_1608Metric_Pad1.05x0.95mm_HandSolder" V 3280 3400 50  0001 C CNN
F 3 "~" H 3350 3400 50  0001 C CNN
	1    3350 3400
	1    0    0    -1  
$EndComp
Connection ~ 3350 3250
$Comp
L power:GND #PWR0118
U 1 1 5C6DD90B
P 3350 3550
F 0 "#PWR0118" H 3350 3300 50  0001 C CNN
F 1 "GND" H 3355 3377 50  0000 C CNN
F 2 "" H 3350 3550 50  0001 C CNN
F 3 "" H 3350 3550 50  0001 C CNN
	1    3350 3550
	1    0    0    -1  
$EndComp
$Comp
L power:GND #PWR0119
U 1 1 5C6DD93E
P 2300 3600
F 0 "#PWR0119" H 2300 3350 50  0001 C CNN
F 1 "GND" H 2305 3427 50  0000 C CNN
F 2 "" H 2300 3600 50  0001 C CNN
F 3 "" H 2300 3600 50  0001 C CNN
	1    2300 3600
	1    0    0    -1  
$EndComp
Text Label 8450 4400 0    50   ~ 0
RX_ANT
Text Label 8700 4550 0    50   ~ 0
ANT
Text Label 8950 4750 0    50   ~ 0
TX_ANT
Text Label 8800 6150 0    50   ~ 0
TX_ANT
Text Label 8700 6250 0    50   ~ 0
ANT
Text Label 8600 6350 0    50   ~ 0
RX_ANT
Wire Wire Line
	8600 6350 8600 6000
Wire Wire Line
	8700 6000 8700 6250
Wire Wire Line
	8800 6000 8800 6150
Connection ~ 2400 1150
Wire Wire Line
	2400 1150 2650 1150
Connection ~ 2300 1150
Wire Wire Line
	2300 1150 2400 1150
Wire Wire Line
	2200 1150 2300 1150
$Comp
L power:+5V #PWR0120
U 1 1 5C75D8E3
P 4250 1150
F 0 "#PWR0120" H 4250 1000 50  0001 C CNN
F 1 "+5V" H 4265 1323 50  0000 C CNN
F 2 "" H 4250 1150 50  0001 C CNN
F 3 "" H 4250 1150 50  0001 C CNN
	1    4250 1150
	1    0    0    -1  
$EndComp
$Comp
L power:+5V #PWR0121
U 1 1 5C75D98B
P 2750 2600
F 0 "#PWR0121" H 2750 2450 50  0001 C CNN
F 1 "+5V" H 2765 2773 50  0000 C CNN
F 2 "" H 2750 2600 50  0001 C CNN
F 3 "" H 2750 2600 50  0001 C CNN
	1    2750 2600
	1    0    0    -1  
$EndComp
$Comp
L power:+5V #PWR0122
U 1 1 5C75D9CE
P 3750 2600
F 0 "#PWR0122" H 3750 2450 50  0001 C CNN
F 1 "+5V" H 3765 2773 50  0000 C CNN
F 2 "" H 3750 2600 50  0001 C CNN
F 3 "" H 3750 2600 50  0001 C CNN
	1    3750 2600
	1    0    0    -1  
$EndComp
$Comp
L Device:R R10
U 1 1 5C76699E
P 1900 3300
F 0 "R10" H 1970 3346 50  0000 L CNN
F 1 "780R" H 1970 3255 50  0000 L CNN
F 2 "Resistor_SMD:R_0603_1608Metric_Pad1.05x0.95mm_HandSolder" V 1830 3300 50  0001 C CNN
F 3 "~" H 1900 3300 50  0001 C CNN
	1    1900 3300
	0    1    1    0   
$EndComp
Wire Wire Line
	2050 3300 2300 3300
$Comp
L Device:R R13
U 1 1 5C766A18
P 3200 3050
F 0 "R13" H 3270 3096 50  0000 L CNN
F 1 "780R" H 3270 3005 50  0000 L CNN
F 2 "Resistor_SMD:R_0603_1608Metric_Pad1.05x0.95mm_HandSolder" V 3130 3050 50  0001 C CNN
F 3 "~" H 3200 3050 50  0001 C CNN
	1    3200 3050
	0    1    1    0   
$EndComp
Wire Wire Line
	3050 3050 2750 3050
$Comp
L Transistor_FET:2N7002 Q3
U 1 1 5C77C9C8
P 7450 5650
F 0 "Q3" H 7655 5696 50  0000 L CNN
F 1 "2N7002" H 7655 5605 50  0000 L CNN
F 2 "Package_TO_SOT_SMD:SOT-23" H 7650 5575 50  0001 L CIN
F 3 "https://www.fairchildsemi.com/datasheets/2N/2N7002.pdf" H 7450 5650 50  0001 L CNN
	1    7450 5650
	1    0    0    -1  
$EndComp
Wire Wire Line
	7550 5850 7550 5950
$Comp
L power:GND #PWR0123
U 1 1 5C77C9D8
P 7550 5950
F 0 "#PWR0123" H 7550 5700 50  0001 C CNN
F 1 "GND" H 7555 5777 50  0000 C CNN
F 2 "" H 7550 5950 50  0001 C CNN
F 3 "" H 7550 5950 50  0001 C CNN
	1    7550 5950
	1    0    0    -1  
$EndComp
$Comp
L Device:R R17
U 1 1 5C77C9E0
P 7100 5800
F 0 "R17" H 7170 5846 50  0000 L CNN
F 1 "33k" H 7170 5755 50  0000 L CNN
F 2 "Resistor_SMD:R_0603_1608Metric_Pad1.05x0.95mm_HandSolder" V 7030 5800 50  0001 C CNN
F 3 "~" H 7100 5800 50  0001 C CNN
	1    7100 5800
	1    0    0    -1  
$EndComp
Connection ~ 7100 5650
Wire Wire Line
	7100 5650 7250 5650
$Comp
L power:GND #PWR0124
U 1 1 5C77C9E8
P 7100 5950
F 0 "#PWR0124" H 7100 5700 50  0001 C CNN
F 1 "GND" H 7105 5777 50  0000 C CNN
F 2 "" H 7100 5950 50  0001 C CNN
F 3 "" H 7100 5950 50  0001 C CNN
	1    7100 5950
	1    0    0    -1  
$EndComp
$Comp
L power:+5V #PWR0125
U 1 1 5C77C9EE
P 7550 4950
F 0 "#PWR0125" H 7550 4800 50  0001 C CNN
F 1 "+5V" H 7565 5123 50  0000 C CNN
F 2 "" H 7550 4950 50  0001 C CNN
F 3 "" H 7550 4950 50  0001 C CNN
	1    7550 4950
	1    0    0    -1  
$EndComp
$Comp
L Device:R R16
U 1 1 5C77C9F4
P 6700 5650
F 0 "R16" H 6770 5696 50  0000 L CNN
F 1 "760R" H 6770 5605 50  0000 L CNN
F 2 "Resistor_SMD:R_0603_1608Metric_Pad1.05x0.95mm_HandSolder" V 6630 5650 50  0001 C CNN
F 3 "~" H 6700 5650 50  0001 C CNN
	1    6700 5650
	0    1    1    0   
$EndComp
Wire Wire Line
	6850 5650 7100 5650
Connection ~ 1400 3300
Wire Wire Line
	1400 3300 1750 3300
Wire Wire Line
	7550 5350 7550 5450
Wire Wire Line
	7550 5050 8100 5050
Wire Wire Line
	7550 5050 7550 4950
Connection ~ 7550 5050
Connection ~ 7550 5350
Wire Wire Line
	6550 5650 1400 5650
Wire Wire Line
	1400 3300 1400 5650
Text Label 6850 2050 0    50   ~ 0
RX_MIX
Text Label 6850 2450 0    50   ~ 0
TX_MIX
Text Label 9450 2250 0    50   ~ 0
MIX
Wire Notes Line
	650  650  4500 650 
Wire Notes Line
	4500 650  4500 2000
Wire Notes Line
	4500 2000 650  2000
Wire Notes Line
	650  2000 650  650 
Wire Notes Line
	5800 950  10450 950 
Wire Notes Line
	10450 950  10450 3100
Wire Notes Line
	10450 3100 5800 3100
Wire Notes Line
	5800 3100 5800 950 
Wire Notes Line
	6100 3500 6100 6450
Wire Notes Line
	6100 6450 10450 6450
Wire Notes Line
	10450 6450 10450 3500
Wire Notes Line
	10450 3500 6100 3500
Wire Notes Line
	800  2250 800  4100
Wire Notes Line
	800  4100 4500 4100
Wire Notes Line
	4500 4100 4500 2250
Wire Notes Line
	4500 2250 800  2250
Text Notes 950  2450 0    118  ~ 0
Logique de commande
Text Notes 800  1900 0    118  ~ 0
Alimentation
Text Notes 5950 1200 0    118  ~ 0
Relais RF - AS-179-92
Text Notes 6250 3850 0    118  ~ 0
Relais RF - TQ2
$EndSCHEMATC
