EESchema Schematic File Version 4
LIBS:AS179-92LF-cache
EELAYER 26 0
EELAYER END
$Descr A4 11693 8268
encoding utf-8
Sheet 1 1
Title ""
Date ""
Rev ""
Comp ""
Comment1 ""
Comment2 ""
Comment3 ""
Comment4 ""
$EndDescr
$Comp
L AS179-92LF-rescue:AS179-92LF U1
U 1 1 5AD5E732
P 5600 1900
F 0 "U1" H 5600 2200 60  0000 C CNN
F 1 "AS179-92LF" H 5600 1600 60  0000 C CNN
F 2 "TO_SOT_Packages_SMD:SOT-363_SC-70-6_Handsoldering" H 5600 1900 60  0001 C CNN
F 3 "" H 5600 1900 60  0001 C CNN
	1    5600 1900
	1    0    0    -1  
$EndComp
$Comp
L AS179-92LF-rescue:C C1
U 1 1 5AD5E773
P 4700 1700
F 0 "C1" H 4725 1800 50  0000 L CNN
F 1 "100pF" H 4725 1600 50  0000 L CNN
F 2 "Capacitor_SMD:C_0603_1608Metric_Pad1.05x0.95mm_HandSolder" H 4738 1550 50  0001 C CNN
F 3 "" H 4700 1700 50  0001 C CNN
	1    4700 1700
	0    1    1    0   
$EndComp
$Comp
L AS179-92LF-rescue:C C2
U 1 1 5AD5E86E
P 4700 2100
F 0 "C2" H 4725 2200 50  0000 L CNN
F 1 "100pF" H 4725 2000 50  0000 L CNN
F 2 "Capacitor_SMD:C_0603_1608Metric_Pad1.05x0.95mm_HandSolder" H 4738 1950 50  0001 C CNN
F 3 "" H 4700 2100 50  0001 C CNN
	1    4700 2100
	0    1    1    0   
$EndComp
$Comp
L AS179-92LF-rescue:C C3
U 1 1 5AD5E897
P 6550 1900
F 0 "C3" H 6575 2000 50  0000 L CNN
F 1 "100pF" H 6575 1800 50  0000 L CNN
F 2 "Capacitor_SMD:C_0603_1608Metric_Pad1.05x0.95mm_HandSolder" H 6588 1750 50  0001 C CNN
F 3 "" H 6550 1900 50  0001 C CNN
	1    6550 1900
	0    1    1    0   
$EndComp
Wire Wire Line
	4850 1700 5050 1700
Wire Wire Line
	4850 2100 5050 2100
Wire Wire Line
	4550 2100 3900 2100
Wire Wire Line
	4550 1700 4150 1700
Wire Wire Line
	6150 1900 6400 1900
Wire Wire Line
	6700 1900 7050 1900
$Comp
L sma:SMA J4
U 1 1 5AD5EA2A
P 7200 2200
F 0 "J4" H 7325 2515 60  0000 C CNN
F 1 "SMA" H 7390 2440 60  0000 C CNN
F 2 "lib_kicad:SMA" H 7375 2370 50  0000 C CNN
F 3 "" H 7200 2200 60  0001 C CNN
	1    7200 2200
	1    0    0    -1  
$EndComp
$Comp
L sma:SMA J2
U 1 1 5AD5EADF
P 4000 2000
F 0 "J2" H 4125 2315 60  0000 C CNN
F 1 "SMA" H 4190 2240 60  0000 C CNN
F 2 "lib_kicad:SMA" H 4175 2170 50  0000 C CNN
F 3 "" H 4000 2000 60  0001 C CNN
	1    4000 2000
	-1   0    0    -1  
$EndComp
$Comp
L sma:SMA J1
U 1 1 5AD5EB71
P 3750 2400
F 0 "J1" H 3875 2715 60  0000 C CNN
F 1 "SMA" H 3940 2640 60  0000 C CNN
F 2 "lib_kicad:SMA" H 3925 2570 50  0000 C CNN
F 3 "" H 3750 2400 60  0001 C CNN
	1    3750 2400
	-1   0    0    -1  
$EndComp
Wire Wire Line
	3950 1900 4000 1900
Wire Wire Line
	4000 1900 4050 1900
Connection ~ 4000 1900
Connection ~ 4050 1900
Wire Wire Line
	3700 2300 3750 2300
Connection ~ 3750 2300
Connection ~ 3800 2300
Wire Wire Line
	3850 2300 3850 2350
Wire Wire Line
	5000 1900 5050 1900
Wire Wire Line
	6150 2100 6750 2100
Wire Wire Line
	6750 2100 6750 1600
Wire Wire Line
	6150 1700 6550 1700
Wire Wire Line
	6550 1700 6550 1500
Wire Wire Line
	7100 2100 7150 2100
Connection ~ 7150 2100
Connection ~ 7200 2100
Wire Wire Line
	7250 2100 7250 2150
$Comp
L power:GND #PWR01
U 1 1 5AD5EDCE
P 7250 2150
F 0 "#PWR01" H 7250 1900 50  0001 C CNN
F 1 "GND" H 7250 2000 50  0000 C CNN
F 2 "" H 7250 2150 50  0001 C CNN
F 3 "" H 7250 2150 50  0001 C CNN
	1    7250 2150
	1    0    0    -1  
$EndComp
$Comp
L power:GND #PWR03
U 1 1 5AD5EE1B
P 5000 1900
F 0 "#PWR03" H 5000 1650 50  0001 C CNN
F 1 "GND" H 5000 1750 50  0000 C CNN
F 2 "" H 5000 1900 50  0001 C CNN
F 3 "" H 5000 1900 50  0001 C CNN
	1    5000 1900
	1    0    0    -1  
$EndComp
$Comp
L power:GND #PWR04
U 1 1 5AD5EE3E
P 4150 1900
F 0 "#PWR04" H 4150 1650 50  0001 C CNN
F 1 "GND" H 4150 1750 50  0000 C CNN
F 2 "" H 4150 1900 50  0001 C CNN
F 3 "" H 4150 1900 50  0001 C CNN
	1    4150 1900
	1    0    0    -1  
$EndComp
$Comp
L power:GND #PWR05
U 1 1 5AD5EE61
P 3850 2350
F 0 "#PWR05" H 3850 2100 50  0001 C CNN
F 1 "GND" H 3850 2200 50  0000 C CNN
F 2 "" H 3850 2350 50  0001 C CNN
F 3 "" H 3850 2350 50  0001 C CNN
	1    3850 2350
	1    0    0    -1  
$EndComp
Wire Wire Line
	4050 1900 4100 1900
Wire Wire Line
	3750 2300 3800 2300
Wire Wire Line
	3800 2300 3850 2300
Wire Wire Line
	7150 2100 7200 2100
Wire Wire Line
	7200 2100 7250 2100
$Comp
L Transistor_FET:2N7002 Q1
U 1 1 5C6C6D47
P 4900 4900
F 0 "Q1" H 5105 4946 50  0000 L CNN
F 1 "2N7002" H 5105 4855 50  0000 L CNN
F 2 "Package_TO_SOT_SMD:SOT-23" H 5100 4825 50  0001 L CIN
F 3 "https://www.fairchildsemi.com/datasheets/2N/2N7002.pdf" H 4900 4900 50  0001 L CNN
	1    4900 4900
	1    0    0    -1  
$EndComp
$Comp
L Device:R R1
U 1 1 5C6C6DC5
P 5000 4450
F 0 "R1" H 5070 4496 50  0000 L CNN
F 1 "R" H 5070 4405 50  0000 L CNN
F 2 "Resistor_SMD:R_0603_1608Metric_Pad1.05x0.95mm_HandSolder" V 4930 4450 50  0001 C CNN
F 3 "~" H 5000 4450 50  0001 C CNN
	1    5000 4450
	1    0    0    -1  
$EndComp
Wire Wire Line
	5000 4700 5000 4650
Wire Wire Line
	5000 4300 5000 4150
$Comp
L power:+8V #PWR0101
U 1 1 5C6C775C
P 5000 4150
F 0 "#PWR0101" H 5000 4000 50  0001 C CNN
F 1 "+8V" H 5015 4323 50  0000 C CNN
F 2 "" H 5000 4150 50  0001 C CNN
F 3 "" H 5000 4150 50  0001 C CNN
	1    5000 4150
	1    0    0    -1  
$EndComp
$Comp
L power:+8V #PWR0102
U 1 1 5C6C7E8D
P 4600 4000
F 0 "#PWR0102" H 4600 3850 50  0001 C CNN
F 1 "+8V" H 4615 4173 50  0000 C CNN
F 2 "" H 4600 4000 50  0001 C CNN
F 3 "" H 4600 4000 50  0001 C CNN
	1    4600 4000
	1    0    0    -1  
$EndComp
Wire Wire Line
	4600 4000 4600 4050
Wire Wire Line
	4600 4050 4550 4050
Wire Wire Line
	3850 4050 3700 4050
$Comp
L power:GND #PWR0103
U 1 1 5C6C8B3F
P 4150 4400
F 0 "#PWR0103" H 4150 4150 50  0001 C CNN
F 1 "GND" H 4155 4227 50  0000 C CNN
F 2 "" H 4150 4400 50  0001 C CNN
F 3 "" H 4150 4400 50  0001 C CNN
	1    4150 4400
	1    0    0    -1  
$EndComp
Wire Wire Line
	4150 4400 4150 4350
Wire Wire Line
	3550 4900 4550 4900
Wire Wire Line
	5000 5100 5000 5200
$Comp
L power:GND #PWR0104
U 1 1 5C6CA89D
P 5000 5200
F 0 "#PWR0104" H 5000 4950 50  0001 C CNN
F 1 "GND" H 5005 5027 50  0000 C CNN
F 2 "" H 5000 5200 50  0001 C CNN
F 3 "" H 5000 5200 50  0001 C CNN
	1    5000 5200
	1    0    0    -1  
$EndComp
$Comp
L Transistor_FET:2N7002 Q2
U 1 1 5C6CA957
P 5900 4850
F 0 "Q2" H 6105 4896 50  0000 L CNN
F 1 "2N7002" H 6105 4805 50  0000 L CNN
F 2 "Package_TO_SOT_SMD:SOT-23" H 6100 4775 50  0001 L CIN
F 3 "https://www.fairchildsemi.com/datasheets/2N/2N7002.pdf" H 5900 4850 50  0001 L CNN
	1    5900 4850
	1    0    0    -1  
$EndComp
$Comp
L Device:R R2
U 1 1 5C6CA95E
P 6000 4400
F 0 "R2" H 6070 4446 50  0000 L CNN
F 1 "R" H 6070 4355 50  0000 L CNN
F 2 "Resistor_SMD:R_0603_1608Metric_Pad1.05x0.95mm_HandSolder" V 5930 4400 50  0001 C CNN
F 3 "~" H 6000 4400 50  0001 C CNN
	1    6000 4400
	1    0    0    -1  
$EndComp
Wire Wire Line
	6000 4650 6000 4600
Wire Wire Line
	6000 4250 6000 4100
$Comp
L power:+8V #PWR0105
U 1 1 5C6CA967
P 6000 4100
F 0 "#PWR0105" H 6000 3950 50  0001 C CNN
F 1 "+8V" H 6015 4273 50  0000 C CNN
F 2 "" H 6000 4100 50  0001 C CNN
F 3 "" H 6000 4100 50  0001 C CNN
	1    6000 4100
	1    0    0    -1  
$EndComp
Wire Wire Line
	6000 5050 6000 5150
$Comp
L power:GND #PWR0106
U 1 1 5C6CA96F
P 6000 5150
F 0 "#PWR0106" H 6000 4900 50  0001 C CNN
F 1 "GND" H 6005 4977 50  0000 C CNN
F 2 "" H 6000 5150 50  0001 C CNN
F 3 "" H 6000 5150 50  0001 C CNN
	1    6000 5150
	1    0    0    -1  
$EndComp
Wire Wire Line
	5700 4850 5600 4850
Wire Wire Line
	5600 4850 5600 4650
Wire Wire Line
	5600 4650 5000 4650
Connection ~ 5000 4650
Wire Wire Line
	5000 4650 5000 4600
Text GLabel 5450 4650 1    50   Input ~ 0
V1
Wire Wire Line
	6000 4600 6350 4600
Connection ~ 6000 4600
Wire Wire Line
	6000 4600 6000 4550
Text GLabel 6350 4600 2    50   Input ~ 0
V2
Text GLabel 6750 1350 1    50   Input ~ 0
V1
Text GLabel 6550 1350 1    50   Input ~ 0
V2
$Comp
L AS179-92LF-rescue:C C7
U 1 1 5C6CC55B
P 4550 4200
F 0 "C7" H 4665 4246 50  0000 L CNN
F 1 "C" H 4665 4155 50  0000 L CNN
F 2 "Capacitor_SMD:C_0603_1608Metric_Pad1.05x0.95mm_HandSolder" H 4588 4050 50  0001 C CNN
F 3 "" H 4550 4200 50  0001 C CNN
	1    4550 4200
	1    0    0    -1  
$EndComp
Connection ~ 4550 4050
Wire Wire Line
	4550 4050 4450 4050
$Comp
L power:GND #PWR0107
U 1 1 5C6CC5D1
P 4550 4350
F 0 "#PWR0107" H 4550 4100 50  0001 C CNN
F 1 "GND" H 4555 4177 50  0000 C CNN
F 2 "" H 4550 4350 50  0001 C CNN
F 3 "" H 4550 4350 50  0001 C CNN
	1    4550 4350
	1    0    0    -1  
$EndComp
$Comp
L AS179-92LF-rescue:C C6
U 1 1 5C6CC5F8
P 3700 4200
F 0 "C6" H 3815 4246 50  0000 L CNN
F 1 "C" H 3815 4155 50  0000 L CNN
F 2 "Capacitor_SMD:C_0603_1608Metric_Pad1.05x0.95mm_HandSolder" H 3738 4050 50  0001 C CNN
F 3 "" H 3700 4200 50  0001 C CNN
	1    3700 4200
	1    0    0    -1  
$EndComp
Connection ~ 3700 4050
Wire Wire Line
	3700 4050 3550 4050
$Comp
L power:GND #PWR0108
U 1 1 5C6CC671
P 3700 4350
F 0 "#PWR0108" H 3700 4100 50  0001 C CNN
F 1 "GND" H 3705 4177 50  0000 C CNN
F 2 "" H 3700 4350 50  0001 C CNN
F 3 "" H 3700 4350 50  0001 C CNN
	1    3700 4350
	1    0    0    -1  
$EndComp
$Comp
L AS179-92LF-rescue:C C5
U 1 1 5C6CC69A
P 6900 1600
F 0 "C5" V 6648 1600 50  0000 C CNN
F 1 "C" V 6739 1600 50  0000 C CNN
F 2 "Capacitor_SMD:C_0603_1608Metric_Pad1.05x0.95mm_HandSolder" H 6938 1450 50  0001 C CNN
F 3 "" H 6900 1600 50  0001 C CNN
	1    6900 1600
	0    1    1    0   
$EndComp
Connection ~ 6750 1600
Wire Wire Line
	6750 1600 6750 1350
$Comp
L AS179-92LF-rescue:C C4
U 1 1 5C6CC765
P 6400 1500
F 0 "C4" V 6652 1500 50  0000 C CNN
F 1 "C" V 6561 1500 50  0000 C CNN
F 2 "Capacitor_SMD:C_0603_1608Metric_Pad1.05x0.95mm_HandSolder" H 6438 1350 50  0001 C CNN
F 3 "" H 6400 1500 50  0001 C CNN
	1    6400 1500
	0    -1   -1   0   
$EndComp
Connection ~ 6550 1500
Wire Wire Line
	6550 1500 6550 1350
$Comp
L power:GND #PWR0109
U 1 1 5C6CD892
P 6250 1500
F 0 "#PWR0109" H 6250 1250 50  0001 C CNN
F 1 "GND" V 6255 1372 50  0000 R CNN
F 2 "" H 6250 1500 50  0001 C CNN
F 3 "" H 6250 1500 50  0001 C CNN
	1    6250 1500
	0    1    1    0   
$EndComp
$Comp
L power:GND #PWR0110
U 1 1 5C6CD914
P 7050 1600
F 0 "#PWR0110" H 7050 1350 50  0001 C CNN
F 1 "GND" V 7055 1472 50  0000 R CNN
F 2 "" H 7050 1600 50  0001 C CNN
F 3 "" H 7050 1600 50  0001 C CNN
	1    7050 1600
	0    -1   -1   0   
$EndComp
Connection ~ 3850 2300
Connection ~ 4100 1900
Wire Wire Line
	4100 1900 4150 1900
Connection ~ 7250 2100
$Comp
L Connector_Generic:Conn_01x01 J3
U 1 1 5C6D03CE
P 3350 4050
F 0 "J3" H 3270 3825 50  0000 C CNN
F 1 "Conn_01x01" H 3270 3916 50  0000 C CNN
F 2 "TestPoint:TestPoint_Pad_4.0x4.0mm" H 3350 4050 50  0001 C CNN
F 3 "~" H 3350 4050 50  0001 C CNN
	1    3350 4050
	-1   0    0    1   
$EndComp
$Comp
L Connector_Generic:Conn_01x01 J5
U 1 1 5C6D0450
P 3350 4900
F 0 "J5" H 3270 4675 50  0000 C CNN
F 1 "Conn_01x01" H 3270 4766 50  0000 C CNN
F 2 "TestPoint:TestPoint_Pad_4.0x4.0mm" H 3350 4900 50  0001 C CNN
F 3 "~" H 3350 4900 50  0001 C CNN
	1    3350 4900
	-1   0    0    1   
$EndComp
$Comp
L Regulator_Linear:L78L08_SOT89 U2
U 1 1 5C6DC973
P 4150 4050
F 0 "U2" H 4150 4292 50  0000 C CNN
F 1 "L78L08_SOT89" H 4150 4201 50  0000 C CNN
F 2 "Package_TO_SOT_SMD:SOT-89-3" H 4150 4250 50  0001 C CIN
F 3 "http://www.st.com/content/ccc/resource/technical/document/datasheet/15/55/e5/aa/23/5b/43/fd/CD00000446.pdf/files/CD00000446.pdf/jcr:content/translations/en.CD00000446.pdf" H 4150 4000 50  0001 C CNN
	1    4150 4050
	1    0    0    -1  
$EndComp
$Comp
L Device:R R3
U 1 1 5C6DD865
P 4550 5050
F 0 "R3" H 4620 5096 50  0000 L CNN
F 1 "R" H 4620 5005 50  0000 L CNN
F 2 "Resistor_SMD:R_0603_1608Metric_Pad1.05x0.95mm_HandSolder" V 4480 5050 50  0001 C CNN
F 3 "~" H 4550 5050 50  0001 C CNN
	1    4550 5050
	1    0    0    -1  
$EndComp
Connection ~ 4550 4900
Wire Wire Line
	4550 4900 4700 4900
$Comp
L Device:R R4
U 1 1 5C6DD8B5
P 5600 5000
F 0 "R4" H 5670 5046 50  0000 L CNN
F 1 "R" H 5670 4955 50  0000 L CNN
F 2 "Resistor_SMD:R_0603_1608Metric_Pad1.05x0.95mm_HandSolder" V 5530 5000 50  0001 C CNN
F 3 "~" H 5600 5000 50  0001 C CNN
	1    5600 5000
	1    0    0    -1  
$EndComp
Connection ~ 5600 4850
$Comp
L power:GND #PWR0111
U 1 1 5C6DD90B
P 5600 5150
F 0 "#PWR0111" H 5600 4900 50  0001 C CNN
F 1 "GND" H 5605 4977 50  0000 C CNN
F 2 "" H 5600 5150 50  0001 C CNN
F 3 "" H 5600 5150 50  0001 C CNN
	1    5600 5150
	1    0    0    -1  
$EndComp
$Comp
L power:GND #PWR0112
U 1 1 5C6DD93E
P 4550 5200
F 0 "#PWR0112" H 4550 4950 50  0001 C CNN
F 1 "GND" H 4555 5027 50  0000 C CNN
F 2 "" H 4550 5200 50  0001 C CNN
F 3 "" H 4550 5200 50  0001 C CNN
	1    4550 5200
	1    0    0    -1  
$EndComp
$EndSCHEMATC
