(kicad_pcb (version 20171130) (host pcbnew 5.0.1)

  (general
    (thickness 1.6)
    (drawings 7)
    (tracks 103)
    (zones 0)
    (modules 20)
    (nets 13)
  )

  (page A4)
  (layers
    (0 F.Cu signal)
    (31 B.Cu signal)
    (32 B.Adhes user)
    (33 F.Adhes user)
    (34 B.Paste user)
    (35 F.Paste user)
    (36 B.SilkS user)
    (37 F.SilkS user)
    (38 B.Mask user)
    (39 F.Mask user)
    (40 Dwgs.User user)
    (41 Cmts.User user)
    (42 Eco1.User user)
    (43 Eco2.User user)
    (44 Edge.Cuts user)
    (45 Margin user)
    (46 B.CrtYd user)
    (47 F.CrtYd user)
    (48 B.Fab user)
    (49 F.Fab user)
  )

  (setup
    (last_trace_width 0.5)
    (trace_clearance 0.5)
    (zone_clearance 0)
    (zone_45_only no)
    (trace_min 0.2)
    (segment_width 0.2)
    (edge_width 0.15)
    (via_size 1.2)
    (via_drill 0.8)
    (via_min_size 0.4)
    (via_min_drill 0.3)
    (uvia_size 0.3)
    (uvia_drill 0.1)
    (uvias_allowed no)
    (uvia_min_size 0.2)
    (uvia_min_drill 0.1)
    (pcb_text_width 0.3)
    (pcb_text_size 1.5 1.5)
    (mod_edge_width 0.15)
    (mod_text_size 1 1)
    (mod_text_width 0.15)
    (pad_size 0.4 0.4)
    (pad_drill 0.2)
    (pad_to_mask_clearance 0.2)
    (solder_mask_min_width 0.25)
    (aux_axis_origin 0 0)
    (visible_elements FFFDFF7F)
    (pcbplotparams
      (layerselection 0x00000_7fffffff)
      (usegerberextensions false)
      (usegerberattributes false)
      (usegerberadvancedattributes false)
      (creategerberjobfile false)
      (excludeedgelayer true)
      (linewidth 0.100000)
      (plotframeref false)
      (viasonmask false)
      (mode 1)
      (useauxorigin false)
      (hpglpennumber 1)
      (hpglpenspeed 20)
      (hpglpendiameter 15.000000)
      (psnegative false)
      (psa4output false)
      (plotreference true)
      (plotvalue true)
      (plotinvisibletext false)
      (padsonsilk false)
      (subtractmaskfromsilk false)
      (outputformat 4)
      (mirror false)
      (drillshape 0)
      (scaleselection 1)
      (outputdirectory ""))
  )

  (net 0 "")
  (net 1 "Net-(C1-Pad1)")
  (net 2 "Net-(C1-Pad2)")
  (net 3 "Net-(C2-Pad1)")
  (net 4 "Net-(C2-Pad2)")
  (net 5 "Net-(C3-Pad1)")
  (net 6 "Net-(C3-Pad2)")
  (net 7 GND)
  (net 8 V2)
  (net 9 V1)
  (net 10 "Net-(C6-Pad1)")
  (net 11 +8V)
  (net 12 "Net-(J5-Pad1)")

  (net_class Default "Ceci est la Netclass par défaut"
    (clearance 0.5)
    (trace_width 0.5)
    (via_dia 1.2)
    (via_drill 0.8)
    (uvia_dia 0.3)
    (uvia_drill 0.1)
    (add_net +8V)
    (add_net GND)
    (add_net "Net-(C1-Pad1)")
    (add_net "Net-(C2-Pad1)")
    (add_net "Net-(C3-Pad2)")
    (add_net "Net-(C6-Pad1)")
    (add_net "Net-(J5-Pad1)")
    (add_net V1)
    (add_net V2)
  )

  (net_class 50Ohm ""
    (clearance 0.5)
    (trace_width 1.2)
    (via_dia 1)
    (via_drill 0.8)
    (uvia_dia 0.3)
    (uvia_drill 0.1)
    (add_net "Net-(C1-Pad2)")
    (add_net "Net-(C2-Pad2)")
    (add_net "Net-(C3-Pad1)")
  )

  (module lib_kicad:SMA (layer F.Cu) (tedit 564238BF) (tstamp 5AD5E90C)
    (at 218.5 97.5 180)
    (path /5AD5EA2A)
    (fp_text reference J4 (at -3.5 -4.5 180) (layer F.SilkS)
      (effects (font (size 1 1) (thickness 0.15)))
    )
    (fp_text value SMA (at -5 0 180) (layer F.Fab)
      (effects (font (size 1 1) (thickness 0.15)))
    )
    (fp_line (start 0 -0.5) (end 3 -0.5) (layer F.SilkS) (width 0.15))
    (fp_line (start 3 -0.5) (end 3 0.5) (layer F.SilkS) (width 0.15))
    (fp_line (start 3 0.5) (end 0 0.5) (layer F.SilkS) (width 0.15))
    (fp_line (start -7 -3.5) (end -8 -2.5) (layer F.SilkS) (width 0.15))
    (fp_line (start -8 -2.5) (end -8 2) (layer F.SilkS) (width 0.15))
    (fp_line (start -8 2) (end -7 3) (layer F.SilkS) (width 0.15))
    (fp_line (start -3 -2.5) (end -3 -3.5) (layer F.SilkS) (width 0.15))
    (fp_line (start -3 -3.5) (end -7 -3.5) (layer F.SilkS) (width 0.15))
    (fp_line (start -7 -3.5) (end -7 3) (layer F.SilkS) (width 0.15))
    (fp_line (start -7 3) (end -3 3) (layer F.SilkS) (width 0.15))
    (fp_line (start -3 3) (end -3 2.5) (layer F.SilkS) (width 0.15))
    (fp_line (start -1 2.5) (end -3 2.5) (layer F.SilkS) (width 0.15))
    (fp_line (start -3 2.5) (end -3 -2.5) (layer F.SilkS) (width 0.15))
    (fp_line (start -3 -2.5) (end -1 -2.5) (layer F.SilkS) (width 0.15))
    (fp_line (start 3 -4) (end 3 -3) (layer F.SilkS) (width 0.15))
    (fp_line (start 3 -3) (end 0 -3) (layer F.SilkS) (width 0.15))
    (fp_line (start 0 -3) (end 0 3) (layer F.SilkS) (width 0.15))
    (fp_line (start 0 3) (end 3 3) (layer F.SilkS) (width 0.15))
    (fp_line (start 3 3) (end 3 4) (layer F.SilkS) (width 0.15))
    (fp_line (start 3 4) (end -0.5 4) (layer F.SilkS) (width 0.15))
    (fp_line (start -0.5 4) (end -1 4) (layer F.SilkS) (width 0.15))
    (fp_line (start -1 4) (end -1 -4) (layer F.SilkS) (width 0.15))
    (fp_line (start -1 -4) (end 3 -4) (layer F.SilkS) (width 0.15))
    (pad 1 smd rect (at 2.032 0 180) (size 4 1) (layers F.Cu F.Paste F.Mask)
      (net 5 "Net-(C3-Pad1)"))
    (pad 2 smd rect (at 2 -3.5 180) (size 4 3) (layers F.Cu F.Paste F.Mask)
      (net 7 GND))
    (pad 2 smd rect (at 2 3.5 180) (size 4 3) (layers F.Cu F.Paste F.Mask)
      (net 7 GND))
  )

  (module lib_kicad:SMA (layer F.Cu) (tedit 564238BF) (tstamp 5AD5E8F7)
    (at 187.468 108)
    (path /5AD5EB71)
    (fp_text reference J1 (at -3.5 -4.5) (layer F.SilkS)
      (effects (font (size 1 1) (thickness 0.15)))
    )
    (fp_text value SMA (at -5 0) (layer F.Fab)
      (effects (font (size 1 1) (thickness 0.15)))
    )
    (fp_line (start 0 -0.5) (end 3 -0.5) (layer F.SilkS) (width 0.15))
    (fp_line (start 3 -0.5) (end 3 0.5) (layer F.SilkS) (width 0.15))
    (fp_line (start 3 0.5) (end 0 0.5) (layer F.SilkS) (width 0.15))
    (fp_line (start -7 -3.5) (end -8 -2.5) (layer F.SilkS) (width 0.15))
    (fp_line (start -8 -2.5) (end -8 2) (layer F.SilkS) (width 0.15))
    (fp_line (start -8 2) (end -7 3) (layer F.SilkS) (width 0.15))
    (fp_line (start -3 -2.5) (end -3 -3.5) (layer F.SilkS) (width 0.15))
    (fp_line (start -3 -3.5) (end -7 -3.5) (layer F.SilkS) (width 0.15))
    (fp_line (start -7 -3.5) (end -7 3) (layer F.SilkS) (width 0.15))
    (fp_line (start -7 3) (end -3 3) (layer F.SilkS) (width 0.15))
    (fp_line (start -3 3) (end -3 2.5) (layer F.SilkS) (width 0.15))
    (fp_line (start -1 2.5) (end -3 2.5) (layer F.SilkS) (width 0.15))
    (fp_line (start -3 2.5) (end -3 -2.5) (layer F.SilkS) (width 0.15))
    (fp_line (start -3 -2.5) (end -1 -2.5) (layer F.SilkS) (width 0.15))
    (fp_line (start 3 -4) (end 3 -3) (layer F.SilkS) (width 0.15))
    (fp_line (start 3 -3) (end 0 -3) (layer F.SilkS) (width 0.15))
    (fp_line (start 0 -3) (end 0 3) (layer F.SilkS) (width 0.15))
    (fp_line (start 0 3) (end 3 3) (layer F.SilkS) (width 0.15))
    (fp_line (start 3 3) (end 3 4) (layer F.SilkS) (width 0.15))
    (fp_line (start 3 4) (end -0.5 4) (layer F.SilkS) (width 0.15))
    (fp_line (start -0.5 4) (end -1 4) (layer F.SilkS) (width 0.15))
    (fp_line (start -1 4) (end -1 -4) (layer F.SilkS) (width 0.15))
    (fp_line (start -1 -4) (end 3 -4) (layer F.SilkS) (width 0.15))
    (pad 1 smd rect (at 2.032 0) (size 4 1) (layers F.Cu F.Paste F.Mask)
      (net 4 "Net-(C2-Pad2)"))
    (pad 2 smd rect (at 2 -3.5) (size 4 3) (layers F.Cu F.Paste F.Mask)
      (net 7 GND))
    (pad 2 smd rect (at 2 3.5) (size 4 3) (layers F.Cu F.Paste F.Mask)
      (net 7 GND))
  )

  (module lib_kicad:SMA (layer F.Cu) (tedit 564238BF) (tstamp 5C792069)
    (at 187.5 87)
    (path /5AD5EADF)
    (fp_text reference J2 (at -3.5 -4.5) (layer F.SilkS)
      (effects (font (size 1 1) (thickness 0.15)))
    )
    (fp_text value SMA (at -5 0) (layer F.Fab)
      (effects (font (size 1 1) (thickness 0.15)))
    )
    (fp_line (start 0 -0.5) (end 3 -0.5) (layer F.SilkS) (width 0.15))
    (fp_line (start 3 -0.5) (end 3 0.5) (layer F.SilkS) (width 0.15))
    (fp_line (start 3 0.5) (end 0 0.5) (layer F.SilkS) (width 0.15))
    (fp_line (start -7 -3.5) (end -8 -2.5) (layer F.SilkS) (width 0.15))
    (fp_line (start -8 -2.5) (end -8 2) (layer F.SilkS) (width 0.15))
    (fp_line (start -8 2) (end -7 3) (layer F.SilkS) (width 0.15))
    (fp_line (start -3 -2.5) (end -3 -3.5) (layer F.SilkS) (width 0.15))
    (fp_line (start -3 -3.5) (end -7 -3.5) (layer F.SilkS) (width 0.15))
    (fp_line (start -7 -3.5) (end -7 3) (layer F.SilkS) (width 0.15))
    (fp_line (start -7 3) (end -3 3) (layer F.SilkS) (width 0.15))
    (fp_line (start -3 3) (end -3 2.5) (layer F.SilkS) (width 0.15))
    (fp_line (start -1 2.5) (end -3 2.5) (layer F.SilkS) (width 0.15))
    (fp_line (start -3 2.5) (end -3 -2.5) (layer F.SilkS) (width 0.15))
    (fp_line (start -3 -2.5) (end -1 -2.5) (layer F.SilkS) (width 0.15))
    (fp_line (start 3 -4) (end 3 -3) (layer F.SilkS) (width 0.15))
    (fp_line (start 3 -3) (end 0 -3) (layer F.SilkS) (width 0.15))
    (fp_line (start 0 -3) (end 0 3) (layer F.SilkS) (width 0.15))
    (fp_line (start 0 3) (end 3 3) (layer F.SilkS) (width 0.15))
    (fp_line (start 3 3) (end 3 4) (layer F.SilkS) (width 0.15))
    (fp_line (start 3 4) (end -0.5 4) (layer F.SilkS) (width 0.15))
    (fp_line (start -0.5 4) (end -1 4) (layer F.SilkS) (width 0.15))
    (fp_line (start -1 4) (end -1 -4) (layer F.SilkS) (width 0.15))
    (fp_line (start -1 -4) (end 3 -4) (layer F.SilkS) (width 0.15))
    (pad 1 smd rect (at 2.032 0) (size 4 1) (layers F.Cu F.Paste F.Mask)
      (net 2 "Net-(C1-Pad2)"))
    (pad 2 smd rect (at 2 -3.5) (size 4 3) (layers F.Cu F.Paste F.Mask)
      (net 7 GND))
    (pad 2 smd rect (at 2 3.5) (size 4 3) (layers F.Cu F.Paste F.Mask)
      (net 7 GND))
  )

  (module TO_SOT_Packages_SMD:SOT-363_SC-70-6_Handsoldering (layer F.Cu) (tedit 58CE4E7F) (tstamp 5AD5E9A3)
    (at 204 97.5)
    (descr "SOT-363, SC-70-6, Handsoldering")
    (tags "SOT-363 SC-70-6 Handsoldering")
    (path /5AD5E732)
    (attr smd)
    (fp_text reference U1 (at 0 -2) (layer F.SilkS)
      (effects (font (size 1 1) (thickness 0.15)))
    )
    (fp_text value AS179-92LF (at 0 2 180) (layer F.Fab)
      (effects (font (size 1 1) (thickness 0.15)))
    )
    (fp_text user %R (at 0 0 90) (layer F.Fab)
      (effects (font (size 0.5 0.5) (thickness 0.075)))
    )
    (fp_line (start -2.4 1.4) (end 2.4 1.4) (layer F.CrtYd) (width 0.05))
    (fp_line (start 0.7 -1.16) (end -1.2 -1.16) (layer F.SilkS) (width 0.12))
    (fp_line (start -0.7 1.16) (end 0.7 1.16) (layer F.SilkS) (width 0.12))
    (fp_line (start 2.4 1.4) (end 2.4 -1.4) (layer F.CrtYd) (width 0.05))
    (fp_line (start -2.4 -1.4) (end -2.4 1.4) (layer F.CrtYd) (width 0.05))
    (fp_line (start -2.4 -1.4) (end 2.4 -1.4) (layer F.CrtYd) (width 0.05))
    (fp_line (start 0.675 -1.1) (end -0.175 -1.1) (layer F.Fab) (width 0.1))
    (fp_line (start -0.675 -0.6) (end -0.675 1.1) (layer F.Fab) (width 0.1))
    (fp_line (start 0.675 -1.1) (end 0.675 1.1) (layer F.Fab) (width 0.1))
    (fp_line (start 0.675 1.1) (end -0.675 1.1) (layer F.Fab) (width 0.1))
    (fp_line (start -0.175 -1.1) (end -0.675 -0.6) (layer F.Fab) (width 0.1))
    (pad 1 smd rect (at -1.33 -0.65) (size 1.5 0.4) (layers F.Cu F.Paste F.Mask)
      (net 1 "Net-(C1-Pad1)"))
    (pad 2 smd rect (at -1.33 0) (size 1.5 0.4) (layers F.Cu F.Paste F.Mask)
      (net 7 GND))
    (pad 3 smd rect (at -1.33 0.65) (size 1.5 0.4) (layers F.Cu F.Paste F.Mask)
      (net 3 "Net-(C2-Pad1)"))
    (pad 4 smd rect (at 1.33 0.65) (size 1.5 0.4) (layers F.Cu F.Paste F.Mask)
      (net 9 V1))
    (pad 5 smd rect (at 1.33 0) (size 1.5 0.4) (layers F.Cu F.Paste F.Mask)
      (net 6 "Net-(C3-Pad2)"))
    (pad 6 smd rect (at 1.33 -0.65) (size 1.5 0.4) (layers F.Cu F.Paste F.Mask)
      (net 8 V2))
    (model ${KISYS3DMOD}/TO_SOT_Packages_SMD.3dshapes/SOT-363_SC-70-6.wrl
      (at (xyz 0 0 0))
      (scale (xyz 1 1 1))
      (rotate (xyz 0 0 0))
    )
  )

  (module Capacitor_SMD:C_0603_1608Metric_Pad1.05x0.95mm_HandSolder (layer F.Cu) (tedit 5B301BBE) (tstamp 5C79175A)
    (at 205.5 94.125 270)
    (descr "Capacitor SMD 0603 (1608 Metric), square (rectangular) end terminal, IPC_7351 nominal with elongated pad for handsoldering. (Body size source: http://www.tortai-tech.com/upload/download/2011102023233369053.pdf), generated with kicad-footprint-generator")
    (tags "capacitor handsolder")
    (path /5C6CC765)
    (attr smd)
    (fp_text reference C4 (at 0 -1.43 270) (layer F.SilkS)
      (effects (font (size 1 1) (thickness 0.15)))
    )
    (fp_text value C (at 0 1.43 270) (layer F.Fab)
      (effects (font (size 1 1) (thickness 0.15)))
    )
    (fp_text user %R (at 0 0 270) (layer F.Fab)
      (effects (font (size 0.4 0.4) (thickness 0.06)))
    )
    (fp_line (start 1.65 0.73) (end -1.65 0.73) (layer F.CrtYd) (width 0.05))
    (fp_line (start 1.65 -0.73) (end 1.65 0.73) (layer F.CrtYd) (width 0.05))
    (fp_line (start -1.65 -0.73) (end 1.65 -0.73) (layer F.CrtYd) (width 0.05))
    (fp_line (start -1.65 0.73) (end -1.65 -0.73) (layer F.CrtYd) (width 0.05))
    (fp_line (start -0.171267 0.51) (end 0.171267 0.51) (layer F.SilkS) (width 0.12))
    (fp_line (start -0.171267 -0.51) (end 0.171267 -0.51) (layer F.SilkS) (width 0.12))
    (fp_line (start 0.8 0.4) (end -0.8 0.4) (layer F.Fab) (width 0.1))
    (fp_line (start 0.8 -0.4) (end 0.8 0.4) (layer F.Fab) (width 0.1))
    (fp_line (start -0.8 -0.4) (end 0.8 -0.4) (layer F.Fab) (width 0.1))
    (fp_line (start -0.8 0.4) (end -0.8 -0.4) (layer F.Fab) (width 0.1))
    (pad 2 smd roundrect (at 0.875 0 270) (size 1.05 0.95) (layers F.Cu F.Paste F.Mask) (roundrect_rratio 0.25)
      (net 8 V2))
    (pad 1 smd roundrect (at -0.875 0 270) (size 1.05 0.95) (layers F.Cu F.Paste F.Mask) (roundrect_rratio 0.25)
      (net 7 GND))
    (model ${KISYS3DMOD}/Capacitor_SMD.3dshapes/C_0603_1608Metric.wrl
      (at (xyz 0 0 0))
      (scale (xyz 1 1 1))
      (rotate (xyz 0 0 0))
    )
  )

  (module Capacitor_SMD:C_0603_1608Metric_Pad1.05x0.95mm_HandSolder (layer F.Cu) (tedit 5B301BBE) (tstamp 5C79176B)
    (at 205.5 100.875 90)
    (descr "Capacitor SMD 0603 (1608 Metric), square (rectangular) end terminal, IPC_7351 nominal with elongated pad for handsoldering. (Body size source: http://www.tortai-tech.com/upload/download/2011102023233369053.pdf), generated with kicad-footprint-generator")
    (tags "capacitor handsolder")
    (path /5C6CC69A)
    (attr smd)
    (fp_text reference C5 (at 0 -1.43 90) (layer F.SilkS)
      (effects (font (size 1 1) (thickness 0.15)))
    )
    (fp_text value C (at 0 1.43 90) (layer F.Fab)
      (effects (font (size 1 1) (thickness 0.15)))
    )
    (fp_line (start -0.8 0.4) (end -0.8 -0.4) (layer F.Fab) (width 0.1))
    (fp_line (start -0.8 -0.4) (end 0.8 -0.4) (layer F.Fab) (width 0.1))
    (fp_line (start 0.8 -0.4) (end 0.8 0.4) (layer F.Fab) (width 0.1))
    (fp_line (start 0.8 0.4) (end -0.8 0.4) (layer F.Fab) (width 0.1))
    (fp_line (start -0.171267 -0.51) (end 0.171267 -0.51) (layer F.SilkS) (width 0.12))
    (fp_line (start -0.171267 0.51) (end 0.171267 0.51) (layer F.SilkS) (width 0.12))
    (fp_line (start -1.65 0.73) (end -1.65 -0.73) (layer F.CrtYd) (width 0.05))
    (fp_line (start -1.65 -0.73) (end 1.65 -0.73) (layer F.CrtYd) (width 0.05))
    (fp_line (start 1.65 -0.73) (end 1.65 0.73) (layer F.CrtYd) (width 0.05))
    (fp_line (start 1.65 0.73) (end -1.65 0.73) (layer F.CrtYd) (width 0.05))
    (fp_text user %R (at 0 0 90) (layer F.Fab)
      (effects (font (size 0.4 0.4) (thickness 0.06)))
    )
    (pad 1 smd roundrect (at -0.875 0 90) (size 1.05 0.95) (layers F.Cu F.Paste F.Mask) (roundrect_rratio 0.25)
      (net 7 GND))
    (pad 2 smd roundrect (at 0.875 0 90) (size 1.05 0.95) (layers F.Cu F.Paste F.Mask) (roundrect_rratio 0.25)
      (net 9 V1))
    (model ${KISYS3DMOD}/Capacitor_SMD.3dshapes/C_0603_1608Metric.wrl
      (at (xyz 0 0 0))
      (scale (xyz 1 1 1))
      (rotate (xyz 0 0 0))
    )
  )

  (module Capacitor_SMD:C_0603_1608Metric_Pad1.05x0.95mm_HandSolder (layer F.Cu) (tedit 5B301BBE) (tstamp 5C79177C)
    (at 203 110.5 90)
    (descr "Capacitor SMD 0603 (1608 Metric), square (rectangular) end terminal, IPC_7351 nominal with elongated pad for handsoldering. (Body size source: http://www.tortai-tech.com/upload/download/2011102023233369053.pdf), generated with kicad-footprint-generator")
    (tags "capacitor handsolder")
    (path /5C6CC5F8)
    (attr smd)
    (fp_text reference C6 (at 0 -1.43 90) (layer F.SilkS)
      (effects (font (size 1 1) (thickness 0.15)))
    )
    (fp_text value C (at 0 1.43 90) (layer F.Fab)
      (effects (font (size 1 1) (thickness 0.15)))
    )
    (fp_text user %R (at 0 0 90) (layer F.Fab)
      (effects (font (size 0.4 0.4) (thickness 0.06)))
    )
    (fp_line (start 1.65 0.73) (end -1.65 0.73) (layer F.CrtYd) (width 0.05))
    (fp_line (start 1.65 -0.73) (end 1.65 0.73) (layer F.CrtYd) (width 0.05))
    (fp_line (start -1.65 -0.73) (end 1.65 -0.73) (layer F.CrtYd) (width 0.05))
    (fp_line (start -1.65 0.73) (end -1.65 -0.73) (layer F.CrtYd) (width 0.05))
    (fp_line (start -0.171267 0.51) (end 0.171267 0.51) (layer F.SilkS) (width 0.12))
    (fp_line (start -0.171267 -0.51) (end 0.171267 -0.51) (layer F.SilkS) (width 0.12))
    (fp_line (start 0.8 0.4) (end -0.8 0.4) (layer F.Fab) (width 0.1))
    (fp_line (start 0.8 -0.4) (end 0.8 0.4) (layer F.Fab) (width 0.1))
    (fp_line (start -0.8 -0.4) (end 0.8 -0.4) (layer F.Fab) (width 0.1))
    (fp_line (start -0.8 0.4) (end -0.8 -0.4) (layer F.Fab) (width 0.1))
    (pad 2 smd roundrect (at 0.875 0 90) (size 1.05 0.95) (layers F.Cu F.Paste F.Mask) (roundrect_rratio 0.25)
      (net 7 GND))
    (pad 1 smd roundrect (at -0.875 0 90) (size 1.05 0.95) (layers F.Cu F.Paste F.Mask) (roundrect_rratio 0.25)
      (net 10 "Net-(C6-Pad1)"))
    (model ${KISYS3DMOD}/Capacitor_SMD.3dshapes/C_0603_1608Metric.wrl
      (at (xyz 0 0 0))
      (scale (xyz 1 1 1))
      (rotate (xyz 0 0 0))
    )
  )

  (module Capacitor_SMD:C_0603_1608Metric_Pad1.05x0.95mm_HandSolder (layer F.Cu) (tedit 5B301BBE) (tstamp 5C79178D)
    (at 204.625 106.25 180)
    (descr "Capacitor SMD 0603 (1608 Metric), square (rectangular) end terminal, IPC_7351 nominal with elongated pad for handsoldering. (Body size source: http://www.tortai-tech.com/upload/download/2011102023233369053.pdf), generated with kicad-footprint-generator")
    (tags "capacitor handsolder")
    (path /5C6CC55B)
    (attr smd)
    (fp_text reference C7 (at 0 -1.43 180) (layer F.SilkS)
      (effects (font (size 1 1) (thickness 0.15)))
    )
    (fp_text value C (at 0 1.43 180) (layer F.Fab)
      (effects (font (size 1 1) (thickness 0.15)))
    )
    (fp_line (start -0.8 0.4) (end -0.8 -0.4) (layer F.Fab) (width 0.1))
    (fp_line (start -0.8 -0.4) (end 0.8 -0.4) (layer F.Fab) (width 0.1))
    (fp_line (start 0.8 -0.4) (end 0.8 0.4) (layer F.Fab) (width 0.1))
    (fp_line (start 0.8 0.4) (end -0.8 0.4) (layer F.Fab) (width 0.1))
    (fp_line (start -0.171267 -0.51) (end 0.171267 -0.51) (layer F.SilkS) (width 0.12))
    (fp_line (start -0.171267 0.51) (end 0.171267 0.51) (layer F.SilkS) (width 0.12))
    (fp_line (start -1.65 0.73) (end -1.65 -0.73) (layer F.CrtYd) (width 0.05))
    (fp_line (start -1.65 -0.73) (end 1.65 -0.73) (layer F.CrtYd) (width 0.05))
    (fp_line (start 1.65 -0.73) (end 1.65 0.73) (layer F.CrtYd) (width 0.05))
    (fp_line (start 1.65 0.73) (end -1.65 0.73) (layer F.CrtYd) (width 0.05))
    (fp_text user %R (at 0 0 180) (layer F.Fab)
      (effects (font (size 0.4 0.4) (thickness 0.06)))
    )
    (pad 1 smd roundrect (at -0.875 0 180) (size 1.05 0.95) (layers F.Cu F.Paste F.Mask) (roundrect_rratio 0.25)
      (net 11 +8V))
    (pad 2 smd roundrect (at 0.875 0 180) (size 1.05 0.95) (layers F.Cu F.Paste F.Mask) (roundrect_rratio 0.25)
      (net 7 GND))
    (model ${KISYS3DMOD}/Capacitor_SMD.3dshapes/C_0603_1608Metric.wrl
      (at (xyz 0 0 0))
      (scale (xyz 1 1 1))
      (rotate (xyz 0 0 0))
    )
  )

  (module TestPoint:TestPoint_Pad_4.0x4.0mm (layer F.Cu) (tedit 5A0F774F) (tstamp 5C79179B)
    (at 214.5 108.25)
    (descr "SMD rectangular pad as test Point, square 4.0mm side length")
    (tags "test point SMD pad rectangle square")
    (path /5C6D0450)
    (attr virtual)
    (fp_text reference J5 (at 0 -2.898) (layer F.SilkS)
      (effects (font (size 1 1) (thickness 0.15)))
    )
    (fp_text value Conn_01x01 (at 0 3.1) (layer F.Fab)
      (effects (font (size 1 1) (thickness 0.15)))
    )
    (fp_text user %R (at 0 -2.9) (layer F.Fab)
      (effects (font (size 1 1) (thickness 0.15)))
    )
    (fp_line (start -2.2 -2.2) (end 2.2 -2.2) (layer F.SilkS) (width 0.12))
    (fp_line (start 2.2 -2.2) (end 2.2 2.2) (layer F.SilkS) (width 0.12))
    (fp_line (start 2.2 2.2) (end -2.2 2.2) (layer F.SilkS) (width 0.12))
    (fp_line (start -2.2 2.2) (end -2.2 -2.2) (layer F.SilkS) (width 0.12))
    (fp_line (start -2.5 -2.5) (end 2.5 -2.5) (layer F.CrtYd) (width 0.05))
    (fp_line (start -2.5 -2.5) (end -2.5 2.5) (layer F.CrtYd) (width 0.05))
    (fp_line (start 2.5 2.5) (end 2.5 -2.5) (layer F.CrtYd) (width 0.05))
    (fp_line (start 2.5 2.5) (end -2.5 2.5) (layer F.CrtYd) (width 0.05))
    (pad 1 smd rect (at 0 0) (size 4 4) (layers F.Cu F.Mask)
      (net 12 "Net-(J5-Pad1)"))
  )

  (module Package_TO_SOT_SMD:SOT-23 (layer F.Cu) (tedit 5A02FF57) (tstamp 5C7917B0)
    (at 209 101.5 180)
    (descr "SOT-23, Standard")
    (tags SOT-23)
    (path /5C6C6D47)
    (attr smd)
    (fp_text reference Q1 (at 0 -2.5 180) (layer F.SilkS)
      (effects (font (size 1 1) (thickness 0.15)))
    )
    (fp_text value 2N7002 (at 0 2.5 180) (layer F.Fab)
      (effects (font (size 1 1) (thickness 0.15)))
    )
    (fp_text user %R (at 0 0 270) (layer F.Fab)
      (effects (font (size 0.5 0.5) (thickness 0.075)))
    )
    (fp_line (start -0.7 -0.95) (end -0.7 1.5) (layer F.Fab) (width 0.1))
    (fp_line (start -0.15 -1.52) (end 0.7 -1.52) (layer F.Fab) (width 0.1))
    (fp_line (start -0.7 -0.95) (end -0.15 -1.52) (layer F.Fab) (width 0.1))
    (fp_line (start 0.7 -1.52) (end 0.7 1.52) (layer F.Fab) (width 0.1))
    (fp_line (start -0.7 1.52) (end 0.7 1.52) (layer F.Fab) (width 0.1))
    (fp_line (start 0.76 1.58) (end 0.76 0.65) (layer F.SilkS) (width 0.12))
    (fp_line (start 0.76 -1.58) (end 0.76 -0.65) (layer F.SilkS) (width 0.12))
    (fp_line (start -1.7 -1.75) (end 1.7 -1.75) (layer F.CrtYd) (width 0.05))
    (fp_line (start 1.7 -1.75) (end 1.7 1.75) (layer F.CrtYd) (width 0.05))
    (fp_line (start 1.7 1.75) (end -1.7 1.75) (layer F.CrtYd) (width 0.05))
    (fp_line (start -1.7 1.75) (end -1.7 -1.75) (layer F.CrtYd) (width 0.05))
    (fp_line (start 0.76 -1.58) (end -1.4 -1.58) (layer F.SilkS) (width 0.12))
    (fp_line (start 0.76 1.58) (end -0.7 1.58) (layer F.SilkS) (width 0.12))
    (pad 1 smd rect (at -1 -0.95 180) (size 0.9 0.8) (layers F.Cu F.Paste F.Mask)
      (net 12 "Net-(J5-Pad1)"))
    (pad 2 smd rect (at -1 0.95 180) (size 0.9 0.8) (layers F.Cu F.Paste F.Mask)
      (net 7 GND))
    (pad 3 smd rect (at 1 0 180) (size 0.9 0.8) (layers F.Cu F.Paste F.Mask)
      (net 9 V1))
    (model ${KISYS3DMOD}/Package_TO_SOT_SMD.3dshapes/SOT-23.wrl
      (at (xyz 0 0 0))
      (scale (xyz 1 1 1))
      (rotate (xyz 0 0 0))
    )
  )

  (module Package_TO_SOT_SMD:SOT-23 (layer F.Cu) (tedit 5A02FF57) (tstamp 5C7917C5)
    (at 209 93.5 180)
    (descr "SOT-23, Standard")
    (tags SOT-23)
    (path /5C6CA957)
    (attr smd)
    (fp_text reference Q2 (at 0 -2.5 180) (layer F.SilkS)
      (effects (font (size 1 1) (thickness 0.15)))
    )
    (fp_text value 2N7002 (at 0 2.5 180) (layer F.Fab)
      (effects (font (size 1 1) (thickness 0.15)))
    )
    (fp_line (start 0.76 1.58) (end -0.7 1.58) (layer F.SilkS) (width 0.12))
    (fp_line (start 0.76 -1.58) (end -1.4 -1.58) (layer F.SilkS) (width 0.12))
    (fp_line (start -1.7 1.75) (end -1.7 -1.75) (layer F.CrtYd) (width 0.05))
    (fp_line (start 1.7 1.75) (end -1.7 1.75) (layer F.CrtYd) (width 0.05))
    (fp_line (start 1.7 -1.75) (end 1.7 1.75) (layer F.CrtYd) (width 0.05))
    (fp_line (start -1.7 -1.75) (end 1.7 -1.75) (layer F.CrtYd) (width 0.05))
    (fp_line (start 0.76 -1.58) (end 0.76 -0.65) (layer F.SilkS) (width 0.12))
    (fp_line (start 0.76 1.58) (end 0.76 0.65) (layer F.SilkS) (width 0.12))
    (fp_line (start -0.7 1.52) (end 0.7 1.52) (layer F.Fab) (width 0.1))
    (fp_line (start 0.7 -1.52) (end 0.7 1.52) (layer F.Fab) (width 0.1))
    (fp_line (start -0.7 -0.95) (end -0.15 -1.52) (layer F.Fab) (width 0.1))
    (fp_line (start -0.15 -1.52) (end 0.7 -1.52) (layer F.Fab) (width 0.1))
    (fp_line (start -0.7 -0.95) (end -0.7 1.5) (layer F.Fab) (width 0.1))
    (fp_text user %R (at 0 0 270) (layer F.Fab)
      (effects (font (size 0.5 0.5) (thickness 0.075)))
    )
    (pad 3 smd rect (at 1 0 180) (size 0.9 0.8) (layers F.Cu F.Paste F.Mask)
      (net 8 V2))
    (pad 2 smd rect (at -1 0.95 180) (size 0.9 0.8) (layers F.Cu F.Paste F.Mask)
      (net 7 GND))
    (pad 1 smd rect (at -1 -0.95 180) (size 0.9 0.8) (layers F.Cu F.Paste F.Mask)
      (net 9 V1))
    (model ${KISYS3DMOD}/Package_TO_SOT_SMD.3dshapes/SOT-23.wrl
      (at (xyz 0 0 0))
      (scale (xyz 1 1 1))
      (rotate (xyz 0 0 0))
    )
  )

  (module Resistor_SMD:R_0603_1608Metric_Pad1.05x0.95mm_HandSolder (layer F.Cu) (tedit 5B301BBD) (tstamp 5C7917D6)
    (at 208 105.25 90)
    (descr "Resistor SMD 0603 (1608 Metric), square (rectangular) end terminal, IPC_7351 nominal with elongated pad for handsoldering. (Body size source: http://www.tortai-tech.com/upload/download/2011102023233369053.pdf), generated with kicad-footprint-generator")
    (tags "resistor handsolder")
    (path /5C6C6DC5)
    (attr smd)
    (fp_text reference R1 (at 0 -1.43 90) (layer F.SilkS)
      (effects (font (size 1 1) (thickness 0.15)))
    )
    (fp_text value R (at 0 1.43 90) (layer F.Fab)
      (effects (font (size 1 1) (thickness 0.15)))
    )
    (fp_text user %R (at 0 0 90) (layer F.Fab)
      (effects (font (size 0.4 0.4) (thickness 0.06)))
    )
    (fp_line (start 1.65 0.73) (end -1.65 0.73) (layer F.CrtYd) (width 0.05))
    (fp_line (start 1.65 -0.73) (end 1.65 0.73) (layer F.CrtYd) (width 0.05))
    (fp_line (start -1.65 -0.73) (end 1.65 -0.73) (layer F.CrtYd) (width 0.05))
    (fp_line (start -1.65 0.73) (end -1.65 -0.73) (layer F.CrtYd) (width 0.05))
    (fp_line (start -0.171267 0.51) (end 0.171267 0.51) (layer F.SilkS) (width 0.12))
    (fp_line (start -0.171267 -0.51) (end 0.171267 -0.51) (layer F.SilkS) (width 0.12))
    (fp_line (start 0.8 0.4) (end -0.8 0.4) (layer F.Fab) (width 0.1))
    (fp_line (start 0.8 -0.4) (end 0.8 0.4) (layer F.Fab) (width 0.1))
    (fp_line (start -0.8 -0.4) (end 0.8 -0.4) (layer F.Fab) (width 0.1))
    (fp_line (start -0.8 0.4) (end -0.8 -0.4) (layer F.Fab) (width 0.1))
    (pad 2 smd roundrect (at 0.875 0 90) (size 1.05 0.95) (layers F.Cu F.Paste F.Mask) (roundrect_rratio 0.25)
      (net 9 V1))
    (pad 1 smd roundrect (at -0.875 0 90) (size 1.05 0.95) (layers F.Cu F.Paste F.Mask) (roundrect_rratio 0.25)
      (net 11 +8V))
    (model ${KISYS3DMOD}/Resistor_SMD.3dshapes/R_0603_1608Metric.wrl
      (at (xyz 0 0 0))
      (scale (xyz 1 1 1))
      (rotate (xyz 0 0 0))
    )
  )

  (module Resistor_SMD:R_0603_1608Metric_Pad1.05x0.95mm_HandSolder (layer F.Cu) (tedit 5B301BBD) (tstamp 5C7917E7)
    (at 208.875 90.25 180)
    (descr "Resistor SMD 0603 (1608 Metric), square (rectangular) end terminal, IPC_7351 nominal with elongated pad for handsoldering. (Body size source: http://www.tortai-tech.com/upload/download/2011102023233369053.pdf), generated with kicad-footprint-generator")
    (tags "resistor handsolder")
    (path /5C6CA95E)
    (attr smd)
    (fp_text reference R2 (at 0 -1.43 180) (layer F.SilkS)
      (effects (font (size 1 1) (thickness 0.15)))
    )
    (fp_text value R (at 0 1.43 180) (layer F.Fab)
      (effects (font (size 1 1) (thickness 0.15)))
    )
    (fp_line (start -0.8 0.4) (end -0.8 -0.4) (layer F.Fab) (width 0.1))
    (fp_line (start -0.8 -0.4) (end 0.8 -0.4) (layer F.Fab) (width 0.1))
    (fp_line (start 0.8 -0.4) (end 0.8 0.4) (layer F.Fab) (width 0.1))
    (fp_line (start 0.8 0.4) (end -0.8 0.4) (layer F.Fab) (width 0.1))
    (fp_line (start -0.171267 -0.51) (end 0.171267 -0.51) (layer F.SilkS) (width 0.12))
    (fp_line (start -0.171267 0.51) (end 0.171267 0.51) (layer F.SilkS) (width 0.12))
    (fp_line (start -1.65 0.73) (end -1.65 -0.73) (layer F.CrtYd) (width 0.05))
    (fp_line (start -1.65 -0.73) (end 1.65 -0.73) (layer F.CrtYd) (width 0.05))
    (fp_line (start 1.65 -0.73) (end 1.65 0.73) (layer F.CrtYd) (width 0.05))
    (fp_line (start 1.65 0.73) (end -1.65 0.73) (layer F.CrtYd) (width 0.05))
    (fp_text user %R (at 0 0 180) (layer F.Fab)
      (effects (font (size 0.4 0.4) (thickness 0.06)))
    )
    (pad 1 smd roundrect (at -0.875 0 180) (size 1.05 0.95) (layers F.Cu F.Paste F.Mask) (roundrect_rratio 0.25)
      (net 11 +8V))
    (pad 2 smd roundrect (at 0.875 0 180) (size 1.05 0.95) (layers F.Cu F.Paste F.Mask) (roundrect_rratio 0.25)
      (net 8 V2))
    (model ${KISYS3DMOD}/Resistor_SMD.3dshapes/R_0603_1608Metric.wrl
      (at (xyz 0 0 0))
      (scale (xyz 1 1 1))
      (rotate (xyz 0 0 0))
    )
  )

  (module Capacitor_SMD:C_0603_1608Metric_Pad1.05x0.95mm_HandSolder (layer F.Cu) (tedit 5B301BBE) (tstamp 5C791992)
    (at 200 94.631282 135)
    (descr "Capacitor SMD 0603 (1608 Metric), square (rectangular) end terminal, IPC_7351 nominal with elongated pad for handsoldering. (Body size source: http://www.tortai-tech.com/upload/download/2011102023233369053.pdf), generated with kicad-footprint-generator")
    (tags "capacitor handsolder")
    (path /5AD5E773)
    (attr smd)
    (fp_text reference C1 (at 0 -1.43 135) (layer F.SilkS)
      (effects (font (size 1 1) (thickness 0.15)))
    )
    (fp_text value 100pF (at 0 1.43 135) (layer F.Fab)
      (effects (font (size 1 1) (thickness 0.15)))
    )
    (fp_line (start -0.8 0.4) (end -0.8 -0.4) (layer F.Fab) (width 0.1))
    (fp_line (start -0.8 -0.4) (end 0.8 -0.4) (layer F.Fab) (width 0.1))
    (fp_line (start 0.8 -0.4) (end 0.8 0.4) (layer F.Fab) (width 0.1))
    (fp_line (start 0.8 0.4) (end -0.8 0.4) (layer F.Fab) (width 0.1))
    (fp_line (start -0.171267 -0.51) (end 0.171267 -0.51) (layer F.SilkS) (width 0.12))
    (fp_line (start -0.171267 0.51) (end 0.171267 0.51) (layer F.SilkS) (width 0.12))
    (fp_line (start -1.65 0.73) (end -1.65 -0.73) (layer F.CrtYd) (width 0.05))
    (fp_line (start -1.65 -0.73) (end 1.65 -0.73) (layer F.CrtYd) (width 0.05))
    (fp_line (start 1.65 -0.73) (end 1.65 0.73) (layer F.CrtYd) (width 0.05))
    (fp_line (start 1.65 0.73) (end -1.65 0.73) (layer F.CrtYd) (width 0.05))
    (fp_text user %R (at 0 0 135) (layer F.Fab)
      (effects (font (size 0.4 0.4) (thickness 0.06)))
    )
    (pad 1 smd roundrect (at -0.874999 0 135) (size 1.05 0.95) (layers F.Cu F.Paste F.Mask) (roundrect_rratio 0.25)
      (net 1 "Net-(C1-Pad1)"))
    (pad 2 smd roundrect (at 0.874999 0 135) (size 1.05 0.95) (layers F.Cu F.Paste F.Mask) (roundrect_rratio 0.25)
      (net 2 "Net-(C1-Pad2)"))
    (model ${KISYS3DMOD}/Capacitor_SMD.3dshapes/C_0603_1608Metric.wrl
      (at (xyz 0 0 0))
      (scale (xyz 1 1 1))
      (rotate (xyz 0 0 0))
    )
  )

  (module Capacitor_SMD:C_0603_1608Metric_Pad1.05x0.95mm_HandSolder (layer F.Cu) (tedit 5B301BBE) (tstamp 5C7919A2)
    (at 200 100.25 225)
    (descr "Capacitor SMD 0603 (1608 Metric), square (rectangular) end terminal, IPC_7351 nominal with elongated pad for handsoldering. (Body size source: http://www.tortai-tech.com/upload/download/2011102023233369053.pdf), generated with kicad-footprint-generator")
    (tags "capacitor handsolder")
    (path /5AD5E86E)
    (attr smd)
    (fp_text reference C2 (at 0 -1.43 225) (layer F.SilkS)
      (effects (font (size 1 1) (thickness 0.15)))
    )
    (fp_text value 100pF (at 0 1.43 225) (layer F.Fab)
      (effects (font (size 1 1) (thickness 0.15)))
    )
    (fp_text user %R (at 0 0 225) (layer F.Fab)
      (effects (font (size 0.4 0.4) (thickness 0.06)))
    )
    (fp_line (start 1.65 0.73) (end -1.65 0.73) (layer F.CrtYd) (width 0.05))
    (fp_line (start 1.65 -0.73) (end 1.65 0.73) (layer F.CrtYd) (width 0.05))
    (fp_line (start -1.65 -0.73) (end 1.65 -0.73) (layer F.CrtYd) (width 0.05))
    (fp_line (start -1.65 0.73) (end -1.65 -0.73) (layer F.CrtYd) (width 0.05))
    (fp_line (start -0.171267 0.51) (end 0.171267 0.51) (layer F.SilkS) (width 0.12))
    (fp_line (start -0.171267 -0.51) (end 0.171267 -0.51) (layer F.SilkS) (width 0.12))
    (fp_line (start 0.8 0.4) (end -0.8 0.4) (layer F.Fab) (width 0.1))
    (fp_line (start 0.8 -0.4) (end 0.8 0.4) (layer F.Fab) (width 0.1))
    (fp_line (start -0.8 -0.4) (end 0.8 -0.4) (layer F.Fab) (width 0.1))
    (fp_line (start -0.8 0.4) (end -0.8 -0.4) (layer F.Fab) (width 0.1))
    (pad 2 smd roundrect (at 0.874999 0 225) (size 1.05 0.95) (layers F.Cu F.Paste F.Mask) (roundrect_rratio 0.25)
      (net 4 "Net-(C2-Pad2)"))
    (pad 1 smd roundrect (at -0.874999 0 225) (size 1.05 0.95) (layers F.Cu F.Paste F.Mask) (roundrect_rratio 0.25)
      (net 3 "Net-(C2-Pad1)"))
    (model ${KISYS3DMOD}/Capacitor_SMD.3dshapes/C_0603_1608Metric.wrl
      (at (xyz 0 0 0))
      (scale (xyz 1 1 1))
      (rotate (xyz 0 0 0))
    )
  )

  (module Capacitor_SMD:C_0603_1608Metric_Pad1.05x0.95mm_HandSolder (layer F.Cu) (tedit 5B301BBE) (tstamp 5C7919B2)
    (at 209.125 97.5 180)
    (descr "Capacitor SMD 0603 (1608 Metric), square (rectangular) end terminal, IPC_7351 nominal with elongated pad for handsoldering. (Body size source: http://www.tortai-tech.com/upload/download/2011102023233369053.pdf), generated with kicad-footprint-generator")
    (tags "capacitor handsolder")
    (path /5AD5E897)
    (attr smd)
    (fp_text reference C3 (at 0 -1.43 180) (layer F.SilkS)
      (effects (font (size 1 1) (thickness 0.15)))
    )
    (fp_text value 100pF (at 0 1.43 180) (layer F.Fab)
      (effects (font (size 1 1) (thickness 0.15)))
    )
    (fp_line (start -0.8 0.4) (end -0.8 -0.4) (layer F.Fab) (width 0.1))
    (fp_line (start -0.8 -0.4) (end 0.8 -0.4) (layer F.Fab) (width 0.1))
    (fp_line (start 0.8 -0.4) (end 0.8 0.4) (layer F.Fab) (width 0.1))
    (fp_line (start 0.8 0.4) (end -0.8 0.4) (layer F.Fab) (width 0.1))
    (fp_line (start -0.171267 -0.51) (end 0.171267 -0.51) (layer F.SilkS) (width 0.12))
    (fp_line (start -0.171267 0.51) (end 0.171267 0.51) (layer F.SilkS) (width 0.12))
    (fp_line (start -1.65 0.73) (end -1.65 -0.73) (layer F.CrtYd) (width 0.05))
    (fp_line (start -1.65 -0.73) (end 1.65 -0.73) (layer F.CrtYd) (width 0.05))
    (fp_line (start 1.65 -0.73) (end 1.65 0.73) (layer F.CrtYd) (width 0.05))
    (fp_line (start 1.65 0.73) (end -1.65 0.73) (layer F.CrtYd) (width 0.05))
    (fp_text user %R (at 0 0 180) (layer F.Fab)
      (effects (font (size 0.4 0.4) (thickness 0.06)))
    )
    (pad 1 smd roundrect (at -0.875 0 180) (size 1.05 0.95) (layers F.Cu F.Paste F.Mask) (roundrect_rratio 0.25)
      (net 5 "Net-(C3-Pad1)"))
    (pad 2 smd roundrect (at 0.875 0 180) (size 1.05 0.95) (layers F.Cu F.Paste F.Mask) (roundrect_rratio 0.25)
      (net 6 "Net-(C3-Pad2)"))
    (model ${KISYS3DMOD}/Capacitor_SMD.3dshapes/C_0603_1608Metric.wrl
      (at (xyz 0 0 0))
      (scale (xyz 1 1 1))
      (rotate (xyz 0 0 0))
    )
  )

  (module TestPoint:TestPoint_Pad_4.0x4.0mm (layer F.Cu) (tedit 5A0F774F) (tstamp 5C7919C2)
    (at 199 109.5 90)
    (descr "SMD rectangular pad as test Point, square 4.0mm side length")
    (tags "test point SMD pad rectangle square")
    (path /5C6D03CE)
    (attr virtual)
    (fp_text reference J3 (at 0 -2.898 90) (layer F.SilkS)
      (effects (font (size 1 1) (thickness 0.15)))
    )
    (fp_text value Conn_01x01 (at 0 3.1 90) (layer F.Fab)
      (effects (font (size 1 1) (thickness 0.15)))
    )
    (fp_text user %R (at 0 -2.9 90) (layer F.Fab)
      (effects (font (size 1 1) (thickness 0.15)))
    )
    (fp_line (start -2.2 -2.2) (end 2.2 -2.2) (layer F.SilkS) (width 0.12))
    (fp_line (start 2.2 -2.2) (end 2.2 2.2) (layer F.SilkS) (width 0.12))
    (fp_line (start 2.2 2.2) (end -2.2 2.2) (layer F.SilkS) (width 0.12))
    (fp_line (start -2.2 2.2) (end -2.2 -2.2) (layer F.SilkS) (width 0.12))
    (fp_line (start -2.5 -2.5) (end 2.5 -2.5) (layer F.CrtYd) (width 0.05))
    (fp_line (start -2.5 -2.5) (end -2.5 2.5) (layer F.CrtYd) (width 0.05))
    (fp_line (start 2.5 2.5) (end 2.5 -2.5) (layer F.CrtYd) (width 0.05))
    (fp_line (start 2.5 2.5) (end -2.5 2.5) (layer F.CrtYd) (width 0.05))
    (pad 1 smd rect (at 0 0 90) (size 4 4) (layers F.Cu F.Mask)
      (net 10 "Net-(C6-Pad1)"))
  )

  (module Package_TO_SOT_SMD:SOT-89-3 (layer F.Cu) (tedit 5A02FF57) (tstamp 5C7A3E06)
    (at 207 110)
    (descr SOT-89-3)
    (tags SOT-89-3)
    (path /5C6DC973)
    (attr smd)
    (fp_text reference U2 (at 0.45 -3.2) (layer F.SilkS)
      (effects (font (size 1 1) (thickness 0.15)))
    )
    (fp_text value L78L08_SOT89 (at 0.45 3.25) (layer F.Fab)
      (effects (font (size 1 1) (thickness 0.15)))
    )
    (fp_text user %R (at 0.38 0 90) (layer F.Fab)
      (effects (font (size 0.6 0.6) (thickness 0.09)))
    )
    (fp_line (start 1.78 1.2) (end 1.78 2.4) (layer F.SilkS) (width 0.12))
    (fp_line (start 1.78 2.4) (end -0.92 2.4) (layer F.SilkS) (width 0.12))
    (fp_line (start -2.22 -2.4) (end 1.78 -2.4) (layer F.SilkS) (width 0.12))
    (fp_line (start 1.78 -2.4) (end 1.78 -1.2) (layer F.SilkS) (width 0.12))
    (fp_line (start -0.92 -1.51) (end -0.13 -2.3) (layer F.Fab) (width 0.1))
    (fp_line (start 1.68 -2.3) (end 1.68 2.3) (layer F.Fab) (width 0.1))
    (fp_line (start 1.68 2.3) (end -0.92 2.3) (layer F.Fab) (width 0.1))
    (fp_line (start -0.92 2.3) (end -0.92 -1.51) (layer F.Fab) (width 0.1))
    (fp_line (start -0.13 -2.3) (end 1.68 -2.3) (layer F.Fab) (width 0.1))
    (fp_line (start 3.23 -2.55) (end 3.23 2.55) (layer F.CrtYd) (width 0.05))
    (fp_line (start 3.23 -2.55) (end -2.48 -2.55) (layer F.CrtYd) (width 0.05))
    (fp_line (start -2.48 2.55) (end 3.23 2.55) (layer F.CrtYd) (width 0.05))
    (fp_line (start -2.48 2.55) (end -2.48 -2.55) (layer F.CrtYd) (width 0.05))
    (pad 2 smd trapezoid (at 2.667 0 270) (size 1.6 0.85) (rect_delta 0 0.6 ) (layers F.Cu F.Paste F.Mask)
      (net 7 GND))
    (pad 1 smd rect (at -1.48 -1.5 270) (size 1 1.5) (layers F.Cu F.Paste F.Mask)
      (net 11 +8V))
    (pad 2 smd rect (at -1.3335 0 270) (size 1 1.8) (layers F.Cu F.Paste F.Mask)
      (net 7 GND))
    (pad 3 smd rect (at -1.48 1.5 270) (size 1 1.5) (layers F.Cu F.Paste F.Mask)
      (net 10 "Net-(C6-Pad1)"))
    (pad 2 smd rect (at 1.3335 0 270) (size 2.2 1.84) (layers F.Cu F.Paste F.Mask)
      (net 7 GND))
    (pad 2 smd trapezoid (at -0.0762 0 90) (size 1.5 1) (rect_delta 0 0.7 ) (layers F.Cu F.Paste F.Mask)
      (net 7 GND))
    (model ${KISYS3DMOD}/Package_TO_SOT_SMD.3dshapes/SOT-89-3.wrl
      (at (xyz 0 0 0))
      (scale (xyz 1 1 1))
      (rotate (xyz 0 0 0))
    )
  )

  (module Resistor_SMD:R_0603_1608Metric_Pad1.05x0.95mm_HandSolder (layer F.Cu) (tedit 5B301BBD) (tstamp 5C86010A)
    (at 211.75 101.475 90)
    (descr "Resistor SMD 0603 (1608 Metric), square (rectangular) end terminal, IPC_7351 nominal with elongated pad for handsoldering. (Body size source: http://www.tortai-tech.com/upload/download/2011102023233369053.pdf), generated with kicad-footprint-generator")
    (tags "resistor handsolder")
    (path /5C6DD865)
    (attr smd)
    (fp_text reference R3 (at 0 -1.43 90) (layer F.SilkS)
      (effects (font (size 1 1) (thickness 0.15)))
    )
    (fp_text value R (at 0 1.43 90) (layer F.Fab)
      (effects (font (size 1 1) (thickness 0.15)))
    )
    (fp_text user %R (at 0 0 90) (layer F.Fab)
      (effects (font (size 0.4 0.4) (thickness 0.06)))
    )
    (fp_line (start 1.65 0.73) (end -1.65 0.73) (layer F.CrtYd) (width 0.05))
    (fp_line (start 1.65 -0.73) (end 1.65 0.73) (layer F.CrtYd) (width 0.05))
    (fp_line (start -1.65 -0.73) (end 1.65 -0.73) (layer F.CrtYd) (width 0.05))
    (fp_line (start -1.65 0.73) (end -1.65 -0.73) (layer F.CrtYd) (width 0.05))
    (fp_line (start -0.171267 0.51) (end 0.171267 0.51) (layer F.SilkS) (width 0.12))
    (fp_line (start -0.171267 -0.51) (end 0.171267 -0.51) (layer F.SilkS) (width 0.12))
    (fp_line (start 0.8 0.4) (end -0.8 0.4) (layer F.Fab) (width 0.1))
    (fp_line (start 0.8 -0.4) (end 0.8 0.4) (layer F.Fab) (width 0.1))
    (fp_line (start -0.8 -0.4) (end 0.8 -0.4) (layer F.Fab) (width 0.1))
    (fp_line (start -0.8 0.4) (end -0.8 -0.4) (layer F.Fab) (width 0.1))
    (pad 2 smd roundrect (at 0.875 0 90) (size 1.05 0.95) (layers F.Cu F.Paste F.Mask) (roundrect_rratio 0.25)
      (net 7 GND))
    (pad 1 smd roundrect (at -0.875 0 90) (size 1.05 0.95) (layers F.Cu F.Paste F.Mask) (roundrect_rratio 0.25)
      (net 12 "Net-(J5-Pad1)"))
    (model ${KISYS3DMOD}/Resistor_SMD.3dshapes/R_0603_1608Metric.wrl
      (at (xyz 0 0 0))
      (scale (xyz 1 1 1))
      (rotate (xyz 0 0 0))
    )
  )

  (module Resistor_SMD:R_0603_1608Metric_Pad1.05x0.95mm_HandSolder (layer F.Cu) (tedit 5B301BBD) (tstamp 5C86011B)
    (at 211.75 93.5 90)
    (descr "Resistor SMD 0603 (1608 Metric), square (rectangular) end terminal, IPC_7351 nominal with elongated pad for handsoldering. (Body size source: http://www.tortai-tech.com/upload/download/2011102023233369053.pdf), generated with kicad-footprint-generator")
    (tags "resistor handsolder")
    (path /5C6DD8B5)
    (attr smd)
    (fp_text reference R4 (at 0 -1.43 90) (layer F.SilkS)
      (effects (font (size 1 1) (thickness 0.15)))
    )
    (fp_text value R (at 0 1.43 90) (layer F.Fab)
      (effects (font (size 1 1) (thickness 0.15)))
    )
    (fp_line (start -0.8 0.4) (end -0.8 -0.4) (layer F.Fab) (width 0.1))
    (fp_line (start -0.8 -0.4) (end 0.8 -0.4) (layer F.Fab) (width 0.1))
    (fp_line (start 0.8 -0.4) (end 0.8 0.4) (layer F.Fab) (width 0.1))
    (fp_line (start 0.8 0.4) (end -0.8 0.4) (layer F.Fab) (width 0.1))
    (fp_line (start -0.171267 -0.51) (end 0.171267 -0.51) (layer F.SilkS) (width 0.12))
    (fp_line (start -0.171267 0.51) (end 0.171267 0.51) (layer F.SilkS) (width 0.12))
    (fp_line (start -1.65 0.73) (end -1.65 -0.73) (layer F.CrtYd) (width 0.05))
    (fp_line (start -1.65 -0.73) (end 1.65 -0.73) (layer F.CrtYd) (width 0.05))
    (fp_line (start 1.65 -0.73) (end 1.65 0.73) (layer F.CrtYd) (width 0.05))
    (fp_line (start 1.65 0.73) (end -1.65 0.73) (layer F.CrtYd) (width 0.05))
    (fp_text user %R (at 0 0 180) (layer F.Fab)
      (effects (font (size 0.4 0.4) (thickness 0.06)))
    )
    (pad 1 smd roundrect (at -0.875 0 90) (size 1.05 0.95) (layers F.Cu F.Paste F.Mask) (roundrect_rratio 0.25)
      (net 9 V1))
    (pad 2 smd roundrect (at 0.875 0 90) (size 1.05 0.95) (layers F.Cu F.Paste F.Mask) (roundrect_rratio 0.25)
      (net 7 GND))
    (model ${KISYS3DMOD}/Resistor_SMD.3dshapes/R_0603_1608Metric.wrl
      (at (xyz 0 0 0))
      (scale (xyz 1 1 1))
      (rotate (xyz 0 0 0))
    )
  )

  (gr_text "F4HDG - AS179-92\n19.2.20\n" (at 208.25 86) (layer F.Cu)
    (effects (font (size 1 1) (thickness 0.25)))
  )
  (dimension 2 (width 0.3) (layer Cmts.User)
    (gr_text "2,000 mm" (at 184.4 83 270) (layer Cmts.User)
      (effects (font (size 1.5 1.5) (thickness 0.3)))
    )
    (feature1 (pts (xy 187.5 84) (xy 185.913579 84)))
    (feature2 (pts (xy 187.5 82) (xy 185.913579 82)))
    (crossbar (pts (xy 186.5 82) (xy 186.5 84)))
    (arrow1a (pts (xy 186.5 84) (xy 185.913579 82.873496)))
    (arrow1b (pts (xy 186.5 84) (xy 187.086421 82.873496)))
    (arrow2a (pts (xy 186.5 82) (xy 185.913579 83.126504)))
    (arrow2b (pts (xy 186.5 82) (xy 187.086421 83.126504)))
  )
  (dimension 2 (width 0.3) (layer Cmts.User)
    (gr_text "2,000 mm" (at 188.5 78.65) (layer Cmts.User)
      (effects (font (size 1.5 1.5) (thickness 0.3)))
    )
    (feature1 (pts (xy 189.5 82) (xy 189.5 80.163579)))
    (feature2 (pts (xy 187.5 82) (xy 187.5 80.163579)))
    (crossbar (pts (xy 187.5 80.75) (xy 189.5 80.75)))
    (arrow1a (pts (xy 189.5 80.75) (xy 188.373496 81.336421)))
    (arrow1b (pts (xy 189.5 80.75) (xy 188.373496 80.163579)))
    (arrow2a (pts (xy 187.5 80.75) (xy 188.626504 81.336421)))
    (arrow2b (pts (xy 187.5 80.75) (xy 188.626504 80.163579)))
  )
  (gr_line (start 187.5 82) (end 218.5 82) (layer Edge.Cuts) (width 0.15))
  (gr_line (start 187.5 113) (end 187.5 82) (layer Edge.Cuts) (width 0.15))
  (gr_line (start 218.5 113) (end 187.5 113) (layer Edge.Cuts) (width 0.15))
  (gr_line (start 218.5 82) (end 218.5 113) (layer Edge.Cuts) (width 0.15))

  (segment (start 202.218718 96.85) (end 200.618718 95.25) (width 0.5) (layer F.Cu) (net 1) (status 30))
  (segment (start 202.67 96.85) (end 202.218718 96.85) (width 0.3) (layer F.Cu) (net 1) (status 30))
  (segment (start 199 93.631282) (end 199.381282 94.012564) (width 1.2) (layer F.Cu) (net 2) (status 20))
  (segment (start 199 93.5) (end 199 93.631282) (width 1.2) (layer F.Cu) (net 2))
  (segment (start 192.368718 87) (end 189.532 87) (width 1.2) (layer F.Cu) (net 2) (status 20))
  (segment (start 199.381282 94.012564) (end 192.368718 87) (width 1.2) (layer F.Cu) (net 2) (status 10))
  (segment (start 202.1 98.15) (end 200.618718 99.631282) (width 0.4) (layer F.Cu) (net 3) (status 30))
  (segment (start 202.67 98.15) (end 202.1 98.15) (width 0.3) (layer F.Cu) (net 3) (status 30))
  (segment (start 192.25 108) (end 189.5 108) (width 1.2) (layer F.Cu) (net 4) (status 20))
  (segment (start 199.381282 100.868718) (end 192.25 108) (width 1.2) (layer F.Cu) (net 4) (status 10))
  (segment (start 210 97.5) (end 217.468 97.5) (width 1.2) (layer F.Cu) (net 5) (status 30))
  (segment (start 205.33 97.5) (end 208.25 97.5) (width 0.5) (layer F.Cu) (net 6) (status 30))
  (via (at 193.5 84) (size 1.2) (drill 0.8) (layers F.Cu B.Cu) (net 7) (tstamp 5C860378))
  (via (at 197.5 83.25) (size 1.2) (drill 0.8) (layers F.Cu B.Cu) (net 7) (tstamp 5C860379))
  (via (at 201.5 83.25) (size 1.2) (drill 0.8) (layers F.Cu B.Cu) (net 7) (tstamp 5C86037A))
  (via (at 205.5 83.25) (size 1.2) (drill 0.8) (layers F.Cu B.Cu) (net 7) (tstamp 5C86037B))
  (via (at 209.5 83.25) (size 1.2) (drill 0.8) (layers F.Cu B.Cu) (net 7) (tstamp 5C86037C))
  (via (at 213.5 83.25) (size 1.2) (drill 0.8) (layers F.Cu B.Cu) (net 7) (tstamp 5C86037D))
  (via (at 217.5 83.25) (size 1.2) (drill 0.8) (layers F.Cu B.Cu) (net 7) (tstamp 5C86037E))
  (via (at 197.5 88) (size 1.2) (drill 0.8) (layers F.Cu B.Cu) (net 7) (tstamp 5C860388))
  (via (at 201.5 89) (size 1.2) (drill 0.8) (layers F.Cu B.Cu) (net 7) (tstamp 5C860389))
  (via (at 205.5 89) (size 1.2) (drill 0.8) (layers F.Cu B.Cu) (net 7) (tstamp 5C86038A))
  (via (at 213.5 89) (size 1.2) (drill 0.8) (layers F.Cu B.Cu) (net 7) (tstamp 5C86038C))
  (via (at 217.5 88) (size 1.2) (drill 0.8) (layers F.Cu B.Cu) (net 7) (tstamp 5C86038D))
  (via (at 189.5 92) (size 1.2) (drill 0.8) (layers F.Cu B.Cu) (net 7) (tstamp 5C860395))
  (via (at 193.5 92) (size 1.2) (drill 0.8) (layers F.Cu B.Cu) (net 7) (tstamp 5C860396))
  (via (at 201.5 92) (size 1.2) (drill 0.8) (layers F.Cu B.Cu) (net 7) (tstamp 5C860398))
  (via (at 205.5 91.25) (size 1.2) (drill 0.8) (layers F.Cu B.Cu) (net 7) (tstamp 5C860399))
  (via (at 213.5 92) (size 1.2) (drill 0.8) (layers F.Cu B.Cu) (net 7) (tstamp 5C86039B))
  (via (at 217.5 92) (size 1.2) (drill 0.8) (layers F.Cu B.Cu) (net 7) (tstamp 5C86039C))
  (via (at 189.5 96) (size 1.2) (drill 0.8) (layers F.Cu B.Cu) (net 7) (tstamp 5C8603A4))
  (via (at 193.5 96) (size 1.2) (drill 0.8) (layers F.Cu B.Cu) (net 7) (tstamp 5C8603A5))
  (via (at 197.5 96) (size 1.2) (drill 0.8) (layers F.Cu B.Cu) (net 7) (tstamp 5C8603A6))
  (via (at 203.25 94.75) (size 1.2) (drill 0.8) (layers F.Cu B.Cu) (net 7) (tstamp 5C8603A8))
  (via (at 207.75 96) (size 1.2) (drill 0.8) (layers F.Cu B.Cu) (net 7) (tstamp 5C8603A9))
  (via (at 213.5 95.5) (size 1.2) (drill 0.8) (layers F.Cu B.Cu) (net 7) (tstamp 5C8603AA))
  (via (at 217.5 95.75) (size 1.2) (drill 0.8) (layers F.Cu B.Cu) (net 7) (tstamp 5C8603AB))
  (via (at 189.5 100) (size 1.2) (drill 0.8) (layers F.Cu B.Cu) (net 7) (tstamp 5C8603B3))
  (via (at 193.5 100) (size 1.2) (drill 0.8) (layers F.Cu B.Cu) (net 7) (tstamp 5C8603B4))
  (via (at 197.5 100) (size 1.2) (drill 0.8) (layers F.Cu B.Cu) (net 7) (tstamp 5C8603B5))
  (via (at 203.25 100) (size 1.2) (drill 0.8) (layers F.Cu B.Cu) (net 7) (tstamp 5C8603B6))
  (via (at 208.25 99.5) (size 1.2) (drill 0.8) (layers F.Cu B.Cu) (net 7) (tstamp 5C8603B8))
  (via (at 213.5 100) (size 1.2) (drill 0.8) (layers F.Cu B.Cu) (net 7) (tstamp 5C8603B9))
  (via (at 217.5 100) (size 1.2) (drill 0.8) (layers F.Cu B.Cu) (net 7) (tstamp 5C8603BA))
  (via (at 189.5 104) (size 1.2) (drill 0.8) (layers F.Cu B.Cu) (net 7) (tstamp 5C8603C2))
  (via (at 193.5 104) (size 1.2) (drill 0.8) (layers F.Cu B.Cu) (net 7) (tstamp 5C8603C3))
  (via (at 198.5 104.75) (size 1.2) (drill 0.8) (layers F.Cu B.Cu) (net 7) (tstamp 5C8603C4))
  (via (at 201.5 104) (size 1.2) (drill 0.8) (layers F.Cu B.Cu) (net 7) (tstamp 5C8603C5))
  (via (at 205.5 104) (size 1.2) (drill 0.8) (layers F.Cu B.Cu) (net 7) (tstamp 5C8603C6))
  (via (at 212.75 104.5) (size 1.2) (drill 0.8) (layers F.Cu B.Cu) (net 7) (tstamp 5C8603C8))
  (via (at 217.5 104) (size 1.2) (drill 0.8) (layers F.Cu B.Cu) (net 7) (tstamp 5C8603C9))
  (via (at 194.75 108.75) (size 1.2) (drill 0.8) (layers F.Cu B.Cu) (net 7) (tstamp 5C8603D2))
  (via (at 202.25 107.75) (size 1.2) (drill 0.8) (layers F.Cu B.Cu) (net 7) (tstamp 5C8603D4))
  (via (at 210.25 108) (size 1.2) (drill 0.8) (layers F.Cu B.Cu) (net 7) (tstamp 5C8603D6))
  (via (at 217.5 108) (size 1.2) (drill 0.8) (layers F.Cu B.Cu) (net 7) (tstamp 5C8603D8))
  (via (at 189.5 112) (size 1.2) (drill 0.8) (layers F.Cu B.Cu) (net 7) (tstamp 5C8603E0))
  (via (at 193.5 112) (size 1.2) (drill 0.8) (layers F.Cu B.Cu) (net 7) (tstamp 5C8603E1))
  (via (at 197.5 112.5) (size 1.2) (drill 0.8) (layers F.Cu B.Cu) (net 7) (tstamp 5C8603E2))
  (via (at 209.5 112) (size 1.2) (drill 0.8) (layers F.Cu B.Cu) (net 7) (tstamp 5C8603E5))
  (via (at 213.5 112) (size 1.2) (drill 0.8) (layers F.Cu B.Cu) (net 7) (tstamp 5C8603E6))
  (via (at 217.5 112) (size 1.2) (drill 0.8) (layers F.Cu B.Cu) (net 7) (tstamp 5C8603E7))
  (via (at 189.5 84) (size 1.2) (drill 0.8) (layers F.Cu B.Cu) (net 7))
  (via (at 200 97.5) (size 1.2) (drill 0.8) (layers F.Cu B.Cu) (net 7) (tstamp 5C86045D))
  (segment (start 205.33 95.17) (end 205.5 95) (width 0.5) (layer F.Cu) (net 8) (status 30))
  (segment (start 205.33 96.85) (end 205.33 95.17) (width 0.5) (layer F.Cu) (net 8) (status 30))
  (segment (start 206.5 95) (end 205.5 95) (width 0.5) (layer F.Cu) (net 8) (status 20))
  (segment (start 208 93.5) (end 206.5 95) (width 0.5) (layer F.Cu) (net 8) (status 10))
  (segment (start 208.125 93.375) (end 208 93.5) (width 0.5) (layer F.Cu) (net 8) (status 30))
  (segment (start 208 93.5) (end 208 90.25) (width 0.5) (layer F.Cu) (net 8) (status 30))
  (segment (start 205.33 99.83) (end 205.5 100) (width 0.5) (layer F.Cu) (net 9) (status 30))
  (segment (start 205.33 98.15) (end 205.33 99.83) (width 0.5) (layer F.Cu) (net 9) (status 30))
  (segment (start 206.5 100) (end 205.5 100) (width 0.5) (layer F.Cu) (net 9) (status 20))
  (segment (start 208 101.5) (end 206.5 100) (width 0.5) (layer F.Cu) (net 9) (status 10))
  (segment (start 207.875 101.625) (end 208 101.5) (width 0.5) (layer F.Cu) (net 9) (status 30))
  (segment (start 208 104.375) (end 208 101.5) (width 0.5) (layer F.Cu) (net 9) (status 30))
  (via (at 209.75 104.25) (size 1.2) (drill 0.8) (layers F.Cu B.Cu) (net 9))
  (segment (start 208 104.375) (end 209.625 104.375) (width 0.5) (layer F.Cu) (net 9) (status 10))
  (segment (start 209.625 104.375) (end 209.75 104.25) (width 0.5) (layer F.Cu) (net 9))
  (segment (start 209.75 94.7) (end 210 94.45) (width 0.5) (layer F.Cu) (net 9) (status 30))
  (segment (start 209.75 95.75) (end 209.75 94.7) (width 0.5) (layer F.Cu) (net 9) (status 20))
  (via (at 209.75 95.75) (size 1.2) (drill 0.8) (layers F.Cu B.Cu) (net 9))
  (segment (start 209.75 104.25) (end 209.75 95.75) (width 0.5) (layer B.Cu) (net 9))
  (segment (start 211.675 94.45) (end 211.75 94.375) (width 0.5) (layer F.Cu) (net 9))
  (segment (start 210 94.45) (end 211.675 94.45) (width 0.5) (layer F.Cu) (net 9))
  (segment (start 199 109.5) (end 199.5 109.5) (width 0.5) (layer F.Cu) (net 10))
  (segment (start 200.875 111.375) (end 203 111.375) (width 0.5) (layer F.Cu) (net 10))
  (segment (start 199 109.5) (end 200.875 111.375) (width 0.5) (layer F.Cu) (net 10))
  (segment (start 205.395 111.375) (end 205.52 111.5) (width 0.5) (layer F.Cu) (net 10))
  (segment (start 203 111.375) (end 205.395 111.375) (width 0.5) (layer F.Cu) (net 10))
  (segment (start 205.5 108.48) (end 205.52 108.5) (width 0.5) (layer F.Cu) (net 11) (status 30))
  (segment (start 205.5 106.25) (end 205.5 108.48) (width 0.5) (layer F.Cu) (net 11) (status 30))
  (segment (start 207.875 106.25) (end 208 106.125) (width 0.5) (layer F.Cu) (net 11) (status 30))
  (segment (start 205.5 106.25) (end 207.875 106.25) (width 0.5) (layer F.Cu) (net 11) (status 30))
  (via (at 210.75 106) (size 1.2) (drill 0.8) (layers F.Cu B.Cu) (net 11))
  (segment (start 208 106.125) (end 210.625 106.125) (width 0.5) (layer F.Cu) (net 11) (status 10))
  (segment (start 210.625 106.125) (end 210.75 106) (width 0.5) (layer F.Cu) (net 11))
  (segment (start 210.75 106) (end 211.5 105.25) (width 0.5) (layer B.Cu) (net 11))
  (segment (start 211.5 105.25) (end 211.5 90.25) (width 0.4) (layer B.Cu) (net 11))
  (segment (start 211.5 90.25) (end 209.75 90.25) (width 0.5) (layer F.Cu) (net 11) (status 20))
  (via (at 211.5 90.25) (size 1.2) (drill 0.8) (layers F.Cu B.Cu) (net 11))
  (segment (start 210 102.45) (end 212.7 102.45) (width 0.5) (layer F.Cu) (net 12) (status 10))
  (segment (start 214.5 104.25) (end 214.5 108.25) (width 0.5) (layer F.Cu) (net 12) (status 20))
  (segment (start 212.7 102.45) (end 214.5 104.25) (width 0.5) (layer F.Cu) (net 12))

  (zone (net 7) (net_name GND) (layer F.Cu) (tstamp 0) (hatch edge 0.508)
    (connect_pads yes (clearance 0))
    (min_thickness 0.1)
    (fill yes (arc_segments 16) (thermal_gap 0.508) (thermal_bridge_width 0.508))
    (polygon
      (pts
        (xy 187.4 82) (xy 218.6 82) (xy 218.6 113) (xy 187.4 113)
      )
    )
    (filled_polygon
      (pts
        (xy 218.375 96.439225) (xy 217.950382 96.439225) (xy 217.916707 96.416724) (xy 217.581261 96.35) (xy 210.746223 96.35)
        (xy 210.9 95.978749) (xy 210.9 95.521251) (xy 210.799282 95.278097) (xy 210.841332 95.25) (xy 210.982507 95.25)
        (xy 211.207013 95.40001) (xy 211.5125 95.460775) (xy 211.9875 95.460775) (xy 212.292987 95.40001) (xy 212.551966 95.226966)
        (xy 212.72501 94.967987) (xy 212.785775 94.6625) (xy 212.785775 94.0875) (xy 212.72501 93.782013) (xy 212.551966 93.523034)
        (xy 212.292987 93.34999) (xy 211.9875 93.289225) (xy 211.5125 93.289225) (xy 211.207013 93.34999) (xy 210.948034 93.523034)
        (xy 210.863198 93.65) (xy 210.841332 93.65) (xy 210.664599 93.531911) (xy 210.45 93.489225) (xy 209.55 93.489225)
        (xy 209.335401 93.531911) (xy 209.153472 93.653472) (xy 209.031911 93.835401) (xy 208.989225 94.05) (xy 208.989225 94.424018)
        (xy 208.934329 94.7) (xy 208.950001 94.778788) (xy 208.950001 94.923653) (xy 208.775077 95.098577) (xy 208.6 95.521251)
        (xy 208.6 95.978749) (xy 208.775077 96.401423) (xy 209.010718 96.637064) (xy 208.842987 96.52499) (xy 208.5375 96.464225)
        (xy 207.9625 96.464225) (xy 207.657013 96.52499) (xy 207.398034 96.698034) (xy 207.39672 96.7) (xy 206.640775 96.7)
        (xy 206.640775 96.65) (xy 206.598089 96.435401) (xy 206.476528 96.253472) (xy 206.294599 96.131911) (xy 206.13 96.099171)
        (xy 206.13 95.96687) (xy 206.301966 95.851966) (xy 206.336689 95.8) (xy 206.421216 95.8) (xy 206.5 95.815671)
        (xy 206.578784 95.8) (xy 206.578789 95.8) (xy 206.812144 95.753583) (xy 207.076767 95.576767) (xy 207.121398 95.509972)
        (xy 208.170596 94.460775) (xy 208.45 94.460775) (xy 208.664599 94.418089) (xy 208.846528 94.296528) (xy 208.968089 94.114599)
        (xy 209.010775 93.9) (xy 209.010775 93.1) (xy 208.968089 92.885401) (xy 208.846528 92.703472) (xy 208.8 92.672383)
        (xy 208.8 91.086689) (xy 208.851966 91.051966) (xy 208.875 91.017493) (xy 208.898034 91.051966) (xy 209.157013 91.22501)
        (xy 209.4625 91.285775) (xy 210.0375 91.285775) (xy 210.342987 91.22501) (xy 210.601966 91.051966) (xy 210.60328 91.05)
        (xy 210.673654 91.05) (xy 210.848577 91.224923) (xy 211.271251 91.4) (xy 211.728749 91.4) (xy 212.151423 91.224923)
        (xy 212.474923 90.901423) (xy 212.65 90.478749) (xy 212.65 90.021251) (xy 212.474923 89.598577) (xy 212.151423 89.275077)
        (xy 211.728749 89.1) (xy 211.271251 89.1) (xy 210.848577 89.275077) (xy 210.673654 89.45) (xy 210.60328 89.45)
        (xy 210.601966 89.448034) (xy 210.342987 89.27499) (xy 210.0375 89.214225) (xy 209.4625 89.214225) (xy 209.157013 89.27499)
        (xy 208.898034 89.448034) (xy 208.875 89.482507) (xy 208.851966 89.448034) (xy 208.592987 89.27499) (xy 208.2875 89.214225)
        (xy 207.7125 89.214225) (xy 207.407013 89.27499) (xy 207.148034 89.448034) (xy 206.97499 89.707013) (xy 206.914225 90.0125)
        (xy 206.914225 90.4875) (xy 206.97499 90.792987) (xy 207.148034 91.051966) (xy 207.200001 91.086689) (xy 207.2 92.672383)
        (xy 207.153472 92.703472) (xy 207.031911 92.885401) (xy 206.989225 93.1) (xy 206.989225 93.379404) (xy 206.253188 94.115442)
        (xy 206.042987 93.97499) (xy 205.7375 93.914225) (xy 205.2625 93.914225) (xy 204.957013 93.97499) (xy 204.698034 94.148034)
        (xy 204.52499 94.407013) (xy 204.464225 94.7125) (xy 204.464225 95.2875) (xy 204.52499 95.592987) (xy 204.530001 95.600486)
        (xy 204.53 96.09917) (xy 204.365401 96.131911) (xy 204.183472 96.253472) (xy 204.061911 96.435401) (xy 204.019225 96.65)
        (xy 204.019225 97.05) (xy 204.044089 97.175) (xy 204.019225 97.3) (xy 204.019225 97.7) (xy 204.044089 97.825)
        (xy 204.019225 97.95) (xy 204.019225 98.35) (xy 204.061911 98.564599) (xy 204.183472 98.746528) (xy 204.365401 98.868089)
        (xy 204.53 98.90083) (xy 204.530001 99.399514) (xy 204.52499 99.407013) (xy 204.464225 99.7125) (xy 204.464225 100.2875)
        (xy 204.52499 100.592987) (xy 204.698034 100.851966) (xy 204.957013 101.02501) (xy 205.2625 101.085775) (xy 205.7375 101.085775)
        (xy 206.042987 101.02501) (xy 206.253188 100.884558) (xy 206.989225 101.620596) (xy 206.989225 101.9) (xy 207.031911 102.114599)
        (xy 207.153472 102.296528) (xy 207.200001 102.327617) (xy 207.2 103.52172) (xy 207.198034 103.523034) (xy 207.02499 103.782013)
        (xy 206.964225 104.0875) (xy 206.964225 104.6625) (xy 207.02499 104.967987) (xy 207.198034 105.226966) (xy 207.232507 105.25)
        (xy 207.198034 105.273034) (xy 207.079789 105.45) (xy 206.35328 105.45) (xy 206.351966 105.448034) (xy 206.092987 105.27499)
        (xy 205.7875 105.214225) (xy 205.2125 105.214225) (xy 204.907013 105.27499) (xy 204.648034 105.448034) (xy 204.47499 105.707013)
        (xy 204.414225 106.0125) (xy 204.414225 106.4875) (xy 204.47499 106.792987) (xy 204.648034 107.051966) (xy 204.7 107.086689)
        (xy 204.700001 107.453149) (xy 204.555401 107.481911) (xy 204.373472 107.603472) (xy 204.251911 107.785401) (xy 204.209225 108)
        (xy 204.209225 109) (xy 204.251911 109.214599) (xy 204.373472 109.396528) (xy 204.555401 109.518089) (xy 204.77 109.560775)
        (xy 206.27 109.560775) (xy 206.484599 109.518089) (xy 206.666528 109.396528) (xy 206.788089 109.214599) (xy 206.830775 109)
        (xy 206.830775 108) (xy 206.788089 107.785401) (xy 206.666528 107.603472) (xy 206.484599 107.481911) (xy 206.3 107.445192)
        (xy 206.3 107.086689) (xy 206.351966 107.051966) (xy 206.35328 107.05) (xy 207.307337 107.05) (xy 207.457013 107.15001)
        (xy 207.7625 107.210775) (xy 208.2375 107.210775) (xy 208.542987 107.15001) (xy 208.801966 106.976966) (xy 208.836689 106.925)
        (xy 210.048654 106.925) (xy 210.098577 106.974923) (xy 210.521251 107.15) (xy 210.978749 107.15) (xy 211.401423 106.974923)
        (xy 211.724923 106.651423) (xy 211.9 106.228749) (xy 211.9 105.771251) (xy 211.724923 105.348577) (xy 211.401423 105.025077)
        (xy 210.978749 104.85) (xy 210.746223 104.85) (xy 210.9 104.478749) (xy 210.9 104.021251) (xy 210.724923 103.598577)
        (xy 210.522667 103.396321) (xy 210.664599 103.368089) (xy 210.841332 103.25) (xy 211.019922 103.25) (xy 211.207013 103.37501)
        (xy 211.5125 103.435775) (xy 211.9875 103.435775) (xy 212.292987 103.37501) (xy 212.41327 103.29464) (xy 213.7 104.581371)
        (xy 213.7 105.689225) (xy 212.5 105.689225) (xy 212.285401 105.731911) (xy 212.103472 105.853472) (xy 211.981911 106.035401)
        (xy 211.939225 106.25) (xy 211.939225 110.25) (xy 211.981911 110.464599) (xy 212.103472 110.646528) (xy 212.285401 110.768089)
        (xy 212.5 110.810775) (xy 216.5 110.810775) (xy 216.714599 110.768089) (xy 216.896528 110.646528) (xy 217.018089 110.464599)
        (xy 217.060775 110.25) (xy 217.060775 106.25) (xy 217.018089 106.035401) (xy 216.896528 105.853472) (xy 216.714599 105.731911)
        (xy 216.5 105.689225) (xy 215.3 105.689225) (xy 215.3 104.328783) (xy 215.315671 104.249999) (xy 215.3 104.171215)
        (xy 215.3 104.171211) (xy 215.253583 103.937856) (xy 215.076767 103.673233) (xy 215.009975 103.628604) (xy 213.321398 101.940028)
        (xy 213.276767 101.873233) (xy 213.012144 101.696417) (xy 212.778789 101.65) (xy 212.778784 101.65) (xy 212.7 101.634329)
        (xy 212.649718 101.644331) (xy 212.551966 101.498034) (xy 212.292987 101.32499) (xy 211.9875 101.264225) (xy 211.5125 101.264225)
        (xy 211.207013 101.32499) (xy 210.948034 101.498034) (xy 210.846494 101.65) (xy 210.841332 101.65) (xy 210.664599 101.531911)
        (xy 210.45 101.489225) (xy 209.55 101.489225) (xy 209.335401 101.531911) (xy 209.153472 101.653472) (xy 209.031911 101.835401)
        (xy 208.989225 102.05) (xy 208.989225 102.85) (xy 209.031911 103.064599) (xy 209.153472 103.246528) (xy 209.15884 103.250115)
        (xy 209.098577 103.275077) (xy 208.821454 103.5522) (xy 208.801966 103.523034) (xy 208.8 103.52172) (xy 208.8 102.327617)
        (xy 208.846528 102.296528) (xy 208.968089 102.114599) (xy 209.010775 101.9) (xy 209.010775 101.1) (xy 208.968089 100.885401)
        (xy 208.846528 100.703472) (xy 208.664599 100.581911) (xy 208.45 100.539225) (xy 208.170596 100.539225) (xy 207.121397 99.490027)
        (xy 207.076767 99.423233) (xy 206.812144 99.246417) (xy 206.578789 99.2) (xy 206.578784 99.2) (xy 206.5 99.184329)
        (xy 206.421216 99.2) (xy 206.336689 99.2) (xy 206.301966 99.148034) (xy 206.13 99.03313) (xy 206.13 98.900829)
        (xy 206.294599 98.868089) (xy 206.476528 98.746528) (xy 206.598089 98.564599) (xy 206.640775 98.35) (xy 206.640775 98.3)
        (xy 207.39672 98.3) (xy 207.398034 98.301966) (xy 207.657013 98.47501) (xy 207.9625 98.535775) (xy 208.5375 98.535775)
        (xy 208.842987 98.47501) (xy 209.101966 98.301966) (xy 209.125 98.267493) (xy 209.148034 98.301966) (xy 209.15658 98.307676)
        (xy 209.170897 98.329103) (xy 209.551293 98.583276) (xy 209.886739 98.65) (xy 217.581261 98.65) (xy 217.916707 98.583276)
        (xy 217.950382 98.560775) (xy 218.375001 98.560775) (xy 218.375001 112.875) (xy 187.625 112.875) (xy 187.625 109.060775)
        (xy 189.017618 109.060775) (xy 189.051293 109.083276) (xy 189.386739 109.15) (xy 192.136743 109.15) (xy 192.25 109.172528)
        (xy 192.363257 109.15) (xy 192.363261 109.15) (xy 192.698707 109.083276) (xy 193.079103 108.829103) (xy 193.143261 108.733084)
        (xy 194.376345 107.5) (xy 196.439225 107.5) (xy 196.439225 111.5) (xy 196.481911 111.714599) (xy 196.603472 111.896528)
        (xy 196.785401 112.018089) (xy 197 112.060775) (xy 200.461374 112.060775) (xy 200.562856 112.128583) (xy 200.796211 112.175)
        (xy 200.796215 112.175) (xy 200.874999 112.190671) (xy 200.953783 112.175) (xy 202.163311 112.175) (xy 202.198034 112.226966)
        (xy 202.457013 112.40001) (xy 202.7625 112.460775) (xy 203.2375 112.460775) (xy 203.542987 112.40001) (xy 203.801966 112.226966)
        (xy 203.836689 112.175) (xy 204.244034 112.175) (xy 204.251911 112.214599) (xy 204.373472 112.396528) (xy 204.555401 112.518089)
        (xy 204.77 112.560775) (xy 206.27 112.560775) (xy 206.484599 112.518089) (xy 206.666528 112.396528) (xy 206.788089 112.214599)
        (xy 206.830775 112) (xy 206.830775 111) (xy 206.788089 110.785401) (xy 206.666528 110.603472) (xy 206.484599 110.481911)
        (xy 206.27 110.439225) (xy 204.77 110.439225) (xy 204.555401 110.481911) (xy 204.416083 110.575) (xy 203.836689 110.575)
        (xy 203.801966 110.523034) (xy 203.542987 110.34999) (xy 203.2375 110.289225) (xy 202.7625 110.289225) (xy 202.457013 110.34999)
        (xy 202.198034 110.523034) (xy 202.163311 110.575) (xy 201.560775 110.575) (xy 201.560775 107.5) (xy 201.518089 107.285401)
        (xy 201.396528 107.103472) (xy 201.214599 106.981911) (xy 201 106.939225) (xy 197 106.939225) (xy 196.785401 106.981911)
        (xy 196.603472 107.103472) (xy 196.481911 107.285401) (xy 196.439225 107.5) (xy 194.376345 107.5) (xy 200.274542 101.601803)
        (xy 200.464557 101.317426) (xy 200.55381 100.868718) (xy 200.548783 100.843444) (xy 200.550788 100.833363) (xy 200.5427 100.7927)
        (xy 200.583363 100.800788) (xy 200.88885 100.740023) (xy 201.147829 100.566979) (xy 201.554415 100.160393) (xy 201.727459 99.901414)
        (xy 201.788224 99.595927) (xy 201.776031 99.534629) (xy 202.399886 98.910775) (xy 203.42 98.910775) (xy 203.634599 98.868089)
        (xy 203.816528 98.746528) (xy 203.938089 98.564599) (xy 203.980775 98.35) (xy 203.980775 97.95) (xy 203.938089 97.735401)
        (xy 203.816528 97.553472) (xy 203.736501 97.5) (xy 203.816528 97.446528) (xy 203.938089 97.264599) (xy 203.980775 97.05)
        (xy 203.980775 96.65) (xy 203.938089 96.435401) (xy 203.816528 96.253472) (xy 203.634599 96.131911) (xy 203.42 96.089225)
        (xy 202.589313 96.089225) (xy 201.787763 95.287675) (xy 201.788224 95.285355) (xy 201.727459 94.979868) (xy 201.554415 94.720889)
        (xy 201.147829 94.314303) (xy 200.88885 94.141259) (xy 200.583363 94.080494) (xy 200.5427 94.088582) (xy 200.550788 94.047919)
        (xy 200.548783 94.037837) (xy 200.55381 94.012563) (xy 200.464557 93.563855) (xy 200.274542 93.279478) (xy 200.092443 93.097379)
        (xy 200.083276 93.051293) (xy 199.829103 92.670897) (xy 199.448706 92.416724) (xy 199.402621 92.407557) (xy 193.261979 86.266916)
        (xy 193.197821 86.170897) (xy 192.817425 85.916724) (xy 192.481979 85.85) (xy 192.481975 85.85) (xy 192.368718 85.827472)
        (xy 192.255461 85.85) (xy 189.418739 85.85) (xy 189.083293 85.916724) (xy 189.049618 85.939225) (xy 187.625 85.939225)
        (xy 187.625 83.7925) (xy 199.860715 83.7925) (xy 199.860715 88.3925) (xy 216.639286 88.3925) (xy 216.639286 83.7925)
        (xy 199.860715 83.7925) (xy 187.625 83.7925) (xy 187.625 82.125) (xy 218.375 82.125)
      )
    )
    (filled_polygon
      (pts
        (xy 189.083293 88.083276) (xy 189.418739 88.15) (xy 191.892373 88.15) (xy 198.106743 94.364371) (xy 198.170898 94.460385)
        (xy 198.266911 94.524539) (xy 198.648196 94.905824) (xy 198.932573 95.095839) (xy 199.381281 95.185092) (xy 199.406555 95.180065)
        (xy 199.416637 95.18207) (xy 199.4573 95.173982) (xy 199.449212 95.214645) (xy 199.509977 95.520132) (xy 199.683021 95.779111)
        (xy 200.089607 96.185697) (xy 200.348586 96.358741) (xy 200.654073 96.419506) (xy 200.656393 96.419045) (xy 201.377072 97.139724)
        (xy 201.401911 97.264599) (xy 201.523472 97.446528) (xy 201.603499 97.5) (xy 201.523472 97.553472) (xy 201.401911 97.735401)
        (xy 201.388993 97.800347) (xy 200.715371 98.473969) (xy 200.654073 98.461776) (xy 200.348586 98.522541) (xy 200.089607 98.695585)
        (xy 199.683021 99.102171) (xy 199.509977 99.36115) (xy 199.449212 99.666637) (xy 199.4573 99.7073) (xy 199.416637 99.699212)
        (xy 199.406556 99.701217) (xy 199.381282 99.69619) (xy 198.932574 99.785443) (xy 198.648197 99.975458) (xy 191.773655 106.85)
        (xy 189.386739 106.85) (xy 189.051293 106.916724) (xy 189.017618 106.939225) (xy 187.625 106.939225) (xy 187.625 88.060775)
        (xy 189.049618 88.060775)
      )
    )
  )
)
