EESchema Schematic File Version 4
LIBS:mixer-cache
EELAYER 29 0
EELAYER END
$Descr A4 11693 8268
encoding utf-8
Sheet 1 1
Title ""
Date ""
Rev ""
Comp ""
Comment1 ""
Comment2 ""
Comment3 ""
Comment4 ""
$EndDescr
$Comp
L mixer-rescue:ADE-25MH- U1
U 1 1 5AA989A0
P 6550 3900
F 0 "U1" H 6550 4000 60  0000 C CNN
F 1 "ADE-25MH" H 6550 4150 60  0000 C CNN
F 2 "lib_kicad:PL-052" H 6550 3900 60  0001 C CNN
F 3 "" H 6550 3900 60  0001 C CNN
	1    6550 3900
	1    0    0    -1  
$EndComp
$Comp
L mixer-rescue:SMA- J2
U 1 1 5AA989E6
P 7550 4200
F 0 "J2" H 7675 4515 60  0000 C CNN
F 1 "SMA" H 7740 4440 60  0000 C CNN
F 2 "lib_kicad:SMA" H 7725 4370 50  0000 C CNN
F 3 "" H 7550 4200 60  0001 C CNN
	1    7550 4200
	1    0    0    -1  
$EndComp
$Comp
L mixer-rescue:SMA- J1
U 1 1 5AA98A29
P 1550 4200
F 0 "J1" H 1675 4515 60  0000 C CNN
F 1 "SMA" H 1740 4440 60  0000 C CNN
F 2 "lib_kicad:SMA" H 1725 4370 50  0000 C CNN
F 3 "" H 1550 4200 60  0001 C CNN
	1    1550 4200
	-1   0    0    -1  
$EndComp
$Comp
L mixer-rescue:SMA- J3
U 1 1 5AA98A52
P 4550 6150
F 0 "J3" H 4675 6465 60  0000 C CNN
F 1 "SMA" H 4740 6390 60  0000 C CNN
F 2 "lib_kicad:SMA" H 4725 6320 50  0000 C CNN
F 3 "" H 4550 6150 60  0001 C CNN
	1    4550 6150
	-1   0    0    -1  
$EndComp
Wire Wire Line
	1700 3900 1850 3900
Wire Wire Line
	1500 4100 1550 4100
Connection ~ 1550 4100
Connection ~ 1600 4100
Wire Wire Line
	6800 4350 6900 4350
Connection ~ 6900 4350
Wire Wire Line
	6950 3900 7400 3900
Wire Wire Line
	7450 4100 7500 4100
Connection ~ 7550 4100
Connection ~ 7500 4100
$Comp
L mixer-rescue:GND- #PWR0101
U 1 1 5AA98BEE
P 4650 6150
F 0 "#PWR0101" H 4650 5900 50  0001 C CNN
F 1 "GND" H 4650 6000 50  0000 C CNN
F 2 "" H 4650 6150 50  0001 C CNN
F 3 "" H 4650 6150 50  0001 C CNN
	1    4650 6150
	1    0    0    -1  
$EndComp
$Comp
L mixer-rescue:GND- #PWR0102
U 1 1 5AA98C0A
P 1600 4200
F 0 "#PWR0102" H 1600 3950 50  0001 C CNN
F 1 "GND" H 1600 4050 50  0000 C CNN
F 2 "" H 1600 4200 50  0001 C CNN
F 3 "" H 1600 4200 50  0001 C CNN
	1    1600 4200
	1    0    0    -1  
$EndComp
$Comp
L mixer-rescue:GND- #PWR0103
U 1 1 5AA98C26
P 7550 4200
F 0 "#PWR0103" H 7550 3950 50  0001 C CNN
F 1 "GND" H 7550 4050 50  0000 C CNN
F 2 "" H 7550 4200 50  0001 C CNN
F 3 "" H 7550 4200 50  0001 C CNN
	1    7550 4200
	1    0    0    -1  
$EndComp
Wire Wire Line
	7550 4200 7550 4100
Wire Wire Line
	1600 4200 1600 4100
$Comp
L mixer-rescue:GND- #PWR0104
U 1 1 5AA98C6D
P 6900 4500
F 0 "#PWR0104" H 6900 4250 50  0001 C CNN
F 1 "GND" H 6900 4350 50  0000 C CNN
F 2 "" H 6900 4500 50  0001 C CNN
F 3 "" H 6900 4500 50  0001 C CNN
	1    6900 4500
	1    0    0    -1  
$EndComp
Wire Wire Line
	6900 4500 6900 4350
Wire Wire Line
	1550 4100 1600 4100
Wire Wire Line
	1600 4100 1650 4100
Wire Wire Line
	6900 4350 7000 4350
Wire Wire Line
	7550 4100 7600 4100
Wire Wire Line
	7500 4100 7550 4100
$Comp
L Device:R R32
U 1 1 5B8EE860
P 5250 5850
F 0 "R32" H 5320 5896 50  0000 L CNN
F 1 "R" H 5320 5805 50  0000 L CNN
F 2 "Resistor_SMD:R_0603_1608Metric_Pad1.05x0.95mm_HandSolder" V 5180 5850 50  0001 C CNN
F 3 "~" H 5250 5850 50  0001 C CNN
	1    5250 5850
	0    1    1    0   
$EndComp
$Comp
L Device:R R33
U 1 1 5B8EE8C3
P 5600 6000
F 0 "R33" V 5393 6000 50  0000 C CNN
F 1 "R" V 5484 6000 50  0000 C CNN
F 2 "Resistor_SMD:R_0603_1608Metric_Pad1.05x0.95mm_HandSolder" V 5530 6000 50  0001 C CNN
F 3 "~" H 5600 6000 50  0001 C CNN
	1    5600 6000
	-1   0    0    1   
$EndComp
$Comp
L Device:R R31
U 1 1 5B8EE8FE
P 4950 6000
F 0 "R31" V 4743 6000 50  0000 C CNN
F 1 "R" V 4834 6000 50  0000 C CNN
F 2 "Resistor_SMD:R_0603_1608Metric_Pad1.05x0.95mm_HandSolder" V 4880 6000 50  0001 C CNN
F 3 "~" H 4950 6000 50  0001 C CNN
	1    4950 6000
	-1   0    0    1   
$EndComp
Wire Wire Line
	5600 5850 5400 5850
Connection ~ 5600 5850
Wire Wire Line
	5100 5850 4950 5850
Wire Wire Line
	4950 5850 4700 5850
Connection ~ 4950 5850
Wire Wire Line
	4500 6050 4550 6050
Wire Wire Line
	4550 6050 4600 6050
Connection ~ 4550 6050
Wire Wire Line
	4600 6050 4650 6050
Connection ~ 4600 6050
Wire Wire Line
	4650 6050 4650 6150
Connection ~ 4650 6050
$Comp
L mixer-rescue:GND- #PWR0105
U 1 1 5B8F0C0B
P 4950 6200
F 0 "#PWR0105" H 4950 5950 50  0001 C CNN
F 1 "GND" H 4950 6050 50  0000 C CNN
F 2 "" H 4950 6200 50  0001 C CNN
F 3 "" H 4950 6200 50  0001 C CNN
	1    4950 6200
	1    0    0    -1  
$EndComp
$Comp
L mixer-rescue:GND- #PWR0106
U 1 1 5B8F0C24
P 5600 6200
F 0 "#PWR0106" H 5600 5950 50  0001 C CNN
F 1 "GND" H 5600 6050 50  0000 C CNN
F 2 "" H 5600 6200 50  0001 C CNN
F 3 "" H 5600 6200 50  0001 C CNN
	1    5600 6200
	1    0    0    -1  
$EndComp
Wire Wire Line
	5600 6200 5600 6150
Wire Wire Line
	4950 6200 4950 6150
Wire Wire Line
	6550 5850 6550 4300
Wire Wire Line
	5600 5850 6550 5850
$Comp
L Device:R_POT RV11
U 1 1 5B8F1C6F
P 3550 3550
F 0 "RV11" H 3480 3596 50  0000 R CNN
F 1 "100R" H 3480 3505 50  0000 R CNN
F 2 "Potentiometer_SMD:Potentiometer_Bourns_3314J_Vertical" H 3550 3550 50  0001 C CNN
F 3 "~" H 3550 3550 50  0001 C CNN
	1    3550 3550
	-1   0    0    -1  
$EndComp
$Comp
L Device:R_POT RV21
U 1 1 5B8F1CBB
P 3950 4350
F 0 "RV21" H 3880 4396 50  0000 R CNN
F 1 "100R" H 3880 4305 50  0000 R CNN
F 2 "Potentiometer_SMD:Potentiometer_Bourns_3314J_Vertical" H 3950 4350 50  0001 C CNN
F 3 "~" H 3950 4350 50  0001 C CNN
	1    3950 4350
	-1   0    0    1   
$EndComp
$Comp
L Device:R R21
U 1 1 5B8F20AF
P 3050 4500
F 0 "R21" H 3120 4546 50  0000 L CNN
F 1 "50R" H 3120 4455 50  0000 L CNN
F 2 "Resistor_THT:R_Axial_Power_L25.0mm_W9.0mm_P27.94mm" V 2980 4500 50  0001 C CNN
F 3 "~" H 3050 4500 50  0001 C CNN
	1    3050 4500
	1    0    0    -1  
$EndComp
$Comp
L Device:R R22
U 1 1 5B8F2123
P 3500 4350
F 0 "R22" V 3293 4350 50  0000 C CNN
F 1 "1k5" V 3384 4350 50  0000 C CNN
F 2 "Resistor_SMD:R_0603_1608Metric_Pad1.05x0.95mm_HandSolder" V 3430 4350 50  0001 C CNN
F 3 "~" H 3500 4350 50  0001 C CNN
	1    3500 4350
	0    1    1    0   
$EndComp
$Comp
L mixer-rescue:GND- #PWR0107
U 1 1 5B8F2173
P 3050 4700
F 0 "#PWR0107" H 3050 4450 50  0001 C CNN
F 1 "GND" H 3050 4550 50  0000 C CNN
F 2 "" H 3050 4700 50  0001 C CNN
F 3 "" H 3050 4700 50  0001 C CNN
	1    3050 4700
	1    0    0    -1  
$EndComp
$Comp
L mixer-rescue:GND- #PWR0108
U 1 1 5B8F2194
P 3950 4550
F 0 "#PWR0108" H 3950 4300 50  0001 C CNN
F 1 "GND" H 3950 4400 50  0000 C CNN
F 2 "" H 3950 4550 50  0001 C CNN
F 3 "" H 3950 4550 50  0001 C CNN
	1    3950 4550
	1    0    0    -1  
$EndComp
$Comp
L mixer-rescue:GND- #PWR0109
U 1 1 5B8F2A88
P 3550 3750
F 0 "#PWR0109" H 3550 3500 50  0001 C CNN
F 1 "GND" H 3550 3600 50  0000 C CNN
F 2 "" H 3550 3750 50  0001 C CNN
F 3 "" H 3550 3750 50  0001 C CNN
	1    3550 3750
	1    0    0    -1  
$EndComp
Wire Wire Line
	3050 4700 3050 4650
Wire Wire Line
	2850 4350 3050 4350
Wire Wire Line
	3650 4350 3800 4350
Wire Wire Line
	3950 4550 3950 4500
Wire Wire Line
	3550 3750 3550 3700
Wire Wire Line
	6150 3900 5950 3900
Wire Wire Line
	3950 4200 3950 3950
Wire Wire Line
	3950 3950 4100 3950
Wire Wire Line
	3950 3400 3550 3400
Wire Wire Line
	3400 3550 2900 3550
Text GLabel 4850 1950 2    50   Input ~ 0
RX_mix
Text GLabel 3400 1950 0    50   Input ~ 0
RX_E
Text GLabel 3400 2150 0    50   Input ~ 0
TX_E
Text GLabel 4850 2150 2    50   Input ~ 0
TX_mix
Text GLabel 3450 2050 0    50   Input ~ 0
Entree
Text GLabel 4850 2050 2    50   Input ~ 0
Mixer
Wire Wire Line
	3400 1950 3550 1950
Wire Wire Line
	3400 2150 3550 2150
Wire Wire Line
	3550 2050 3450 2050
Text GLabel 1850 3900 2    50   Input ~ 0
Entree
Text GLabel 5950 3900 0    50   Input ~ 0
Mixer
Text GLabel 2900 3550 0    50   Input ~ 0
RX_E
Text GLabel 2850 4350 0    50   Input ~ 0
TX_E
Connection ~ 3050 4350
Wire Wire Line
	3050 4350 3350 4350
Text GLabel 3950 3400 2    50   Input ~ 0
RX_mix
Text GLabel 4100 3950 2    50   Input ~ 0
TX_mix
$Comp
L Regulator_Linear:AMS1117-5.0 U2
U 1 1 5B8F0685
P 1900 1450
F 0 "U2" H 1900 1692 50  0000 C CNN
F 1 "AMS1117-5.0" H 1900 1601 50  0000 C CNN
F 2 "Package_TO_SOT_SMD:SOT-223-3_TabPin2" H 1900 1650 50  0001 C CNN
F 3 "http://www.advanced-monolithic.com/pdf/ds1117.pdf" H 2000 1200 50  0001 C CNN
	1    1900 1450
	1    0    0    -1  
$EndComp
$Comp
L power:GND #PWR0110
U 1 1 5B8F0873
P 1900 1850
F 0 "#PWR0110" H 1900 1600 50  0001 C CNN
F 1 "GND" H 1905 1677 50  0000 C CNN
F 2 "" H 1900 1850 50  0001 C CNN
F 3 "" H 1900 1850 50  0001 C CNN
	1    1900 1850
	1    0    0    -1  
$EndComp
$Comp
L Connector:Conn_01x01_Male J4
U 1 1 5B8F0924
P 1050 1450
F 0 "J4" H 1156 1628 50  0000 C CNN
F 1 "Conn_01x01_Male" H 1156 1537 50  0000 C CNN
F 2 "TestPoint:TestPoint_Pad_4.0x4.0mm" H 1050 1450 50  0001 C CNN
F 3 "~" H 1050 1450 50  0001 C CNN
	1    1050 1450
	1    0    0    -1  
$EndComp
Wire Wire Line
	1250 1450 1450 1450
Wire Wire Line
	1900 1750 1900 1850
$Comp
L Device:C C41
U 1 1 5B8F291F
P 1450 1600
F 0 "C41" H 1565 1646 50  0000 L CNN
F 1 "1uF" H 1565 1555 50  0000 L CNN
F 2 "Capacitor_SMD:C_0603_1608Metric_Pad1.05x0.95mm_HandSolder" H 1488 1450 50  0001 C CNN
F 3 "~" H 1450 1600 50  0001 C CNN
	1    1450 1600
	1    0    0    -1  
$EndComp
Connection ~ 1450 1450
Wire Wire Line
	1450 1450 1600 1450
$Comp
L Device:C C42
U 1 1 5B8F2994
P 2450 1600
F 0 "C42" H 2565 1646 50  0000 L CNN
F 1 "1uF" H 2565 1555 50  0000 L CNN
F 2 "Capacitor_SMD:C_0603_1608Metric_Pad1.05x0.95mm_HandSolder" H 2488 1450 50  0001 C CNN
F 3 "~" H 2450 1600 50  0001 C CNN
	1    2450 1600
	1    0    0    -1  
$EndComp
$Comp
L power:GND #PWR0111
U 1 1 5B8F29D8
P 1450 1900
F 0 "#PWR0111" H 1450 1650 50  0001 C CNN
F 1 "GND" H 1455 1727 50  0000 C CNN
F 2 "" H 1450 1900 50  0001 C CNN
F 3 "" H 1450 1900 50  0001 C CNN
	1    1450 1900
	1    0    0    -1  
$EndComp
$Comp
L power:GND #PWR0112
U 1 1 5B8F2A03
P 2450 1900
F 0 "#PWR0112" H 2450 1650 50  0001 C CNN
F 1 "GND" H 2455 1727 50  0000 C CNN
F 2 "" H 2450 1900 50  0001 C CNN
F 3 "" H 2450 1900 50  0001 C CNN
	1    2450 1900
	1    0    0    -1  
$EndComp
Wire Wire Line
	2450 1900 2450 1750
Wire Wire Line
	1450 1900 1450 1750
$Comp
L Connector:Conn_01x01_Male J5
U 1 1 5B8F7C45
P 4850 1450
F 0 "J5" H 4823 1380 50  0000 R CNN
F 1 "Conn_01x01_Male" H 4823 1471 50  0000 R CNN
F 2 "TestPoint:TestPoint_Pad_4.0x4.0mm" H 4850 1450 50  0001 C CNN
F 3 "~" H 4850 1450 50  0001 C CNN
	1    4850 1450
	-1   0    0    1   
$EndComp
$Comp
L tq2-5v:TQ2-5V U3
U 1 1 5B91C41D
P 4050 1950
F 0 "U3" V 4480 1850 60  0000 C CNN
F 1 "TQ2-5V" V 4586 1850 60  0000 C CNN
F 2 "lib_kicad:TQ2-5V" H 4050 1950 60  0001 C CNN
F 3 "" H 4050 1950 60  0001 C CNN
	1    4050 1950
	0    -1   1    0   
$EndComp
Wire Wire Line
	4850 2050 4750 2050
Wire Wire Line
	4850 2150 4750 2150
Wire Wire Line
	4850 1950 4750 1950
Wire Wire Line
	4000 1450 4100 1450
$Comp
L Diode:LL4148 D1
U 1 1 5BAA9CD0
P 3950 1250
F 0 "D1" H 3950 1466 50  0000 C CNN
F 1 "LL4148" H 3950 1375 50  0000 C CNN
F 2 "Diode_SMD:D_MiniMELF" H 3950 1075 50  0001 C CNN
F 3 "http://www.vishay.com/docs/85557/ll4148.pdf" H 3950 1250 50  0001 C CNN
	1    3950 1250
	1    0    0    -1  
$EndComp
Wire Wire Line
	3800 1250 3800 1450
Connection ~ 3800 1450
Wire Wire Line
	3800 1450 3900 1450
Wire Wire Line
	4100 1250 4100 1450
Connection ~ 4100 1450
Wire Wire Line
	4100 1450 4650 1450
$Comp
L Diode:LL4148 D51
U 1 1 5BAABC72
P 7550 1700
F 0 "D51" H 7550 1484 50  0000 C CNN
F 1 "LL4148" H 7550 1575 50  0000 C CNN
F 2 "Diode_SMD:D_MiniMELF" H 7550 1525 50  0001 C CNN
F 3 "http://www.vishay.com/docs/85557/ll4148.pdf" H 7550 1700 50  0001 C CNN
	1    7550 1700
	-1   0    0    1   
$EndComp
Text GLabel 7300 1700 0    50   Input ~ 0
Entree
Wire Wire Line
	7300 1700 7400 1700
$Comp
L Device:C C51
U 1 1 5BAB0570
P 7750 1900
F 0 "C51" H 7865 1946 50  0000 L CNN
F 1 "10p" H 7865 1855 50  0000 L CNN
F 2 "Capacitor_SMD:C_0603_1608Metric_Pad1.05x0.95mm_HandSolder" H 7788 1750 50  0001 C CNN
F 3 "~" H 7750 1900 50  0001 C CNN
	1    7750 1900
	1    0    0    -1  
$EndComp
$Comp
L Device:C C52
U 1 1 5BAB05BC
P 8150 1900
F 0 "C52" H 8265 1946 50  0000 L CNN
F 1 "4u7" H 8265 1855 50  0000 L CNN
F 2 "Capacitor_SMD:C_0603_1608Metric_Pad1.05x0.95mm_HandSolder" H 8188 1750 50  0001 C CNN
F 3 "~" H 8150 1900 50  0001 C CNN
	1    8150 1900
	1    0    0    -1  
$EndComp
$Comp
L power:GND #PWR01
U 1 1 5BAB09EA
P 7750 2100
F 0 "#PWR01" H 7750 1850 50  0001 C CNN
F 1 "GND" H 7755 1927 50  0000 C CNN
F 2 "" H 7750 2100 50  0001 C CNN
F 3 "" H 7750 2100 50  0001 C CNN
	1    7750 2100
	1    0    0    -1  
$EndComp
$Comp
L power:GND #PWR02
U 1 1 5BAB0A4B
P 8150 2100
F 0 "#PWR02" H 8150 1850 50  0001 C CNN
F 1 "GND" H 8155 1927 50  0000 C CNN
F 2 "" H 8150 2100 50  0001 C CNN
F 3 "" H 8150 2100 50  0001 C CNN
	1    8150 2100
	1    0    0    -1  
$EndComp
Wire Wire Line
	7700 1700 7750 1700
Wire Wire Line
	7750 2100 7750 2050
Wire Wire Line
	8150 2100 8150 2050
Wire Wire Line
	8150 1750 8150 1700
Connection ~ 8150 1700
Wire Wire Line
	8150 1700 8350 1700
Wire Wire Line
	7750 1750 7750 1700
Connection ~ 7750 1700
Wire Wire Line
	7750 1700 8150 1700
$Comp
L Device:R R51
U 1 1 5BAB8337
P 8500 1700
F 0 "R51" V 8293 1700 50  0000 C CNN
F 1 "10k" V 8384 1700 50  0000 C CNN
F 2 "Resistor_SMD:R_0603_1608Metric_Pad1.05x0.95mm_HandSolder" V 8430 1700 50  0001 C CNN
F 3 "~" H 8500 1700 50  0001 C CNN
	1    8500 1700
	0    1    1    0   
$EndComp
Wire Wire Line
	8650 1700 8850 1700
$Comp
L Connector:Conn_01x01_Male J51
U 1 1 5BABD061
P 9050 1700
F 0 "J51" H 9023 1630 50  0000 R CNN
F 1 "Conn_01x01_Male" H 9023 1721 50  0000 R CNN
F 2 "TestPoint:TestPoint_Pad_4.0x4.0mm" H 9050 1700 50  0001 C CNN
F 3 "~" H 9050 1700 50  0001 C CNN
	1    9050 1700
	-1   0    0    1   
$EndComp
Wire Wire Line
	2200 1450 2450 1450
Wire Notes Line
	2750 1000 2750 2250
Wire Notes Line
	2750 2250 650  2250
Wire Notes Line
	650  2250 650  1000
Wire Notes Line
	650  1000 2750 1000
Wire Notes Line
	3050 1000 3050 2800
Wire Notes Line
	3050 2800 5650 2800
Wire Notes Line
	5650 2800 5650 1000
Wire Notes Line
	5650 1000 3050 1000
Wire Notes Line
	5600 3300 5600 4800
Wire Notes Line
	5600 4800 8100 4800
Wire Notes Line
	8100 4800 8100 3300
Wire Notes Line
	8100 3300 5600 3300
Wire Notes Line
	4150 5650 6150 5650
Wire Notes Line
	6150 5650 6150 6600
Wire Notes Line
	6150 6600 4150 6600
Wire Notes Line
	4150 6600 4150 5650
Wire Notes Line
	6850 1200 6850 2500
Wire Notes Line
	6850 2500 9850 2500
Wire Notes Line
	9850 2500 9850 1200
Wire Notes Line
	9850 1200 6850 1200
Text Notes 700  1200 0    118  ~ 0
Alimentation
Text Notes 3100 2750 0    118  ~ 0
Relais - TQ2
Text Notes 8850 2400 0    118  ~ 0
Detecteur
Text Notes 5700 3500 0    118  ~ 0
Melangeur - ADE-25MH
Text Notes 2600 3300 0    118  ~ 0
Attenuateur - FI - RX/TX
Text Notes 4200 6550 0    118  ~ 0
Attenuateur - OL
Wire Wire Line
	2450 1450 3800 1450
Connection ~ 2450 1450
Wire Notes Line
	2550 3100 5050 3100
Wire Notes Line
	5050 3100 5050 5100
Wire Notes Line
	5050 5100 2550 5100
Wire Notes Line
	2550 5100 2550 3100
$EndSCHEMATC
