(kicad_pcb (version 4) (host pcbnew 4.0.7)

  (general
    (links 11)
    (no_connects 8)
    (area 126.424999 96.424999 171.575001 126.575001)
    (thickness 1.6)
    (drawings 4)
    (tracks 23)
    (zones 0)
    (modules 4)
    (nets 5)
  )

  (page A4)
  (layers
    (0 F.Cu signal)
    (31 B.Cu signal)
    (32 B.Adhes user)
    (33 F.Adhes user)
    (34 B.Paste user)
    (35 F.Paste user)
    (36 B.SilkS user)
    (37 F.SilkS user)
    (38 B.Mask user)
    (39 F.Mask user)
    (40 Dwgs.User user)
    (41 Cmts.User user)
    (42 Eco1.User user)
    (43 Eco2.User user)
    (44 Edge.Cuts user)
    (45 Margin user)
    (46 B.CrtYd user)
    (47 F.CrtYd user)
    (48 B.Fab user)
    (49 F.Fab user)
  )

  (setup
    (last_trace_width 1.45)
    (trace_clearance 0)
    (zone_clearance 0)
    (zone_45_only no)
    (trace_min 0.2)
    (segment_width 0.2)
    (edge_width 0.15)
    (via_size 1.2)
    (via_drill 0.8)
    (via_min_size 0.4)
    (via_min_drill 0.3)
    (uvia_size 0.3)
    (uvia_drill 0.1)
    (uvias_allowed no)
    (uvia_min_size 0.2)
    (uvia_min_drill 0.1)
    (pcb_text_width 0.3)
    (pcb_text_size 1.5 1.5)
    (mod_edge_width 0.15)
    (mod_text_size 1 1)
    (mod_text_width 0.15)
    (pad_size 1.524 1.524)
    (pad_drill 0.762)
    (pad_to_mask_clearance 0.2)
    (aux_axis_origin 0 0)
    (visible_elements FFFFFF7F)
    (pcbplotparams
      (layerselection 0x00000_00000001)
      (usegerberextensions false)
      (excludeedgelayer true)
      (linewidth 0.100000)
      (plotframeref false)
      (viasonmask true)
      (mode 1)
      (useauxorigin false)
      (hpglpennumber 1)
      (hpglpenspeed 20)
      (hpglpendiameter 15)
      (hpglpenoverlay 2)
      (psnegative false)
      (psa4output false)
      (plotreference true)
      (plotvalue true)
      (plotinvisibletext false)
      (padsonsilk false)
      (subtractmaskfromsilk false)
      (outputformat 4)
      (mirror true)
      (drillshape 2)
      (scaleselection 1)
      (outputdirectory ""))
  )

  (net 0 "")
  (net 1 "Net-(J1-Pad1)")
  (net 2 GND)
  (net 3 "Net-(J2-Pad1)")
  (net 4 "Net-(J3-Pad1)")

  (net_class Default "Ceci est la Netclass par défaut"
    (clearance 0)
    (trace_width 1.45)
    (via_dia 1.2)
    (via_drill 0.8)
    (uvia_dia 0.3)
    (uvia_drill 0.1)
    (add_net GND)
    (add_net "Net-(J1-Pad1)")
    (add_net "Net-(J2-Pad1)")
    (add_net "Net-(J3-Pad1)")
  )

  (module lib_kicad:SMA (layer F.Cu) (tedit 564238BF) (tstamp 5AA98DBE)
    (at 148.5 118.5 90)
    (path /5AA98A29)
    (fp_text reference J1 (at -3.5 -4.5 90) (layer F.SilkS)
      (effects (font (size 1 1) (thickness 0.15)))
    )
    (fp_text value SMA (at -5 0 90) (layer F.Fab)
      (effects (font (size 1 1) (thickness 0.15)))
    )
    (fp_line (start 0 -0.5) (end 3 -0.5) (layer F.SilkS) (width 0.15))
    (fp_line (start 3 -0.5) (end 3 0.5) (layer F.SilkS) (width 0.15))
    (fp_line (start 3 0.5) (end 0 0.5) (layer F.SilkS) (width 0.15))
    (fp_line (start -7 -3.5) (end -8 -2.5) (layer F.SilkS) (width 0.15))
    (fp_line (start -8 -2.5) (end -8 2) (layer F.SilkS) (width 0.15))
    (fp_line (start -8 2) (end -7 3) (layer F.SilkS) (width 0.15))
    (fp_line (start -3 -2.5) (end -3 -3.5) (layer F.SilkS) (width 0.15))
    (fp_line (start -3 -3.5) (end -7 -3.5) (layer F.SilkS) (width 0.15))
    (fp_line (start -7 -3.5) (end -7 3) (layer F.SilkS) (width 0.15))
    (fp_line (start -7 3) (end -3 3) (layer F.SilkS) (width 0.15))
    (fp_line (start -3 3) (end -3 2.5) (layer F.SilkS) (width 0.15))
    (fp_line (start -1 2.5) (end -3 2.5) (layer F.SilkS) (width 0.15))
    (fp_line (start -3 2.5) (end -3 -2.5) (layer F.SilkS) (width 0.15))
    (fp_line (start -3 -2.5) (end -1 -2.5) (layer F.SilkS) (width 0.15))
    (fp_line (start 3 -4) (end 3 -3) (layer F.SilkS) (width 0.15))
    (fp_line (start 3 -3) (end 0 -3) (layer F.SilkS) (width 0.15))
    (fp_line (start 0 -3) (end 0 3) (layer F.SilkS) (width 0.15))
    (fp_line (start 0 3) (end 3 3) (layer F.SilkS) (width 0.15))
    (fp_line (start 3 3) (end 3 4) (layer F.SilkS) (width 0.15))
    (fp_line (start 3 4) (end -0.5 4) (layer F.SilkS) (width 0.15))
    (fp_line (start -0.5 4) (end -1 4) (layer F.SilkS) (width 0.15))
    (fp_line (start -1 4) (end -1 -4) (layer F.SilkS) (width 0.15))
    (fp_line (start -1 -4) (end 3 -4) (layer F.SilkS) (width 0.15))
    (pad 1 smd rect (at 2.032 0 90) (size 4 1) (layers F.Cu F.Paste F.Mask)
      (net 1 "Net-(J1-Pad1)"))
    (pad 2 smd rect (at 2 -3.5 90) (size 4 3) (layers F.Cu F.Paste F.Mask)
      (net 2 GND))
    (pad 2 smd rect (at 2 3.5 90) (size 4 3) (layers F.Cu F.Paste F.Mask)
      (net 2 GND))
  )

  (module lib_kicad:SMA (layer F.Cu) (tedit 564238BF) (tstamp 5AA98DC5)
    (at 134.5 102.5)
    (path /5AA98A52)
    (fp_text reference J2 (at -3.5 -4.5) (layer F.SilkS)
      (effects (font (size 1 1) (thickness 0.15)))
    )
    (fp_text value SMA (at -5 0) (layer F.Fab)
      (effects (font (size 1 1) (thickness 0.15)))
    )
    (fp_line (start 0 -0.5) (end 3 -0.5) (layer F.SilkS) (width 0.15))
    (fp_line (start 3 -0.5) (end 3 0.5) (layer F.SilkS) (width 0.15))
    (fp_line (start 3 0.5) (end 0 0.5) (layer F.SilkS) (width 0.15))
    (fp_line (start -7 -3.5) (end -8 -2.5) (layer F.SilkS) (width 0.15))
    (fp_line (start -8 -2.5) (end -8 2) (layer F.SilkS) (width 0.15))
    (fp_line (start -8 2) (end -7 3) (layer F.SilkS) (width 0.15))
    (fp_line (start -3 -2.5) (end -3 -3.5) (layer F.SilkS) (width 0.15))
    (fp_line (start -3 -3.5) (end -7 -3.5) (layer F.SilkS) (width 0.15))
    (fp_line (start -7 -3.5) (end -7 3) (layer F.SilkS) (width 0.15))
    (fp_line (start -7 3) (end -3 3) (layer F.SilkS) (width 0.15))
    (fp_line (start -3 3) (end -3 2.5) (layer F.SilkS) (width 0.15))
    (fp_line (start -1 2.5) (end -3 2.5) (layer F.SilkS) (width 0.15))
    (fp_line (start -3 2.5) (end -3 -2.5) (layer F.SilkS) (width 0.15))
    (fp_line (start -3 -2.5) (end -1 -2.5) (layer F.SilkS) (width 0.15))
    (fp_line (start 3 -4) (end 3 -3) (layer F.SilkS) (width 0.15))
    (fp_line (start 3 -3) (end 0 -3) (layer F.SilkS) (width 0.15))
    (fp_line (start 0 -3) (end 0 3) (layer F.SilkS) (width 0.15))
    (fp_line (start 0 3) (end 3 3) (layer F.SilkS) (width 0.15))
    (fp_line (start 3 3) (end 3 4) (layer F.SilkS) (width 0.15))
    (fp_line (start 3 4) (end -0.5 4) (layer F.SilkS) (width 0.15))
    (fp_line (start -0.5 4) (end -1 4) (layer F.SilkS) (width 0.15))
    (fp_line (start -1 4) (end -1 -4) (layer F.SilkS) (width 0.15))
    (fp_line (start -1 -4) (end 3 -4) (layer F.SilkS) (width 0.15))
    (pad 1 smd rect (at 2.032 0) (size 4 1) (layers F.Cu F.Paste F.Mask)
      (net 3 "Net-(J2-Pad1)"))
    (pad 2 smd rect (at 2 -3.5) (size 4 3) (layers F.Cu F.Paste F.Mask)
      (net 2 GND))
    (pad 2 smd rect (at 2 3.5) (size 4 3) (layers F.Cu F.Paste F.Mask)
      (net 2 GND))
  )

  (module lib_kicad:SMA (layer F.Cu) (tedit 564238BF) (tstamp 5AA98DCC)
    (at 163.5 107.5 180)
    (path /5AA989E6)
    (fp_text reference J3 (at -3.5 -4.5 180) (layer F.SilkS)
      (effects (font (size 1 1) (thickness 0.15)))
    )
    (fp_text value SMA (at -5 0 180) (layer F.Fab)
      (effects (font (size 1 1) (thickness 0.15)))
    )
    (fp_line (start 0 -0.5) (end 3 -0.5) (layer F.SilkS) (width 0.15))
    (fp_line (start 3 -0.5) (end 3 0.5) (layer F.SilkS) (width 0.15))
    (fp_line (start 3 0.5) (end 0 0.5) (layer F.SilkS) (width 0.15))
    (fp_line (start -7 -3.5) (end -8 -2.5) (layer F.SilkS) (width 0.15))
    (fp_line (start -8 -2.5) (end -8 2) (layer F.SilkS) (width 0.15))
    (fp_line (start -8 2) (end -7 3) (layer F.SilkS) (width 0.15))
    (fp_line (start -3 -2.5) (end -3 -3.5) (layer F.SilkS) (width 0.15))
    (fp_line (start -3 -3.5) (end -7 -3.5) (layer F.SilkS) (width 0.15))
    (fp_line (start -7 -3.5) (end -7 3) (layer F.SilkS) (width 0.15))
    (fp_line (start -7 3) (end -3 3) (layer F.SilkS) (width 0.15))
    (fp_line (start -3 3) (end -3 2.5) (layer F.SilkS) (width 0.15))
    (fp_line (start -1 2.5) (end -3 2.5) (layer F.SilkS) (width 0.15))
    (fp_line (start -3 2.5) (end -3 -2.5) (layer F.SilkS) (width 0.15))
    (fp_line (start -3 -2.5) (end -1 -2.5) (layer F.SilkS) (width 0.15))
    (fp_line (start 3 -4) (end 3 -3) (layer F.SilkS) (width 0.15))
    (fp_line (start 3 -3) (end 0 -3) (layer F.SilkS) (width 0.15))
    (fp_line (start 0 -3) (end 0 3) (layer F.SilkS) (width 0.15))
    (fp_line (start 0 3) (end 3 3) (layer F.SilkS) (width 0.15))
    (fp_line (start 3 3) (end 3 4) (layer F.SilkS) (width 0.15))
    (fp_line (start 3 4) (end -0.5 4) (layer F.SilkS) (width 0.15))
    (fp_line (start -0.5 4) (end -1 4) (layer F.SilkS) (width 0.15))
    (fp_line (start -1 4) (end -1 -4) (layer F.SilkS) (width 0.15))
    (fp_line (start -1 -4) (end 3 -4) (layer F.SilkS) (width 0.15))
    (pad 1 smd rect (at 2.032 0 180) (size 4 1) (layers F.Cu F.Paste F.Mask)
      (net 4 "Net-(J3-Pad1)"))
    (pad 2 smd rect (at 2 -3.5 180) (size 4 3) (layers F.Cu F.Paste F.Mask)
      (net 2 GND))
    (pad 2 smd rect (at 2 3.5 180) (size 4 3) (layers F.Cu F.Paste F.Mask)
      (net 2 GND))
  )

  (module lib_kicad:PL-052 (layer F.Cu) (tedit 5AA98C76) (tstamp 5AA98DD6)
    (at 148.5011 105.0036)
    (path /5AA989A0)
    (fp_text reference U1 (at 0 0.5) (layer F.SilkS)
      (effects (font (size 1 1) (thickness 0.15)))
    )
    (fp_text value ADE-25MH (at 0 -0.5) (layer F.Fab)
      (effects (font (size 1 1) (thickness 0.15)))
    )
    (pad 1 smd rect (at -2.54 2.54) (size 1.65 2.54) (layers F.Cu F.Paste F.Mask)
      (net 2 GND))
    (pad 2 smd rect (at 0 2.54) (size 1.65 2.54) (layers F.Cu F.Paste F.Mask)
      (net 1 "Net-(J1-Pad1)"))
    (pad 3 smd rect (at 2.54 2.54) (size 1.65 2.54) (layers F.Cu F.Paste F.Mask)
      (net 4 "Net-(J3-Pad1)"))
    (pad 4 smd rect (at 2.54 -2.54) (size 1.65 2.54) (layers F.Cu F.Paste F.Mask)
      (net 2 GND))
    (pad 5 smd rect (at 0 -2.54) (size 1.65 2.54) (layers F.Cu F.Paste F.Mask)
      (net 2 GND))
    (pad 6 smd rect (at -2.54 -2.54) (size 1.65 2.54) (layers F.Cu F.Paste F.Mask)
      (net 3 "Net-(J2-Pad1)"))
  )

  (gr_line (start 134.5 118.5) (end 134.5 96.5) (angle 90) (layer Edge.Cuts) (width 0.15))
  (gr_line (start 163.5 118.5) (end 134.5 118.5) (angle 90) (layer Edge.Cuts) (width 0.15))
  (gr_line (start 163.5 96.5) (end 163.5 118.5) (angle 90) (layer Edge.Cuts) (width 0.15))
  (gr_line (start 134.5 96.5) (end 163.5 96.5) (angle 90) (layer Edge.Cuts) (width 0.15))

  (segment (start 148.5 116.468) (end 148.5 119) (width 1.45) (layer F.Cu) (net 1) (status 400000))
  (segment (start 148.5 116.468) (end 148.5 107.5447) (width 1.45) (layer F.Cu) (net 1))
  (segment (start 148.5 107.5447) (end 148.5011 107.5436) (width 1.45) (layer F.Cu) (net 1) (tstamp 5AA98E86))
  (via (at 153.416 102.616) (size 1.2) (drill 0.8) (layers F.Cu B.Cu) (net 2))
  (segment (start 148.5011 100.4189) (end 148.59 100.33) (width 1.45) (layer F.Cu) (net 2) (tstamp 5AA99134))
  (via (at 148.59 100.33) (size 1.2) (drill 0.8) (layers F.Cu B.Cu) (net 2))
  (segment (start 148.59 100.33) (end 151.13 100.33) (width 1.45) (layer B.Cu) (net 2) (tstamp 5AA99138))
  (via (at 151.13 100.33) (size 1.2) (drill 0.8) (layers F.Cu B.Cu) (net 2))
  (segment (start 151.13 100.33) (end 153.416 100.33) (width 1.45) (layer F.Cu) (net 2) (tstamp 5AA9913B))
  (via (at 153.416 100.33) (size 1.2) (drill 0.8) (layers F.Cu B.Cu) (net 2))
  (segment (start 153.416 102.616) (end 153.416 100.33) (width 1.45) (layer B.Cu) (net 2) (tstamp 5AA99141))
  (segment (start 148.5011 100.4189) (end 148.5011 102.4636) (width 1.45) (layer F.Cu) (net 2) (status 800000))
  (segment (start 145.9611 107.5436) (end 144.3736 107.5436) (width 1.45) (layer F.Cu) (net 2) (status 400000))
  (via (at 146.05 109.728) (size 1.2) (drill 0.8) (layers F.Cu B.Cu) (net 2))
  (segment (start 144.272 109.728) (end 146.05 109.728) (width 1.45) (layer F.Cu) (net 2) (tstamp 5AA99129))
  (via (at 144.272 109.728) (size 1.2) (drill 0.8) (layers F.Cu B.Cu) (net 2))
  (segment (start 144.272 107.442) (end 144.272 109.728) (width 1.45) (layer B.Cu) (net 2) (tstamp 5AA99126))
  (via (at 144.272 107.442) (size 1.2) (drill 0.8) (layers F.Cu B.Cu) (net 2))
  (segment (start 144.3736 107.5436) (end 144.272 107.442) (width 1.45) (layer F.Cu) (net 2) (tstamp 5AA99121))
  (segment (start 145.9611 102.4636) (end 134.5364 102.4636) (width 1.45) (layer F.Cu) (net 3) (status C00000))
  (segment (start 134.5364 102.4636) (end 134.5 102.5) (width 1.45) (layer F.Cu) (net 3) (tstamp 5AA99513) (status 400000))
  (segment (start 151.0411 107.5436) (end 163.9564 107.5436) (width 1.45) (layer F.Cu) (net 4) (status 400000))
  (segment (start 163.9564 107.5436) (end 164 107.5) (width 1.45) (layer F.Cu) (net 4) (tstamp 5AA99501))

  (zone (net 2) (net_name GND) (layer F.Cu) (tstamp 5AA9906F) (hatch edge 0.508)
    (connect_pads yes (clearance 0))
    (min_thickness 0.5)
    (fill yes (arc_segments 16) (thermal_gap 0.508) (thermal_bridge_width 0.508))
    (polygon
      (pts
        (xy 154.2542 103.7336) (xy 147.6756 103.7336) (xy 147.6756 99.5172) (xy 154.2542 99.5172)
      )
    )
    (filled_polygon
      (pts
        (xy 154.0042 103.4836) (xy 147.9256 103.4836) (xy 147.9256 99.7672) (xy 154.0042 99.7672)
      )
    )
  )
  (zone (net 2) (net_name GND) (layer F.Cu) (tstamp 5AA9906F) (hatch edge 0.508)
    (connect_pads yes (clearance 0))
    (min_thickness 0.5)
    (fill yes (arc_segments 16) (thermal_gap 0.508) (thermal_bridge_width 0.508))
    (polygon
      (pts
        (xy 146.7866 110.49) (xy 143.5354 110.49) (xy 143.5354 106.2736) (xy 146.7866 106.2736)
      )
    )
    (filled_polygon
      (pts
        (xy 146.5366 110.24) (xy 143.7854 110.24) (xy 143.7854 106.5236) (xy 146.5366 106.5236)
      )
    )
  )
)
