EESchema Schematic File Version 2
LIBS:power
LIBS:device
LIBS:switches
LIBS:relays
LIBS:motors
LIBS:transistors
LIBS:conn
LIBS:linear
LIBS:regul
LIBS:74xx
LIBS:cmos4000
LIBS:adc-dac
LIBS:memory
LIBS:xilinx
LIBS:microcontrollers
LIBS:dsp
LIBS:microchip
LIBS:analog_switches
LIBS:motorola
LIBS:texas
LIBS:intel
LIBS:audio
LIBS:interface
LIBS:digital-audio
LIBS:philips
LIBS:display
LIBS:cypress
LIBS:siliconi
LIBS:opto
LIBS:atmel
LIBS:contrib
LIBS:valves
LIBS:era-5sm
LIBS:sma
EELAYER 25 0
EELAYER END
$Descr A4 11693 8268
encoding utf-8
Sheet 1 1
Title ""
Date ""
Rev ""
Comp ""
Comment1 ""
Comment2 ""
Comment3 ""
Comment4 ""
$EndDescr
$Comp
L ERA-5SM U1
U 1 1 5AC681E4
P 6000 4200
F 0 "U1" H 5800 4400 60  0000 C CNN
F 1 "ERA-5SM" H 5750 4000 60  0000 C CNN
F 2 "lib_kicad:WW107" H 6000 4200 60  0001 C CNN
F 3 "" H 6000 4200 60  0001 C CNN
	1    6000 4200
	1    0    0    -1  
$EndComp
$Comp
L GND #PWR01
U 1 1 5AC68232
P 6000 3550
F 0 "#PWR01" H 6000 3300 50  0001 C CNN
F 1 "GND" H 6000 3400 50  0000 C CNN
F 2 "" H 6000 3550 50  0001 C CNN
F 3 "" H 6000 3550 50  0001 C CNN
	1    6000 3550
	-1   0    0    1   
$EndComp
$Comp
L GND #PWR02
U 1 1 5AC68248
P 6000 4800
F 0 "#PWR02" H 6000 4550 50  0001 C CNN
F 1 "GND" H 6000 4650 50  0000 C CNN
F 2 "" H 6000 4800 50  0001 C CNN
F 3 "" H 6000 4800 50  0001 C CNN
	1    6000 4800
	1    0    0    -1  
$EndComp
$Comp
L GND #PWR03
U 1 1 5AC6825F
P 7150 3550
F 0 "#PWR03" H 7150 3300 50  0001 C CNN
F 1 "GND" H 7150 3400 50  0000 C CNN
F 2 "" H 7150 3550 50  0001 C CNN
F 3 "" H 7150 3550 50  0001 C CNN
	1    7150 3550
	1    0    0    -1  
$EndComp
$Comp
L C C2
U 1 1 5AC68275
P 7150 3300
F 0 "C2" H 7175 3400 50  0000 L CNN
F 1 "10p" H 7175 3200 50  0000 L CNN
F 2 "Capacitors_SMD:C_0603_HandSoldering" H 7188 3150 50  0001 C CNN
F 3 "" H 7150 3300 50  0001 C CNN
	1    7150 3300
	1    0    0    -1  
$EndComp
$Comp
L C C4
U 1 1 5AC682A0
P 7400 3300
F 0 "C4" H 7425 3400 50  0000 L CNN
F 1 "1n" H 7425 3200 50  0000 L CNN
F 2 "Capacitors_SMD:C_0603_HandSoldering" H 7438 3150 50  0001 C CNN
F 3 "" H 7400 3300 50  0001 C CNN
	1    7400 3300
	1    0    0    -1  
$EndComp
$Comp
L C C5
U 1 1 5AC682BD
P 7650 3300
F 0 "C5" H 7675 3400 50  0000 L CNN
F 1 "0.1u" H 7675 3200 50  0000 L CNN
F 2 "Capacitors_SMD:C_0603_HandSoldering" H 7688 3150 50  0001 C CNN
F 3 "" H 7650 3300 50  0001 C CNN
	1    7650 3300
	1    0    0    -1  
$EndComp
$Comp
L L L1
U 1 1 5AC682E6
P 6800 4050
F 0 "L1" V 6750 4050 50  0000 C CNN
F 1 "230uH" V 6875 4050 50  0000 C CNN
F 2 "Inductors_SMD:L_0603_HandSoldering" H 6800 4050 50  0001 C CNN
F 3 "" H 6800 4050 50  0001 C CNN
	1    6800 4050
	1    0    0    -1  
$EndComp
$Comp
L R R1
U 1 1 5AC68313
P 6800 3600
F 0 "R1" V 6880 3600 50  0000 C CNN
F 1 "230nH" V 6800 3600 50  0000 C CNN
F 2 "Resistors_SMD:R_0603_HandSoldering" V 6730 3600 50  0001 C CNN
F 3 "" H 6800 3600 50  0001 C CNN
	1    6800 3600
	1    0    0    -1  
$EndComp
$Comp
L Conn_01x01 J3
U 1 1 5AC68462
P 8200 3100
F 0 "J3" H 8200 3200 50  0000 C CNN
F 1 "Conn_01x01" H 8200 3000 50  0000 C CNN
F 2 "SMD_Packages:1Pin" H 8200 3100 50  0001 C CNN
F 3 "" H 8200 3100 50  0001 C CNN
	1    8200 3100
	1    0    0    -1  
$EndComp
Wire Wire Line
	8000 3100 6800 3100
Wire Wire Line
	6800 3100 6800 3450
Wire Wire Line
	7150 3150 7150 3100
Connection ~ 7150 3100
Wire Wire Line
	7400 3150 7400 3100
Connection ~ 7400 3100
Wire Wire Line
	7650 3150 7650 3100
Connection ~ 7650 3100
Wire Wire Line
	7150 3450 7650 3450
Connection ~ 7400 3450
Wire Wire Line
	7150 3450 7150 3550
Wire Wire Line
	6800 3750 6800 3900
Wire Wire Line
	6000 3550 6000 3700
Wire Wire Line
	6000 4800 6000 4700
Wire Wire Line
	6700 4200 7050 4200
Connection ~ 6800 4200
$Comp
L C C3
U 1 1 5AC68632
P 7200 4200
F 0 "C3" H 7225 4300 50  0000 L CNN
F 1 "10p" H 7225 4100 50  0000 L CNN
F 2 "Capacitors_SMD:C_0603_HandSoldering" H 7238 4050 50  0001 C CNN
F 3 "" H 7200 4200 50  0001 C CNN
	1    7200 4200
	0    1    1    0   
$EndComp
$Comp
L C C1
U 1 1 5AC686A5
P 5000 4200
F 0 "C1" H 5025 4300 50  0000 L CNN
F 1 "10p" H 5025 4100 50  0000 L CNN
F 2 "Capacitors_SMD:C_0603_HandSoldering" H 5038 4050 50  0001 C CNN
F 3 "" H 5000 4200 50  0001 C CNN
	1    5000 4200
	0    1    1    0   
$EndComp
Wire Wire Line
	5350 4200 5150 4200
Wire Wire Line
	4850 4200 4600 4200
$Comp
L SMA J1
U 1 1 5AC687B2
P 4450 4500
F 0 "J1" H 4575 4815 60  0000 C CNN
F 1 "SMA" H 4640 4740 60  0000 C CNN
F 2 "lib_kicad:SMA" H 4625 4670 50  0000 C CNN
F 3 "" H 4450 4500 60  0001 C CNN
	1    4450 4500
	-1   0    0    -1  
$EndComp
$Comp
L SMA J2
U 1 1 5AC6881F
P 7650 4500
F 0 "J2" H 7775 4815 60  0000 C CNN
F 1 "SMA" H 7840 4740 60  0000 C CNN
F 2 "lib_kicad:SMA" H 7825 4670 50  0000 C CNN
F 3 "" H 7650 4500 60  0001 C CNN
	1    7650 4500
	1    0    0    -1  
$EndComp
Wire Wire Line
	7350 4200 7500 4200
Wire Wire Line
	7550 4400 7700 4400
Connection ~ 7650 4400
Connection ~ 7600 4400
Wire Wire Line
	7550 4400 7550 4450
$Comp
L GND #PWR04
U 1 1 5AC68954
P 7550 4450
F 0 "#PWR04" H 7550 4200 50  0001 C CNN
F 1 "GND" H 7550 4300 50  0000 C CNN
F 2 "" H 7550 4450 50  0001 C CNN
F 3 "" H 7550 4450 50  0001 C CNN
	1    7550 4450
	1    0    0    -1  
$EndComp
$Comp
L GND #PWR05
U 1 1 5AC68A39
P 4400 4500
F 0 "#PWR05" H 4400 4250 50  0001 C CNN
F 1 "GND" H 4400 4350 50  0000 C CNN
F 2 "" H 4400 4500 50  0001 C CNN
F 3 "" H 4400 4500 50  0001 C CNN
	1    4400 4500
	1    0    0    -1  
$EndComp
Wire Wire Line
	4400 4400 4400 4500
Wire Wire Line
	4400 4400 4550 4400
Connection ~ 4450 4400
Connection ~ 4500 4400
$EndSCHEMATC
