(export (version D)
  (design
    (source /home/nop/Radioamateur/git/Transverter_23cm/ERA-5SM/pcb/era-5sm.sch)
    (date "jeu. 05 avril 2018 22:47:06 CEST")
    (tool "Eeschema 4.0.7")
    (sheet (number 1) (name /) (tstamps /)
      (title_block
        (title)
        (company)
        (rev)
        (date)
        (source era-5sm.sch)
        (comment (number 1) (value ""))
        (comment (number 2) (value ""))
        (comment (number 3) (value ""))
        (comment (number 4) (value "")))))
  (components
    (comp (ref U1)
      (value ERA-5SM)
      (footprint lib_kicad:WW107)
      (libsource (lib era-5sm) (part ERA-5SM))
      (sheetpath (names /) (tstamps /))
      (tstamp 5AC681E4))
    (comp (ref C2)
      (value 10p)
      (footprint Capacitors_SMD:C_0603_HandSoldering)
      (libsource (lib device) (part C))
      (sheetpath (names /) (tstamps /))
      (tstamp 5AC68275))
    (comp (ref C4)
      (value 1n)
      (footprint Capacitors_SMD:C_0603_HandSoldering)
      (libsource (lib device) (part C))
      (sheetpath (names /) (tstamps /))
      (tstamp 5AC682A0))
    (comp (ref C5)
      (value 0.1u)
      (footprint Capacitors_SMD:C_0603_HandSoldering)
      (libsource (lib device) (part C))
      (sheetpath (names /) (tstamps /))
      (tstamp 5AC682BD))
    (comp (ref L1)
      (value 230uH)
      (footprint Inductors_SMD:L_0603_HandSoldering)
      (libsource (lib device) (part L))
      (sheetpath (names /) (tstamps /))
      (tstamp 5AC682E6))
    (comp (ref R1)
      (value 230nH)
      (footprint Resistors_SMD:R_0603_HandSoldering)
      (libsource (lib device) (part R))
      (sheetpath (names /) (tstamps /))
      (tstamp 5AC68313))
    (comp (ref J3)
      (value Conn_01x01)
      (footprint SMD_Packages:1Pin)
      (libsource (lib conn) (part Conn_01x01))
      (sheetpath (names /) (tstamps /))
      (tstamp 5AC68462))
    (comp (ref C3)
      (value 10p)
      (footprint Capacitors_SMD:C_0603_HandSoldering)
      (libsource (lib device) (part C))
      (sheetpath (names /) (tstamps /))
      (tstamp 5AC68632))
    (comp (ref C1)
      (value 10p)
      (footprint Capacitors_SMD:C_0603_HandSoldering)
      (libsource (lib device) (part C))
      (sheetpath (names /) (tstamps /))
      (tstamp 5AC686A5))
    (comp (ref J1)
      (value SMA)
      (footprint lib_kicad:SMA)
      (libsource (lib sma) (part SMA))
      (sheetpath (names /) (tstamps /))
      (tstamp 5AC687B2))
    (comp (ref J2)
      (value SMA)
      (footprint lib_kicad:SMA)
      (libsource (lib sma) (part SMA))
      (sheetpath (names /) (tstamps /))
      (tstamp 5AC6881F)))
  (libparts
    (libpart (lib device) (part C)
      (description "Unpolarized capacitor")
      (footprints
        (fp C_*))
      (fields
        (field (name Reference) C)
        (field (name Value) C))
      (pins
        (pin (num 1) (name ~) (type passive))
        (pin (num 2) (name ~) (type passive))))
    (libpart (lib conn) (part Conn_01x01)
      (description "Generic connector, single row, 01x01")
      (docs ~)
      (footprints
        (fp Connector*:*_??x*mm*)
        (fp Connector*:*1x??x*mm*)
        (fp Pin?Header?Straight?1X*)
        (fp Pin?Header?Angled?1X*)
        (fp Socket?Strip?Straight?1X*)
        (fp Socket?Strip?Angled?1X*))
      (fields
        (field (name Reference) J)
        (field (name Value) Conn_01x01))
      (pins
        (pin (num 1) (name Pin_1) (type passive))))
    (libpart (lib era-5sm) (part ERA-5SM)
      (fields
        (field (name Reference) U)
        (field (name Value) ERA-5SM))
      (pins
        (pin (num 1) (name RFin) (type input))
        (pin (num 2) (name GND) (type input))
        (pin (num 3) (name RFout) (type input))
        (pin (num 4) (name GND) (type input))))
    (libpart (lib device) (part L)
      (description Inductor)
      (footprints
        (fp Choke_*)
        (fp *Coil*)
        (fp Inductor_*)
        (fp L_*))
      (fields
        (field (name Reference) L)
        (field (name Value) L))
      (pins
        (pin (num 1) (name 1) (type passive))
        (pin (num 2) (name 2) (type passive))))
    (libpart (lib device) (part R)
      (description Resistor)
      (footprints
        (fp R_*)
        (fp R_*))
      (fields
        (field (name Reference) R)
        (field (name Value) R))
      (pins
        (pin (num 1) (name ~) (type passive))
        (pin (num 2) (name ~) (type passive))))
    (libpart (lib sma) (part SMA)
      (fields
        (field (name Reference) J)
        (field (name Value) SMA)
        (field (name Footprint) SMA))
      (pins
        (pin (num 1) (name RF) (type power_in))
        (pin (num 2) (name GND1) (type power_in))
        (pin (num 3) (name GND2) (type power_in))
        (pin (num 4) (name GND3) (type power_in))
        (pin (num 5) (name GND4) (type power_in)))))
  (libraries
    (library (logical era-5sm)
      (uri /home/nop/Radioamateur/git/Librairie_Kicad/Librairie_Kicad/lib_kicad/era-5sm.lib))
    (library (logical sma)
      (uri /home/nop/Radioamateur/git/Librairie_Kicad/Librairie_Kicad/lib_kicad/SMA/sma.lib))
    (library (logical device)
      (uri /usr/share/kicad/library/device.lib))
    (library (logical conn)
      (uri /usr/share/kicad/library/conn.lib)))
  (nets
    (net (code 1) (name "Net-(C1-Pad1)")
      (node (ref C1) (pin 1))
      (node (ref U1) (pin 1)))
    (net (code 2) (name "Net-(C1-Pad2)")
      (node (ref C1) (pin 2))
      (node (ref J1) (pin 1)))
    (net (code 3) (name GND)
      (node (ref J2) (pin 2))
      (node (ref C5) (pin 2))
      (node (ref C4) (pin 2))
      (node (ref C2) (pin 2))
      (node (ref U1) (pin 4))
      (node (ref U1) (pin 2))
      (node (ref J1) (pin 3))
      (node (ref J1) (pin 2))
      (node (ref J2) (pin 3))
      (node (ref J1) (pin 4))
      (node (ref J1) (pin 5))
      (node (ref J2) (pin 4))
      (node (ref J2) (pin 5)))
    (net (code 4) (name "Net-(C3-Pad1)")
      (node (ref J2) (pin 1))
      (node (ref C3) (pin 1)))
    (net (code 5) (name "Net-(C2-Pad1)")
      (node (ref J3) (pin 1))
      (node (ref R1) (pin 1))
      (node (ref C5) (pin 1))
      (node (ref C2) (pin 1))
      (node (ref C4) (pin 1)))
    (net (code 6) (name "Net-(C3-Pad2)")
      (node (ref C3) (pin 2))
      (node (ref U1) (pin 3))
      (node (ref L1) (pin 2)))
    (net (code 7) (name "Net-(L1-Pad1)")
      (node (ref R1) (pin 2))
      (node (ref L1) (pin 1)))))