<Qucs Schematic 0.0.19>
<Properties>
  <View=0,0,894,800,1,0,0>
  <Grid=10,10,1>
  <DataSet=Filtre_1296_50ohm_passebande.dat>
  <DataDisplay=Filtre_1296_50ohm_passebande.dpl>
  <OpenDisplay=1>
  <Script=Filtre_1296_50ohm_passebande.m>
  <RunScript=0>
  <showFrame=0>
  <FrameText0=Titre>
  <FrameText1=Auteur :>
  <FrameText2=Date :>
  <FrameText3=Version :>
</Properties>
<Symbol>
</Symbol>
<Components>
  <Eqn Eqn1 1 400 420 -28 15 0 0 "dBS21=dB(S[2,1])" 1 "dBS11=dB(S[1,1])" 1 "yes" 0>
  <L L2 1 540 230 -26 10 0 0 "810 nH" 1 "" 0>
  <GND * 1 470 340 0 0 0 0>
  <L L1 1 320 230 -26 10 0 0 "810 nH" 1 "" 0>
  <Pac P2 1 800 310 18 -26 0 1 "2" 1 "50 Ohm" 1 "0 dBm" 0 "1 GHz" 0 "26.85" 0>
  <GND * 1 800 340 0 0 0 0>
  <Pac P1 1 30 310 18 -26 0 1 "1" 1 "50 Ohm" 1 "0 dBm" 0 "1 GHz" 0 "26.85" 0>
  <GND * 1 30 340 0 0 0 0>
  <GND * 1 260 340 0 0 0 0>
  <L L3 1 250 310 10 -26 0 1 "33.64 pH" 1 "" 0>
  <L L4 1 710 310 10 -26 0 1 "33.64 pH" 1 "" 0>
  <GND * 1 690 340 0 0 0 0>
  <L L5 1 500 310 10 -26 0 1 "22.58 pH" 1 "" 0>
  <.SP SP1 1 100 420 0 67 0 0 "lin" 1 "1.2 GHz" 1 "1.35 GHz" 1 "151" 1 "no" 0 "1" 0 "2" 0 "no" 0 "no" 0>
  <C C1 1 140 310 17 -26 0 1 "449.25 pF" 1 "" 0 "neutral" 0>
  <C C2 1 610 310 17 -26 0 1 "449.25 pF" 1 "" 0 "neutral" 0>
  <C C3 1 380 310 17 -26 0 1 "669.25 pF" 1 "" 0 "neutral" 0>
  <C C5 1 410 230 -26 -55 0 2 "0.01866 pF" 1 "" 0 "neutral" 0>
  <C C4 1 640 230 -26 -55 0 2 "0.01866 pF" 1 "" 0 "neutral" 0>
</Components>
<Wires>
  <470 230 470 280 "" 0 0 0 "">
  <470 230 510 230 "" 0 0 0 "">
  <350 230 380 230 "" 0 0 0 "">
  <610 280 690 280 "" 0 0 0 "">
  <690 230 690 280 "" 0 0 0 "">
  <800 230 800 280 "" 0 0 0 "">
  <690 230 800 230 "" 0 0 0 "">
  <570 230 610 230 "" 0 0 0 "">
  <670 230 690 230 "" 0 0 0 "">
  <440 230 470 230 "" 0 0 0 "">
  <30 230 30 280 "" 0 0 0 "">
  <30 230 250 230 "" 0 0 0 "">
  <140 280 250 280 "" 0 0 0 "">
  <250 230 290 230 "" 0 0 0 "">
  <250 230 250 280 "" 0 0 0 "">
  <140 340 250 340 "" 0 0 0 "">
  <250 340 260 340 "" 0 0 0 "">
  <690 280 710 280 "" 0 0 0 "">
  <610 340 690 340 "" 0 0 0 "">
  <690 340 710 340 "" 0 0 0 "">
  <470 280 500 280 "" 0 0 0 "">
  <470 340 500 340 "" 0 0 0 "">
  <380 280 470 280 "" 0 0 0 "">
  <380 340 470 340 "" 0 0 0 "">
</Wires>
<Diagrams>
</Diagrams>
<Paintings>
  <Text 510 410 12 #000000 0 "Chebyshev low-pass filter \n 160mHz cutoff, pi-type, \n impedance matching 1 Ohm">
</Paintings>
