EESchema Schematic File Version 2
LIBS:power
LIBS:device
LIBS:switches
LIBS:relays
LIBS:motors
LIBS:transistors
LIBS:conn
LIBS:linear
LIBS:regul
LIBS:74xx
LIBS:cmos4000
LIBS:adc-dac
LIBS:memory
LIBS:xilinx
LIBS:microcontrollers
LIBS:dsp
LIBS:microchip
LIBS:analog_switches
LIBS:motorola
LIBS:texas
LIBS:intel
LIBS:audio
LIBS:interface
LIBS:digital-audio
LIBS:philips
LIBS:display
LIBS:cypress
LIBS:siliconi
LIBS:opto
LIBS:atmel
LIBS:contrib
LIBS:valves
LIBS:as179-92lf
LIBS:sma
EELAYER 25 0
EELAYER END
$Descr A4 11693 8268
encoding utf-8
Sheet 1 1
Title ""
Date ""
Rev ""
Comp ""
Comment1 ""
Comment2 ""
Comment3 ""
Comment4 ""
$EndDescr
$Comp
L AS179-92LF U1
U 1 1 5AD5E732
P 5900 3450
F 0 "U1" H 5900 3750 60  0000 C CNN
F 1 "AS179-92LF" H 5900 3150 60  0000 C CNN
F 2 "TO_SOT_Packages_SMD:SOT-363_SC-70-6_Handsoldering" H 5900 3450 60  0001 C CNN
F 3 "" H 5900 3450 60  0001 C CNN
	1    5900 3450
	1    0    0    -1  
$EndComp
$Comp
L C C1
U 1 1 5AD5E773
P 5000 3250
F 0 "C1" H 5025 3350 50  0000 L CNN
F 1 "100pF" H 5025 3150 50  0000 L CNN
F 2 "Capacitors_SMD:C_0603_HandSoldering" H 5038 3100 50  0001 C CNN
F 3 "" H 5000 3250 50  0001 C CNN
	1    5000 3250
	0    1    1    0   
$EndComp
$Comp
L C C2
U 1 1 5AD5E86E
P 5000 3650
F 0 "C2" H 5025 3750 50  0000 L CNN
F 1 "100pF" H 5025 3550 50  0000 L CNN
F 2 "Capacitors_SMD:C_0603_HandSoldering" H 5038 3500 50  0001 C CNN
F 3 "" H 5000 3650 50  0001 C CNN
	1    5000 3650
	0    1    1    0   
$EndComp
$Comp
L C C3
U 1 1 5AD5E897
P 6850 3450
F 0 "C3" H 6875 3550 50  0000 L CNN
F 1 "100pF" H 6875 3350 50  0000 L CNN
F 2 "Capacitors_SMD:C_0603_HandSoldering" H 6888 3300 50  0001 C CNN
F 3 "" H 6850 3450 50  0001 C CNN
	1    6850 3450
	0    1    1    0   
$EndComp
$Comp
L Conn_01x03 J3
U 1 1 5AD5E8DB
P 6950 2750
F 0 "J3" H 6950 2950 50  0000 C CNN
F 1 "Conn_01x03" H 6950 2550 50  0000 C CNN
F 2 "Socket_Strips:Socket_Strip_Straight_1x03_Pitch2.54mm" H 6950 2750 50  0001 C CNN
F 3 "" H 6950 2750 50  0001 C CNN
	1    6950 2750
	0    -1   -1   0   
$EndComp
Wire Wire Line
	5150 3250 5350 3250
Wire Wire Line
	5150 3650 5350 3650
Wire Wire Line
	4850 3650 4200 3650
Wire Wire Line
	4850 3250 4450 3250
Wire Wire Line
	6450 3450 6700 3450
Wire Wire Line
	7000 3450 7350 3450
$Comp
L SMA J4
U 1 1 5AD5EA2A
P 7500 3750
F 0 "J4" H 7625 4065 60  0000 C CNN
F 1 "SMA" H 7690 3990 60  0000 C CNN
F 2 "lib_kicad:SMA" H 7675 3920 50  0000 C CNN
F 3 "" H 7500 3750 60  0001 C CNN
	1    7500 3750
	1    0    0    -1  
$EndComp
$Comp
L SMA J2
U 1 1 5AD5EADF
P 4300 3550
F 0 "J2" H 4425 3865 60  0000 C CNN
F 1 "SMA" H 4490 3790 60  0000 C CNN
F 2 "lib_kicad:SMA" H 4475 3720 50  0000 C CNN
F 3 "" H 4300 3550 60  0001 C CNN
	1    4300 3550
	-1   0    0    -1  
$EndComp
$Comp
L SMA J1
U 1 1 5AD5EB71
P 4050 3950
F 0 "J1" H 4175 4265 60  0000 C CNN
F 1 "SMA" H 4240 4190 60  0000 C CNN
F 2 "lib_kicad:SMA" H 4225 4120 50  0000 C CNN
F 3 "" H 4050 3950 60  0001 C CNN
	1    4050 3950
	-1   0    0    -1  
$EndComp
Wire Wire Line
	4250 3450 4400 3450
Wire Wire Line
	4300 3450 4450 3450
Connection ~ 4300 3450
Connection ~ 4350 3450
Wire Wire Line
	4000 3850 4150 3850
Connection ~ 4050 3850
Connection ~ 4100 3850
Wire Wire Line
	4150 3850 4150 3900
Wire Wire Line
	5300 3450 5350 3450
Wire Wire Line
	6450 3650 7050 3650
Wire Wire Line
	7050 3650 7050 2950
Wire Wire Line
	6450 3250 6850 3250
Wire Wire Line
	6850 3250 6850 2950
Wire Wire Line
	6950 3000 6950 2950
Wire Wire Line
	7400 3650 7550 3650
Connection ~ 7450 3650
Connection ~ 7500 3650
Wire Wire Line
	7550 3650 7550 3700
$Comp
L GND #PWR01
U 1 1 5AD5EDCE
P 7550 3700
F 0 "#PWR01" H 7550 3450 50  0001 C CNN
F 1 "GND" H 7550 3550 50  0000 C CNN
F 2 "" H 7550 3700 50  0001 C CNN
F 3 "" H 7550 3700 50  0001 C CNN
	1    7550 3700
	1    0    0    -1  
$EndComp
$Comp
L GND #PWR02
U 1 1 5AD5EDF8
P 6950 3000
F 0 "#PWR02" H 6950 2750 50  0001 C CNN
F 1 "GND" H 6950 2850 50  0000 C CNN
F 2 "" H 6950 3000 50  0001 C CNN
F 3 "" H 6950 3000 50  0001 C CNN
	1    6950 3000
	1    0    0    -1  
$EndComp
$Comp
L GND #PWR03
U 1 1 5AD5EE1B
P 5300 3450
F 0 "#PWR03" H 5300 3200 50  0001 C CNN
F 1 "GND" H 5300 3300 50  0000 C CNN
F 2 "" H 5300 3450 50  0001 C CNN
F 3 "" H 5300 3450 50  0001 C CNN
	1    5300 3450
	1    0    0    -1  
$EndComp
$Comp
L GND #PWR04
U 1 1 5AD5EE3E
P 4450 3450
F 0 "#PWR04" H 4450 3200 50  0001 C CNN
F 1 "GND" H 4450 3300 50  0000 C CNN
F 2 "" H 4450 3450 50  0001 C CNN
F 3 "" H 4450 3450 50  0001 C CNN
	1    4450 3450
	1    0    0    -1  
$EndComp
$Comp
L GND #PWR05
U 1 1 5AD5EE61
P 4150 3900
F 0 "#PWR05" H 4150 3650 50  0001 C CNN
F 1 "GND" H 4150 3750 50  0000 C CNN
F 2 "" H 4150 3900 50  0001 C CNN
F 3 "" H 4150 3900 50  0001 C CNN
	1    4150 3900
	1    0    0    -1  
$EndComp
$EndSCHEMATC
