#  HZ   S   RI   R     50.00 
! Rohde & Schwarz Vector Network Analyzer 
! Rohde-Schwarz,ZNB8-4Port,1311601044101820,2.80
! Created: UTC 3/19/2018, 11:12:59 AM
! freq[Hz]                re:S11                  im:S11                  re:S21                  im:S21                  re:S12                  im:S12                  re:S22                  im:S22
 2.500000000000000E8    -8.567202966655756E-1    5.018103302861897E-1    9.694904519768281E-4    1.669496416230059E-3    9.746278397928049E-4    1.708646637676193E-3   -8.663573469587828E-1    4.801993089805947E-1
 2.687500000000000E8    -8.332494411769154E-1    5.394405420304895E-1    1.112636128897873E-3    1.725393953531300E-3    1.159229849545690E-3    1.870880243372838E-3   -8.480404902977253E-1    5.103877001179784E-1
 2.875000000000000E8    -8.094818294202267E-1    5.745985091797988E-1    1.246281280913726E-3    1.826234025794445E-3    1.228683210758718E-3    1.829464086483867E-3   -8.306613397805279E-1    5.392056300783334E-1
 3.062500000000000E8    -7.868099762567027E-1    6.056016731571852E-1    1.495525645882087E-3    1.951981494629202E-3    1.398398300562463E-3    1.969041012039778E-3   -8.100063513533667E-1    5.682894304911038E-1
 3.250000000000000E8    -7.668419563892367E-1    6.310207508848738E-1    1.608267194283868E-3    1.918898643936136E-3    1.579411617885525E-3    1.961344339747397E-3   -7.845006973164523E-1    6.006023187974060E-1
 3.437500000000000E8    -7.491953529850798E-1    6.521638029551742E-1    1.811630236098326E-3    2.041036017501320E-3    1.794370186847367E-3    2.071735970520002E-3   -7.539901906564683E-1    6.370337794071518E-1
 3.625000000000000E8    -7.306302094664360E-1    6.719785429362323E-1    2.009763036508733E-3    2.129360332267771E-3    1.921050941521343E-3    2.192632076282395E-3   -7.198350933229619E-1    6.748722447115300E-1
 3.812500000000000E8    -7.061997878908776E-1    6.961307428428716E-1    2.144109991869946E-3    2.220576491261677E-3    2.226091224125793E-3    2.121736837448183E-3   -6.889029777717985E-1    7.082827954128051E-1
 4.000000000000000E8    -6.741874112045535E-1    7.231973083122304E-1    2.515782518027727E-3    2.213312277042801E-3    2.430007101040067E-3    2.197597166149482E-3   -6.641683068326928E-1    7.320935761528540E-1
 4.187500000000000E8    -6.408474342958956E-1    7.539390166714493E-1    2.737119659775732E-3    2.323494051684865E-3    2.723123626598071E-3    2.235936966024761E-3   -6.415261261509380E-1    7.521113728552725E-1
 4.375000000000000E8    -6.107736563095393E-1    7.810614381854617E-1    2.920434191077405E-3    2.167991374800145E-3    2.863544486044801E-3    2.172679067517658E-3   -6.138516007186450E-1    7.726423033528576E-1
 4.562500000000000E8    -5.839749571039000E-1    8.022481580126044E-1    3.190558185070981E-3    2.220416841051116E-3    3.245942656008878E-3    2.226273630920456E-3   -5.791751778923255E-1    7.975754246602701E-1
 4.750000000000000E8    -5.580325711776928E-1    8.193457555010089E-1    3.448082800144195E-3    2.248321551880181E-3    3.423283225836894E-3    2.222203677725876E-3   -5.412394723755934E-1    8.240082644321750E-1
 4.937500000000000E8    -5.257601427521618E-1    8.386590636997633E-1    3.633814828917468E-3    2.275752119578501E-3    3.635442621492208E-3    2.268045235301960E-3   -5.079994901958149E-1    8.467122708564363E-1
 5.125000000000000E8    -4.867934241629153E-1    8.602684983635122E-1    3.951093470964729E-3    2.360573558696422E-3    3.962095916542670E-3    2.220477075216029E-3   -4.815106346459227E-1    8.619069310664614E-1
 5.312500000000000E8    -4.454527028555265E-1    8.818446418543022E-1    4.431248445962179E-3    2.140515336469166E-3    4.481501100475138E-3    2.191048752749010E-3   -4.563644515483871E-1    8.744950720632467E-1
 5.500000000000000E8    -4.100918279690352E-1    9.002199879080016E-1    4.700639579866181E-3    2.059878579566992E-3    4.724375728793835E-3    2.062638043604291E-3   -4.227314240454038E-1    8.890973682609693E-1
 5.687500000000000E8    -3.824040383661844E-1    9.141985733737965E-1    5.074805925313624E-3    1.903171750296732E-3    4.977115924812171E-3    1.963783492172980E-3   -3.798304841279453E-1    9.074901125790715E-1
 5.875000000000000E8    -3.544567888204150E-1    9.258009108234092E-1    5.265931556179577E-3    1.824426632900450E-3    5.241027783668795E-3    1.833311422428673E-3   -3.353379249876948E-1    9.251529942740324E-1
 6.062500000000000E8    -3.173174552106032E-1    9.373190651647009E-1    5.641092675617375E-3    1.818488251193596E-3    5.662822879770842E-3    1.861510488562293E-3   -3.001699439299012E-1    9.395010499306890E-1
 6.250000000000000E8    -2.681986619536174E-1    9.508548666984651E-1    6.067600450021578E-3    1.794241716788071E-3    6.066557018248912E-3    1.757349650460745E-3   -2.749374551257944E-1    9.478632424516531E-1
 6.437500000000000E8    -2.144799675880433E-1    9.626504890444056E-1    6.585274862957481E-3    1.546827108772312E-3    6.590446313959278E-3    1.469342506456465E-3   -2.536931965846533E-1    9.533567568292750E-1
 6.625000000000000E8    -1.651660609024398E-1    9.727168187823143E-1    6.992200858317101E-3    1.262044419969216E-3    6.992408150021581E-3    1.252521125275776E-3   -2.269077604710943E-1    9.583616082275348E-1
 6.812500000000000E8    -1.233319974218919E-1    9.783540291051812E-1    7.317081982343845E-3    9.759205046864723E-4    7.313679602642357E-3    9.130895457002680E-4   -1.894046570986117E-1    9.653491803436101E-1
 7.000000000000000E8    -8.441001570726836E-2    9.816901293459163E-1    7.587243818597335E-3    8.006208011691575E-4    7.657493626372584E-3    7.272165845299692E-4   -1.499586297140216E-1    9.723977485236123E-1
 7.187500000000000E8    -4.428014406994912E-2    9.836757912741664E-1    8.179212443428251E-3    5.687285542314524E-4    8.100753706115167E-3    6.347351601047673E-4   -1.118415367366229E-1    9.773001122220997E-1
 7.375000000000000E8    -3.630054837717173E-4    9.842858947637282E-1    8.779461441571218E-3    2.058671681583144E-4    8.782786994517540E-3    2.820645562010676E-4   -7.741207269232114E-2    9.809884660965810E-1
 7.562500000000000E8     4.378084711100107E-2    9.844015711992432E-1    9.340922209042951E-3   -2.105067581231829E-4    9.297082486175072E-3   -1.686898708213547E-4   -4.137482624126618E-2    9.826791370161140E-1
 7.750000000000000E8     8.650536157774177E-2    9.817225759115659E-1    9.891139927717714E-3   -6.663591123994819E-4    9.915581935882697E-3   -5.977382417684976E-4   -2.718739248692086E-3    9.827192223421770E-1
 7.937500000000000E8     1.287261332677110E-1    9.771034305459837E-1    1.041124567356157E-2   -1.084519531108374E-3    1.040205587107455E-2   -1.118008431029060E-3    3.643460791383560E-2    9.821458386146571E-1
 8.125000000000000E8     1.727521454975563E-1    9.699658952109023E-1    1.100984290629435E-2   -1.555960993379524E-3    1.112129704712116E-2   -1.501564360125671E-3    7.171780406306379E-2    9.817988143476565E-1
 8.312500000000000E8     2.160459430204957E-1    9.612723142381959E-1    1.186126573970192E-2   -2.200662360112328E-3    1.190192928727781E-2   -2.110681223065974E-3    1.073360303227569E-1    9.770753392314867E-1
 8.500000000000000E8     2.499600916493469E-1    9.541839580949872E-1    1.263801198885537E-2   -2.836807401002056E-3    1.266894538935067E-2   -2.895401061574689E-3    1.519367055739064E-1    9.681730485326433E-1
 8.687500000000000E8     2.789976072613147E-1    9.460940194292655E-1    1.356748243142036E-2   -3.686802258189997E-3    1.367809327638819E-2   -3.718969529391696E-3    2.065347658580269E-1    9.556298423599720E-1
 8.875000000000000E8     3.063173888327739E-1    9.354347457936347E-1    1.458391039149592E-2   -4.805806386295146E-3    1.469234457971808E-2   -4.785383232726853E-3    2.653501577476245E-1    9.413072731211141E-1
 9.062500000000000E8     3.427091312439104E-1    9.204521862626970E-1    1.564631423032877E-2   -6.046025793542611E-3    1.565976385681394E-2   -5.944943594516508E-3    3.153664227492605E-1    9.279091225401219E-1
 9.250000000000000E8     3.909387849384889E-1    8.978160488887153E-1    1.678857136912608E-2   -7.294483893334695E-3    1.682350747273732E-2   -7.322732322814462E-3    3.513935427470777E-1    9.167186831871778E-1
 9.437500000000000E8     4.430227348777790E-1    8.738357825742686E-1    1.785580861963183E-2   -8.889103386294724E-3    1.806265184836441E-2   -9.363007283455897E-3    3.835652411610384E-1    9.033760182365188E-1
 9.625000000000000E8     4.905692805941446E-1    8.490662370524772E-1    1.969895733095337E-2   -1.091300023116067E-2    2.003673194515133E-2   -1.156205839015497E-2    4.200221730379169E-1    8.837537894499998E-1
 9.812500000000000E8     5.326906336551562E-1    8.231066259601853E-1    2.165013777571509E-2   -1.405179653334981E-2    2.142254519587749E-2   -1.372994566118773E-2    4.645487631284490E-1    8.583236044648529E-1
 1.000000000000000E9     5.735613617707616E-1    7.918825872094829E-1    2.309821017406148E-2   -1.700939590773126E-2    2.334726856595411E-2   -1.727269414397052E-2    5.103958870495247E-1    8.319012683724721E-1
 1.018750000000000E9     6.227496614354390E-1    7.500902631039207E-1    2.565272697602970E-2   -2.136260577066020E-2    2.586852555039336E-2   -2.140754294427196E-2    5.523832966991781E-1    8.058302406722057E-1
 1.037500000000000E9     6.751736519379378E-1    6.988324826213224E-1    2.829141959055593E-2   -2.715671424911530E-2    2.813192662226190E-2   -2.747328000562895E-2    5.886192599581439E-1    7.772372087339521E-1
 1.056250000000000E9     7.227656723973834E-1    6.479916274939159E-1    3.094281612504966E-2   -3.427611785808955E-2    3.103229059803884E-2   -3.447391193963508E-2    6.307019835170472E-1    7.341248574086784E-1
 1.075000000000000E9     7.609068855255945E-1    6.002274690702935E-1    3.396605751772723E-2   -4.498401916254918E-2    3.411803779934169E-2   -4.472417239819020E-2    6.874238218616736E-1    6.721063332028465E-1
 1.093750000000000E9     7.958690429706220E-1    5.443891520312416E-1    3.693410141834783E-2   -5.926959180954230E-2    3.664337181921727E-2   -5.954924032889179E-2    7.507671700710662E-1    5.914494450010102E-1
 1.112500000000000E9     8.315170835055612E-1    4.606090367598689E-1    3.810963459192489E-2   -8.112830860531058E-2    3.706659801128343E-2   -8.086623038707536E-2    8.085669363348874E-1    5.043864436885075E-1
 1.131250000000000E9     8.709932871821878E-1    3.371081769725540E-1    3.436696785679148E-2   -1.134339811581238E-1    3.352218649591530E-2   -1.133528068241994E-1    8.486397565073452E-1    4.094401188784522E-1
 1.150000000000000E9     8.929909570997539E-1    1.666071410473417E-1    1.769293373043998E-2   -1.626506106395667E-1    1.694221090034606E-2   -1.624131542268807E-1    8.731956609814043E-1    2.853494762510701E-1
 1.168750000000000E9     8.599561294742415E-1   -4.498212536147470E-2   -3.510361977555257E-2   -2.340808012914114E-1   -3.592180843439320E-2   -2.342093414773882E-1    8.636922889914274E-1    9.887028691317530E-2
 1.187500000000000E9     6.940180683669834E-1   -2.918214407275923E-1   -1.802707845718083E-1   -3.093108864705295E-1   -1.810046339813053E-1   -3.090387215319301E-1    7.592649742891793E-1   -1.517105921801970E-1
 1.206250000000000E9     2.976800586412018E-1   -4.397972960099911E-1   -4.627795152539741E-1   -2.424059594169838E-1   -4.620666625559261E-1   -2.413826867357551E-1    4.856563374798756E-1   -3.452454106333047E-1
 1.225000000000000E9    -1.272982885331588E-1   -2.570067368399857E-1   -6.327045788580938E-1    1.478530819831171E-1   -6.313627804668451E-1    1.456224040668057E-1    1.656608818323878E-1   -3.322421097213492E-1
 1.243750000000000E9    -3.012714159575104E-1    3.570557224054464E-2   -3.754493612181808E-1    5.507198569346716E-1   -3.771261069647788E-1    5.508974340800178E-1   -1.194051922471927E-1   -2.182631573632386E-1
 1.262500000000000E9    -3.777527453771895E-1    3.335349017826551E-1    7.674954238683172E-2    5.661519349986917E-1    7.610343752201688E-2    5.688133211111125E-1   -4.101000878881307E-1    8.774661603132780E-2
 1.281250000000000E9    -2.698434670775154E-1    6.639258322318761E-1    2.790999787365455E-1    2.942329834803812E-1    2.808263808378860E-1    2.968926973840053E-1   -4.135052412826998E-1    5.304233488035641E-1
 1.300000000000000E9    -4.174463424659188E-2    8.407112556763917E-1    2.488778909227929E-1    9.780153044613911E-2    2.511113772583977E-1    9.775508361079580E-2   -1.901215472695419E-1    7.903570025882799E-1
 1.318750000000000E9     1.520434203989197E-1    8.883249271823280E-1    1.793876293158739E-1    1.408631231769879E-2    1.807090087283724E-1    1.407567902066608E-2    4.677044555739667E-2    8.807323586952667E-1
 1.337500000000000E9     2.991128126048104E-1    8.767144201654037E-1    1.261530408992301E-1   -1.688650921771589E-2    1.269374503322883E-1   -1.674544821595963E-2    2.294079118374834E-1    8.907247250356016E-1
 1.356250000000000E9     4.247782650734316E-1    8.371742033191848E-1    9.049798486131634E-2   -2.624986307019113E-2    9.106292892761576E-2   -2.650834657833912E-2    3.510311497091187E-1    8.754905950062851E-1
 1.375000000000000E9     5.354521788819975E-1    7.816911472915130E-1    6.682420160243749E-2   -2.849541212302317E-2    6.692914058262979E-2   -2.885013383053659E-2    4.287523401617701E-1    8.531100982762693E-1
 1.393750000000000E9     6.241175267000986E-1    7.261658302053280E-1    5.090239484318246E-2   -2.810682470679938E-2    5.096075587855739E-2   -2.814027092706430E-2    4.878277827408296E-1    8.249274774256130E-1
 1.412500000000000E9     6.854636408470453E-1    6.809647096209838E-1    4.020859908066085E-2   -2.650640976448462E-2    3.988887918043405E-2   -2.671267796664511E-2    5.474667615307567E-1    7.872738147261037E-1
 1.431250000000000E9     7.274216888591929E-1    6.420378539149800E-1    3.140353179434156E-2   -2.528644867523805E-2    3.167766921313497E-2   -2.531905741625038E-2    6.076666933575757E-1    7.437974194274050E-1
 1.450000000000000E9     7.643782887451202E-1    5.980645814651040E-1    2.536551968039280E-2   -2.281002259599866E-2    2.593555580410577E-2   -2.343162164459840E-2    6.616146717283954E-1    7.017756108886668E-1
 1.468750000000000E9     7.996995779710658E-1    5.468295910011196E-1    2.098611100599660E-2   -2.169117425822558E-2    2.081564382619287E-2   -2.158480070657566E-2    7.019334437664881E-1    6.663507651832293E-1
 1.487500000000000E9     8.324502632115292E-1    4.986387679885590E-1    1.758531049574114E-2   -2.019396312293984E-2    1.736493115947576E-2   -2.014903069069476E-2    7.346658423490005E-1    6.322758923845131E-1
 1.506250000000000E9     8.588793080317311E-1    4.627893205894141E-1    1.461661746691754E-2   -1.835775763918137E-2    1.459257341409675E-2   -1.846510953527803E-2    7.650456723005851E-1    5.879841392852985E-1
 1.525000000000000E9     8.755516041682226E-1    4.374490785228680E-1    1.320343509051416E-2   -1.779418579240319E-2    1.278191881420517E-2   -1.798536714883966E-2    8.027230545895173E-1    5.357334547095022E-1
 1.543750000000000E9     8.867148994776694E-1    4.125345151972154E-1    1.098021435705626E-2   -1.655225381209544E-2    1.130825073416744E-2   -1.740613585578242E-2    8.386902298743713E-1    4.822832791537148E-1
 1.562500000000000E9     9.004677750298809E-1    3.761451073225649E-1    9.472800386082477E-3   -1.597054619794143E-2    9.236871686737038E-3   -1.587536381798727E-2    8.662455875936209E-1    4.401767179938245E-1
 1.581250000000000E9     9.171619219255676E-1    3.230828471488710E-1    7.752037649776080E-3   -1.538507109556937E-2    8.591418989263803E-3   -1.536206504125498E-2    8.822303084621492E-1    4.133325753365046E-1
 1.600000000000000E9     9.365130954009145E-1    2.622299948211952E-1    7.185958262095663E-3   -1.483132689552688E-2    7.081925911749547E-3   -1.520086882594468E-2    8.918952709758228E-1    3.969263618363741E-1
 1.618750000000000E9     9.540983737992200E-1    2.016390358579434E-1    6.135525450610170E-3   -1.444123713278196E-2    6.135717577586901E-3   -1.444264199127313E-2    8.994429725085616E-1    3.778627524616001E-1
 1.637500000000000E9     9.657670668922722E-1    1.493364235951446E-1    5.253994187021151E-3   -1.411253463258690E-2    5.194019556841120E-3   -1.413922468154467E-2    9.067161358461247E-1    3.513038911171864E-1
 1.656250000000000E9     9.738780163313692E-1    1.055936125760612E-1    4.333958317214293E-3   -1.370222180814167E-2    4.386649227466754E-3   -1.382357654199606E-2    9.176033297727697E-1    3.175863400448933E-1
 1.675000000000000E9     9.789861393229877E-1    7.335397973325215E-2    3.710588531434123E-3   -1.328449978028105E-2    3.620437346272894E-3   -1.335276466287402E-2    9.283054102829486E-1    2.763056098029981E-1
 1.693750000000000E9     9.816077490720740E-1    5.139818921176540E-2    3.209519926775127E-3   -1.307871262804481E-2    3.188938278463423E-3   -1.304614698112139E-2    9.390446380155129E-1    2.270815090576695E-1
 1.712500000000000E9     9.836397387423064E-1    3.505327636321670E-2    2.644323942746886E-3   -1.292712260873793E-2    2.645542433016968E-3   -1.294567785555841E-2    9.502216145337566E-1    1.711775208795546E-1
 1.731250000000000E9     9.817847057112634E-1    1.627701415509843E-2    2.179533116449575E-3   -1.273741228408897E-2    2.041227401405495E-3   -1.274728962321214E-2    9.597656683972624E-1    1.126559456189677E-1
 1.750000000000000E9     9.799488639190974E-1   -1.076053779686052E-2    1.500703775674448E-3   -1.257167313888434E-2    1.487544853290634E-3   -1.267394159143219E-2    9.659255472875281E-1    6.080752726598126E-2
 1.768750000000000E9     9.769570472810676E-1   -4.628882319026145E-2    9.904049904987326E-4   -1.247228766244734E-2    8.875070794336628E-4   -1.251955844364003E-2    9.698629969345430E-1    1.779756252962789E-2
 1.787500000000000E9     9.739646913242940E-1   -8.590653578585461E-2    5.565163627788492E-4   -1.232649988203005E-2    4.424102016331859E-4   -1.237749406198207E-2    9.714522491712456E-1   -1.627374732030336E-2
 1.806250000000000E9     9.687502859013372E-1   -1.269309733178701E-1    4.976913270392366E-5   -1.219494005989679E-2   -2.281952141546353E-5   -1.226116624137657E-2    9.716155666034584E-1   -4.655663968655268E-2
 1.825000000000000E9     9.584758093854096E-1   -1.721544753407304E-1   -4.779014621911372E-4   -1.208144481884184E-2   -6.047406432612113E-4   -1.213454256614913E-2    9.723296411692347E-1   -7.111868626228675E-2
 1.843750000000000E9     9.460504423027941E-1   -2.280421337808967E-1   -1.009669267572746E-3   -1.200375622725851E-2   -1.097690828480978E-3   -1.201433116155031E-2    9.712494701691731E-1   -8.962976177456580E-2
 1.862500000000000E9     9.300810708179920E-1   -2.862517434556903E-1   -1.414149281338597E-3   -1.179996151075271E-2   -1.564261703591782E-3   -1.183926809912238E-2    9.691721848271386E-1   -1.031384544414252E-1
 1.881250000000000E9     9.173752552381225E-1   -3.363578193034763E-1   -1.906238730552483E-3   -1.181039244812413E-2   -2.000580308660603E-3   -1.173564807378711E-2    9.634655457899261E-1   -1.232820890554345E-1
 1.900000000000000E9     9.104088395481035E-1   -3.700282512213511E-1   -2.289708002590196E-3   -1.162504052848946E-2   -2.414242750937831E-3   -1.162911118789469E-2    9.534082025947369E-1   -1.572823138771788E-1
 1.918750000000000E9     9.021154131558634E-1   -3.917773478758216E-1   -2.819767968827748E-3   -1.152685908026671E-2   -2.899530371494130E-3   -1.152168214960665E-2    9.426226764551989E-1   -2.039978831349907E-1
 1.937500000000000E9     8.885418393327278E-1   -4.140380310132463E-1   -3.184888552305882E-3   -1.156477060306160E-2   -3.333575514979864E-3   -1.147105360576005E-2    9.331742642894181E-1   -2.496006490615106E-1
 1.956250000000000E9     8.674656742935831E-1   -4.475819056920812E-1   -3.749658118427917E-3   -1.143129049472708E-2   -3.802658299436716E-3   -1.143714044564835E-2    9.278571798579265E-1   -2.823296815617437E-1
 1.975000000000000E9     8.462289465598221E-1   -4.896989480181526E-1   -4.290252824941740E-3   -1.127218846409841E-2   -4.426780785134999E-3   -1.129977698784337E-2    9.211074376586732E-1   -3.043178935177194E-1
 1.993750000000000E9     8.291164387737541E-1   -5.274053519070464E-1   -4.755826318068659E-3   -1.106258363796448E-2   -4.780051763414847E-3   -1.099727461725840E-2    9.081508696543532E-1   -3.299313647453501E-1
 2.012500000000000E9     8.184013612758393E-1   -5.508153455309834E-1   -5.149071845003021E-3   -1.097092529324968E-2   -5.194486328045578E-3   -1.090708739694419E-2    8.876416051150292E-1   -3.688977265594215E-1
 2.031250000000000E9     8.062960263381471E-1   -5.659679134800852E-1   -5.630474585783410E-3   -1.075204438754284E-2   -5.688005405459992E-3   -1.074952045246203E-2    8.651849965811390E-1   -4.189733880296485E-1
 2.050000000000000E9     7.833767334631131E-1   -5.879929562617827E-1   -6.214828583413397E-3   -1.070506761882828E-2   -6.155530857447641E-3   -1.063361489277201E-2    8.471385311621140E-1   -4.606001307892056E-1
 2.068750000000000E9     7.551152553336151E-1   -6.230899932585523E-1   -6.596997467683914E-3   -1.042592816466968E-2   -6.651962561732936E-3   -1.038931271752175E-2    8.336097344307879E-1   -4.886312969580439E-1
 2.087500000000000E9     7.365776060397650E-1   -6.531296356942788E-1   -7.070900260602850E-3   -1.031126142874202E-2   -7.114881708771738E-3   -1.017547103981890E-2    8.121824779718140E-1   -5.160455553306326E-1
 2.106250000000000E9     7.387427243456984E-1   -6.632093461416656E-1   -7.401339846506788E-3   -1.005194394189673E-2   -7.498399151812934E-3   -9.853672763201201E-3    7.723859686686779E-1   -5.602661846845978E-1
 2.125000000000000E9     7.478313780599160E-1   -6.535265172949496E-1   -7.929861272024887E-3   -9.820814093872171E-3   -7.997106205388096E-3   -9.707529010242607E-3    7.187457558902970E-1   -6.252418724904233E-1
 2.143750000000000E9     7.387237627435350E-1   -6.458093497356888E-1   -8.405977974569075E-3   -9.543954469690403E-3   -8.436129167988365E-3   -9.351887436852913E-3    6.774758127374566E-1   -6.846559239950752E-1
 2.162500000000000E9     6.939300261671588E-1   -6.718404867034448E-1   -8.742057351323596E-3   -9.363625160849910E-3   -8.807581412372981E-3   -9.229846906558498E-3    6.719458472084500E-1   -7.114758740914663E-1
 2.181250000000000E9     6.111247044506134E-1   -7.347053917880707E-1   -9.279474181367141E-3   -9.004643005565201E-3   -9.290166651174646E-3   -8.853090703400528E-3    6.976573979723927E-1   -6.989762867345325E-1
 2.200000000000000E9     5.312314500496402E-1   -8.044334784414142E-1   -9.722564680284870E-3   -8.730384011380954E-3   -9.792373541731932E-3   -8.682054672744292E-3    7.185809648895668E-1   -6.696696044422109E-1
 2.218750000000000E9     4.912656947580823E-1   -8.510064877226623E-1   -1.024023966735277E-2   -8.438756232271940E-3   -1.014030554914061E-2   -8.312500252089242E-3    7.020335902580105E-1   -6.611172581317321E-1
 2.237500000000000E9     4.928943214215239E-1   -8.635883203161867E-1   -1.073666302190764E-2   -8.151560211456082E-3   -1.065404659419839E-2   -8.062313609293069E-3    6.459289046214601E-1   -6.948421200854961E-1
 2.256250000000000E9     5.007311989178414E-1   -8.561039779081723E-1   -1.120319005543843E-2   -7.836019816626644E-3   -1.109709873205961E-2   -7.619099962500394E-3    5.782347653966000E-1   -7.526975814178780E-1
 2.275000000000000E9     4.792710317658520E-1   -8.537693945859990E-1   -1.155167484851977E-2   -7.324818327056470E-3   -1.157698845695045E-2   -7.262002703980069E-3    5.366340913875973E-1   -8.000144873994124E-1
 2.293750000000000E9     4.234169242592251E-1   -8.734770555488955E-1   -1.183900485990938E-2   -6.906058216622790E-3   -1.201754555038849E-2   -6.761088922035619E-3    5.297880008533781E-1   -8.182330102173959E-1
 2.312500000000000E9     3.590896916281782E-1   -9.037887041386705E-1   -1.231260099308345E-2   -6.546713644853663E-3   -1.225270557786187E-2   -6.364813060926429E-3    5.320796776010308E-1   -8.152517600685167E-1
 2.331250000000000E9     3.200532820211687E-1   -9.301443227513844E-1   -1.270451668603714E-2   -6.103991342120815E-3   -1.263652183473640E-2   -5.947152764771094E-3    5.106206446733321E-1   -8.150343689549323E-1
 2.350000000000000E9     3.059160981532826E-1   -9.401527588530109E-1   -1.301014406786303E-2   -5.704986479777328E-3   -1.300476980777458E-2   -5.535599983674195E-3    4.595693243278783E-1   -8.351313984123766E-1
 2.368750000000000E9     2.893186403252375E-1   -9.400625993271984E-1   -1.346404540007865E-2   -5.292736263317206E-3   -1.339540668476398E-2   -5.106396401051019E-3    4.055808719612271E-1   -8.664000188214179E-1
 2.387500000000000E9     2.438323314290443E-1   -9.434472871017511E-1   -1.390730129638008E-2   -4.676145550232417E-3   -1.382555881292438E-2   -4.623402951281167E-3    3.765874408406276E-1   -8.904168224224162E-1
 2.406250000000000E9     1.764528945192862E-1   -9.544999927756060E-1   -1.414420770965176E-2   -4.215627184778466E-3   -1.409839317193582E-2   -4.076875077192440E-3    3.707238896483086E-1   -8.983601946362662E-1
 2.425000000000000E9     1.157206031245042E-1   -9.701202188395312E-1   -1.448436969619377E-2   -3.714529035636533E-3   -1.437897920348834E-2   -3.537649681421338E-3    3.596023534193678E-1   -8.957999064957575E-1
 2.443750000000000E9     8.333177369813298E-2   -9.830190442149471E-1   -1.469970596095160E-2   -3.292964422561303E-3   -1.475213715888284E-2   -3.158351140905258E-3    3.198345569304115E-1   -8.981526733880746E-1
 2.462500000000000E9     6.787848313874295E-2   -9.844826761855861E-1   -1.506509216551468E-2   -2.622410572615322E-3   -1.504231541231043E-2   -2.596259622898387E-3    2.580006327063865E-1   -9.144423389193893E-1
 2.481250000000000E9     4.492547464784800E-2   -9.801800898019191E-1   -1.558440835244229E-2   -1.949365060181063E-3   -1.542554401349567E-2   -1.893580222813440E-3    2.071530741758995E-1   -9.345643571923049E-1
 2.500000000000000E9    -1.603199778714473E-3   -9.747871262554344E-1   -1.578579155489513E-2   -1.424208786309477E-3   -1.570857464082114E-2   -1.244336863677831E-3    1.818438329983324E-1   -9.473468585486323E-1
 2.518750000000000E9    -5.438854238349616E-2   -9.766548444390142E-1   -1.604014372946279E-2   -8.578234576460717E-4   -1.592043949711849E-2   -7.335846281695639E-4    1.665334709450455E-1   -9.481465449465110E-1
 2.537500000000000E9    -8.551970480607361E-2   -9.860594549960822E-1   -1.630840674109710E-2   -2.377024505313564E-4   -1.610743495316558E-2   -7.352156544266340E-6    1.278964464080667E-1   -9.387195230291221E-1
 2.556250000000000E9    -8.415477943117376E-2   -9.925432766530645E-1   -1.662258996774690E-2    4.429701946838746E-4   -1.646783194625778E-2    4.987777883096569E-4    4.752780659119180E-2   -9.352617169042479E-1
 2.575000000000000E9    -7.273901714191068E-2   -9.902140772522308E-1   -1.683514132048949E-2    1.275242483349270E-3   -1.675110997624144E-2    1.241578739794738E-3   -4.598103231937040E-2   -9.395200270415758E-1
 2.593750000000000E9    -8.683359105775726E-2   -9.737323690540291E-1   -1.697128593282084E-2    1.980972771753150E-3   -1.685689261911305E-2    2.158370768537449E-3   -1.118933654481768E-1   -9.509545084044657E-1
 2.612500000000000E9    -1.422883493651690E-1   -9.532810824828090E-1   -1.704005025139459E-2    2.667919036761443E-3   -1.690245145662746E-2    2.783893858279712E-3   -1.317202453000367E-1   -9.621572865381595E-1
 2.631250000000000E9    -2.203453471495891E-1   -9.341800924477006E-1   -1.729043948215515E-2    3.404666984390480E-3   -1.707653525844476E-2    3.525390857745957E-3   -1.279767412631517E-1   -9.652527852758448E-1
 2.650000000000000E9    -2.917889207245764E-1   -9.235626213879521E-1   -1.748265797970437E-2    4.243694615424593E-3   -1.726535197053588E-2    4.300931220442038E-3   -1.320627924114014E-1   -9.546293691327354E-1
 2.668750000000000E9    -3.365343834964678E-1   -9.164327414318133E-1   -1.754469518959970E-2    5.145615901068693E-3   -1.738570424416567E-2    5.145046207001294E-3   -1.637090529589872E-1   -9.392027852316685E-1
 2.687500000000000E9    -3.656854664907175E-1   -9.073149900790741E-1   -1.748319972692931E-2    5.940618225932660E-3   -1.728303849109313E-2    5.952970310115740E-3   -2.147816274620955E-1   -9.279639737993031E-1
 2.706250000000000E9    -3.969992672424706E-1   -8.900796203275835E-1   -1.745183186417652E-2    6.761156272782260E-3   -1.727732021511719E-2    6.768903866016054E-3   -2.597645004685035E-1   -9.214203038021822E-1
 2.725000000000000E9    -4.401736313791458E-1   -8.668409095067730E-1   -1.750435242217845E-2    7.631677680171547E-3   -1.730710568978552E-2    7.482341230268924E-3   -2.878789467437331E-1   -9.185658042666355E-1
 2.743750000000000E9    -4.881673085946270E-1   -8.429790252491586E-1   -1.755675498390659E-2    8.383899045251483E-3   -1.725958723053655E-2    8.424468762108126E-3   -3.105791788670299E-1   -9.092332620200544E-1
 2.762500000000000E9    -5.262121344207459E-1   -8.244038973953941E-1   -1.747192210590591E-2    9.315209035444420E-3   -1.722380109397177E-2    9.315105771011134E-3   -3.402711064780828E-1   -8.918163934905572E-1
 2.781250000000000E9    -5.541560464598639E-1   -8.102048141522869E-1   -1.725855330896705E-2    1.029901182110291E-2   -1.702317024052887E-2    1.012086233229923E-2   -3.811162930974654E-1   -8.695832509256732E-1
 2.800000000000000E9    -5.773573516149299E-1   -7.898086440549025E-1   -1.706993451086348E-2    1.110654694671585E-2   -1.681065338953728E-2    1.105439719619856E-2   -4.282403160975333E-1   -8.468239339097701E-1
 2.818750000000000E9    -6.009309803355858E-1   -7.691009217159487E-1   -1.686096477202181E-2    1.196516837044622E-2   -1.664589363990727E-2    1.192107439332677E-2   -4.721745893623901E-1   -8.250334534374259E-1
 2.837500000000000E9    -6.259030638002372E-1   -7.443269634764028E-1   -1.664389023639484E-2    1.288477570692666E-2   -1.640298056838887E-2    1.284234865372868E-2   -5.141337369008094E-1   -8.012038142408589E-1
 2.856250000000000E9    -6.522778205194417E-1   -7.152240980868274E-1   -1.630089943171143E-2    1.388966618510881E-2   -1.607116567661593E-2    1.380103705355725E-2   -5.518499298950222E-1   -7.773789305369044E-1
 2.875000000000000E9    -6.838549483673690E-1   -6.778148698573916E-1   -1.592116574549707E-2    1.499647105335177E-2   -1.574466275343287E-2    1.484825638920293E-2   -5.839784128796050E-1   -7.583543590015038E-1
 2.893750000000000E9    -7.243699511791469E-1   -6.282154758719869E-1   -1.534280728317184E-2    1.591282378191484E-2   -1.525478275445141E-2    1.571948033010298E-2   -6.063271340914901E-1   -7.466296307970850E-1
 2.912500000000000E9    -7.709370721672755E-1   -5.791153538135151E-1   -1.485961959973365E-2    1.678776321573436E-2   -1.478116653438178E-2    1.658808061816339E-2   -6.181859883116553E-1   -7.344365474271444E-1
 2.931250000000000E9    -8.083567146216908E-1   -5.448113204897590E-1   -1.441783707117193E-2    1.780178551086466E-2   -1.429230917457245E-2    1.748562659076640E-2   -6.348451039957146E-1   -7.092666558599118E-1
 2.950000000000000E9    -8.285109710889506E-1   -5.311498323363276E-1   -1.399000469598083E-2    1.875079792587221E-2   -1.382593817717768E-2    1.839727976800851E-2   -6.679146406464880E-1   -6.653762158515605E-1
 2.968750000000000E9    -8.319070970792951E-1   -5.190290964453412E-1   -1.338118689930526E-2    1.965713996291214E-2   -1.324429209759929E-2    1.942979523960881E-2   -7.134374137611944E-1   -6.163472785617793E-1
 2.987500000000000E9    -8.369983623875461E-1   -4.793985837278568E-1   -1.269933039235181E-2    2.056353739137230E-2   -1.264816996004497E-2    2.036139035222084E-2   -7.540701010242791E-1   -5.855312607962203E-1
 3.006250000000000E9    -8.586786462197034E-1   -4.060113001137782E-1   -1.193389819606195E-2    2.145985525727222E-2   -1.180263022602781E-2    2.121036596096774E-2   -7.707800268757697E-1   -5.805000828431280E-1
 3.025000000000000E9    -8.945246385465387E-1   -3.255050773634901E-1   -1.111081054196786E-2    2.232031264899633E-2   -1.106968342708889E-2    2.202721481485524E-2   -7.675315998492401E-1   -5.824179338856654E-1
 3.043750000000000E9    -9.285503365367460E-1   -2.756337152023011E-1   -1.030802139381466E-2    2.326791928873603E-2   -1.041538906186239E-2    2.293740816031044E-2   -7.677644589793647E-1   -5.535753174440677E-1
 3.062500000000000E9    -9.472664177694234E-1   -2.731751525928269E-1   -9.550486110117351E-3    2.418219603514416E-2   -9.499588457954815E-3    2.375943193262108E-2   -7.916643378340703E-1   -4.825500540744809E-1
 3.081250000000000E9    -9.419788165572857E-1   -2.886810031794799E-1   -8.511161452632008E-3    2.508638512697251E-2   -8.489651886116768E-3    2.468601446824247E-2   -8.383437244281866E-1   -3.901010418553512E-1
 3.100000000000000E9    -9.282505460696642E-1   -2.765423378376882E-1   -7.457511363366989E-3    2.585514021357555E-2   -7.496247687923419E-3    2.544299681497936E-2   -8.846326540717638E-1   -3.211982314897695E-1
 3.118750000000000E9    -9.210290326053039E-1   -2.143250495380191E-1   -6.377911731359180E-3    2.653135753562039E-2   -6.457379537327581E-3    2.617191213025076E-2   -9.130275899551953E-1   -2.997615487805422E-1
 3.137500000000000E9    -9.281479055719089E-1   -1.191315120303591E-1   -5.172054435145628E-3    2.727295784225931E-2   -5.320336891454701E-3    2.696864847631319E-2   -9.169162950357519E-1   -3.078868479027800E-1
 3.156250000000000E9    -9.432470417148896E-1   -3.306499972499361E-2   -4.003868720420007E-3    2.797784304923951E-2   -4.242524614212673E-3    2.772437119675843E-2   -9.086601577775836E-1   -3.051628994916336E-1
 3.175000000000000E9    -9.557635646179111E-1    2.023151255368823E-2   -2.756708903621820E-3    2.876049714885974E-2   -3.033202499956453E-3    2.841747879364477E-2   -9.046751624395575E-1   -2.714186388142050E-1
 3.193750000000000E9    -9.562018679729269E-1    5.373540464033117E-2   -1.499969217802025E-3    2.946968179353610E-2   -1.693211080516979E-3    2.912039665161699E-2   -9.135141417876076E-1   -2.176013777624467E-1
 3.212500000000000E9    -9.449260122253699E-1    9.733681943213272E-2   -2.266631096905993E-4    2.990766057768205E-2   -3.902195429414374E-4    2.967869412764140E-2   -9.305309226980874E-1   -1.708641278718985E-1
 3.231250000000000E9    -9.287982479306124E-1    1.584275867215528E-1    1.388839443386580E-3    3.056161827489339E-2    9.525736762918545E-4    3.010039026954979E-2   -9.417015478098287E-1   -1.479376491785252E-1
 3.250000000000000E9    -9.168123219028730E-1    2.297897000980764E-1    2.733881375067198E-3    3.089748276865503E-2    1.985157493404055E-3    3.162137326466979E-2   -9.426146365619182E-1   -1.306835521689007E-1
 3.268750000000000E9    -9.112721871896670E-1    2.833641129844385E-1    4.239971708324815E-3    3.140311088836624E-2    4.294586445555781E-3    3.153744430503343E-2   -9.337380163176622E-1   -9.728324221022919E-2
 3.287500000000000E9    -9.110287977158936E-1    3.140900436091349E-1    5.888634565959294E-3    3.177432279238469E-2    5.347060318018938E-3    3.060300618769417E-2   -9.263644329635521E-1   -4.045998156427866E-2
 3.306250000000000E9    -9.088283830515799E-1    3.307399943761040E-1    7.425277475132683E-3    3.210128359915539E-2    7.355983455131485E-3    3.189769320843021E-2   -9.220994465424310E-1    3.279522962178604E-2
 3.325000000000000E9    -8.975147841237727E-1    3.481902422628564E-1    9.118975356309077E-3    3.234461286069875E-2    8.416540842089801E-3    3.233015155319863E-2   -9.191644439518090E-1    1.029662932632101E-1
 3.343750000000000E9    -8.843254674859318E-1    3.728381291382503E-1    1.094854060305482E-2    3.247488448439150E-2    1.011714885861094E-2    3.253186058057581E-2   -9.124929249036569E-1    1.631971966803007E-1
 3.362500000000000E9    -8.653564205013983E-1    4.026674577410102E-1    1.274699328276645E-2    3.263681960129682E-2    1.194389500571632E-2    3.236737767576457E-2   -9.029642111281964E-1    2.182317815533678E-1
 3.381250000000000E9    -8.391124376065231E-1    4.371595967787876E-1    1.468291085802142E-2    3.259114706394441E-2    1.458342833614864E-2    3.214148301516252E-2   -8.911672554190292E-1    2.664817088359684E-1
 3.400000000000000E9    -8.030407626151281E-1    4.824522633487750E-1    1.648061137463505E-2    3.242357129416918E-2    1.571668456344623E-2    3.242884478663885E-2   -8.838977289686576E-1    3.058755114955451E-1
 3.418750000000000E9    -7.626932780349789E-1    5.371306129517030E-1    1.856564780243564E-2    3.217798053963235E-2    1.869351457616983E-2    3.221754595279826E-2   -8.764520502181791E-1    3.325390390750382E-1
 3.437500000000000E9    -7.301076366230322E-1    5.877096155971864E-1    2.031812162558061E-2    3.172838444740603E-2    1.947841345023086E-2    3.112644203940761E-2   -8.600088774748054E-1    3.608595186362526E-1
 3.456250000000000E9    -7.081442925173863E-1    6.227878597901450E-1    2.227492334852140E-2    3.126682042522365E-2    2.146545408516825E-2    3.156303839114622E-2   -8.343063422227499E-1    3.998366050418781E-1
 3.475000000000000E9    -6.841817696229027E-1    6.454733592958186E-1    2.416798542366483E-2    3.092712932643399E-2    2.445191316596951E-2    3.116824265912144E-2   -8.033947244768799E-1    4.500256562348590E-1
 3.493750000000000E9    -6.433790254394872E-1    6.728531546474112E-1    2.630093668579663E-2    3.031402310899140E-2    2.655031906054872E-2    3.045150737133713E-2   -7.833654181868429E-1    4.974601720206241E-1
 3.512500000000000E9    -5.832850859074413E-1    7.134760982198580E-1    2.836978878880832E-2    2.950184433165750E-2    2.948298650347687E-2    2.900296656558533E-2   -7.762725853432489E-1    5.230040194813164E-1
 3.531250000000000E9    -5.228672943408870E-1    7.641166438867645E-1    3.045758662485293E-2    2.835125654912626E-2    2.984978373054964E-2    2.767114956616247E-2   -7.654210908679454E-1    5.331725168524644E-1
 3.550000000000000E9    -4.889997428045111E-1    8.017084221232563E-1    3.320466125290283E-2    2.711182753695647E-2    3.120790082010088E-2    2.846082553833651E-2   -7.329058666141581E-1    5.531061881827643E-1
 3.568750000000000E9    -4.766406307720255E-1    8.155952239152424E-1    3.398796276207904E-2    2.672667301326080E-2    3.316107402792881E-2    2.725472608404230E-2   -6.794252964144746E-1    6.009145921266982E-1
 3.587500000000000E9    -4.564131474773214E-1    8.176550675440734E-1    3.760800961350035E-2    2.694197692964733E-2    3.509283529631235E-2    2.554170971417188E-2   -6.282463572801860E-1    6.571185302244282E-1
 3.606250000000000E9    -3.983987599665347E-1    8.224271853311258E-1    3.805730993662693E-2    2.424565684266743E-2    3.845326803905392E-2    2.320491442841850E-2   -5.992989032495273E-1    7.018353107457103E-1
 3.625000000000000E9    -3.152019118256618E-1    8.493182797669087E-1    4.092753454889433E-2    2.155684422261894E-2    3.977574667844803E-2    2.425809271055894E-2   -5.922936067727204E-1    7.193582069897669E-1
 3.643750000000000E9    -2.438025923770018E-1    8.837115143012074E-1    4.289284847131580E-2    2.012370029460724E-2    4.220912505277592E-2    2.063939178341707E-2   -5.722067356326611E-1    7.229578945943920E-1
 3.662500000000000E9    -2.115344444872413E-1    9.076984678629737E-1    4.277978363782459E-2    1.857752980320197E-2    4.338538260895321E-2    1.936679814544963E-2   -5.213327721407074E-1    7.402159591384521E-1
 3.681250000000000E9    -1.923830924015783E-1    9.081731706525605E-1    4.537534049605832E-2    1.756785844900496E-2    4.639894212076545E-2    1.802918236266145E-2   -4.552302428057516E-1    7.781642118292501E-1
 3.700000000000000E9    -1.386548614410741E-1    8.947870420519025E-1    4.748818627094683E-2    1.574452159378890E-2    4.815534540416307E-2    1.444995456174757E-2   -4.181259478653572E-1    8.190073839494855E-1
 3.718750000000000E9    -3.556653418270979E-2    8.869903337230417E-1    4.968071440436385E-2    1.123453705124200E-2    4.918762026335427E-2    1.256774944918283E-2   -4.248802471160040E-1    8.348845295239651E-1
 3.737500000000000E9     7.107904600007720E-2    8.974587246053020E-1    4.995654699233646E-2    9.473806323855909E-3    5.061388153831573E-2    1.087093243603960E-2   -4.355348727487752E-1    8.198939617985295E-1
 3.756250000000000E9     1.167753195669062E-1    9.248875884035021E-1    5.204757774705845E-2    7.362392917344671E-3    5.244888673783549E-2    7.941607172128284E-3   -3.967092447743823E-1    8.035924899537178E-1
 3.775000000000000E9     9.912302801127637E-2    9.421506274434167E-1    5.396934328559508E-2    4.954743335371071E-3    5.286127845819445E-2    5.466955550641421E-3   -2.924706284450658E-1    8.158208581153426E-1
 3.793750000000000E9     8.259238491902742E-2    9.220693568698409E-1    5.524372686980141E-2    2.105969853002728E-3    5.612481004970026E-2    2.152842087596858E-3   -1.834831116736051E-1    8.582117971164204E-1
 3.812500000000000E9     1.453615546199111E-1    8.731972280785336E-1    5.682329946230239E-2   -1.638432878128232E-3    5.659989760238026E-2   -6.380091955903065E-4   -1.460986918988849E-1    9.046242946025761E-1
 3.831250000000000E9     2.770288570696070E-1    8.281946532793734E-1    5.799193205098316E-2   -3.891266143857331E-3    5.688079640285640E-2   -2.166261025627355E-3   -1.855423093897607E-1    9.149074928251687E-1
 3.850000000000000E9     3.790794274148614E-1    8.377186950317360E-1    5.696126913977816E-2   -6.135803014960165E-3    5.813481486559875E-2   -7.430793025397596E-3   -2.071830397417697E-1    8.762633581133601E-1
 3.868750000000000E9     3.647302043686880E-1    9.040846105658448E-1    5.797492715042887E-2   -9.168474097498313E-3    5.822079389980314E-2   -9.535336028350142E-3   -1.020701648212444E-1    8.151253869510580E-1
 3.887500000000000E9     2.396821344126805E-1    9.672724891700674E-1    5.845758723045885E-2   -1.330733337430626E-2    5.961967889717032E-2   -1.185504921581037E-2    1.387739288367886E-1    7.616385805910035E-1
 3.906250000000000E9     1.082632128216784E-1    9.583156806603043E-1    5.898443580474334E-2   -1.610676705391399E-2    5.943121504310514E-2   -1.645875261768770E-2    3.702258166825777E-1    7.496407962676733E-1
 3.925000000000000E9     9.829626541606060E-2    8.721525992777811E-1    5.907175443133972E-2   -2.138309682978144E-2    5.922859825136775E-2   -2.022882441077745E-2    4.518790318488590E-1    8.118599000192649E-1
 3.943750000000000E9     2.669350774983761E-1    7.406659510177427E-1    6.076097987820735E-2   -2.506519423793787E-2    6.050172272258522E-2   -2.363563630652116E-2    3.731074444893178E-1    9.018211742096043E-1
 3.962500000000000E9     5.045021273369561E-1    6.179038395907041E-1    5.968327248377087E-2   -2.978454420640926E-2    5.977492961650029E-2   -2.988556471061205E-2    2.325375035902858E-1    9.359406706577662E-1
 3.981250000000000E9     6.581317153105797E-1    5.766916816397391E-1    5.766408671378297E-2   -3.334973990106223E-2    5.908711687925640E-2   -3.459202171429470E-2    1.617773721361479E-1    8.975434028198207E-1
 4.000000000000000E9     6.901327143178213E-1    6.170671909642980E-1    5.839062349236769E-2   -3.810255830816244E-2    6.030257756602551E-2   -3.642716782536935E-2    2.189996176631262E-1    8.205910301342855E-1
