EESchema Schematic File Version 4
LIBS:COMMUT_TRX-cache
EELAYER 26 0
EELAYER END
$Descr A4 11693 8268
encoding utf-8
Sheet 1 1
Title ""
Date ""
Rev ""
Comp ""
Comment1 ""
Comment2 ""
Comment3 ""
Comment4 ""
$EndDescr
$Comp
L tq2-5v:TQ2-5V U1
U 1 1 5B3E8544
P 5550 2800
F 0 "U1" H 5350 2600 60  0000 C CNN
F 1 "TQ2-5V" H 5450 2700 60  0000 C CNN
F 2 "lib_kicad:TQ2-5V" H 5550 2800 60  0001 C CNN
F 3 "" H 5550 2800 60  0001 C CNN
	1    5550 2800
	1    0    0    -1  
$EndComp
$Comp
L sma:SMA J4
U 1 1 5B3E858C
P 5950 1650
F 0 "J4" H 6075 1965 60  0000 C CNN
F 1 "SMA" H 6140 1890 60  0000 C CNN
F 2 "lib_kicad:SMA" H 6125 1820 50  0000 C CNN
F 3 "" H 5950 1650 60  0001 C CNN
	1    5950 1650
	1    0    0    -1  
$EndComp
$Comp
L power:GND #PWR03
U 1 1 5B3E8673
P 5850 1650
F 0 "#PWR03" H 5850 1400 50  0001 C CNN
F 1 "GND" H 5850 1500 50  0000 C CNN
F 2 "" H 5850 1650 50  0001 C CNN
F 3 "" H 5850 1650 50  0001 C CNN
	1    5850 1650
	1    0    0    -1  
$EndComp
Wire Wire Line
	5850 1650 5850 1550
Wire Wire Line
	5850 1550 5900 1550
Connection ~ 5900 1550
Connection ~ 5950 1550
$Comp
L sma:SMA J6
U 1 1 5B3E8740
P 6550 2550
F 0 "J6" H 6675 2865 60  0000 C CNN
F 1 "SMA" H 6740 2790 60  0000 C CNN
F 2 "lib_kicad:SMA" H 6725 2720 50  0000 C CNN
F 3 "" H 6550 2550 60  0001 C CNN
	1    6550 2550
	1    0    0    -1  
$EndComp
$Comp
L power:GND #PWR05
U 1 1 5B3E8746
P 6450 2550
F 0 "#PWR05" H 6450 2300 50  0001 C CNN
F 1 "GND" H 6450 2400 50  0000 C CNN
F 2 "" H 6450 2550 50  0001 C CNN
F 3 "" H 6450 2550 50  0001 C CNN
	1    6450 2550
	1    0    0    -1  
$EndComp
Wire Wire Line
	6450 2550 6450 2450
Wire Wire Line
	6450 2450 6500 2450
Connection ~ 6500 2450
Connection ~ 6550 2450
$Comp
L sma:SMA J3
U 1 1 5B3E87C2
P 5200 2200
F 0 "J3" H 5325 2515 60  0000 C CNN
F 1 "SMA" H 5390 2440 60  0000 C CNN
F 2 "lib_kicad:SMA" H 5375 2370 50  0000 C CNN
F 3 "" H 5200 2200 60  0001 C CNN
	1    5200 2200
	-1   0    0    -1  
$EndComp
$Comp
L power:GND #PWR02
U 1 1 5B3E87C8
P 5300 2200
F 0 "#PWR02" H 5300 1950 50  0001 C CNN
F 1 "GND" H 5300 2050 50  0000 C CNN
F 2 "" H 5300 2200 50  0001 C CNN
F 3 "" H 5300 2200 50  0001 C CNN
	1    5300 2200
	-1   0    0    -1  
$EndComp
Wire Wire Line
	5300 2100 5300 2200
Wire Wire Line
	5150 2100 5200 2100
Connection ~ 5250 2100
Connection ~ 5200 2100
Wire Wire Line
	5350 1900 5550 1900
Wire Wire Line
	5650 1350 5800 1350
Wire Wire Line
	6400 2250 5750 2250
Wire Wire Line
	5750 2250 5750 2300
$Comp
L sma:SMA J5
U 1 1 5B3E8C8D
P 5950 4150
F 0 "J5" H 6075 4465 60  0000 C CNN
F 1 "SMA" H 6140 4390 60  0000 C CNN
F 2 "lib_kicad:SMA" H 6125 4320 50  0000 C CNN
F 3 "" H 5950 4150 60  0001 C CNN
	1    5950 4150
	1    0    0    -1  
$EndComp
$Comp
L power:GND #PWR04
U 1 1 5B3E8C93
P 5850 4150
F 0 "#PWR04" H 5850 3900 50  0001 C CNN
F 1 "GND" H 5850 4000 50  0000 C CNN
F 2 "" H 5850 4150 50  0001 C CNN
F 3 "" H 5850 4150 50  0001 C CNN
	1    5850 4150
	1    0    0    -1  
$EndComp
Wire Wire Line
	5850 4150 5850 4050
Wire Wire Line
	5850 4050 5900 4050
Connection ~ 5900 4050
Connection ~ 5950 4050
$Comp
L sma:SMA J7
U 1 1 5B3E8C9D
P 6550 3900
F 0 "J7" H 6675 4215 60  0000 C CNN
F 1 "SMA" H 6740 4140 60  0000 C CNN
F 2 "lib_kicad:SMA" H 6725 4070 50  0000 C CNN
F 3 "" H 6550 3900 60  0001 C CNN
	1    6550 3900
	1    0    0    -1  
$EndComp
$Comp
L power:GND #PWR06
U 1 1 5B3E8CA3
P 6450 3900
F 0 "#PWR06" H 6450 3650 50  0001 C CNN
F 1 "GND" H 6450 3750 50  0000 C CNN
F 2 "" H 6450 3900 50  0001 C CNN
F 3 "" H 6450 3900 50  0001 C CNN
	1    6450 3900
	1    0    0    -1  
$EndComp
Wire Wire Line
	6450 3900 6450 3800
Wire Wire Line
	6450 3800 6500 3800
Connection ~ 6500 3800
Connection ~ 6550 3800
$Comp
L sma:SMA J2
U 1 1 5B3E8CAD
P 5000 3800
F 0 "J2" H 5125 4115 60  0000 C CNN
F 1 "SMA" H 5190 4040 60  0000 C CNN
F 2 "lib_kicad:SMA" H 5175 3970 50  0000 C CNN
F 3 "" H 5000 3800 60  0001 C CNN
	1    5000 3800
	-1   0    0    -1  
$EndComp
$Comp
L power:GND #PWR01
U 1 1 5B3E8CB3
P 5100 3800
F 0 "#PWR01" H 5100 3550 50  0001 C CNN
F 1 "GND" H 5100 3650 50  0000 C CNN
F 2 "" H 5100 3800 50  0001 C CNN
F 3 "" H 5100 3800 50  0001 C CNN
	1    5100 3800
	-1   0    0    -1  
$EndComp
Wire Wire Line
	5100 3700 5100 3800
Wire Wire Line
	4950 3700 5000 3700
Connection ~ 5050 3700
Connection ~ 5000 3700
Wire Wire Line
	5150 3500 5550 3500
Wire Wire Line
	5650 3850 5800 3850
Wire Wire Line
	5650 3500 5650 3850
Wire Wire Line
	5750 3500 5750 3600
Wire Wire Line
	5750 3600 6400 3600
Wire Wire Line
	5900 1550 5950 1550
Wire Wire Line
	5950 1550 6000 1550
Wire Wire Line
	6500 2450 6550 2450
Wire Wire Line
	6550 2450 6600 2450
Wire Wire Line
	5250 2100 5300 2100
Wire Wire Line
	5200 2100 5250 2100
Wire Wire Line
	5900 4050 5950 4050
Wire Wire Line
	5950 4050 6000 4050
Wire Wire Line
	6500 3800 6550 3800
Wire Wire Line
	6550 3800 6600 3800
Wire Wire Line
	5050 3700 5100 3700
Wire Wire Line
	5000 3700 5050 3700
$Comp
L Diode:LL4148 D1
U 1 1 5BAAAB6C
P 4500 2700
F 0 "D1" V 4454 2779 50  0000 L CNN
F 1 "LL4148" V 4545 2779 50  0000 L CNN
F 2 "Diode_SMD:D_MiniMELF" H 4500 2525 50  0001 C CNN
F 3 "http://www.vishay.com/docs/85557/ll4148.pdf" H 4500 2700 50  0001 C CNN
	1    4500 2700
	0    1    1    0   
$EndComp
Wire Wire Line
	5550 1900 5550 2300
Wire Wire Line
	5650 1350 5650 2300
Wire Wire Line
	5050 2750 5050 2850
Wire Wire Line
	5050 2850 4500 2850
Wire Wire Line
	4200 2850 4500 2850
Connection ~ 4500 2850
Wire Wire Line
	5050 2550 5050 2650
$Comp
L Connector:Conn_01x01_Male J1
U 1 1 5BAAE3CB
P 1400 2550
F 0 "J1" H 1506 2728 50  0000 C CNN
F 1 "Conn_01x01_Male" H 1506 2637 50  0000 C CNN
F 2 "TestPoint:TestPoint_Pad_4.0x4.0mm" H 1400 2550 50  0001 C CNN
F 3 "~" H 1400 2550 50  0001 C CNN
	1    1400 2550
	1    0    0    -1  
$EndComp
$Comp
L Connector:Conn_01x01_Male J8
U 1 1 5BAAE401
P 4000 2850
F 0 "J8" H 4106 3028 50  0000 C CNN
F 1 "Conn_01x01_Male" H 4106 2937 50  0000 C CNN
F 2 "TestPoint:TestPoint_Pad_4.0x4.0mm" H 4000 2850 50  0001 C CNN
F 3 "~" H 4000 2850 50  0001 C CNN
	1    4000 2850
	1    0    0    -1  
$EndComp
$Comp
L Device:C C11
U 1 1 5BABEA2C
P 1900 2700
F 0 "C11" H 2015 2746 50  0000 L CNN
F 1 "4,7uF" H 2015 2655 50  0000 L CNN
F 2 "Capacitor_SMD:C_0603_1608Metric_Pad1.05x0.95mm_HandSolder" H 1938 2550 50  0001 C CNN
F 3 "~" H 1900 2700 50  0001 C CNN
	1    1900 2700
	1    0    0    -1  
$EndComp
$Comp
L Device:C C12
U 1 1 5BABEA6E
P 3100 2700
F 0 "C12" H 3215 2746 50  0000 L CNN
F 1 "100nF" H 3215 2655 50  0000 L CNN
F 2 "Capacitor_SMD:C_0603_1608Metric_Pad1.05x0.95mm_HandSolder" H 3138 2550 50  0001 C CNN
F 3 "~" H 3100 2700 50  0001 C CNN
	1    3100 2700
	1    0    0    -1  
$EndComp
Wire Wire Line
	1900 2550 2050 2550
Connection ~ 1900 2550
$Comp
L power:GND #PWR0101
U 1 1 5BAC4298
P 1900 2900
F 0 "#PWR0101" H 1900 2650 50  0001 C CNN
F 1 "GND" H 1905 2727 50  0000 C CNN
F 2 "" H 1900 2900 50  0001 C CNN
F 3 "" H 1900 2900 50  0001 C CNN
	1    1900 2900
	1    0    0    -1  
$EndComp
$Comp
L power:GND #PWR0102
U 1 1 5BAC42C4
P 2500 3000
F 0 "#PWR0102" H 2500 2750 50  0001 C CNN
F 1 "GND" H 2505 2827 50  0000 C CNN
F 2 "" H 2500 3000 50  0001 C CNN
F 3 "" H 2500 3000 50  0001 C CNN
	1    2500 3000
	1    0    0    -1  
$EndComp
$Comp
L power:GND #PWR0103
U 1 1 5BAC42E9
P 3100 2900
F 0 "#PWR0103" H 3100 2650 50  0001 C CNN
F 1 "GND" H 3105 2727 50  0000 C CNN
F 2 "" H 3100 2900 50  0001 C CNN
F 3 "" H 3100 2900 50  0001 C CNN
	1    3100 2900
	1    0    0    -1  
$EndComp
Wire Wire Line
	3100 2900 3100 2850
Wire Wire Line
	2500 3000 2500 2950
Wire Wire Line
	1900 2900 1900 2850
$Comp
L ams1117:AMS1117 U2
U 1 1 5BAC681C
P 2500 2550
F 0 "U2" H 2500 2837 60  0000 C CNN
F 1 "AMS1117" H 2500 2731 60  0000 C CNN
F 2 "Package_TO_SOT_SMD:SOT-223-3_TabPin2" H 2500 2550 60  0001 C CNN
F 3 "" H 2500 2550 60  0001 C CNN
	1    2500 2550
	1    0    0    -1  
$EndComp
Wire Wire Line
	1600 2550 1900 2550
Wire Wire Line
	2950 2550 3100 2550
Wire Wire Line
	4500 2550 5050 2550
Connection ~ 4500 2550
Connection ~ 3100 2550
Wire Wire Line
	3100 2550 4500 2550
$EndSCHEMATC
