! Mini-Circuits  
! S2P DATA File Format
! Type: MMIC Amplifier
! Model: ERA-5SM+
! TEST CONDITIONS: INPUT POWER = -20dBm, Icc = 65mA, Vd = 4.61V @Temperature = +85degC
! 401 Frequency points
!
! S Parameters are in dB deg format
!
# MHz S DB R 50
!    FREQ       dB(S11)   PHS(S11)  dB(S21)   PHS(S21)  dB(S12)   PHS(S12)  dB(S22)   PHS(S22) 
   50.000000   -22.771    -2.655    20.468   173.588   -24.003    -3.245   -32.261     3.303 
   65.000000   -22.705    -2.589    20.470   171.869   -23.955    -4.002   -32.539    -1.025 
   80.000000   -22.774    -2.487    20.456   170.117   -23.973    -4.405   -32.447    -3.502 
   95.000000   -22.851    -2.083    20.451   168.384   -23.952    -5.393   -32.967    -4.099 
  110.000000   -22.961    -3.423    20.427   166.783   -23.932    -6.103   -33.327    -6.477 
  125.000000   -22.976    -3.823    20.422   165.030   -23.939    -6.834   -33.696    -6.498 
  140.000000   -23.028    -4.520    20.414   163.292   -23.929    -7.686   -33.224    -6.602 
  155.000000   -22.971    -4.864    20.405   161.556   -23.933    -8.660   -33.448   -10.468 
  170.000000   -22.822    -5.839    20.396   159.725   -23.901    -9.393   -33.670   -12.577 
  185.000000   -22.815    -6.816    20.389   158.041   -23.967   -10.184   -33.292   -14.235 
  200.000000   -22.830    -6.679    20.374   156.279   -23.917   -11.148   -33.457   -16.369 
  215.000000   -22.889    -8.178    20.360   154.494   -23.933   -11.863   -33.807   -15.530 
  230.000000   -22.853    -8.275    20.349   152.811   -23.903   -12.463   -34.130   -18.422 
  245.000000   -22.892    -9.392    20.334   151.057   -23.938   -13.449   -34.044   -21.637 
  260.000000   -22.856   -10.032    20.318   149.310   -23.897   -14.451   -34.008   -21.554 
  275.000000   -22.766   -11.315    20.305   147.581   -23.864   -15.121   -34.223   -22.728 
  290.000000   -22.643   -12.555    20.289   145.821   -23.858   -16.107   -34.011   -25.002 
  305.000000   -22.652   -13.298    20.276   144.106   -23.876   -16.804   -33.713   -27.542 
  320.000000   -22.506   -14.565    20.255   142.365   -23.874   -17.710   -33.851   -30.258 
  335.000000   -22.494   -14.851    20.241   140.634   -23.883   -18.319   -33.918   -30.724 
  350.000000   -22.463   -15.540    20.222   138.909   -23.856   -19.239   -34.108   -33.047 
  365.000000   -22.534   -16.010    20.215   137.198   -23.859   -20.239   -34.373   -34.153 
  380.000000   -22.440   -17.243    20.197   135.508   -23.839   -20.911   -34.513   -37.685 
  395.000000   -22.458   -18.553    20.175   133.762   -23.827   -21.848   -34.401   -39.759 
  410.000000   -22.319   -19.301    20.153   132.048   -23.833   -22.597   -34.416   -41.985 
  425.000000   -22.247   -20.124    20.131   130.298   -23.811   -23.534   -34.215   -42.740 
  440.000000   -22.150   -20.919    20.111   128.616   -23.807   -24.250   -34.210   -44.889 
  455.000000   -22.076   -21.729    20.092   126.867   -23.808   -25.172   -34.259   -45.832 
  470.000000   -22.117   -22.398    20.074   125.176   -23.813   -25.848   -34.513   -48.265 
  485.000000   -22.078   -23.395    20.054   123.440   -23.783   -26.681   -34.693   -49.479 
  500.000000   -22.103   -23.994    20.034   121.777   -23.744   -27.601   -35.136   -52.341 
  515.000000   -22.121   -24.636    20.012   120.070   -23.748   -28.401   -35.071   -54.218 
  530.000000   -22.122   -25.833    19.990   118.385   -23.766   -29.328   -35.403   -56.848 
  545.000000   -22.031   -26.912    19.971   116.681   -23.747   -30.234   -35.621   -56.952 
  560.000000   -22.030   -28.077    19.946   114.958   -23.767   -30.898   -35.698   -59.394 
  575.000000   -21.951   -29.021    19.921   113.297   -23.729   -31.878   -35.959   -60.089 
  590.000000   -21.953   -30.072    19.897   111.599   -23.717   -32.491   -36.084   -63.537 
  605.000000   -21.951   -31.045    19.876   109.896   -23.702   -33.556   -36.380   -64.178 
  620.000000   -21.934   -31.980    19.853   108.219   -23.702   -34.287   -36.698   -66.759 
  635.000000   -21.968   -33.063    19.827   106.523   -23.694   -35.193   -36.775   -69.919 
  650.000000   -21.883   -34.061    19.811   104.847   -23.677   -36.068   -36.952   -71.773 
  665.000000   -21.875   -35.551    19.782   103.151   -23.661   -36.938   -37.180   -74.230 
  680.000000   -21.828   -36.256    19.757   101.489   -23.653   -37.722   -37.234   -75.219 
  695.000000   -21.811   -37.281    19.727    99.830   -23.662   -38.584   -37.742   -79.245 
  710.000000   -21.757   -38.650    19.707    98.148   -23.639   -39.372   -37.908   -80.734 
  725.000000   -21.741   -39.413    19.679    96.476   -23.619   -40.219   -38.152   -83.957 
  740.000000   -21.687   -40.674    19.656    94.817   -23.607   -41.078   -38.367   -87.318 
  755.000000   -21.706   -41.593    19.631    93.163   -23.596   -41.950   -38.664   -90.913 
  770.000000   -21.646   -43.031    19.600    91.494   -23.589   -42.907   -38.917   -92.408 
  785.000000   -21.597   -43.957    19.577    89.834   -23.579   -43.747   -38.887   -96.058 
  800.000000   -21.605   -44.917    19.552    88.172   -23.575   -44.548   -39.667  -102.106 
  815.000000   -21.437   -45.739    19.512    86.479   -23.555   -45.273   -39.186   -96.774 
  830.000000   -21.438   -46.908    19.488    84.868   -23.525   -46.109   -39.436  -102.070 
  845.000000   -21.472   -48.422    19.456    83.205   -23.525   -47.093   -40.054  -105.743 
  860.000000   -21.419   -49.661    19.436    81.565   -23.514   -47.941   -40.224  -109.038 
  875.000000   -21.423   -50.863    19.404    79.944   -23.492   -48.805   -40.400  -113.408 
  890.000000   -21.396   -51.751    19.374    78.292   -23.465   -49.663   -40.513  -117.195 
  905.000000   -21.357   -53.090    19.348    76.681   -23.460   -50.427   -40.885  -120.376 
  920.000000   -21.311   -54.178    19.319    75.039   -23.449   -51.460   -40.889  -125.088 
  935.000000   -21.325   -55.496    19.291    73.396   -23.435   -52.279   -40.720  -129.159 
  950.000000   -21.290   -56.535    19.261    71.745   -23.425   -53.090   -41.133  -133.073 
  965.000000   -21.260   -57.921    19.230    70.143   -23.408   -54.012   -41.380  -135.975 
  980.000000   -21.251   -59.148    19.198    68.521   -23.394   -54.833   -41.536  -138.646 
  995.000000   -21.244   -60.585    19.169    66.887   -23.377   -55.677   -41.987  -143.730 
 1010.000000   -21.225   -61.889    19.141    65.278   -23.354   -56.594   -41.886  -147.136 
 1025.000000   -21.168   -63.195    19.114    63.652   -23.367   -57.453   -41.558  -152.055 
 1040.000000   -21.147   -64.533    19.085    62.026   -23.328   -58.351   -41.378  -154.710 
 1055.000000   -21.139   -65.733    19.048    60.426   -23.306   -59.127   -41.347  -159.923 
 1070.000000   -21.153   -67.201    19.019    58.825   -23.308   -60.067   -41.433  -167.113 
 1085.000000   -21.170   -68.390    18.987    57.222   -23.295   -60.890   -41.285  -173.043 
 1100.000000   -21.173   -69.652    18.961    55.619   -23.270   -61.781   -41.306  -179.360 
 1115.000000   -21.191   -70.984    18.931    54.003   -23.257   -62.681   -40.884   173.733 
 1130.000000   -21.158   -72.196    18.898    52.377   -23.242   -63.537   -41.240   171.426 
 1145.000000   -21.085   -73.477    18.865    50.788   -23.221   -64.416   -40.744   171.743 
 1160.000000   -21.027   -74.760    18.832    49.184   -23.209   -65.239   -40.951   168.626 
 1175.000000   -21.019   -76.141    18.802    47.602   -23.184   -66.139   -40.369   163.562 
 1190.000000   -20.995   -77.280    18.772    46.028   -23.180   -66.955   -40.103   159.832 
 1205.000000   -21.000   -78.743    18.738    44.439   -23.146   -67.900   -39.729   156.616 
 1220.000000   -21.016   -80.001    18.703    42.850   -23.139   -68.799   -39.152   152.685 
 1235.000000   -21.022   -81.460    18.671    41.271   -23.121   -69.653   -39.222   149.982 
 1250.000000   -21.028   -82.976    18.640    39.695   -23.103   -70.566   -39.264   145.321 
 1265.000000   -21.055   -84.620    18.607    38.118   -23.088   -71.433   -39.141   142.448 
 1280.000000   -21.004   -86.472    18.577    36.533   -23.074   -72.318   -39.035   140.780 
 1295.000000   -20.971   -87.740    18.541    34.977   -23.054   -73.162   -38.493   139.959 
 1310.000000   -20.963   -89.021    18.509    33.409   -23.037   -74.060   -37.987   137.324 
 1325.000000   -20.921   -90.145    18.477    31.834   -23.013   -75.003   -37.659   134.678 
 1340.000000   -20.965   -91.325    18.447    30.287   -23.000   -75.808   -37.349   132.858 
 1355.000000   -20.979   -93.095    18.417    28.732   -22.971   -76.772   -36.957   129.599 
 1370.000000   -20.973   -94.533    18.389    27.164   -22.952   -77.713   -36.728   126.609 
 1385.000000   -20.964   -96.371    18.352    25.596   -22.939   -78.574   -36.662   124.832 
 1400.000000   -20.953   -97.774    18.318    24.035   -22.923   -79.423   -36.540   122.728 
 1415.000000   -20.989   -99.650    18.288    22.483   -22.900   -80.353   -36.299   119.674 
 1430.000000   -20.982  -101.129    18.255    20.926   -22.881   -81.241   -36.025   117.453 
 1445.000000   -20.981  -102.624    18.223    19.375   -22.862   -82.160   -35.787   114.666 
 1460.000000   -21.023  -103.951    18.195    17.824   -22.851   -83.000   -35.300   112.714 
 1475.000000   -21.048  -105.430    18.159    16.262   -22.827   -83.971   -34.887   110.126 
 1490.000000   -21.105  -107.011    18.129    14.695   -22.809   -85.005   -34.613   106.712 
 1505.000000   -21.083  -107.509    18.093    13.062   -22.816   -85.743   -34.716   100.979 
 1520.000000   -21.015  -108.977    18.046    11.556   -22.797   -86.574   -35.199   100.929 
 1535.000000   -20.934  -110.844    18.010    10.098   -22.753   -87.423   -35.038   103.122 
 1550.000000   -20.937  -112.813    17.983     8.594   -22.728   -88.352   -34.615   101.802 
 1565.000000   -20.934  -114.528    17.952     7.059   -22.709   -89.302   -34.132   101.038 
 1580.000000   -20.959  -115.863    17.923     5.500   -22.693   -90.167   -33.816    98.256 
 1595.000000   -21.005  -117.647    17.887     3.972   -22.678   -91.149   -33.560    96.495 
 1610.000000   -21.036  -119.088    17.855     2.439   -22.655   -92.024   -33.218    94.845 
 1625.000000   -21.042  -120.741    17.822     0.890   -22.633   -92.984   -33.024    92.803 
 1640.000000   -21.029  -122.053    17.791    -0.628   -22.624   -93.871   -32.986    91.293 
 1655.000000   -21.018  -123.684    17.758    -2.174   -22.590   -94.731   -32.919    89.603 
 1670.000000   -21.020  -125.424    17.722    -3.675   -22.564   -95.644   -32.781    87.696 
 1685.000000   -20.991  -127.005    17.686    -5.196   -22.559   -96.525   -32.648    86.986 
 1700.000000   -21.089  -128.563    17.651    -6.705   -22.520   -97.474   -32.296    85.354 
 1715.000000   -21.096  -130.337    17.617    -8.197   -22.494   -98.442   -31.953    84.008 
 1730.000000   -21.097  -132.007    17.589    -9.714   -22.490   -99.353   -31.795    82.560 
 1745.000000   -21.095  -133.578    17.555   -11.230   -22.466  -100.242   -31.693    81.363 
 1760.000000   -21.133  -135.642    17.524   -12.746   -22.429  -101.188   -31.442    80.409 
 1775.000000   -21.145  -137.161    17.491   -14.248   -22.420  -102.143   -31.149    78.748 
 1790.000000   -21.207  -138.620    17.460   -15.785   -22.392  -103.096   -31.096    76.331 
 1805.000000   -21.193  -140.115    17.417   -17.292   -22.394  -104.025   -31.108    73.691 
 1820.000000   -21.178  -141.513    17.387   -18.782   -22.364  -104.927   -30.993    72.844 
 1835.000000   -21.227  -143.573    17.357   -20.281   -22.349  -105.770   -30.709    71.436 
 1850.000000   -21.238  -144.999    17.320   -21.794   -22.323  -106.680   -30.555    70.629 
 1865.000000   -21.203  -146.568    17.290   -23.263   -22.294  -107.653   -30.424    69.226 
 1880.000000   -21.193  -148.386    17.255   -24.743   -22.264  -108.539   -30.355    68.471 
 1895.000000   -21.170  -150.637    17.224   -26.222   -22.247  -109.439   -30.215    66.810 
 1910.000000   -21.180  -152.497    17.196   -27.704   -22.226  -110.372   -30.014    65.572 
 1925.000000   -21.220  -154.198    17.164   -29.223   -22.197  -111.328   -29.840    64.262 
 1940.000000   -21.256  -155.538    17.127   -30.765   -22.171  -112.348   -29.591    62.456 
 1955.000000   -21.253  -157.105    17.094   -32.248   -22.160  -113.247   -29.455    61.205 
 1970.000000   -21.298  -158.928    17.066   -33.697   -22.135  -114.151   -29.304    60.148 
 1985.000000   -21.310  -160.721    17.032   -35.195   -22.109  -115.122   -29.128    58.971 
 2000.000000   -21.331  -162.880    16.997   -36.683   -22.078  -116.074   -29.008    57.774 
 2015.000000   -21.340  -164.762    16.969   -38.168   -22.050  -116.969   -28.886    56.149 
 2030.000000   -21.377  -166.818    16.938   -39.659   -22.027  -118.032   -28.583    54.952 
 2045.000000   -21.459  -168.565    16.911   -41.189   -22.022  -119.131   -28.390    52.916 
 2060.000000   -21.541  -169.605    16.872   -42.728   -22.027  -119.996   -28.123    49.688 
 2075.000000   -21.492  -170.016    16.826   -44.215   -22.004  -120.883   -28.346    47.200 
 2090.000000   -21.396  -171.887    16.792   -45.656   -21.987  -121.710   -28.474    47.421 
 2105.000000   -21.366  -173.788    16.757   -47.107   -21.959  -122.650   -28.287    46.716 
 2120.000000   -21.368  -176.258    16.725   -48.575   -21.934  -123.592   -28.226    46.431 
 2135.000000   -21.418  -178.081    16.699   -50.048   -21.899  -124.608   -28.097    45.120 
 2150.000000   -21.377   179.916    16.668   -51.524   -21.875  -125.509   -28.015    43.837 
 2165.000000   -21.376   177.929    16.637   -52.996   -21.860  -126.507   -27.890    41.619 
 2180.000000   -21.319   176.430    16.601   -54.483   -21.848  -127.444   -27.956    39.534 
 2195.000000   -21.233   174.990    16.560   -55.923   -21.821  -128.389   -27.930    39.812 
 2210.000000   -21.217   173.503    16.528   -57.347   -21.796  -129.337   -27.774    39.284 
 2225.000000   -21.167   171.506    16.495   -58.821   -21.766  -130.234   -27.692    38.857 
 2240.000000   -21.215   169.539    16.469   -60.297   -21.729  -131.148   -27.453    37.642 
 2255.000000   -21.264   167.621    16.439   -61.737   -21.713  -132.164   -27.327    36.228 
 2270.000000   -21.226   165.667    16.407   -63.215   -21.677  -133.235   -27.293    34.309 
 2285.000000   -21.214   163.639    16.375   -64.686   -21.667  -134.090   -27.244    33.023 
 2300.000000   -21.215   161.988    16.333   -66.161   -21.651  -135.094   -27.124    31.263 
 2315.000000   -21.186   160.509    16.303   -67.619   -21.631  -136.005   -27.135    29.821 
 2330.000000   -21.097   158.837    16.268   -69.041   -21.603  -136.853   -27.049    29.603 
 2345.000000   -21.011   156.861    16.239   -70.475   -21.579  -137.906   -26.979    29.037 
 2360.000000   -21.042   154.965    16.212   -71.920   -21.541  -138.898   -26.738    28.581 
 2375.000000   -21.138   153.174    16.180   -73.430   -21.520  -140.004   -26.502    26.561 
 2390.000000   -21.233   151.961    16.136   -74.894   -21.532  -140.921   -26.608    23.528 
 2405.000000   -21.118   150.124    16.096   -76.278   -21.491  -141.762   -26.772    22.761 
 2420.000000   -21.049   147.633    16.073   -77.704   -21.457  -142.674   -26.599    22.499 
 2435.000000   -20.981   145.716    16.047   -79.124   -21.420  -143.661   -26.463    21.433 
 2450.000000   -20.882   143.248    16.015   -80.589   -21.391  -144.712   -26.361    21.017 
 2465.000000   -20.856   141.627    15.989   -82.039   -21.381  -145.730   -26.202    20.654 
 2480.000000   -20.908   140.407    15.953   -83.508   -21.353  -146.793   -26.053    19.570 
 2495.000000   -20.912   139.090    15.925   -84.958   -21.325  -147.694   -25.985    18.322 
 2510.000000   -20.926   137.104    15.889   -86.368   -21.306  -148.604   -25.953    16.987 
 2525.000000   -20.926   135.089    15.863   -87.803   -21.280  -149.653   -25.826    16.378 
 2540.000000   -21.046   132.205    15.843   -89.272   -21.251  -150.679   -25.567    14.324 
 2555.000000   -21.078   130.952    15.794   -90.768   -21.242  -151.768   -25.532    11.371 
 2570.000000   -20.852   129.295    15.763   -92.137   -21.210  -152.554   -25.632    11.194 
 2585.000000   -20.796   127.282    15.737   -93.545   -21.185  -153.575   -25.492    10.435 
 2600.000000   -20.773   125.611    15.709   -95.010   -21.160  -154.630   -25.426     9.453 
 2615.000000   -20.723   124.305    15.680   -96.451   -21.143  -155.623   -25.357     8.362 
 2630.000000   -20.728   122.651    15.646   -97.899   -21.119  -156.566   -25.248     6.869 
 2645.000000   -20.787   121.361    15.610   -99.337   -21.093  -157.616   -25.170     5.561 
 2660.000000   -20.811   119.377    15.577  -100.765   -21.065  -158.548   -25.054     3.966 
 2675.000000   -20.826   117.043    15.548  -102.192   -21.042  -159.494   -24.933     2.354 
 2690.000000   -20.736   114.527    15.523  -103.621   -21.020  -160.520   -24.844     1.470 
 2705.000000   -20.682   112.241    15.497  -105.092   -20.985  -161.599   -24.745     0.502 
 2720.000000   -20.688   109.945    15.470  -106.571   -20.960  -162.760   -24.524    -0.936 
 2735.000000   -20.837   108.539    15.432  -108.153   -20.963  -163.987   -24.388    -4.134 
 2750.000000   -21.012   109.571    15.366  -109.601   -20.997  -164.909   -24.675    -8.045 
 2765.000000   -20.793   109.999    15.316  -110.816   -21.008  -165.471   -25.214    -8.363 
 2780.000000   -20.557   108.398    15.287  -112.097   -20.960  -166.212   -25.264    -7.281 
 2795.000000   -20.434   105.676    15.274  -113.479   -20.895  -167.115   -25.069    -6.897 
 2810.000000   -20.373   102.985    15.249  -114.851   -20.853  -168.144   -24.874    -6.905 
 2825.000000   -20.327   100.523    15.229  -116.305   -20.810  -169.208   -24.673    -7.685 
 2840.000000   -20.261    98.657    15.201  -117.731   -20.785  -170.342   -24.613    -8.924 
 2855.000000   -20.211    96.769    15.177  -119.179   -20.759  -171.315   -24.498   -10.007 
 2870.000000   -20.167    95.372    15.144  -120.619   -20.737  -172.414   -24.441   -11.560 
 2885.000000   -20.156    94.029    15.113  -122.027   -20.719  -173.421   -24.394   -12.792 
 2900.000000   -20.204    92.900    15.078  -123.439   -20.699  -174.344   -24.277   -14.294 
 2915.000000   -20.145    90.727    15.051  -124.826   -20.665  -175.333   -24.154   -14.839 
 2930.000000   -20.158    88.633    15.031  -126.244   -20.633  -176.419   -23.935   -16.541 
 2945.000000   -20.161    86.552    15.004  -127.680   -20.606  -177.381   -23.846   -17.566 
 2960.000000   -20.115    84.506    14.978  -129.097   -20.578  -178.474   -23.769   -18.599 
 2975.000000   -20.089    83.152    14.935  -130.561   -20.578  -179.526   -23.832   -19.997 
 2990.000000   -19.961    82.176    14.904  -131.928   -20.549   179.534   -23.881   -20.961 
 3005.000000   -19.875    80.761    14.873  -133.315   -20.514   178.537   -23.880   -21.737 
 3020.000000   -19.821    79.059    14.846  -134.731   -20.492   177.585   -23.760   -22.799 
 3035.000000   -19.890    77.367    14.821  -136.157   -20.458   176.489   -23.542   -24.357 
 3050.000000   -19.926    75.361    14.793  -137.562   -20.436   175.409   -23.408   -26.146 
 3065.000000   -20.024    73.806    14.759  -139.033   -20.418   174.353   -23.363   -27.828 
 3080.000000   -19.967    71.910    14.730  -140.439   -20.401   173.324   -23.263   -29.057 
 3120.000000   -19.792    67.978    14.647  -144.155   -20.352   170.586   -23.308   -32.145 
 3150.000000   -19.792    65.694    14.568  -146.981   -20.324   168.568   -23.328   -35.499 
 3190.000000   -19.571    62.596    14.501  -150.559   -20.247   166.101   -23.369   -36.574 
 3220.000000   -19.494    58.731    14.452  -153.331   -20.191   163.991   -23.203   -38.906 
 3260.000000   -19.375    54.460    14.370  -157.027   -20.115   161.195   -23.114   -41.893 
 3290.000000   -19.312    51.151    14.334  -159.860   -20.058   159.253   -22.882   -43.985 
 3330.000000   -19.474    47.085    14.246  -163.596   -19.997   156.410   -22.768   -48.040 
 3360.000000   -19.330    43.628    14.196  -166.334   -19.953   154.338   -22.544   -49.306 
 3400.000000   -19.283    38.727    14.126  -170.146   -19.871   151.475   -22.301   -52.986 
 3430.000000   -19.265    37.291    14.060  -172.811   -19.862   149.529   -22.516   -56.010 
 3470.000000   -19.228    31.930    14.000  -176.610   -19.760   146.551   -22.142   -59.156 
 3500.000000   -19.223    29.004    13.944  -179.402   -19.700   144.428   -22.034   -62.194 
 3540.000000   -19.389    25.025    13.842   176.838   -19.696   141.496   -22.067   -67.849 
 3570.000000   -19.138    22.822    13.796   174.234   -19.637   139.633   -22.133   -69.080 
 3610.000000   -19.351    18.623    13.710   170.428   -19.610   136.607   -22.015   -73.423 
 3640.000000   -19.343    17.994    13.633   167.962   -19.618   134.870   -22.396   -76.251 
 3680.000000   -18.824    13.751    13.619   164.492   -19.460   132.600   -22.167   -75.112 
 3710.000000   -18.675     8.134    13.593   161.521   -19.348   130.191   -21.746   -77.461 
 3750.000000   -18.889     4.526    13.503   157.734   -19.316   127.099   -21.531   -83.032 
 3780.000000   -18.932     0.309    13.466   154.931   -19.252   124.883   -21.192   -86.055 
 3820.000000   -19.183    -3.634    13.355   151.209   -19.230   122.014   -21.248   -91.450 
 3850.000000   -19.053    -5.722    13.309   148.566   -19.190   120.001   -21.300   -93.595 
 3890.000000   -19.336    -9.460    13.216   144.951   -19.161   116.989   -21.309   -98.134 
 3920.000000   -19.195   -11.235    13.179   142.362   -19.114   115.210   -21.318   -99.327 
 3960.000000   -18.940   -15.529    13.142   138.780   -19.010   112.515   -21.143  -100.946 
 3990.000000   -18.741   -19.601    13.114   136.030   -18.924   110.397   -20.928  -103.325 
 4030.000000   -18.818   -25.813    13.061   132.139   -18.789   107.239   -20.360  -107.634 
 4060.000000   -18.938   -30.663    13.010   129.179   -18.757   104.681   -20.028  -111.756 
 4100.000000   -19.529   -36.509    12.891   125.327   -18.769   101.265   -19.837  -119.440 
 4130.000000   -19.955   -37.118    12.776   122.779   -18.812    99.044   -20.170  -124.995 
 4170.000000   -19.979   -36.499    12.697   119.627   -18.824    96.769   -20.769  -127.819 
 4200.000000   -19.474   -37.548    12.700   117.231   -18.755    95.455   -20.827  -126.536 
 4240.000000   -19.256   -46.054    12.688   113.332   -18.552    92.317   -20.007  -129.237 
 4270.000000   -19.136   -50.158    12.650   110.644   -18.515    90.146   -19.967  -132.002 
 4310.000000   -19.367   -56.322    12.570   106.756   -18.444    86.899   -19.589  -136.786 
 4340.000000   -19.401   -59.290    12.516   104.077   -18.407    84.774   -19.479  -139.880 
 4380.000000   -19.860   -65.068    12.424   100.365   -18.381    81.450   -19.289  -145.695 
 4410.000000   -19.780   -67.605    12.378    97.814   -18.359    79.561   -19.357  -147.581 
 4450.000000   -19.751   -71.848    12.328    94.230   -18.302    76.615   -19.312  -152.197 
 4480.000000   -19.690   -75.449    12.288    91.520   -18.224    74.563   -19.146  -154.241 
 4520.000000   -19.809   -79.548    12.242    88.044   -18.186    71.764   -19.094  -157.008 
 4550.000000   -19.649   -85.362    12.201    85.188   -18.093    69.548   -18.723  -158.909 
 4590.000000   -19.799   -93.029    12.124    81.213   -18.019    65.975   -18.160  -165.259 
 4620.000000   -20.430   -94.305    12.029    78.799   -18.079    63.804   -18.344  -170.121 
 4660.000000   -19.771   -98.793    12.042    75.262   -17.948    61.334   -18.063  -170.046 
 4690.000000   -19.970  -105.292    11.967    72.395   -17.917    58.800   -17.812  -175.015 
 4730.000000   -19.913  -110.368    11.909    68.878   -17.879    55.954   -17.753  -179.025 
 4760.000000   -20.009  -114.256    11.861    66.187   -17.830    53.633   -17.561   178.331 
 4800.000000   -20.354  -120.195    11.762    62.537   -17.802    50.436   -17.394   173.690 
 4830.000000   -20.589  -123.149    11.703    60.038   -17.817    48.277   -17.381   169.596 
 4870.000000   -20.367  -125.929    11.662    56.711   -17.789    45.642   -17.350   166.606 
 4900.000000   -19.888  -126.707    11.679    54.210   -17.710    44.225   -17.373   166.601 
 4940.000000   -19.368  -135.547    11.655    50.140   -17.545    40.881   -16.840   163.798 
 4970.000000   -19.270  -140.882    11.613    47.365   -17.492    38.572   -16.590   160.943 
 5010.000000   -19.210  -149.389    11.517    43.528   -17.427    35.006   -16.174   156.046 
 5040.000000   -19.404  -152.772    11.456    40.988   -17.441    32.735   -16.194   152.799 
 5080.000000   -18.978  -157.795    11.427    37.327   -17.329    29.929   -15.943   149.721 
 5110.000000   -19.004  -164.184    11.351    34.482   -17.313    27.095   -15.632   145.351 
 5150.000000   -19.144  -167.665    11.295    31.249   -17.334    24.383   -15.746   142.058 
 5180.000000   -18.800  -169.210    11.284    28.629   -17.266    22.705   -15.680   140.941 
 5220.000000   -18.236  -178.158    11.225    24.561   -17.115    19.012   -15.082   136.903 
 5250.000000   -18.445   176.430    11.137    21.970   -17.142    16.494   -15.020   133.098 
 5290.000000   -18.376   171.014    11.060    18.328   -17.105    13.311   -14.826   129.066 
 5320.000000   -18.566   167.271    10.985    15.978   -17.167    10.977   -14.884   125.102 
 5360.000000   -18.338   167.299    11.019    12.819   -17.128     8.978   -14.965   124.119 
 5390.000000   -17.704   164.437    11.043     9.779   -16.971     7.021   -14.636   123.786 
 5430.000000   -17.247   155.807    10.930     5.724   -16.866     3.154   -14.132   118.979 
 5460.000000   -17.208   151.094    10.867     3.087   -16.855     0.711   -14.077   115.408 
 5500.000000   -17.060   145.143    10.783    -0.567   -16.831    -2.710   -13.801   111.375 
 5530.000000   -17.174   141.057    10.715    -3.083   -16.839    -5.213   -13.729   107.727 
 5570.000000   -17.244   141.264    10.730    -6.033   -16.883    -7.179   -13.960   105.182 
 5600.000000   -16.642   137.950    10.719    -9.022   -16.754    -9.370   -13.673   104.017 
 5640.000000   -16.256   131.790    10.653   -12.905   -16.664   -12.783   -13.336   100.363 
 5670.000000   -16.059   127.049    10.579   -15.709   -16.631   -15.429   -13.151    97.228 
 5710.000000   -15.988   122.817    10.523   -19.082   -16.626   -18.402   -13.061    93.588 
 5740.000000   -15.834   119.786    10.484   -21.691   -16.604   -20.646   -12.981    91.151 
 5780.000000   -15.713   117.302    10.468   -25.072   -16.581   -23.370   -12.989    88.408 
 5810.000000   -15.223   114.876    10.456   -28.125   -16.470   -25.480   -12.746    86.854 
 5850.000000   -14.941   109.840    10.378   -31.927   -16.406   -28.920   -12.451    82.996 
 5880.000000   -14.661   105.144    10.323   -34.743   -16.331   -31.540   -12.304    80.286 
 5920.000000   -14.840   100.070    10.223   -37.789   -16.423   -34.868   -12.359    75.497 
 5950.000000   -14.489    99.005    10.238   -40.623   -16.356   -36.749   -12.230    74.128 
 5990.000000   -14.233    95.773    10.211   -44.333   -16.272   -39.760   -12.018    71.419 
 6020.000000   -14.015    91.701    10.149   -47.307   -16.184   -42.384   -11.782    68.911 
 6060.000000   -13.897    87.104    10.076   -50.700   -16.183   -45.539   -11.713    64.915 
 6090.000000   -13.826    84.558    10.039   -53.129   -16.200   -47.846   -11.727    62.167 
 6130.000000   -13.446    81.495    10.004   -57.086   -16.084   -50.829   -11.465    59.623 
 6160.000000   -13.321    78.023     9.950   -59.780   -16.051   -53.323   -11.370    57.047 
 6200.000000   -13.113    72.623     9.860   -63.456   -15.997   -56.890   -11.149    52.962 
 6230.000000   -13.099    69.553     9.811   -65.932   -16.020   -59.316   -11.135    49.976 
 6270.000000   -13.127    65.690     9.754   -69.166   -16.045   -62.515   -11.139    46.269 
 6300.000000   -13.099    64.298     9.768   -71.691   -16.049   -64.369   -11.192    44.674 
 6340.000000   -12.764    62.475     9.778   -75.535   -15.953   -67.032   -11.045    42.779 
 6370.000000   -12.408    58.520     9.699   -78.628   -15.838   -69.675   -10.788    40.180 
 6410.000000   -12.389    52.869     9.566   -81.967   -15.850   -73.596   -10.647    35.146 
 6440.000000   -12.546    51.085     9.580   -84.044   -15.915   -75.586   -10.785    32.861 
 6480.000000   -12.235    50.704     9.652   -88.010   -15.839   -77.682   -10.735    31.731 
 6510.000000   -11.910    47.186     9.581   -91.090   -15.712   -80.325   -10.483    28.972 
 6550.000000   -11.623    43.057     9.504   -94.993   -15.624   -83.677   -10.263    25.594 
 6580.000000   -11.489    39.249     9.421   -97.650   -15.593   -86.486   -10.148    22.180 
 6620.000000   -11.541    34.587     9.322  -100.773   -15.637   -90.141   -10.163    17.965 
 6650.000000   -11.676    33.070     9.373  -103.099   -15.694   -91.923   -10.288    16.337 
 6690.000000   -11.311    30.713     9.357  -107.155   -15.573   -94.623   -10.089    13.949 
 6720.000000   -11.044    27.686     9.302  -110.206   -15.482   -97.135    -9.891    11.384 
 6760.000000   -10.930    22.754     9.202  -113.642   -15.460  -100.725    -9.808     7.509 
 6790.000000   -10.926    20.621     9.190  -116.137   -15.465  -102.975    -9.773     5.267 
 6830.000000   -10.764    16.856     9.121  -119.823   -15.394  -106.323    -9.661     1.857 
 6860.000000   -10.851    14.960     9.117  -122.238   -15.415  -108.646    -9.707    -0.651 
 6900.000000   -10.476    10.829     9.025  -126.272   -15.301  -111.892    -9.461    -4.180 
 6930.000000   -10.504     7.333     8.962  -128.555   -15.337  -114.691    -9.496    -7.379 
 6970.000000   -10.404     4.702     8.958  -132.121   -15.317  -117.376    -9.485    -9.788 
 7000.000000   -10.419     1.981     8.949  -134.707   -15.297  -119.926    -9.475   -12.533 
 7040.000000   -10.294    -1.045     8.920  -138.426   -15.260  -122.974    -9.337   -15.352 
 7070.000000   -10.174    -3.605     8.882  -141.138   -15.229  -125.270    -9.269   -17.759 
 7110.000000    -9.973    -7.066     8.847  -144.912   -15.161  -128.422    -9.156   -21.002 
 7140.000000    -9.866    -9.674     8.797  -147.779   -15.114  -130.749    -9.085   -23.509 
 7180.000000    -9.719   -13.471     8.718  -151.404   -15.065  -134.066    -8.956   -27.287 
 7210.000000    -9.665   -16.571     8.651  -154.026   -15.034  -136.698    -8.898   -29.976 
 7250.000000    -9.656   -20.115     8.636  -157.259   -15.050  -140.128    -8.963   -33.742 
 7280.000000    -9.568   -22.792     8.604  -159.921   -15.044  -142.547    -8.931   -36.094 
 7320.000000    -9.413   -25.656     8.571  -163.902   -14.974  -145.391    -8.781   -38.824 
 7350.000000    -9.343   -28.768     8.509  -166.442   -14.946  -148.025    -8.757   -41.744 
 7390.000000    -9.329   -31.528     8.521  -169.993   -14.964  -151.063    -8.770   -44.953 
 7420.000000    -9.168   -34.567     8.440  -172.794   -14.883  -153.561    -8.623   -47.710 
 7460.000000    -9.089   -38.687     8.376  -176.321   -14.850  -156.926    -8.583   -51.240 
 7490.000000    -9.126   -40.818     8.401  -178.991   -14.875  -159.293    -8.604   -53.298 
 7530.000000    -8.938   -44.405     8.334   177.284   -14.833  -162.538    -8.516   -57.058 
 7560.000000    -8.840   -46.361     8.305   174.350   -14.805  -164.838    -8.444   -59.372 
 7600.000000    -8.751   -50.369     8.208   170.760   -14.735  -168.135    -8.309   -62.744 
 7630.000000    -8.797   -53.040     8.228   168.203   -14.765  -170.615    -8.363   -65.026 
 7670.000000    -8.569   -56.776     8.129   164.331   -14.675  -173.758    -8.222   -68.610 
 7700.000000    -8.473   -59.483     8.074   161.672   -14.663  -176.306    -8.175   -71.602 
 7740.000000    -8.440   -63.148     8.056   158.133   -14.653  -179.633    -8.156   -74.969 
 7770.000000    -8.366   -65.968     8.005   155.403   -14.627   177.924    -8.095   -77.177 
 7810.000000    -8.217   -69.077     7.932   151.367   -14.579   175.068    -7.995   -80.205 
 7840.000000    -8.162   -72.478     7.868   148.988   -14.513   172.307    -7.897   -83.681 
 7880.000000    -8.227   -75.959     7.900   145.503   -14.552   168.721    -7.932   -87.301 
 7910.000000    -8.060   -78.383     7.827   142.502   -14.531   166.611    -7.823   -89.361 
 7950.000000    -8.010   -82.226     7.791   139.000   -14.495   163.132    -7.809   -93.096 
 7980.000000    -7.907   -84.919     7.715   136.101   -14.464   160.884    -7.725   -95.639 
 8020.000000    -7.877   -88.520     7.700   132.652   -14.445   157.296    -7.707   -99.392 
 8050.000000    -7.804   -91.062     7.659   129.785   -14.450   154.933    -7.682  -101.664 
 8090.000000    -7.697   -94.624     7.588   126.051   -14.409   151.738    -7.607  -105.031 
 8120.000000    -7.636   -97.632     7.544   123.422   -14.386   149.163    -7.560  -107.853 
 8160.000000    -7.601  -100.647     7.527   119.538   -14.388   145.923    -7.553  -111.249 
 8190.000000    -7.532  -103.425     7.469   116.573   -14.368   143.547    -7.494  -113.788 
 8230.000000    -7.442  -107.265     7.392   112.925   -14.340   140.320    -7.390  -117.182 
 8260.000000    -7.370  -109.824     7.358   110.068   -14.331   137.737    -7.360  -119.740 
 8300.000000    -7.204  -113.221     7.256   106.383   -14.290   134.834    -7.270  -123.359 
 8330.000000    -7.204  -116.518     7.214   103.898   -14.234   132.165    -7.212  -126.457 
 8370.000000    -7.165  -120.583     7.190   100.134   -14.203   128.669    -7.192  -129.814 
 8400.000000    -7.149  -123.015     7.168    97.145   -14.213   126.040    -7.226  -132.154 
 8440.000000    -7.021  -125.941     7.064    93.209   -14.239   122.848    -7.157  -135.560 
 8470.000000    -6.927  -128.722     6.973    90.342   -14.228   120.659    -7.047  -138.020 
 8510.000000    -6.845  -133.187     6.919    86.976   -14.164   117.471    -6.949  -141.865 
 8540.000000    -6.808  -135.697     6.878    84.157   -14.128   114.832    -6.956  -144.456 
 8580.000000    -6.757  -139.218     6.821    80.370   -14.120   111.361    -6.930  -148.228 
 8610.000000    -6.704  -141.867     6.769    77.451   -14.121   108.887    -6.881  -150.796 
 8650.000000    -6.644  -145.763     6.688    73.757   -14.105   105.603    -6.813  -154.258 
 8680.000000    -6.560  -148.206     6.632    70.862   -14.091   103.141    -6.769  -156.925 
 8720.000000    -6.484  -152.027     6.561    67.324   -14.061    99.994    -6.705  -160.657 
 8750.000000    -6.436  -154.741     6.502    64.514   -14.035    97.530    -6.642  -163.190 
 8790.000000    -6.428  -158.692     6.450    60.497   -14.002    93.888    -6.669  -166.864 
 8820.000000    -6.366  -160.915     6.355    57.654   -14.036    91.437    -6.616  -169.256 
 8860.000000    -6.336  -164.462     6.276    53.844   -14.005    88.061    -6.604  -172.768 
 8890.000000    -6.275  -166.866     6.187    50.920   -14.020    85.568    -6.549  -175.020 
 8930.000000    -6.190  -170.278     6.075    47.209   -14.027    82.208    -6.501  -178.232 
 8960.000000    -6.097  -173.135     5.990    44.651   -14.034    79.868    -6.418   178.999 
 9000.000000    -6.012  -176.908     5.912    41.200   -14.040    76.936    -6.307   175.363 
 9030.000000    -5.996  -179.863     5.894    38.327   -13.977    74.522    -6.305   172.498 
 9070.000000    -5.978   176.737     5.783    34.454   -13.971    70.958    -6.295   169.205 
 9100.000000    -5.907   174.113     5.703    31.770   -13.991    68.617    -6.219   166.625 
 9140.000000    -5.843   170.341     5.615    28.168   -13.976    65.555    -6.162   163.053 
 9170.000000    -5.822   167.336     5.571    25.251   -13.932    63.166    -6.138   160.135 
 9210.000000    -5.769   164.013     5.449    21.556   -13.921    59.733    -6.101   156.970 
 9240.000000    -5.759   161.496     5.362    18.651   -13.891    57.126    -6.106   154.533 
 9280.000000    -5.691   157.976     5.265    15.171   -13.909    53.900    -6.025   150.986 
 9310.000000    -5.622   155.334     5.172    12.454   -13.944    51.420    -5.963   148.420 
 9350.000000    -5.597   151.439     5.114     8.682   -13.877    48.657    -5.937   144.720 
 9380.000000    -5.596   148.927     5.018     5.990   -13.862    46.107    -5.925   142.447 
 9420.000000    -5.574   145.613     4.907     2.203   -13.811    42.640    -5.942   138.984 
 9450.000000    -5.530   143.284     4.804    -0.451   -13.814    39.887    -5.916   136.600 
 9490.000000    -5.493   139.752     4.681    -3.913   -13.808    36.471    -5.860   133.643 
 9520.000000    -5.427   137.267     4.604    -6.362   -13.860    33.854    -5.764   131.320 
 9560.000000    -5.345   133.625     4.523    -9.861   -13.910    31.027    -5.692   127.755 
 9590.000000    -5.315   130.820     4.455   -12.532   -13.881    28.830    -5.670   125.045 
 9630.000000    -5.294   127.199     4.386   -16.143   -13.845    25.640    -5.629   121.569 
 9660.000000    -5.278   124.554     4.297   -18.934   -13.824    23.245    -5.634   119.017 
 9700.000000    -5.274   121.261     4.150   -22.548   -13.775    19.834    -5.643   116.081 
 9730.000000    -5.259   118.782     4.068   -25.081   -13.780    17.407    -5.602   113.589 
 9770.000000    -5.205   115.634     3.947   -28.471   -13.793    13.749    -5.517   110.580 
 9800.000000    -5.168   113.128     3.870   -30.977   -13.824    11.304    -5.457   108.445 
 9840.000000    -5.140   109.357     3.804   -34.624   -13.839     8.766    -5.422   104.807 
 9870.000000    -5.163   107.168     3.687   -37.260   -13.753     6.207    -5.465   102.372 
 9910.000000    -5.106   104.205     3.553   -40.574   -13.792     2.505    -5.372    99.427 
 9940.000000    -5.048   101.589     3.494   -42.985   -13.802     0.282    -5.318    97.040 
 9980.000000    -5.017    98.318     3.394   -46.378   -13.788    -3.048    -5.293    93.997 
10010.000000    -4.984    96.076     3.303   -48.868   -13.787    -5.670    -5.275    91.696 

