(export (version D)
  (design
    (source /home/nop/Radioamateur/git/Transverter_23cm/Ligne_TX/pcb/Ligne_TX.sch)
    (date "mar. 01 janv. 2019 15:16:31 CET")
    (tool "Eeschema 5.0.1")
    (sheet (number 1) (name /) (tstamps /)
      (title_block
        (title)
        (company)
        (rev)
        (date)
        (source Ligne_TX.sch)
        (comment (number 1) (value ""))
        (comment (number 2) (value ""))
        (comment (number 3) (value ""))
        (comment (number 4) (value "")))))
  (components
    (comp (ref U1)
      (value ERA-5SM)
      (footprint lib_kicad:WW107)
      (libsource (lib Ligne_TX-rescue) (part ERA-5SM) (description ""))
      (sheetpath (names /) (tstamps /))
      (tstamp 5B0DB987))
    (comp (ref C2)
      (value 10p)
      (footprint Capacitors_SMD:C_0603_HandSoldering)
      (libsource (lib Ligne_TX-rescue) (part C) (description ""))
      (sheetpath (names /) (tstamps /))
      (tstamp 5B0DB98B))
    (comp (ref C4)
      (value 1n)
      (footprint Capacitors_SMD:C_0603_HandSoldering)
      (libsource (lib Ligne_TX-rescue) (part C) (description ""))
      (sheetpath (names /) (tstamps /))
      (tstamp 5B0DB98C))
    (comp (ref C5)
      (value 0.1u)
      (footprint Capacitors_SMD:C_0603_HandSoldering)
      (libsource (lib Ligne_TX-rescue) (part C) (description ""))
      (sheetpath (names /) (tstamps /))
      (tstamp 5B0DB98D))
    (comp (ref L1)
      (value 100nH)
      (footprint Inductors_SMD:L_0603_HandSoldering)
      (libsource (lib Ligne_TX-rescue) (part L) (description ""))
      (sheetpath (names /) (tstamps /))
      (tstamp 5B0DB98E))
    (comp (ref R1)
      (value 50R)
      (footprint Resistors_SMD:R_0603_HandSoldering)
      (libsource (lib Ligne_TX-rescue) (part R) (description ""))
      (sheetpath (names /) (tstamps /))
      (tstamp 5B0DB98F))
    (comp (ref C3)
      (value 10p)
      (footprint Capacitors_SMD:C_0603_HandSoldering)
      (libsource (lib Ligne_TX-rescue) (part C) (description ""))
      (sheetpath (names /) (tstamps /))
      (tstamp 5B0DB991))
    (comp (ref C1)
      (value 10p)
      (footprint Capacitors_SMD:C_0603_HandSoldering)
      (libsource (lib Ligne_TX-rescue) (part C) (description ""))
      (sheetpath (names /) (tstamps /))
      (tstamp 5B0DB992))
    (comp (ref J1)
      (value SMA)
      (footprint lib_kicad:SMA)
      (libsource (lib Ligne_TX-rescue) (part SMA) (description ""))
      (sheetpath (names /) (tstamps /))
      (tstamp 5B0DB993))
    (comp (ref J3)
      (value SMA)
      (footprint lib_kicad:SMA)
      (libsource (lib Ligne_TX-rescue) (part SMA) (description ""))
      (sheetpath (names /) (tstamps /))
      (tstamp 5B0DB994))
    (comp (ref U3)
      (value ERA-5SM)
      (footprint lib_kicad:WW107)
      (libsource (lib Ligne_TX-rescue) (part ERA-5SM) (description ""))
      (sheetpath (names /) (tstamps /))
      (tstamp 5B0DC023))
    (comp (ref C7)
      (value 10p)
      (footprint Capacitors_SMD:C_0603_HandSoldering)
      (libsource (lib Ligne_TX-rescue) (part C) (description ""))
      (sheetpath (names /) (tstamps /))
      (tstamp 5B0DC03B))
    (comp (ref C9)
      (value 1n)
      (footprint Capacitors_SMD:C_0603_HandSoldering)
      (libsource (lib Ligne_TX-rescue) (part C) (description ""))
      (sheetpath (names /) (tstamps /))
      (tstamp 5B0DC041))
    (comp (ref C10)
      (value 0.1u)
      (footprint Capacitors_SMD:C_0603_HandSoldering)
      (libsource (lib Ligne_TX-rescue) (part C) (description ""))
      (sheetpath (names /) (tstamps /))
      (tstamp 5B0DC047))
    (comp (ref L2)
      (value 100nH)
      (footprint Inductors_SMD:L_0603_HandSoldering)
      (libsource (lib Ligne_TX-rescue) (part L) (description ""))
      (sheetpath (names /) (tstamps /))
      (tstamp 5B0DC04D))
    (comp (ref R2)
      (value 50R)
      (footprint Resistors_SMD:R_0603_HandSoldering)
      (libsource (lib Ligne_TX-rescue) (part R) (description ""))
      (sheetpath (names /) (tstamps /))
      (tstamp 5B0DC053))
    (comp (ref J2)
      (value Conn_01x01)
      (footprint SMD_Packages:1Pin)
      (libsource (lib Ligne_TX-rescue) (part Conn_01x01) (description ""))
      (sheetpath (names /) (tstamps /))
      (tstamp 5B0DC059))
    (comp (ref C8)
      (value 10p)
      (footprint Capacitors_SMD:C_0603_HandSoldering)
      (libsource (lib Ligne_TX-rescue) (part C) (description ""))
      (sheetpath (names /) (tstamps /))
      (tstamp 5B0DC06F))
    (comp (ref U2)
      (value L7808)
      (footprint TO_SOT_Packages_SMD:SOT-89-3_Handsoldering)
      (libsource (lib Ligne_TX-rescue) (part L7808) (description ""))
      (sheetpath (names /) (tstamps /))
      (tstamp 5B3FCC52))
    (comp (ref C6)
      (value 0.1u)
      (footprint Capacitors_SMD:C_0603_HandSoldering)
      (libsource (lib Ligne_TX-rescue) (part C) (description ""))
      (sheetpath (names /) (tstamps /))
      (tstamp 5B3FCEA2)))
  (libparts
    (libpart (lib Ligne_TX-rescue) (part C)
      (footprints
        (fp C_*))
      (fields
        (field (name Reference) C)
        (field (name Value) C))
      (pins
        (pin (num 1) (name ~) (type passive))
        (pin (num 2) (name ~) (type passive))))
    (libpart (lib Ligne_TX-rescue) (part Conn_01x01)
      (footprints
        (fp Connector*:*_??x*mm*)
        (fp Connector*:*1x??x*mm*)
        (fp Pin?Header?Straight?1X*)
        (fp Pin?Header?Angled?1X*)
        (fp Socket?Strip?Straight?1X*)
        (fp Socket?Strip?Angled?1X*))
      (fields
        (field (name Reference) J)
        (field (name Value) Conn_01x01))
      (pins
        (pin (num 1) (name Pin_1) (type passive))))
    (libpart (lib Ligne_TX-rescue) (part ERA-5SM)
      (fields
        (field (name Reference) U)
        (field (name Value) ERA-5SM))
      (pins
        (pin (num 1) (name RFin) (type input))
        (pin (num 2) (name GND) (type input))
        (pin (num 3) (name RFout) (type input))
        (pin (num 4) (name GND) (type input))))
    (libpart (lib Ligne_TX-rescue) (part L)
      (footprints
        (fp Choke_*)
        (fp *Coil*)
        (fp Inductor_*)
        (fp L_*))
      (fields
        (field (name Reference) L)
        (field (name Value) L))
      (pins
        (pin (num 1) (name 1) (type passive))
        (pin (num 2) (name 2) (type passive))))
    (libpart (lib Ligne_TX-rescue) (part L7808)
      (footprints
        (fp TO?252*)
        (fp TO?263*)
        (fp TO?220*))
      (fields
        (field (name Reference) U)
        (field (name Value) L7808))
      (pins
        (pin (num 1) (name IN) (type power_in))
        (pin (num 2) (name GND) (type power_in))
        (pin (num 3) (name OUT) (type power_out))))
    (libpart (lib Ligne_TX-rescue) (part R)
      (footprints
        (fp R_*)
        (fp R_*))
      (fields
        (field (name Reference) R)
        (field (name Value) R))
      (pins
        (pin (num 1) (name ~) (type passive))
        (pin (num 2) (name ~) (type passive))))
    (libpart (lib Ligne_TX-rescue) (part SMA)
      (fields
        (field (name Reference) J)
        (field (name Value) SMA)
        (field (name Footprint) SMA))
      (pins
        (pin (num 1) (name RF) (type power_in))
        (pin (num 2) (name GND1) (type power_in))
        (pin (num 3) (name GND2) (type power_in))
        (pin (num 4) (name GND3) (type power_in))
        (pin (num 5) (name GND4) (type power_in)))))
  (libraries
    (library (logical Ligne_TX-rescue)
      (uri /home/nop/Radioamateur/git/Transverter_23cm/Ligne_TX/pcb/Ligne_TX-rescue.lib)))
  (nets
    (net (code 1) (name "Net-(L2-Pad1)")
      (node (ref R2) (pin 2))
      (node (ref L2) (pin 1)))
    (net (code 2) (name "Net-(C8-Pad1)")
      (node (ref J3) (pin 1))
      (node (ref C8) (pin 1)))
    (net (code 3) (name "Net-(C8-Pad2)")
      (node (ref L2) (pin 2))
      (node (ref U3) (pin 3))
      (node (ref C8) (pin 2)))
    (net (code 4) (name "Net-(C3-Pad1)")
      (node (ref U3) (pin 1))
      (node (ref C3) (pin 1)))
    (net (code 5) (name "Net-(C6-Pad1)")
      (node (ref U2) (pin 1))
      (node (ref C6) (pin 1))
      (node (ref J2) (pin 1)))
    (net (code 6) (name GND)
      (node (ref C4) (pin 2))
      (node (ref C2) (pin 2))
      (node (ref U1) (pin 4))
      (node (ref U1) (pin 2))
      (node (ref U3) (pin 4))
      (node (ref J3) (pin 5))
      (node (ref J3) (pin 4))
      (node (ref J3) (pin 3))
      (node (ref J3) (pin 2))
      (node (ref J1) (pin 5))
      (node (ref J1) (pin 3))
      (node (ref J1) (pin 2))
      (node (ref J1) (pin 4))
      (node (ref C5) (pin 2))
      (node (ref U3) (pin 2))
      (node (ref C6) (pin 2))
      (node (ref C10) (pin 2))
      (node (ref C9) (pin 2))
      (node (ref C7) (pin 2))
      (node (ref U2) (pin 2)))
    (net (code 7) (name +8V)
      (node (ref C7) (pin 1))
      (node (ref R2) (pin 1))
      (node (ref U2) (pin 3))
      (node (ref C10) (pin 1))
      (node (ref C9) (pin 1))
      (node (ref C5) (pin 1))
      (node (ref R1) (pin 1))
      (node (ref C2) (pin 1))
      (node (ref C4) (pin 1)))
    (net (code 8) (name "Net-(C3-Pad2)")
      (node (ref U1) (pin 3))
      (node (ref C3) (pin 2))
      (node (ref L1) (pin 2)))
    (net (code 9) (name "Net-(L1-Pad1)")
      (node (ref L1) (pin 1))
      (node (ref R1) (pin 2)))
    (net (code 10) (name "Net-(C1-Pad1)")
      (node (ref U1) (pin 1))
      (node (ref C1) (pin 1)))
    (net (code 11) (name "Net-(C1-Pad2)")
      (node (ref J1) (pin 1))
      (node (ref C1) (pin 2)))))