EESchema Schematic File Version 4
LIBS:Ligne_TX-cache
EELAYER 29 0
EELAYER END
$Descr A4 11693 8268
encoding utf-8
Sheet 1 1
Title ""
Date ""
Rev ""
Comp ""
Comment1 ""
Comment2 ""
Comment3 ""
Comment4 ""
$EndDescr
$Comp
L Ligne_TX-rescue:ERA-5SM U1
U 1 1 5B0DB987
P 3500 4750
F 0 "U1" H 3300 4950 60  0000 C CNN
F 1 "ERA-5SM" H 3250 4550 60  0000 C CNN
F 2 "lib_kicad:WW107" H 3500 4750 60  0001 C CNN
F 3 "" H 3500 4750 60  0001 C CNN
	1    3500 4750
	1    0    0    -1  
$EndComp
$Comp
L power:GND #PWR01
U 1 1 5B0DB988
P 3500 4100
F 0 "#PWR01" H 3500 3850 50  0001 C CNN
F 1 "GND" H 3500 3950 50  0000 C CNN
F 2 "" H 3500 4100 50  0001 C CNN
F 3 "" H 3500 4100 50  0001 C CNN
	1    3500 4100
	-1   0    0    1   
$EndComp
$Comp
L power:GND #PWR02
U 1 1 5B0DB989
P 3500 5350
F 0 "#PWR02" H 3500 5100 50  0001 C CNN
F 1 "GND" H 3500 5200 50  0000 C CNN
F 2 "" H 3500 5350 50  0001 C CNN
F 3 "" H 3500 5350 50  0001 C CNN
	1    3500 5350
	1    0    0    -1  
$EndComp
$Comp
L power:GND #PWR03
U 1 1 5B0DB98A
P 4650 4100
F 0 "#PWR03" H 4650 3850 50  0001 C CNN
F 1 "GND" H 4650 3950 50  0000 C CNN
F 2 "" H 4650 4100 50  0001 C CNN
F 3 "" H 4650 4100 50  0001 C CNN
	1    4650 4100
	1    0    0    -1  
$EndComp
$Comp
L Ligne_TX-rescue:C C2
U 1 1 5B0DB98B
P 4650 3850
F 0 "C2" H 4675 3950 50  0000 L CNN
F 1 "10p" H 4675 3750 50  0000 L CNN
F 2 "Capacitors_SMD:C_0603_HandSoldering" H 4688 3700 50  0001 C CNN
F 3 "" H 4650 3850 50  0001 C CNN
	1    4650 3850
	1    0    0    -1  
$EndComp
$Comp
L Ligne_TX-rescue:C C4
U 1 1 5B0DB98C
P 4900 3850
F 0 "C4" H 4925 3950 50  0000 L CNN
F 1 "1n" H 4925 3750 50  0000 L CNN
F 2 "Capacitors_SMD:C_0603_HandSoldering" H 4938 3700 50  0001 C CNN
F 3 "" H 4900 3850 50  0001 C CNN
	1    4900 3850
	1    0    0    -1  
$EndComp
$Comp
L Ligne_TX-rescue:C C5
U 1 1 5B0DB98D
P 5150 3850
F 0 "C5" H 5175 3950 50  0000 L CNN
F 1 "0.1u" H 5175 3750 50  0000 L CNN
F 2 "Capacitors_SMD:C_0603_HandSoldering" H 5188 3700 50  0001 C CNN
F 3 "" H 5150 3850 50  0001 C CNN
	1    5150 3850
	1    0    0    -1  
$EndComp
$Comp
L Ligne_TX-rescue:L L1
U 1 1 5B0DB98E
P 4300 4600
F 0 "L1" V 4250 4600 50  0000 C CNN
F 1 "200nH" V 4375 4600 50  0000 C CNN
F 2 "Inductors_SMD:L_0603_HandSoldering" H 4300 4600 50  0001 C CNN
F 3 "" H 4300 4600 50  0001 C CNN
	1    4300 4600
	1    0    0    -1  
$EndComp
$Comp
L Ligne_TX-rescue:R R1
U 1 1 5B0DB98F
P 4300 4150
F 0 "R1" V 4380 4150 50  0000 C CNN
F 1 "50R" V 4300 4150 50  0000 C CNN
F 2 "Resistors_SMD:R_0603_HandSoldering" V 4230 4150 50  0001 C CNN
F 3 "" H 4300 4150 50  0001 C CNN
	1    4300 4150
	1    0    0    -1  
$EndComp
Wire Wire Line
	5500 3650 5150 3650
Wire Wire Line
	4300 3650 4300 4000
Wire Wire Line
	4650 3700 4650 3650
Connection ~ 4650 3650
Wire Wire Line
	4900 3700 4900 3650
Connection ~ 4900 3650
Wire Wire Line
	5150 3700 5150 3650
Connection ~ 5150 3650
Wire Wire Line
	4650 4000 4900 4000
Connection ~ 4900 4000
Wire Wire Line
	4650 4000 4650 4100
Wire Wire Line
	4300 4300 4300 4450
Wire Wire Line
	3500 4100 3500 4250
Wire Wire Line
	3500 5350 3500 5250
Wire Wire Line
	4200 4750 4300 4750
Connection ~ 4300 4750
$Comp
L Ligne_TX-rescue:C C3
U 1 1 5B0DB991
P 4700 4750
F 0 "C3" H 4725 4850 50  0000 L CNN
F 1 "10p" H 4725 4650 50  0000 L CNN
F 2 "Capacitors_SMD:C_0603_HandSoldering" H 4738 4600 50  0001 C CNN
F 3 "" H 4700 4750 50  0001 C CNN
	1    4700 4750
	0    1    1    0   
$EndComp
$Comp
L Ligne_TX-rescue:C C1
U 1 1 5B0DB992
P 2500 4750
F 0 "C1" H 2525 4850 50  0000 L CNN
F 1 "10p" H 2525 4650 50  0000 L CNN
F 2 "Capacitors_SMD:C_0603_HandSoldering" H 2538 4600 50  0001 C CNN
F 3 "" H 2500 4750 50  0001 C CNN
	1    2500 4750
	0    1    1    0   
$EndComp
Wire Wire Line
	2850 4750 2650 4750
Wire Wire Line
	2350 4750 2100 4750
$Comp
L Ligne_TX-rescue:SMA J1
U 1 1 5B0DB993
P 1950 5050
F 0 "J1" H 2075 5365 60  0000 C CNN
F 1 "SMA" H 2140 5290 60  0000 C CNN
F 2 "lib_kicad:SMA" H 2125 5220 50  0000 C CNN
F 3 "" H 1950 5050 60  0001 C CNN
	1    1950 5050
	-1   0    0    -1  
$EndComp
$Comp
L Ligne_TX-rescue:SMA J3
U 1 1 5B0DB994
P 7950 5050
F 0 "J3" H 8075 5365 60  0000 C CNN
F 1 "SMA" H 8140 5290 60  0000 C CNN
F 2 "lib_kicad:SMA" H 8125 5220 50  0000 C CNN
F 3 "" H 7950 5050 60  0001 C CNN
	1    7950 5050
	1    0    0    -1  
$EndComp
Wire Wire Line
	7850 4950 7900 4950
Connection ~ 7950 4950
Connection ~ 7900 4950
Wire Wire Line
	7850 4950 7850 5000
$Comp
L power:GND #PWR04
U 1 1 5B0DB995
P 7850 5000
F 0 "#PWR04" H 7850 4750 50  0001 C CNN
F 1 "GND" H 7850 4850 50  0000 C CNN
F 2 "" H 7850 5000 50  0001 C CNN
F 3 "" H 7850 5000 50  0001 C CNN
	1    7850 5000
	1    0    0    -1  
$EndComp
$Comp
L power:GND #PWR05
U 1 1 5B0DB996
P 1900 5050
F 0 "#PWR05" H 1900 4800 50  0001 C CNN
F 1 "GND" H 1900 4900 50  0000 C CNN
F 2 "" H 1900 5050 50  0001 C CNN
F 3 "" H 1900 5050 50  0001 C CNN
	1    1900 5050
	1    0    0    -1  
$EndComp
Wire Wire Line
	1900 4950 1900 5050
Wire Wire Line
	1900 4950 1950 4950
Connection ~ 1950 4950
Connection ~ 2000 4950
$Comp
L Ligne_TX-rescue:ERA-5SM U3
U 1 1 5B0DC023
P 6300 4750
F 0 "U3" H 6100 4950 60  0000 C CNN
F 1 "ERA-5SM" H 6050 4550 60  0000 C CNN
F 2 "lib_kicad:WW107" H 6300 4750 60  0001 C CNN
F 3 "" H 6300 4750 60  0001 C CNN
	1    6300 4750
	1    0    0    -1  
$EndComp
$Comp
L power:GND #PWR06
U 1 1 5B0DC029
P 6300 4100
F 0 "#PWR06" H 6300 3850 50  0001 C CNN
F 1 "GND" H 6300 3950 50  0000 C CNN
F 2 "" H 6300 4100 50  0001 C CNN
F 3 "" H 6300 4100 50  0001 C CNN
	1    6300 4100
	-1   0    0    1   
$EndComp
$Comp
L power:GND #PWR07
U 1 1 5B0DC02F
P 6300 5350
F 0 "#PWR07" H 6300 5100 50  0001 C CNN
F 1 "GND" H 6300 5200 50  0000 C CNN
F 2 "" H 6300 5350 50  0001 C CNN
F 3 "" H 6300 5350 50  0001 C CNN
	1    6300 5350
	1    0    0    -1  
$EndComp
$Comp
L power:GND #PWR08
U 1 1 5B0DC035
P 7450 4100
F 0 "#PWR08" H 7450 3850 50  0001 C CNN
F 1 "GND" H 7450 3950 50  0000 C CNN
F 2 "" H 7450 4100 50  0001 C CNN
F 3 "" H 7450 4100 50  0001 C CNN
	1    7450 4100
	1    0    0    -1  
$EndComp
$Comp
L Ligne_TX-rescue:C C7
U 1 1 5B0DC03B
P 7450 3850
F 0 "C7" H 7475 3950 50  0000 L CNN
F 1 "10p" H 7475 3750 50  0000 L CNN
F 2 "Capacitors_SMD:C_0603_HandSoldering" H 7488 3700 50  0001 C CNN
F 3 "" H 7450 3850 50  0001 C CNN
	1    7450 3850
	1    0    0    -1  
$EndComp
$Comp
L Ligne_TX-rescue:C C9
U 1 1 5B0DC041
P 7700 3850
F 0 "C9" H 7725 3950 50  0000 L CNN
F 1 "1n" H 7725 3750 50  0000 L CNN
F 2 "Capacitors_SMD:C_0603_HandSoldering" H 7738 3700 50  0001 C CNN
F 3 "" H 7700 3850 50  0001 C CNN
	1    7700 3850
	1    0    0    -1  
$EndComp
$Comp
L Ligne_TX-rescue:C C10
U 1 1 5B0DC047
P 7950 3850
F 0 "C10" H 7975 3950 50  0000 L CNN
F 1 "0.1u" H 7975 3750 50  0000 L CNN
F 2 "Capacitors_SMD:C_0603_HandSoldering" H 7988 3700 50  0001 C CNN
F 3 "" H 7950 3850 50  0001 C CNN
	1    7950 3850
	1    0    0    -1  
$EndComp
$Comp
L Ligne_TX-rescue:L L2
U 1 1 5B0DC04D
P 7100 4600
F 0 "L2" V 7050 4600 50  0000 C CNN
F 1 "200nH" V 7175 4600 50  0000 C CNN
F 2 "Inductors_SMD:L_0603_HandSoldering" H 7100 4600 50  0001 C CNN
F 3 "" H 7100 4600 50  0001 C CNN
	1    7100 4600
	1    0    0    -1  
$EndComp
$Comp
L Ligne_TX-rescue:R R2
U 1 1 5B0DC053
P 7100 4150
F 0 "R2" V 7180 4150 50  0000 C CNN
F 1 "50R" V 7100 4150 50  0000 C CNN
F 2 "Resistors_SMD:R_0603_HandSoldering" V 7030 4150 50  0001 C CNN
F 3 "" H 7100 4150 50  0001 C CNN
	1    7100 4150
	1    0    0    -1  
$EndComp
$Comp
L Ligne_TX-rescue:Conn_01x01 J2
U 1 1 5B0DC059
P 4250 1850
F 0 "J2" H 4250 1950 50  0000 C CNN
F 1 "Conn_01x01" H 4250 1750 50  0000 C CNN
F 2 "SMD_Packages:1Pin" H 4250 1850 50  0001 C CNN
F 3 "" H 4250 1850 50  0001 C CNN
	1    4250 1850
	-1   0    0    1   
$EndComp
Wire Wire Line
	8300 3650 7950 3650
Wire Wire Line
	7100 3650 7100 4000
Wire Wire Line
	7450 3700 7450 3650
Connection ~ 7450 3650
Wire Wire Line
	7700 3700 7700 3650
Connection ~ 7700 3650
Wire Wire Line
	7950 3700 7950 3650
Connection ~ 7950 3650
Wire Wire Line
	7450 4000 7700 4000
Connection ~ 7700 4000
Wire Wire Line
	7450 4000 7450 4100
Wire Wire Line
	7100 4300 7100 4450
Wire Wire Line
	6300 4100 6300 4250
Wire Wire Line
	6300 5350 6300 5250
Wire Wire Line
	7000 4750 7100 4750
Connection ~ 7100 4750
$Comp
L Ligne_TX-rescue:C C8
U 1 1 5B0DC06F
P 7500 4750
F 0 "C8" H 7525 4850 50  0000 L CNN
F 1 "10p" H 7525 4650 50  0000 L CNN
F 2 "Capacitors_SMD:C_0603_HandSoldering" H 7538 4600 50  0001 C CNN
F 3 "" H 7500 4750 50  0001 C CNN
	1    7500 4750
	0    1    1    0   
$EndComp
Wire Wire Line
	4850 4750 5650 4750
Wire Wire Line
	7650 4750 7800 4750
$Comp
L Ligne_TX-rescue:L7808 U2
U 1 1 5B3FCC52
P 5100 1850
F 0 "U2" H 4950 1975 50  0000 C CNN
F 1 "L7808" H 5100 1975 50  0000 L CNN
F 2 "TO_SOT_Packages_SMD:SOT-89-3_Handsoldering" H 5125 1700 50  0001 L CIN
F 3 "" H 5100 1800 50  0001 C CNN
	1    5100 1850
	1    0    0    -1  
$EndComp
$Comp
L Ligne_TX-rescue:C C6
U 1 1 5B3FCEA2
P 4650 2000
F 0 "C6" H 4675 2100 50  0000 L CNN
F 1 "0.1u" H 4675 1900 50  0000 L CNN
F 2 "Capacitors_SMD:C_0603_HandSoldering" H 4688 1850 50  0001 C CNN
F 3 "" H 4650 2000 50  0001 C CNN
	1    4650 2000
	1    0    0    -1  
$EndComp
Wire Wire Line
	4450 1850 4650 1850
Connection ~ 4650 1850
$Comp
L power:+8V #PWR09
U 1 1 5B3FD008
P 5750 1750
F 0 "#PWR09" H 5750 1600 50  0001 C CNN
F 1 "+8V" H 5750 1890 50  0000 C CNN
F 2 "" H 5750 1750 50  0001 C CNN
F 3 "" H 5750 1750 50  0001 C CNN
	1    5750 1750
	1    0    0    -1  
$EndComp
$Comp
L power:+8V #PWR010
U 1 1 5B3FD044
P 5500 3650
F 0 "#PWR010" H 5500 3500 50  0001 C CNN
F 1 "+8V" H 5500 3790 50  0000 C CNN
F 2 "" H 5500 3650 50  0001 C CNN
F 3 "" H 5500 3650 50  0001 C CNN
	1    5500 3650
	1    0    0    -1  
$EndComp
$Comp
L power:+8V #PWR011
U 1 1 5B3FD080
P 8300 3650
F 0 "#PWR011" H 8300 3500 50  0001 C CNN
F 1 "+8V" H 8300 3790 50  0000 C CNN
F 2 "" H 8300 3650 50  0001 C CNN
F 3 "" H 8300 3650 50  0001 C CNN
	1    8300 3650
	1    0    0    -1  
$EndComp
Wire Wire Line
	5400 1850 5750 1850
Wire Wire Line
	5750 1850 5750 1750
Wire Wire Line
	5100 2150 5100 2250
Wire Wire Line
	5100 2250 4900 2250
Wire Wire Line
	4650 2250 4650 2150
Wire Wire Line
	4900 2250 4900 2350
Connection ~ 4900 2250
$Comp
L power:GND #PWR012
U 1 1 5B3FD192
P 4900 2350
F 0 "#PWR012" H 4900 2100 50  0001 C CNN
F 1 "GND" H 4900 2200 50  0000 C CNN
F 2 "" H 4900 2350 50  0001 C CNN
F 3 "" H 4900 2350 50  0001 C CNN
	1    4900 2350
	1    0    0    -1  
$EndComp
Wire Wire Line
	4650 3650 4300 3650
Wire Wire Line
	4900 3650 4650 3650
Wire Wire Line
	5150 3650 4900 3650
Wire Wire Line
	4900 4000 5150 4000
Wire Wire Line
	4300 4750 4550 4750
Wire Wire Line
	7950 4950 8000 4950
Wire Wire Line
	7900 4950 7950 4950
Wire Wire Line
	1950 4950 2000 4950
Wire Wire Line
	2000 4950 2050 4950
Wire Wire Line
	7450 3650 7100 3650
Wire Wire Line
	7700 3650 7450 3650
Wire Wire Line
	7950 3650 7700 3650
Wire Wire Line
	7700 4000 7950 4000
Wire Wire Line
	7100 4750 7350 4750
Wire Wire Line
	4650 1850 4800 1850
Wire Wire Line
	4900 2250 4650 2250
Wire Notes Line
	4050 1300 5900 1300
Wire Notes Line
	5900 1300 5900 2650
Wire Notes Line
	5900 2650 4050 2650
Wire Notes Line
	4050 2650 4050 1300
Text Notes 4150 1550 0    118  ~ 0
Alimentation
Connection ~ 1900 4950
Connection ~ 4650 4000
Connection ~ 7450 4000
Connection ~ 7850 4950
Wire Notes Line
	8650 3350 8650 5800
Wire Notes Line
	8650 5800 1550 5800
Wire Notes Line
	1550 5800 1550 3350
Wire Notes Line
	1550 3350 8650 3350
Text Notes 1650 3750 0    118  ~ 0
Amplificateur\nERA-5 + ERA-5
$EndSCHEMATC
