EESchema Schematic File Version 2
LIBS:power
LIBS:device
LIBS:switches
LIBS:relays
LIBS:motors
LIBS:transistors
LIBS:conn
LIBS:linear
LIBS:regul
LIBS:74xx
LIBS:cmos4000
LIBS:adc-dac
LIBS:memory
LIBS:xilinx
LIBS:microcontrollers
LIBS:dsp
LIBS:microchip
LIBS:analog_switches
LIBS:motorola
LIBS:texas
LIBS:intel
LIBS:audio
LIBS:interface
LIBS:digital-audio
LIBS:philips
LIBS:display
LIBS:cypress
LIBS:siliconi
LIBS:opto
LIBS:atmel
LIBS:contrib
LIBS:valves
LIBS:sma
LIBS:spf5189z
EELAYER 25 0
EELAYER END
$Descr A4 11693 8268
encoding utf-8
Sheet 1 1
Title ""
Date ""
Rev ""
Comp ""
Comment1 ""
Comment2 ""
Comment3 ""
Comment4 ""
$EndDescr
$Comp
L L L1
U 1 1 5AC52820
P 8350 3650
F 0 "L1" V 8300 3650 50  0000 C CNN
F 1 "L" V 8425 3650 50  0000 C CNN
F 2 "Inductors_SMD:L_0603_HandSoldering" H 8350 3650 50  0001 C CNN
F 3 "" H 8350 3650 50  0001 C CNN
	1    8350 3650
	1    0    0    -1  
$EndComp
Wire Wire Line
	8350 2600 8350 3500
Wire Wire Line
	7000 2600 8350 2600
$Comp
L C C2
U 1 1 5AC52950
P 7550 2850
F 0 "C2" H 7575 2950 50  0000 L CNN
F 1 "0.1u" H 7575 2750 50  0000 L CNN
F 2 "Capacitors_SMD:C_0603_HandSoldering" H 7588 2700 50  0001 C CNN
F 3 "" H 7550 2850 50  0001 C CNN
	1    7550 2850
	1    0    0    -1  
$EndComp
$Comp
L C C3
U 1 1 5AC5299B
P 7800 2850
F 0 "C3" H 7825 2950 50  0000 L CNN
F 1 "100p" H 7825 2750 50  0000 L CNN
F 2 "Capacitors_SMD:C_0603_HandSoldering" H 7838 2700 50  0001 C CNN
F 3 "" H 7800 2850 50  0001 C CNN
	1    7800 2850
	1    0    0    -1  
$EndComp
$Comp
L C C4
U 1 1 5AC529D9
P 8100 2850
F 0 "C4" H 8125 2950 50  0000 L CNN
F 1 "10p" H 8125 2750 50  0000 L CNN
F 2 "Capacitors_SMD:C_0603_HandSoldering" H 8138 2700 50  0001 C CNN
F 3 "" H 8100 2850 50  0001 C CNN
	1    8100 2850
	1    0    0    -1  
$EndComp
$Comp
L SMA J3
U 1 1 5AC52A8A
P 8950 4100
F 0 "J3" H 9075 4415 60  0000 C CNN
F 1 "SMA" H 9140 4340 60  0000 C CNN
F 2 "lib_kicad:SMA" H 9125 4270 50  0000 C CNN
F 3 "" H 8950 4100 60  0001 C CNN
	1    8950 4100
	1    0    0    -1  
$EndComp
$Comp
L SMA J1
U 1 1 5AC52B3B
P 6000 4100
F 0 "J1" H 6125 4415 60  0000 C CNN
F 1 "SMA" H 6190 4340 60  0000 C CNN
F 2 "lib_kicad:SMA" H 6175 4270 50  0000 C CNN
F 3 "" H 6000 4100 60  0001 C CNN
	1    6000 4100
	-1   0    0    -1  
$EndComp
$Comp
L C C1
U 1 1 5AC52BA6
P 6400 3800
F 0 "C1" H 6425 3900 50  0000 L CNN
F 1 "100p" H 6425 3700 50  0000 L CNN
F 2 "Capacitors_SMD:C_0603_HandSoldering" H 6438 3650 50  0001 C CNN
F 3 "" H 6400 3800 50  0001 C CNN
	1    6400 3800
	0    1    1    0   
$EndComp
$Comp
L C C5
U 1 1 5AC52BFD
P 8600 3800
F 0 "C5" H 8625 3900 50  0000 L CNN
F 1 "100p" H 8625 3700 50  0000 L CNN
F 2 "Capacitors_SMD:C_0603_HandSoldering" H 8638 3650 50  0001 C CNN
F 3 "" H 8600 3800 50  0001 C CNN
	1    8600 3800
	0    1    1    0   
$EndComp
$Comp
L SPF5189Z U1
U 1 1 5AC52D1C
P 7150 3800
F 0 "U1" H 7150 3850 60  0000 C CNN
F 1 "SPF5189Z" H 7250 3750 60  0000 C CNN
F 2 "TO_SOT_Packages_SMD:SOT-89-3_Handsoldering" H 7150 3800 60  0001 C CNN
F 3 "" H 7150 3800 60  0001 C CNN
	1    7150 3800
	1    0    0    -1  
$EndComp
$Comp
L GND #PWR01
U 1 1 5AC52E1D
P 6100 4100
F 0 "#PWR01" H 6100 3850 50  0001 C CNN
F 1 "GND" H 6100 3950 50  0000 C CNN
F 2 "" H 6100 4100 50  0001 C CNN
F 3 "" H 6100 4100 50  0001 C CNN
	1    6100 4100
	1    0    0    -1  
$EndComp
$Comp
L GND #PWR02
U 1 1 5AC52E45
P 8850 4100
F 0 "#PWR02" H 8850 3850 50  0001 C CNN
F 1 "GND" H 8850 3950 50  0000 C CNN
F 2 "" H 8850 4100 50  0001 C CNN
F 3 "" H 8850 4100 50  0001 C CNN
	1    8850 4100
	1    0    0    -1  
$EndComp
$Comp
L GND #PWR03
U 1 1 5AC52E6D
P 7150 4400
F 0 "#PWR03" H 7150 4150 50  0001 C CNN
F 1 "GND" H 7150 4250 50  0000 C CNN
F 2 "" H 7150 4400 50  0001 C CNN
F 3 "" H 7150 4400 50  0001 C CNN
	1    7150 4400
	1    0    0    -1  
$EndComp
$Comp
L GND #PWR04
U 1 1 5AC52E95
P 7150 3200
F 0 "#PWR04" H 7150 2950 50  0001 C CNN
F 1 "GND" H 7150 3050 50  0000 C CNN
F 2 "" H 7150 3200 50  0001 C CNN
F 3 "" H 7150 3200 50  0001 C CNN
	1    7150 3200
	-1   0    0    1   
$EndComp
$Comp
L GND #PWR05
U 1 1 5AC52F37
P 7550 3050
F 0 "#PWR05" H 7550 2800 50  0001 C CNN
F 1 "GND" H 7550 2900 50  0000 C CNN
F 2 "" H 7550 3050 50  0001 C CNN
F 3 "" H 7550 3050 50  0001 C CNN
	1    7550 3050
	1    0    0    -1  
$EndComp
$Comp
L GND #PWR06
U 1 1 5AC52F5F
P 7800 3050
F 0 "#PWR06" H 7800 2800 50  0001 C CNN
F 1 "GND" H 7800 2900 50  0000 C CNN
F 2 "" H 7800 3050 50  0001 C CNN
F 3 "" H 7800 3050 50  0001 C CNN
	1    7800 3050
	1    0    0    -1  
$EndComp
$Comp
L GND #PWR07
U 1 1 5AC52F87
P 8100 3050
F 0 "#PWR07" H 8100 2800 50  0001 C CNN
F 1 "GND" H 8100 2900 50  0000 C CNN
F 2 "" H 8100 3050 50  0001 C CNN
F 3 "" H 8100 3050 50  0001 C CNN
	1    8100 3050
	1    0    0    -1  
$EndComp
Wire Wire Line
	6100 4000 6100 4100
Wire Wire Line
	5950 4000 6100 4000
Connection ~ 6050 4000
Connection ~ 6000 4000
Wire Wire Line
	6150 3800 6250 3800
Wire Wire Line
	6550 3800 6700 3800
Wire Wire Line
	7950 3800 8450 3800
Connection ~ 8350 3800
Wire Wire Line
	8750 3800 8800 3800
Wire Wire Line
	8850 4000 9000 4000
Connection ~ 8950 4000
Wire Wire Line
	8850 4100 8850 4000
Connection ~ 8900 4000
Wire Wire Line
	8100 3050 8100 3000
Wire Wire Line
	7800 3050 7800 3000
Wire Wire Line
	7550 3050 7550 3000
Wire Wire Line
	7550 2600 7550 2700
Wire Wire Line
	7800 2700 7800 2600
Connection ~ 7800 2600
Wire Wire Line
	8100 2700 8100 2600
Connection ~ 8100 2600
Connection ~ 7550 2600
Wire Wire Line
	7150 3300 7150 3200
Wire Wire Line
	7150 4300 7150 4400
$Comp
L Conn_01x01 J2
U 1 1 5AC53599
P 6800 2600
F 0 "J2" H 6800 2700 50  0000 C CNN
F 1 "Conn_01x01" H 6800 2500 50  0000 C CNN
F 2 "SMD_Packages:1Pin" H 6800 2600 50  0001 C CNN
F 3 "" H 6800 2600 50  0001 C CNN
	1    6800 2600
	-1   0    0    1   
$EndComp
$EndSCHEMATC
