EESchema Schematic File Version 4
LIBS:OL-cache
EELAYER 29 0
EELAYER END
$Descr A4 11693 8268
encoding utf-8
Sheet 1 1
Title ""
Date ""
Rev ""
Comp ""
Comment1 ""
Comment2 ""
Comment3 ""
Comment4 ""
$EndDescr
$Comp
L OL-rescue:R-ADF4350-rescue R36
U 1 1 5AD6615D
P 8200 1950
F 0 "R36" V 8280 1950 50  0000 C CNN
F 1 "1k" V 8200 1950 50  0000 C CNN
F 2 "Resistor_SMD:R_0603_1608Metric_Pad1.05x0.95mm_HandSolder" V 8130 1950 50  0001 C CNN
F 3 "" H 8200 1950 50  0001 C CNN
	1    8200 1950
	1    0    0    -1  
$EndComp
$Comp
L OL-rescue:R-ADF4350-rescue R35
U 1 1 5AD661A4
P 8000 1950
F 0 "R35" V 8080 1950 50  0000 C CNN
F 1 "1k" V 8000 1950 50  0000 C CNN
F 2 "Resistor_SMD:R_0603_1608Metric_Pad1.05x0.95mm_HandSolder" V 7930 1950 50  0001 C CNN
F 3 "" H 8000 1950 50  0001 C CNN
	1    8000 1950
	1    0    0    -1  
$EndComp
$Comp
L OL-rescue:R-ADF4350-rescue R34
U 1 1 5AD661CA
P 7800 1950
F 0 "R34" V 7880 1950 50  0000 C CNN
F 1 "1k" V 7800 1950 50  0000 C CNN
F 2 "Resistor_SMD:R_0603_1608Metric_Pad1.05x0.95mm_HandSolder" V 7730 1950 50  0001 C CNN
F 3 "" H 7800 1950 50  0001 C CNN
	1    7800 1950
	1    0    0    -1  
$EndComp
$Comp
L OL-rescue:R-ADF4350-rescue R33
U 1 1 5AD66224
P 7450 1650
F 0 "R33" V 7530 1650 50  0000 C CNN
F 1 "470" V 7450 1650 50  0000 C CNN
F 2 "Resistor_SMD:R_0603_1608Metric_Pad1.05x0.95mm_HandSolder" V 7380 1650 50  0001 C CNN
F 3 "" H 7450 1650 50  0001 C CNN
	1    7450 1650
	0    1    1    0   
$EndComp
$Comp
L OL-rescue:R-ADF4350-rescue R32
U 1 1 5AD6625D
P 7450 1450
F 0 "R32" V 7530 1450 50  0000 C CNN
F 1 "470" V 7450 1450 50  0000 C CNN
F 2 "Resistor_SMD:R_0603_1608Metric_Pad1.05x0.95mm_HandSolder" V 7380 1450 50  0001 C CNN
F 3 "" H 7450 1450 50  0001 C CNN
	1    7450 1450
	0    1    1    0   
$EndComp
$Comp
L OL-rescue:R-ADF4350-rescue R31
U 1 1 5AD662B4
P 7450 1250
F 0 "R31" V 7530 1250 50  0000 C CNN
F 1 "470" V 7450 1250 50  0000 C CNN
F 2 "Resistor_SMD:R_0603_1608Metric_Pad1.05x0.95mm_HandSolder" V 7380 1250 50  0001 C CNN
F 3 "" H 7450 1250 50  0001 C CNN
	1    7450 1250
	0    1    1    0   
$EndComp
$Comp
L power:GND #PWR0101
U 1 1 5AD663C1
P 8000 2400
F 0 "#PWR0101" H 8000 2150 50  0001 C CNN
F 1 "GND" H 8000 2250 50  0000 C CNN
F 2 "" H 8000 2400 50  0001 C CNN
F 3 "" H 8000 2400 50  0001 C CNN
	1    8000 2400
	1    0    0    -1  
$EndComp
$Comp
L sma:SMA J41
U 1 1 5AD664FC
P 6650 5250
F 0 "J41" H 6775 5565 60  0000 C CNN
F 1 "SMA" H 6840 5490 60  0000 C CNN
F 2 "Librairie_Kicad:SMA" H 6825 5420 50  0000 C CNN
F 3 "" H 6650 5250 60  0001 C CNN
	1    6650 5250
	-1   0    0    -1  
$EndComp
$Comp
L OL-rescue:ERA-5SM-era-5sm U41
U 1 1 5AD66540
P 7850 4950
F 0 "U41" H 7650 5150 60  0000 C CNN
F 1 "ERA-5SM" H 7600 4750 60  0000 C CNN
F 2 "Librairie_Kicad:WW107" H 7850 4950 60  0001 C CNN
F 3 "" H 7850 4950 60  0001 C CNN
	1    7850 4950
	1    0    0    -1  
$EndComp
$Comp
L OL-rescue:R-ADF4350-rescue R41
U 1 1 5AD66579
P 9350 5100
F 0 "R41" V 9430 5100 50  0000 C CNN
F 1 "R" V 9350 5100 50  0000 C CNN
F 2 "Resistor_SMD:R_0603_1608Metric_Pad1.05x0.95mm_HandSolder" V 9280 5100 50  0001 C CNN
F 3 "" H 9350 5100 50  0001 C CNN
	1    9350 5100
	1    0    0    -1  
$EndComp
$Comp
L OL-rescue:R-ADF4350-rescue R43
U 1 1 5AD665D8
P 9900 5100
F 0 "R43" V 9980 5100 50  0000 C CNN
F 1 "R" V 9900 5100 50  0000 C CNN
F 2 "Resistor_SMD:R_0603_1608Metric_Pad1.05x0.95mm_HandSolder" V 9830 5100 50  0001 C CNN
F 3 "" H 9900 5100 50  0001 C CNN
	1    9900 5100
	1    0    0    -1  
$EndComp
$Comp
L OL-rescue:R-ADF4350-rescue R42
U 1 1 5AD66613
P 9600 4950
F 0 "R42" V 9680 4950 50  0000 C CNN
F 1 "R" V 9600 4950 50  0000 C CNN
F 2 "Resistor_SMD:R_0603_1608Metric_Pad1.05x0.95mm_HandSolder" V 9530 4950 50  0001 C CNN
F 3 "" H 9600 4950 50  0001 C CNN
	1    9600 4950
	0    1    1    0   
$EndComp
$Comp
L sma:SMA J42
U 1 1 5AD66657
P 10350 5250
F 0 "J42" H 10475 5565 60  0000 C CNN
F 1 "SMA" H 10540 5490 60  0000 C CNN
F 2 "Librairie_Kicad:SMA" H 10525 5420 50  0000 C CNN
F 3 "" H 10350 5250 60  0001 C CNN
	1    10350 5250
	1    0    0    -1  
$EndComp
$Comp
L power:GND #PWR0102
U 1 1 5AD666D5
P 10400 5250
F 0 "#PWR0102" H 10400 5000 50  0001 C CNN
F 1 "GND" H 10400 5100 50  0000 C CNN
F 2 "" H 10400 5250 50  0001 C CNN
F 3 "" H 10400 5250 50  0001 C CNN
	1    10400 5250
	1    0    0    -1  
$EndComp
$Comp
L power:GND #PWR0103
U 1 1 5AD6670E
P 9900 5350
F 0 "#PWR0103" H 9900 5100 50  0001 C CNN
F 1 "GND" H 9900 5200 50  0000 C CNN
F 2 "" H 9900 5350 50  0001 C CNN
F 3 "" H 9900 5350 50  0001 C CNN
	1    9900 5350
	1    0    0    -1  
$EndComp
$Comp
L power:GND #PWR0104
U 1 1 5AD66740
P 9350 5350
F 0 "#PWR0104" H 9350 5100 50  0001 C CNN
F 1 "GND" H 9350 5200 50  0000 C CNN
F 2 "" H 9350 5350 50  0001 C CNN
F 3 "" H 9350 5350 50  0001 C CNN
	1    9350 5350
	1    0    0    -1  
$EndComp
$Comp
L power:GND #PWR0105
U 1 1 5AD66772
P 7850 5550
F 0 "#PWR0105" H 7850 5300 50  0001 C CNN
F 1 "GND" H 7850 5400 50  0000 C CNN
F 2 "" H 7850 5550 50  0001 C CNN
F 3 "" H 7850 5550 50  0001 C CNN
	1    7850 5550
	1    0    0    -1  
$EndComp
$Comp
L power:GND #PWR0106
U 1 1 5AD667A4
P 7850 4350
F 0 "#PWR0106" H 7850 4100 50  0001 C CNN
F 1 "GND" H 7850 4200 50  0000 C CNN
F 2 "" H 7850 4350 50  0001 C CNN
F 3 "" H 7850 4350 50  0001 C CNN
	1    7850 4350
	-1   0    0    1   
$EndComp
$Comp
L power:GND #PWR0107
U 1 1 5AD667D6
P 6750 5250
F 0 "#PWR0107" H 6750 5000 50  0001 C CNN
F 1 "GND" H 6750 5100 50  0000 C CNN
F 2 "" H 6750 5250 50  0001 C CNN
F 3 "" H 6750 5250 50  0001 C CNN
	1    6750 5250
	1    0    0    -1  
$EndComp
$Comp
L OL-rescue:C-ADF4350-rescue C42
U 1 1 5AD6692E
P 9050 4950
F 0 "C42" H 9075 5050 50  0000 L CNN
F 1 "100p" H 9075 4850 50  0000 L CNN
F 2 "Capacitor_SMD:C_0603_1608Metric_Pad1.05x0.95mm_HandSolder" H 9088 4800 50  0001 C CNN
F 3 "" H 9050 4950 50  0001 C CNN
	1    9050 4950
	0    1    1    0   
$EndComp
$Comp
L OL-rescue:Arduino_Nano-arduino_nano U21
U 1 1 5ADFA443
P 4350 5750
F 0 "U21" H 4350 5750 60  0000 C CNN
F 1 "Arduino_Nano" H 4350 5650 60  0000 C CNN
F 2 "Librairie_Kicad:Arduino_nano" H 4350 5750 60  0001 C CNN
F 3 "" H 4350 5750 60  0001 C CNN
	1    4350 5750
	1    0    0    -1  
$EndComp
Text Label 6900 1250 0    60   ~ 0
CLK
Text Label 6900 1450 0    60   ~ 0
DATA
Text Label 6900 1650 0    60   ~ 0
LE
Text Label 3700 6550 2    60   ~ 0
CLK
Text Label 3700 6350 2    60   ~ 0
DATA
Text Label 3700 5550 2    60   ~ 0
LE
$Comp
L power:+5V #PWR0108
U 1 1 5ADFA787
P 4350 4400
F 0 "#PWR0108" H 4350 4250 50  0001 C CNN
F 1 "+5V" H 4350 4540 50  0000 C CNN
F 2 "" H 4350 4400 50  0001 C CNN
F 3 "" H 4350 4400 50  0001 C CNN
	1    4350 4400
	1    0    0    -1  
$EndComp
$Comp
L power:+5V #PWR0109
U 1 1 5ADFAEEB
P 5000 1300
F 0 "#PWR0109" H 5000 1150 50  0001 C CNN
F 1 "+5V" H 5000 1440 50  0000 C CNN
F 2 "" H 5000 1300 50  0001 C CNN
F 3 "" H 5000 1300 50  0001 C CNN
	1    5000 1300
	1    0    0    -1  
$EndComp
$Comp
L power:+12V #PWR0110
U 1 1 5ADFB019
P 1800 1100
F 0 "#PWR0110" H 1800 950 50  0001 C CNN
F 1 "+12V" H 1800 1240 50  0000 C CNN
F 2 "" H 1800 1100 50  0001 C CNN
F 3 "" H 1800 1100 50  0001 C CNN
	1    1800 1100
	1    0    0    -1  
$EndComp
$Comp
L OL-rescue:L7808-ADF4350-rescue U11
U 1 1 5ADFB07D
P 2500 1300
F 0 "U11" H 2350 1425 50  0000 C CNN
F 1 "L7808" H 2500 1425 50  0000 L CNN
F 2 "Package_TO_SOT_SMD:SOT-89-3_Handsoldering" H 2525 1150 50  0001 L CIN
F 3 "" H 2500 1250 50  0001 C CNN
	1    2500 1300
	1    0    0    -1  
$EndComp
$Comp
L OL-rescue:C-ADF4350-rescue C11
U 1 1 5ADFB209
P 1800 1600
F 0 "C11" H 1825 1700 50  0000 L CNN
F 1 "10u" H 1825 1500 50  0000 L CNN
F 2 "Capacitor_SMD:C_0603_1608Metric_Pad1.05x0.95mm_HandSolder" H 1838 1450 50  0001 C CNN
F 3 "" H 1800 1600 50  0001 C CNN
	1    1800 1600
	1    0    0    -1  
$EndComp
$Comp
L OL-rescue:C-ADF4350-rescue C12
U 1 1 5ADFB25B
P 2000 1600
F 0 "C12" H 2025 1700 50  0000 L CNN
F 1 "0.33u" H 2025 1500 50  0000 L CNN
F 2 "Capacitor_SMD:C_0603_1608Metric_Pad1.05x0.95mm_HandSolder" H 2038 1450 50  0001 C CNN
F 3 "" H 2000 1600 50  0001 C CNN
	1    2000 1600
	1    0    0    -1  
$EndComp
$Comp
L OL-rescue:C-ADF4350-rescue C13
U 1 1 5ADFB2A5
P 2950 1550
F 0 "C13" H 2975 1650 50  0000 L CNN
F 1 "10u" H 2975 1450 50  0000 L CNN
F 2 "Capacitor_SMD:C_0603_1608Metric_Pad1.05x0.95mm_HandSolder" H 2988 1400 50  0001 C CNN
F 3 "" H 2950 1550 50  0001 C CNN
	1    2950 1550
	1    0    0    -1  
$EndComp
$Comp
L OL-rescue:C-ADF4350-rescue C14
U 1 1 5ADFB302
P 3250 1550
F 0 "C14" H 3275 1650 50  0000 L CNN
F 1 "0.1u" H 3275 1450 50  0000 L CNN
F 2 "Capacitor_SMD:C_0603_1608Metric_Pad1.05x0.95mm_HandSolder" H 3288 1400 50  0001 C CNN
F 3 "" H 3250 1550 50  0001 C CNN
	1    3250 1550
	1    0    0    -1  
$EndComp
$Comp
L ams1117:AMS1117 U12
U 1 1 5ADFB83C
P 3900 1300
F 0 "U12" H 3700 1050 60  0000 C CNN
F 1 "AMS1117" H 3850 1450 60  0000 C CNN
F 2 "Package_TO_SOT_SMD:SOT-223-3_TabPin2" H 3900 1300 60  0001 C CNN
F 3 "" H 3900 1300 60  0001 C CNN
	1    3900 1300
	1    0    0    -1  
$EndComp
$Comp
L OL-rescue:C-ADF4350-rescue C15
U 1 1 5ADFBB68
P 4500 1550
F 0 "C15" H 4525 1650 50  0000 L CNN
F 1 "22u" H 4525 1450 50  0000 L CNN
F 2 "Capacitor_SMD:C_0603_1608Metric_Pad1.05x0.95mm_HandSolder" H 4538 1400 50  0001 C CNN
F 3 "" H 4500 1550 50  0001 C CNN
	1    4500 1550
	1    0    0    -1  
$EndComp
$Comp
L OL-rescue:C-ADF4350-rescue C16
U 1 1 5ADFBB6E
P 4800 1550
F 0 "C16" H 4825 1650 50  0000 L CNN
F 1 "0.1u" H 4825 1450 50  0000 L CNN
F 2 "Capacitor_SMD:C_0603_1608Metric_Pad1.05x0.95mm_HandSolder" H 4838 1400 50  0001 C CNN
F 3 "" H 4800 1550 50  0001 C CNN
	1    4800 1550
	1    0    0    -1  
$EndComp
$Comp
L OL-rescue:L-ADF4350-rescue L41
U 1 1 5ADFBD6C
P 8700 4750
F 0 "L41" V 8650 4750 50  0000 C CNN
F 1 "100nH" V 8775 4750 50  0000 C CNN
F 2 "Inductor_SMD:L_0603_1608Metric_Pad1.05x0.95mm_HandSolder" H 8700 4750 50  0001 C CNN
F 3 "" H 8700 4750 50  0001 C CNN
	1    8700 4750
	1    0    0    -1  
$EndComp
$Comp
L OL-rescue:R-ADF4350-rescue R44
U 1 1 5ADFBDBB
P 8700 4400
F 0 "R44" V 8780 4400 50  0000 C CNN
F 1 "48R" V 8700 4400 50  0000 C CNN
F 2 "Resistor_SMD:R_0603_1608Metric_Pad1.05x0.95mm_HandSolder" V 8630 4400 50  0001 C CNN
F 3 "" H 8700 4400 50  0001 C CNN
	1    8700 4400
	1    0    0    -1  
$EndComp
$Comp
L power:+8V #PWR0111
U 1 1 5ADFBEBB
P 3100 1200
F 0 "#PWR0111" H 3100 1050 50  0001 C CNN
F 1 "+8V" H 3100 1340 50  0000 C CNN
F 2 "" H 3100 1200 50  0001 C CNN
F 3 "" H 3100 1200 50  0001 C CNN
	1    3100 1200
	1    0    0    -1  
$EndComp
$Comp
L power:+8V #PWR0112
U 1 1 5ADFC047
P 8700 3650
F 0 "#PWR0112" H 8700 3500 50  0001 C CNN
F 1 "+8V" H 8700 3790 50  0000 C CNN
F 2 "" H 8700 3650 50  0001 C CNN
F 3 "" H 8700 3650 50  0001 C CNN
	1    8700 3650
	1    0    0    -1  
$EndComp
$Comp
L OL-rescue:SW_DIP_x05-ADF4350-rescue SW21
U 1 1 5ADFC3FD
P 1200 5850
F 0 "SW21" H 1200 6200 50  0000 C CNN
F 1 "SW_DIP_x05" H 1200 5500 50  0000 C CNN
F 2 "Button_Switch_THT:SW_DIP_SPSTx05_Slide_9.78x14.88mm_W7.62mm_P2.54mm" H 1200 5850 50  0001 C CNN
F 3 "" H 1200 5850 50  0001 C CNN
	1    1200 5850
	1    0    0    -1  
$EndComp
$Comp
L OL-rescue:R-ADF4350-rescue R21
U 1 1 5ADFC992
P 1600 6350
F 0 "R21" V 1680 6350 50  0000 C CNN
F 1 "1k" V 1600 6350 50  0000 C CNN
F 2 "Resistor_SMD:R_0603_1608Metric_Pad1.05x0.95mm_HandSolder" V 1530 6350 50  0001 C CNN
F 3 "" H 1600 6350 50  0001 C CNN
	1    1600 6350
	1    0    0    -1  
$EndComp
$Comp
L OL-rescue:R-ADF4350-rescue R22
U 1 1 5ADFC9FC
P 1700 6350
F 0 "R22" V 1780 6350 50  0000 C CNN
F 1 "1k" V 1700 6350 50  0000 C CNN
F 2 "Resistor_SMD:R_0603_1608Metric_Pad1.05x0.95mm_HandSolder" V 1630 6350 50  0001 C CNN
F 3 "" H 1700 6350 50  0001 C CNN
	1    1700 6350
	1    0    0    -1  
$EndComp
$Comp
L OL-rescue:R-ADF4350-rescue R23
U 1 1 5ADFCA48
P 1800 6350
F 0 "R23" V 1880 6350 50  0000 C CNN
F 1 "1k" V 1800 6350 50  0000 C CNN
F 2 "Resistor_SMD:R_0603_1608Metric_Pad1.05x0.95mm_HandSolder" V 1730 6350 50  0001 C CNN
F 3 "" H 1800 6350 50  0001 C CNN
	1    1800 6350
	1    0    0    -1  
$EndComp
$Comp
L OL-rescue:R-ADF4350-rescue R24
U 1 1 5ADFCAB8
P 1900 6350
F 0 "R24" V 1980 6350 50  0000 C CNN
F 1 "1k" V 1900 6350 50  0000 C CNN
F 2 "Resistor_SMD:R_0603_1608Metric_Pad1.05x0.95mm_HandSolder" V 1830 6350 50  0001 C CNN
F 3 "" H 1900 6350 50  0001 C CNN
	1    1900 6350
	1    0    0    -1  
$EndComp
$Comp
L OL-rescue:R-ADF4350-rescue R25
U 1 1 5ADFCB30
P 2000 6350
F 0 "R25" V 2080 6350 50  0000 C CNN
F 1 "1k" V 2000 6350 50  0000 C CNN
F 2 "Resistor_SMD:R_0603_1608Metric_Pad1.05x0.95mm_HandSolder" V 1930 6350 50  0001 C CNN
F 3 "" H 2000 6350 50  0001 C CNN
	1    2000 6350
	1    0    0    -1  
$EndComp
$Comp
L power:+5V #PWR0113
U 1 1 5ADFD12F
P 900 5350
F 0 "#PWR0113" H 900 5200 50  0001 C CNN
F 1 "+5V" H 900 5490 50  0000 C CNN
F 2 "" H 900 5350 50  0001 C CNN
F 3 "" H 900 5350 50  0001 C CNN
	1    900  5350
	1    0    0    -1  
$EndComp
$Comp
L OL-rescue:Conn_01x03-ADF4350-rescue J21
U 1 1 5ADFD2F6
P 5750 6000
F 0 "J21" H 5750 6200 50  0000 C CNN
F 1 "TMP36" H 5750 5800 50  0000 C CNN
F 2 "Connector_PinHeader_2.54mm:PinHeader_1x03_P2.54mm_Vertical" H 5750 6000 50  0001 C CNN
F 3 "" H 5750 6000 50  0001 C CNN
	1    5750 6000
	1    0    0    -1  
$EndComp
$Comp
L power:+5V #PWR0114
U 1 1 5ADFD6ED
P 5550 5750
F 0 "#PWR0114" H 5550 5600 50  0001 C CNN
F 1 "+5V" H 5550 5890 50  0000 C CNN
F 2 "" H 5550 5750 50  0001 C CNN
F 3 "" H 5550 5750 50  0001 C CNN
	1    5550 5750
	1    0    0    -1  
$EndComp
$Comp
L OL-rescue:Conn_01x02-ADF4350-rescue J11
U 1 1 5AE0E806
P 950 1300
F 0 "J11" H 950 1400 50  0000 C CNN
F 1 "Conn_01x02" H 950 1100 50  0000 C CNN
F 2 "Connector_PinHeader_2.54mm:PinHeader_1x02_P2.54mm_Vertical" H 950 1300 50  0001 C CNN
F 3 "" H 950 1300 50  0001 C CNN
	1    950  1300
	-1   0    0    -1  
$EndComp
$Comp
L OL-rescue:C-ADF4350-rescue C41
U 1 1 5AE0EBA1
P 7000 4950
F 0 "C41" H 7025 5050 50  0000 L CNN
F 1 "100p" H 7025 4850 50  0000 L CNN
F 2 "Capacitor_SMD:C_0603_1608Metric_Pad1.05x0.95mm_HandSolder" H 7038 4800 50  0001 C CNN
F 3 "" H 7000 4950 50  0001 C CNN
	1    7000 4950
	0    1    1    0   
$EndComp
$Comp
L OL-rescue:Conn_02x05_Odd_Even-ADF4350-rescue J31
U 1 1 5AE0FF46
P 9600 1450
F 0 "J31" H 9650 1750 50  0000 C CNN
F 1 "Conn_02x05_Odd_Even" H 9650 1150 50  0000 C CNN
F 2 "Librairie_Kicad:ADF4350_EVAL" H 9600 1450 50  0001 C CNN
F 3 "" H 9600 1450 50  0001 C CNN
	1    9600 1450
	1    0    0    -1  
$EndComp
$Comp
L power:+3.3V #PWR0115
U 1 1 5AE10395
P 9400 2100
F 0 "#PWR0115" H 9400 1950 50  0001 C CNN
F 1 "+3.3V" H 9400 2240 50  0000 C CNN
F 2 "" H 9400 2100 50  0001 C CNN
F 3 "" H 9400 2100 50  0001 C CNN
	1    9400 2100
	-1   0    0    1   
$EndComp
$Comp
L power:GND #PWR0116
U 1 1 5AE11083
P 9900 1900
F 0 "#PWR0116" H 9900 1650 50  0001 C CNN
F 1 "GND" H 9900 1750 50  0000 C CNN
F 2 "" H 9900 1900 50  0001 C CNN
F 3 "" H 9900 1900 50  0001 C CNN
	1    9900 1900
	1    0    0    -1  
$EndComp
$Comp
L OL-rescue:C-ADF4350-rescue C43
U 1 1 5AE14620
P 9050 3700
F 0 "C43" H 9075 3800 50  0000 L CNN
F 1 "1n" H 9075 3600 50  0000 L CNN
F 2 "Capacitor_SMD:C_0603_1608Metric_Pad1.05x0.95mm_HandSolder" H 9088 3550 50  0001 C CNN
F 3 "" H 9050 3700 50  0001 C CNN
	1    9050 3700
	0    1    1    0   
$EndComp
$Comp
L OL-rescue:C-ADF4350-rescue C44
U 1 1 5AE146B5
P 9050 3950
F 0 "C44" H 9075 4050 50  0000 L CNN
F 1 "100p" H 9075 3850 50  0000 L CNN
F 2 "Capacitor_SMD:C_0603_1608Metric_Pad1.05x0.95mm_HandSolder" H 9088 3800 50  0001 C CNN
F 3 "" H 9050 3950 50  0001 C CNN
	1    9050 3950
	0    1    1    0   
$EndComp
$Comp
L OL-rescue:C-ADF4350-rescue C45
U 1 1 5AE14739
P 9050 4200
F 0 "C45" H 9075 4300 50  0000 L CNN
F 1 "10p" H 9075 4100 50  0000 L CNN
F 2 "Capacitor_SMD:C_0603_1608Metric_Pad1.05x0.95mm_HandSolder" H 9088 4050 50  0001 C CNN
F 3 "" H 9050 4200 50  0001 C CNN
	1    9050 4200
	0    1    1    0   
$EndComp
Wire Wire Line
	7300 1250 6900 1250
Wire Wire Line
	7300 1450 6900 1450
Wire Wire Line
	7300 1650 6900 1650
Wire Wire Line
	7600 1250 7800 1250
Wire Wire Line
	7600 1450 8000 1450
Wire Wire Line
	7600 1650 8200 1650
Wire Wire Line
	7800 1800 7800 1250
Connection ~ 7800 1250
Wire Wire Line
	8000 1800 8000 1450
Connection ~ 8000 1450
Wire Wire Line
	8200 1650 8200 1800
Connection ~ 8200 1650
Wire Wire Line
	8200 2400 8200 2100
Wire Wire Line
	8000 2100 8000 2400
Wire Wire Line
	7800 2100 7800 2400
Wire Wire Line
	7800 2400 8000 2400
Connection ~ 8000 2400
Wire Wire Line
	9150 1650 9150 2400
Wire Wire Line
	6600 5150 6650 5150
Connection ~ 6650 5150
Connection ~ 6700 5150
Wire Wire Line
	6750 5150 6750 5250
Wire Wire Line
	8550 4950 8700 4950
Wire Wire Line
	9200 4950 9350 4950
Connection ~ 9350 4950
Wire Wire Line
	9750 4950 9900 4950
Connection ~ 9900 4950
Wire Wire Line
	9900 5250 9900 5350
Wire Wire Line
	9350 5250 9350 5350
Wire Wire Line
	7850 4450 7850 4350
Wire Wire Line
	7850 5450 7850 5550
Wire Wire Line
	10250 5150 10300 5150
Connection ~ 10300 5150
Connection ~ 10350 5150
Wire Wire Line
	10400 5150 10400 5250
Wire Wire Line
	4250 7100 4250 7050
Wire Wire Line
	4450 7100 4450 7050
Wire Wire Line
	4350 4550 4350 4400
Wire Wire Line
	1150 1300 1800 1300
Wire Wire Line
	1800 1100 1800 1300
Wire Wire Line
	2500 1700 2500 1600
Connection ~ 1800 1300
Wire Wire Line
	2000 1300 2000 1450
Connection ~ 2000 1300
Wire Wire Line
	2800 1300 2950 1300
Wire Wire Line
	2950 1400 2950 1300
Connection ~ 2950 1300
Wire Wire Line
	3250 1300 3250 1400
Wire Wire Line
	1800 1750 1800 1850
Wire Wire Line
	2000 1750 2000 1850
Wire Wire Line
	2950 1700 2950 1850
Wire Wire Line
	3250 1700 3250 1850
Wire Wire Line
	3900 1800 3900 1700
Connection ~ 3250 1300
Wire Wire Line
	4350 1300 4500 1300
Wire Wire Line
	4500 1400 4500 1300
Connection ~ 4500 1300
Wire Wire Line
	4800 1300 4800 1400
Wire Wire Line
	4500 1700 4500 1850
Wire Wire Line
	4800 1700 4800 1850
Connection ~ 4800 1300
Wire Wire Line
	3100 1200 3100 1300
Connection ~ 3100 1300
Wire Wire Line
	8700 3650 8700 3700
Wire Wire Line
	8700 4550 8700 4600
Wire Wire Line
	8700 4900 8700 4950
Connection ~ 8700 4950
Wire Wire Line
	1500 5650 1600 5650
Wire Wire Line
	1500 5750 1700 5750
Wire Wire Line
	1500 5850 1800 5850
Wire Wire Line
	1500 5950 1900 5950
Wire Wire Line
	1500 6050 2000 6050
Wire Wire Line
	1600 5650 1600 6200
Connection ~ 1600 5650
Wire Wire Line
	1700 5750 1700 6200
Connection ~ 1700 5750
Wire Wire Line
	1800 5850 1800 6200
Connection ~ 1800 5850
Wire Wire Line
	1900 5950 1900 6200
Connection ~ 1900 5950
Wire Wire Line
	2000 6050 2000 6200
Connection ~ 2000 6050
Wire Wire Line
	2000 6550 2000 6500
Wire Wire Line
	1600 6550 1700 6550
Wire Wire Line
	1600 6550 1600 6500
Wire Wire Line
	1700 6500 1700 6550
Connection ~ 1700 6550
Wire Wire Line
	1800 6500 1800 6550
Connection ~ 1800 6550
Wire Wire Line
	1900 6500 1900 6550
Connection ~ 1900 6550
Wire Wire Line
	900  5350 900  5650
Connection ~ 900  5950
Connection ~ 900  5850
Connection ~ 900  5750
Connection ~ 900  5650
Wire Wire Line
	5550 6000 5150 6000
Wire Wire Line
	5550 5900 5550 5750
Wire Wire Line
	5550 6100 5550 6350
Wire Wire Line
	1150 1400 1350 1400
Wire Wire Line
	7200 4950 7150 4950
Wire Wire Line
	6850 4950 6800 4950
Wire Wire Line
	9400 1650 9400 2100
Wire Wire Line
	9150 1250 9150 1050
Wire Wire Line
	9150 1050 10050 1050
Wire Wire Line
	10050 1050 10050 1350
Wire Wire Line
	10050 1350 9900 1350
Wire Wire Line
	9900 1450 10200 1450
Wire Wire Line
	10200 1450 10200 2400
Wire Wire Line
	10200 2400 9150 2400
Wire Wire Line
	9900 1900 9900 1650
Wire Wire Line
	8900 4200 8700 4200
Connection ~ 8700 4200
Wire Wire Line
	8900 3950 8700 3950
Connection ~ 8700 3950
Wire Wire Line
	8900 3700 8700 3700
Connection ~ 8700 3700
Wire Wire Line
	9200 3700 9200 3950
Connection ~ 9200 3950
Connection ~ 9200 4200
$Comp
L power:GND #PWR0117
U 1 1 5AE151E7
P 9200 4400
F 0 "#PWR0117" H 9200 4150 50  0001 C CNN
F 1 "GND" H 9200 4250 50  0000 C CNN
F 2 "" H 9200 4400 50  0001 C CNN
F 3 "" H 9200 4400 50  0001 C CNN
	1    9200 4400
	1    0    0    -1  
$EndComp
$Comp
L ams1117:AMS1117 U13
U 1 1 5AE88D63
P 3850 2600
F 0 "U13" H 3650 2350 60  0000 C CNN
F 1 "AMS1117-3.3" H 3800 2750 60  0000 C CNN
F 2 "Package_TO_SOT_SMD:SOT-223-3_TabPin2" H 3850 2600 60  0001 C CNN
F 3 "" H 3850 2600 60  0001 C CNN
	1    3850 2600
	1    0    0    -1  
$EndComp
$Comp
L OL-rescue:C-ADF4350-rescue C17
U 1 1 5AE88D69
P 4450 2850
F 0 "C17" H 4475 2950 50  0000 L CNN
F 1 "22u" H 4475 2750 50  0000 L CNN
F 2 "Capacitor_SMD:C_0603_1608Metric_Pad1.05x0.95mm_HandSolder" H 4488 2700 50  0001 C CNN
F 3 "" H 4450 2850 50  0001 C CNN
	1    4450 2850
	1    0    0    -1  
$EndComp
$Comp
L OL-rescue:C-ADF4350-rescue C18
U 1 1 5AE88D6F
P 4750 2850
F 0 "C18" H 4775 2950 50  0000 L CNN
F 1 "0.1u" H 4775 2750 50  0000 L CNN
F 2 "Capacitor_SMD:C_0603_1608Metric_Pad1.05x0.95mm_HandSolder" H 4788 2700 50  0001 C CNN
F 3 "" H 4750 2850 50  0001 C CNN
	1    4750 2850
	1    0    0    -1  
$EndComp
Wire Wire Line
	3850 3100 3850 3000
Wire Wire Line
	4300 2600 4450 2600
Wire Wire Line
	4450 2700 4450 2600
Connection ~ 4450 2600
Wire Wire Line
	4750 2600 4750 2700
Wire Wire Line
	4450 3000 4450 3150
Wire Wire Line
	4750 3000 4750 3150
Connection ~ 4750 2600
$Comp
L power:+5V #PWR0118
U 1 1 5AE89039
P 3400 2600
F 0 "#PWR0118" H 3400 2450 50  0001 C CNN
F 1 "+5V" H 3400 2740 50  0000 C CNN
F 2 "" H 3400 2600 50  0001 C CNN
F 3 "" H 3400 2600 50  0001 C CNN
	1    3400 2600
	1    0    0    -1  
$EndComp
$Comp
L power:+3.3V #PWR0119
U 1 1 5AE890BF
P 4950 2600
F 0 "#PWR0119" H 4950 2450 50  0001 C CNN
F 1 "+3.3V" H 4950 2740 50  0000 C CNN
F 2 "" H 4950 2600 50  0001 C CNN
F 3 "" H 4950 2600 50  0001 C CNN
	1    4950 2600
	1    0    0    -1  
$EndComp
$Comp
L power:GND #PWR0120
U 1 1 5AE8CCE6
P 5550 6350
F 0 "#PWR0120" H 5550 6100 50  0001 C CNN
F 1 "GND" H 5550 6200 50  0000 C CNN
F 2 "" H 5550 6350 50  0001 C CNN
F 3 "" H 5550 6350 50  0001 C CNN
	1    5550 6350
	1    0    0    -1  
$EndComp
$Comp
L power:GND #PWR0121
U 1 1 5AE8CD69
P 4450 7100
F 0 "#PWR0121" H 4450 6850 50  0001 C CNN
F 1 "GND" H 4450 6950 50  0000 C CNN
F 2 "" H 4450 7100 50  0001 C CNN
F 3 "" H 4450 7100 50  0001 C CNN
	1    4450 7100
	1    0    0    -1  
$EndComp
$Comp
L power:GND #PWR0122
U 1 1 5AE8CDEC
P 4250 7100
F 0 "#PWR0122" H 4250 6850 50  0001 C CNN
F 1 "GND" H 4250 6950 50  0000 C CNN
F 2 "" H 4250 7100 50  0001 C CNN
F 3 "" H 4250 7100 50  0001 C CNN
	1    4250 7100
	1    0    0    -1  
$EndComp
$Comp
L power:GND #PWR0123
U 1 1 5AE8CFB0
P 1800 6650
F 0 "#PWR0123" H 1800 6400 50  0001 C CNN
F 1 "GND" H 1800 6500 50  0000 C CNN
F 2 "" H 1800 6650 50  0001 C CNN
F 3 "" H 1800 6650 50  0001 C CNN
	1    1800 6650
	1    0    0    -1  
$EndComp
$Comp
L power:GND #PWR0124
U 1 1 5AE8D033
P 3850 3100
F 0 "#PWR0124" H 3850 2850 50  0001 C CNN
F 1 "GND" H 3850 2950 50  0000 C CNN
F 2 "" H 3850 3100 50  0001 C CNN
F 3 "" H 3850 3100 50  0001 C CNN
	1    3850 3100
	1    0    0    -1  
$EndComp
$Comp
L power:GND #PWR0125
U 1 1 5AE8D2F3
P 4450 3150
F 0 "#PWR0125" H 4450 2900 50  0001 C CNN
F 1 "GND" H 4450 3000 50  0000 C CNN
F 2 "" H 4450 3150 50  0001 C CNN
F 3 "" H 4450 3150 50  0001 C CNN
	1    4450 3150
	1    0    0    -1  
$EndComp
$Comp
L power:GND #PWR0126
U 1 1 5AE8D376
P 4750 3150
F 0 "#PWR0126" H 4750 2900 50  0001 C CNN
F 1 "GND" H 4750 3000 50  0000 C CNN
F 2 "" H 4750 3150 50  0001 C CNN
F 3 "" H 4750 3150 50  0001 C CNN
	1    4750 3150
	1    0    0    -1  
$EndComp
$Comp
L power:GND #PWR0127
U 1 1 5AE8D3F9
P 4800 1850
F 0 "#PWR0127" H 4800 1600 50  0001 C CNN
F 1 "GND" H 4800 1700 50  0000 C CNN
F 2 "" H 4800 1850 50  0001 C CNN
F 3 "" H 4800 1850 50  0001 C CNN
	1    4800 1850
	1    0    0    -1  
$EndComp
$Comp
L power:GND #PWR0128
U 1 1 5AE8D70A
P 4500 1850
F 0 "#PWR0128" H 4500 1600 50  0001 C CNN
F 1 "GND" H 4500 1700 50  0000 C CNN
F 2 "" H 4500 1850 50  0001 C CNN
F 3 "" H 4500 1850 50  0001 C CNN
	1    4500 1850
	1    0    0    -1  
$EndComp
$Comp
L power:GND #PWR0129
U 1 1 5AE8D78D
P 3900 1800
F 0 "#PWR0129" H 3900 1550 50  0001 C CNN
F 1 "GND" H 3900 1650 50  0000 C CNN
F 2 "" H 3900 1800 50  0001 C CNN
F 3 "" H 3900 1800 50  0001 C CNN
	1    3900 1800
	1    0    0    -1  
$EndComp
$Comp
L power:GND #PWR0130
U 1 1 5AE8D810
P 3250 1850
F 0 "#PWR0130" H 3250 1600 50  0001 C CNN
F 1 "GND" H 3250 1700 50  0000 C CNN
F 2 "" H 3250 1850 50  0001 C CNN
F 3 "" H 3250 1850 50  0001 C CNN
	1    3250 1850
	1    0    0    -1  
$EndComp
$Comp
L power:GND #PWR0131
U 1 1 5AE8DBDF
P 2950 1850
F 0 "#PWR0131" H 2950 1600 50  0001 C CNN
F 1 "GND" H 2950 1700 50  0000 C CNN
F 2 "" H 2950 1850 50  0001 C CNN
F 3 "" H 2950 1850 50  0001 C CNN
	1    2950 1850
	1    0    0    -1  
$EndComp
$Comp
L power:GND #PWR0132
U 1 1 5AE8DC62
P 2500 1700
F 0 "#PWR0132" H 2500 1450 50  0001 C CNN
F 1 "GND" H 2500 1550 50  0000 C CNN
F 2 "" H 2500 1700 50  0001 C CNN
F 3 "" H 2500 1700 50  0001 C CNN
	1    2500 1700
	1    0    0    -1  
$EndComp
$Comp
L power:GND #PWR0133
U 1 1 5AE8DCE5
P 2000 1850
F 0 "#PWR0133" H 2000 1600 50  0001 C CNN
F 1 "GND" H 2000 1700 50  0000 C CNN
F 2 "" H 2000 1850 50  0001 C CNN
F 3 "" H 2000 1850 50  0001 C CNN
	1    2000 1850
	1    0    0    -1  
$EndComp
$Comp
L power:GND #PWR0134
U 1 1 5AE8DD68
P 1800 1850
F 0 "#PWR0134" H 1800 1600 50  0001 C CNN
F 1 "GND" H 1800 1700 50  0000 C CNN
F 2 "" H 1800 1850 50  0001 C CNN
F 3 "" H 1800 1850 50  0001 C CNN
	1    1800 1850
	1    0    0    -1  
$EndComp
$Comp
L power:GND #PWR0135
U 1 1 5AE8E041
P 1350 1400
F 0 "#PWR0135" H 1350 1150 50  0001 C CNN
F 1 "GND" H 1350 1250 50  0000 C CNN
F 2 "" H 1350 1400 50  0001 C CNN
F 3 "" H 1350 1400 50  0001 C CNN
	1    1350 1400
	1    0    0    -1  
$EndComp
Wire Wire Line
	7800 1250 9150 1250
Wire Wire Line
	8000 1450 9400 1450
Wire Wire Line
	8200 1650 9150 1650
Wire Wire Line
	8000 2400 8200 2400
Wire Wire Line
	6650 5150 6700 5150
Wire Wire Line
	6700 5150 6750 5150
Wire Wire Line
	9350 4950 9450 4950
Wire Wire Line
	9900 4950 10200 4950
Wire Wire Line
	10300 5150 10350 5150
Wire Wire Line
	10350 5150 10400 5150
Wire Wire Line
	1800 1300 2000 1300
Wire Wire Line
	1800 1300 1800 1450
Wire Wire Line
	2000 1300 2200 1300
Wire Wire Line
	2950 1300 3100 1300
Wire Wire Line
	3250 1300 3450 1300
Wire Wire Line
	4500 1300 4800 1300
Wire Wire Line
	4800 1300 5000 1300
Wire Wire Line
	3100 1300 3250 1300
Wire Wire Line
	8700 4950 8900 4950
Wire Wire Line
	1600 5650 3700 5650
Wire Wire Line
	1700 5750 3700 5750
Wire Wire Line
	1800 5850 3700 5850
Wire Wire Line
	1900 5950 3700 5950
Wire Wire Line
	2000 6050 3700 6050
Wire Wire Line
	1700 6550 1800 6550
Wire Wire Line
	1800 6550 1800 6650
Wire Wire Line
	1800 6550 1900 6550
Wire Wire Line
	1900 6550 2000 6550
Wire Wire Line
	900  5950 900  6050
Wire Wire Line
	900  5850 900  5950
Wire Wire Line
	900  5750 900  5850
Wire Wire Line
	900  5650 900  5750
Wire Wire Line
	8700 4200 8700 4250
Wire Wire Line
	8700 3950 8700 4200
Wire Wire Line
	8700 3700 8700 3950
Wire Wire Line
	9200 3950 9200 4200
Wire Wire Line
	9200 4200 9200 4400
Wire Wire Line
	4450 2600 4750 2600
Wire Wire Line
	4750 2600 4950 2600
Connection ~ 6750 5150
Connection ~ 10400 5150
Wire Notes Line
	750  750  750  3600
Wire Notes Line
	750  3600 5300 3600
Wire Notes Line
	5300 3600 5300 750 
Wire Notes Line
	5300 750  750  750 
Wire Notes Line
	6750 750  10350 750 
Wire Notes Line
	10350 750  10350 2900
Wire Notes Line
	10350 2900 6750 2900
Wire Notes Line
	6750 2900 6750 750 
Wire Notes Line
	6100 3300 11050 3300
Wire Notes Line
	11050 3300 11050 5950
Wire Notes Line
	11050 5950 6100 5950
Wire Notes Line
	6100 5950 6100 3300
Wire Notes Line
	5850 7500 750  7500
Wire Notes Line
	750  7500 750  4100
Wire Notes Line
	750  4100 5850 4100
Wire Notes Line
	5850 4100 5850 7500
Text Notes 900  4300 0    118  ~ 0
Arduino nano
Text Notes 850  3500 0    118  ~ 0
Alimentation
Text Notes 6200 3550 0    118  ~ 0
Amplificateur - ERA-5
Text Notes 6900 2800 0    118  ~ 0
Connexion - ADF4350
$EndSCHEMATC
