EESchema Schematic File Version 2
LIBS:power
LIBS:device
LIBS:switches
LIBS:relays
LIBS:motors
LIBS:transistors
LIBS:conn
LIBS:linear
LIBS:regul
LIBS:74xx
LIBS:cmos4000
LIBS:adc-dac
LIBS:memory
LIBS:xilinx
LIBS:microcontrollers
LIBS:dsp
LIBS:microchip
LIBS:analog_switches
LIBS:motorola
LIBS:texas
LIBS:intel
LIBS:audio
LIBS:interface
LIBS:digital-audio
LIBS:philips
LIBS:display
LIBS:cypress
LIBS:siliconi
LIBS:opto
LIBS:atmel
LIBS:contrib
LIBS:valves
LIBS:Ligne_TX-cache
EELAYER 25 0
EELAYER END
$Descr A4 11693 8268
encoding utf-8
Sheet 1 1
Title ""
Date ""
Rev ""
Comp ""
Comment1 ""
Comment2 ""
Comment3 ""
Comment4 ""
$EndDescr
$Comp
L ERA-5SM U1
U 1 1 5B0DB987
P 3000 4250
F 0 "U1" H 2800 4450 60  0000 C CNN
F 1 "ERA-5SM" H 2750 4050 60  0000 C CNN
F 2 "lib_kicad:WW107" H 3000 4250 60  0001 C CNN
F 3 "" H 3000 4250 60  0001 C CNN
	1    3000 4250
	1    0    0    -1  
$EndComp
$Comp
L GND #PWR01
U 1 1 5B0DB988
P 3000 3600
F 0 "#PWR01" H 3000 3350 50  0001 C CNN
F 1 "GND" H 3000 3450 50  0000 C CNN
F 2 "" H 3000 3600 50  0001 C CNN
F 3 "" H 3000 3600 50  0001 C CNN
	1    3000 3600
	-1   0    0    1   
$EndComp
$Comp
L GND #PWR02
U 1 1 5B0DB989
P 3000 4850
F 0 "#PWR02" H 3000 4600 50  0001 C CNN
F 1 "GND" H 3000 4700 50  0000 C CNN
F 2 "" H 3000 4850 50  0001 C CNN
F 3 "" H 3000 4850 50  0001 C CNN
	1    3000 4850
	1    0    0    -1  
$EndComp
$Comp
L GND #PWR03
U 1 1 5B0DB98A
P 4150 3600
F 0 "#PWR03" H 4150 3350 50  0001 C CNN
F 1 "GND" H 4150 3450 50  0000 C CNN
F 2 "" H 4150 3600 50  0001 C CNN
F 3 "" H 4150 3600 50  0001 C CNN
	1    4150 3600
	1    0    0    -1  
$EndComp
$Comp
L C C2
U 1 1 5B0DB98B
P 4150 3350
F 0 "C2" H 4175 3450 50  0000 L CNN
F 1 "10p" H 4175 3250 50  0000 L CNN
F 2 "Capacitors_SMD:C_0603_HandSoldering" H 4188 3200 50  0001 C CNN
F 3 "" H 4150 3350 50  0001 C CNN
	1    4150 3350
	1    0    0    -1  
$EndComp
$Comp
L C C4
U 1 1 5B0DB98C
P 4400 3350
F 0 "C4" H 4425 3450 50  0000 L CNN
F 1 "1n" H 4425 3250 50  0000 L CNN
F 2 "Capacitors_SMD:C_0603_HandSoldering" H 4438 3200 50  0001 C CNN
F 3 "" H 4400 3350 50  0001 C CNN
	1    4400 3350
	1    0    0    -1  
$EndComp
$Comp
L C C5
U 1 1 5B0DB98D
P 4650 3350
F 0 "C5" H 4675 3450 50  0000 L CNN
F 1 "0.1u" H 4675 3250 50  0000 L CNN
F 2 "Capacitors_SMD:C_0603_HandSoldering" H 4688 3200 50  0001 C CNN
F 3 "" H 4650 3350 50  0001 C CNN
	1    4650 3350
	1    0    0    -1  
$EndComp
$Comp
L L L1
U 1 1 5B0DB98E
P 3800 4100
F 0 "L1" V 3750 4100 50  0000 C CNN
F 1 "230uH" V 3875 4100 50  0000 C CNN
F 2 "Inductors_SMD:L_0603_HandSoldering" H 3800 4100 50  0001 C CNN
F 3 "" H 3800 4100 50  0001 C CNN
	1    3800 4100
	1    0    0    -1  
$EndComp
$Comp
L R R1
U 1 1 5B0DB98F
P 3800 3650
F 0 "R1" V 3880 3650 50  0000 C CNN
F 1 "230nH" V 3800 3650 50  0000 C CNN
F 2 "Resistors_SMD:R_0603_HandSoldering" V 3730 3650 50  0001 C CNN
F 3 "" H 3800 3650 50  0001 C CNN
	1    3800 3650
	1    0    0    -1  
$EndComp
Wire Wire Line
	5000 3150 3800 3150
Wire Wire Line
	3800 3150 3800 3500
Wire Wire Line
	4150 3200 4150 3150
Connection ~ 4150 3150
Wire Wire Line
	4400 3200 4400 3150
Connection ~ 4400 3150
Wire Wire Line
	4650 3200 4650 3150
Connection ~ 4650 3150
Wire Wire Line
	4150 3500 4650 3500
Connection ~ 4400 3500
Wire Wire Line
	4150 3500 4150 3600
Wire Wire Line
	3800 3800 3800 3950
Wire Wire Line
	3000 3600 3000 3750
Wire Wire Line
	3000 4850 3000 4750
Wire Wire Line
	3700 4250 4050 4250
Connection ~ 3800 4250
$Comp
L C C3
U 1 1 5B0DB991
P 4200 4250
F 0 "C3" H 4225 4350 50  0000 L CNN
F 1 "10p" H 4225 4150 50  0000 L CNN
F 2 "Capacitors_SMD:C_0603_HandSoldering" H 4238 4100 50  0001 C CNN
F 3 "" H 4200 4250 50  0001 C CNN
	1    4200 4250
	0    1    1    0   
$EndComp
$Comp
L C C1
U 1 1 5B0DB992
P 2000 4250
F 0 "C1" H 2025 4350 50  0000 L CNN
F 1 "10p" H 2025 4150 50  0000 L CNN
F 2 "Capacitors_SMD:C_0603_HandSoldering" H 2038 4100 50  0001 C CNN
F 3 "" H 2000 4250 50  0001 C CNN
	1    2000 4250
	0    1    1    0   
$EndComp
Wire Wire Line
	2350 4250 2150 4250
Wire Wire Line
	1850 4250 1600 4250
$Comp
L SMA J1
U 1 1 5B0DB993
P 1450 4550
F 0 "J1" H 1575 4865 60  0000 C CNN
F 1 "SMA" H 1640 4790 60  0000 C CNN
F 2 "lib_kicad:SMA" H 1625 4720 50  0000 C CNN
F 3 "" H 1450 4550 60  0001 C CNN
	1    1450 4550
	-1   0    0    -1  
$EndComp
$Comp
L SMA J3
U 1 1 5B0DB994
P 7450 4550
F 0 "J3" H 7575 4865 60  0000 C CNN
F 1 "SMA" H 7640 4790 60  0000 C CNN
F 2 "lib_kicad:SMA" H 7625 4720 50  0000 C CNN
F 3 "" H 7450 4550 60  0001 C CNN
	1    7450 4550
	1    0    0    -1  
$EndComp
Wire Wire Line
	7350 4450 7500 4450
Connection ~ 7450 4450
Connection ~ 7400 4450
Wire Wire Line
	7350 4450 7350 4500
$Comp
L GND #PWR04
U 1 1 5B0DB995
P 7350 4500
F 0 "#PWR04" H 7350 4250 50  0001 C CNN
F 1 "GND" H 7350 4350 50  0000 C CNN
F 2 "" H 7350 4500 50  0001 C CNN
F 3 "" H 7350 4500 50  0001 C CNN
	1    7350 4500
	1    0    0    -1  
$EndComp
$Comp
L GND #PWR05
U 1 1 5B0DB996
P 1400 4550
F 0 "#PWR05" H 1400 4300 50  0001 C CNN
F 1 "GND" H 1400 4400 50  0000 C CNN
F 2 "" H 1400 4550 50  0001 C CNN
F 3 "" H 1400 4550 50  0001 C CNN
	1    1400 4550
	1    0    0    -1  
$EndComp
Wire Wire Line
	1400 4450 1400 4550
Wire Wire Line
	1400 4450 1550 4450
Connection ~ 1450 4450
Connection ~ 1500 4450
$Comp
L ERA-5SM U3
U 1 1 5B0DC023
P 5800 4250
F 0 "U3" H 5600 4450 60  0000 C CNN
F 1 "ERA-5SM" H 5550 4050 60  0000 C CNN
F 2 "lib_kicad:WW107" H 5800 4250 60  0001 C CNN
F 3 "" H 5800 4250 60  0001 C CNN
	1    5800 4250
	1    0    0    -1  
$EndComp
$Comp
L GND #PWR06
U 1 1 5B0DC029
P 5800 3600
F 0 "#PWR06" H 5800 3350 50  0001 C CNN
F 1 "GND" H 5800 3450 50  0000 C CNN
F 2 "" H 5800 3600 50  0001 C CNN
F 3 "" H 5800 3600 50  0001 C CNN
	1    5800 3600
	-1   0    0    1   
$EndComp
$Comp
L GND #PWR07
U 1 1 5B0DC02F
P 5800 4850
F 0 "#PWR07" H 5800 4600 50  0001 C CNN
F 1 "GND" H 5800 4700 50  0000 C CNN
F 2 "" H 5800 4850 50  0001 C CNN
F 3 "" H 5800 4850 50  0001 C CNN
	1    5800 4850
	1    0    0    -1  
$EndComp
$Comp
L GND #PWR08
U 1 1 5B0DC035
P 6950 3600
F 0 "#PWR08" H 6950 3350 50  0001 C CNN
F 1 "GND" H 6950 3450 50  0000 C CNN
F 2 "" H 6950 3600 50  0001 C CNN
F 3 "" H 6950 3600 50  0001 C CNN
	1    6950 3600
	1    0    0    -1  
$EndComp
$Comp
L C C7
U 1 1 5B0DC03B
P 6950 3350
F 0 "C7" H 6975 3450 50  0000 L CNN
F 1 "10p" H 6975 3250 50  0000 L CNN
F 2 "Capacitors_SMD:C_0603_HandSoldering" H 6988 3200 50  0001 C CNN
F 3 "" H 6950 3350 50  0001 C CNN
	1    6950 3350
	1    0    0    -1  
$EndComp
$Comp
L C C9
U 1 1 5B0DC041
P 7200 3350
F 0 "C9" H 7225 3450 50  0000 L CNN
F 1 "1n" H 7225 3250 50  0000 L CNN
F 2 "Capacitors_SMD:C_0603_HandSoldering" H 7238 3200 50  0001 C CNN
F 3 "" H 7200 3350 50  0001 C CNN
	1    7200 3350
	1    0    0    -1  
$EndComp
$Comp
L C C10
U 1 1 5B0DC047
P 7450 3350
F 0 "C10" H 7475 3450 50  0000 L CNN
F 1 "0.1u" H 7475 3250 50  0000 L CNN
F 2 "Capacitors_SMD:C_0603_HandSoldering" H 7488 3200 50  0001 C CNN
F 3 "" H 7450 3350 50  0001 C CNN
	1    7450 3350
	1    0    0    -1  
$EndComp
$Comp
L L L2
U 1 1 5B0DC04D
P 6600 4100
F 0 "L2" V 6550 4100 50  0000 C CNN
F 1 "230uH" V 6675 4100 50  0000 C CNN
F 2 "Inductors_SMD:L_0603_HandSoldering" H 6600 4100 50  0001 C CNN
F 3 "" H 6600 4100 50  0001 C CNN
	1    6600 4100
	1    0    0    -1  
$EndComp
$Comp
L R R2
U 1 1 5B0DC053
P 6600 3650
F 0 "R2" V 6680 3650 50  0000 C CNN
F 1 "230nH" V 6600 3650 50  0000 C CNN
F 2 "Resistors_SMD:R_0603_HandSoldering" V 6530 3650 50  0001 C CNN
F 3 "" H 6600 3650 50  0001 C CNN
	1    6600 3650
	1    0    0    -1  
$EndComp
$Comp
L Conn_01x01 J2
U 1 1 5B0DC059
P 4700 2100
F 0 "J2" H 4700 2200 50  0000 C CNN
F 1 "Conn_01x01" H 4700 2000 50  0000 C CNN
F 2 "SMD_Packages:1Pin" H 4700 2100 50  0001 C CNN
F 3 "" H 4700 2100 50  0001 C CNN
	1    4700 2100
	-1   0    0    1   
$EndComp
Wire Wire Line
	7800 3150 6600 3150
Wire Wire Line
	6600 3150 6600 3500
Wire Wire Line
	6950 3200 6950 3150
Connection ~ 6950 3150
Wire Wire Line
	7200 3200 7200 3150
Connection ~ 7200 3150
Wire Wire Line
	7450 3200 7450 3150
Connection ~ 7450 3150
Wire Wire Line
	6950 3500 7450 3500
Connection ~ 7200 3500
Wire Wire Line
	6950 3500 6950 3600
Wire Wire Line
	6600 3800 6600 3950
Wire Wire Line
	5800 3600 5800 3750
Wire Wire Line
	5800 4850 5800 4750
Wire Wire Line
	6500 4250 6850 4250
Connection ~ 6600 4250
$Comp
L C C8
U 1 1 5B0DC06F
P 7000 4250
F 0 "C8" H 7025 4350 50  0000 L CNN
F 1 "10p" H 7025 4150 50  0000 L CNN
F 2 "Capacitors_SMD:C_0603_HandSoldering" H 7038 4100 50  0001 C CNN
F 3 "" H 7000 4250 50  0001 C CNN
	1    7000 4250
	0    1    1    0   
$EndComp
Wire Wire Line
	4350 4250 5150 4250
Wire Wire Line
	7150 4250 7300 4250
$Comp
L L7808 U2
U 1 1 5B3FCC52
P 5550 2100
F 0 "U2" H 5400 2225 50  0000 C CNN
F 1 "L7808" H 5550 2225 50  0000 L CNN
F 2 "TO_SOT_Packages_SMD:SOT-89-3_Handsoldering" H 5575 1950 50  0001 L CIN
F 3 "" H 5550 2050 50  0001 C CNN
	1    5550 2100
	1    0    0    -1  
$EndComp
$Comp
L C C6
U 1 1 5B3FCEA2
P 5100 2250
F 0 "C6" H 5125 2350 50  0000 L CNN
F 1 "0.1u" H 5125 2150 50  0000 L CNN
F 2 "Capacitors_SMD:C_0603_HandSoldering" H 5138 2100 50  0001 C CNN
F 3 "" H 5100 2250 50  0001 C CNN
	1    5100 2250
	1    0    0    -1  
$EndComp
Wire Wire Line
	4900 2100 5250 2100
Connection ~ 5100 2100
$Comp
L +8V #PWR09
U 1 1 5B3FD008
P 6200 2000
F 0 "#PWR09" H 6200 1850 50  0001 C CNN
F 1 "+8V" H 6200 2140 50  0000 C CNN
F 2 "" H 6200 2000 50  0001 C CNN
F 3 "" H 6200 2000 50  0001 C CNN
	1    6200 2000
	1    0    0    -1  
$EndComp
$Comp
L +8V #PWR010
U 1 1 5B3FD044
P 5000 3150
F 0 "#PWR010" H 5000 3000 50  0001 C CNN
F 1 "+8V" H 5000 3290 50  0000 C CNN
F 2 "" H 5000 3150 50  0001 C CNN
F 3 "" H 5000 3150 50  0001 C CNN
	1    5000 3150
	1    0    0    -1  
$EndComp
$Comp
L +8V #PWR011
U 1 1 5B3FD080
P 7800 3150
F 0 "#PWR011" H 7800 3000 50  0001 C CNN
F 1 "+8V" H 7800 3290 50  0000 C CNN
F 2 "" H 7800 3150 50  0001 C CNN
F 3 "" H 7800 3150 50  0001 C CNN
	1    7800 3150
	1    0    0    -1  
$EndComp
Wire Wire Line
	5850 2100 6200 2100
Wire Wire Line
	6200 2100 6200 2000
Wire Wire Line
	5550 2400 5550 2500
Wire Wire Line
	5550 2500 5100 2500
Wire Wire Line
	5100 2500 5100 2400
Wire Wire Line
	5350 2500 5350 2600
Connection ~ 5350 2500
$Comp
L GND #PWR012
U 1 1 5B3FD192
P 5350 2600
F 0 "#PWR012" H 5350 2350 50  0001 C CNN
F 1 "GND" H 5350 2450 50  0000 C CNN
F 2 "" H 5350 2600 50  0001 C CNN
F 3 "" H 5350 2600 50  0001 C CNN
	1    5350 2600
	1    0    0    -1  
$EndComp
$EndSCHEMATC
