EESchema Schematic File Version 4
LIBS:Ligne_RX-cache
EELAYER 29 0
EELAYER END
$Descr A4 11693 8268
encoding utf-8
Sheet 1 1
Title ""
Date ""
Rev ""
Comp ""
Comment1 ""
Comment2 ""
Comment3 ""
Comment4 ""
$EndDescr
$Comp
L Ligne_RX-rescue:ERA-5SM- U11
U 1 1 5AC681E4
P 5950 3850
F 0 "U11" H 5750 4050 60  0000 C CNN
F 1 "ERA-5SM" H 5700 3650 60  0000 C CNN
F 2 "lib_kicad:WW107" H 5950 3850 60  0001 C CNN
F 3 "" H 5950 3850 60  0001 C CNN
	1    5950 3850
	1    0    0    -1  
$EndComp
$Comp
L Ligne_RX-rescue:GND- #PWR0101
U 1 1 5AC68232
P 3200 3200
F 0 "#PWR0101" H 3200 2950 50  0001 C CNN
F 1 "GND" H 3200 3050 50  0000 C CNN
F 2 "" H 3200 3200 50  0001 C CNN
F 3 "" H 3200 3200 50  0001 C CNN
	1    3200 3200
	-1   0    0    1   
$EndComp
$Comp
L Ligne_RX-rescue:GND- #PWR0102
U 1 1 5AC68248
P 3200 4450
F 0 "#PWR0102" H 3200 4200 50  0001 C CNN
F 1 "GND" H 3200 4300 50  0000 C CNN
F 2 "" H 3200 4450 50  0001 C CNN
F 3 "" H 3200 4450 50  0001 C CNN
	1    3200 4450
	1    0    0    -1  
$EndComp
$Comp
L Ligne_RX-rescue:GND- #PWR0103
U 1 1 5AC6825F
P 7100 3100
F 0 "#PWR0103" H 7100 2850 50  0001 C CNN
F 1 "GND" H 7100 2950 50  0000 C CNN
F 2 "" H 7100 3100 50  0001 C CNN
F 3 "" H 7100 3100 50  0001 C CNN
	1    7100 3100
	1    0    0    -1  
$EndComp
$Comp
L Ligne_RX-rescue:C- C12
U 1 1 5AC68275
P 7100 2850
F 0 "C12" H 7125 2950 50  0000 L CNN
F 1 "10p" H 7125 2750 50  0000 L CNN
F 2 "Capacitor_SMD:C_0603_1608Metric_Pad1.05x0.95mm_HandSolder" H 7138 2700 50  0001 C CNN
F 3 "" H 7100 2850 50  0001 C CNN
	1    7100 2850
	1    0    0    -1  
$EndComp
$Comp
L Ligne_RX-rescue:C- C13
U 1 1 5AC682A0
P 7350 2850
F 0 "C13" H 7375 2950 50  0000 L CNN
F 1 "1n" H 7375 2750 50  0000 L CNN
F 2 "Capacitor_SMD:C_0603_1608Metric_Pad1.05x0.95mm_HandSolder" H 7388 2700 50  0001 C CNN
F 3 "" H 7350 2850 50  0001 C CNN
	1    7350 2850
	1    0    0    -1  
$EndComp
$Comp
L Ligne_RX-rescue:C- C14
U 1 1 5AC682BD
P 7600 2850
F 0 "C14" H 7625 2950 50  0000 L CNN
F 1 "0.1u" H 7625 2750 50  0000 L CNN
F 2 "Capacitor_SMD:C_0603_1608Metric_Pad1.05x0.95mm_HandSolder" H 7638 2700 50  0001 C CNN
F 3 "" H 7600 2850 50  0001 C CNN
	1    7600 2850
	1    0    0    -1  
$EndComp
$Comp
L Ligne_RX-rescue:L- L11
U 1 1 5AC682E6
P 6750 3700
F 0 "L11" V 6700 3700 50  0000 C CNN
F 1 "230uH" V 6825 3700 50  0000 C CNN
F 2 "Inductor_SMD:L_0603_1608Metric_Pad1.05x0.95mm_HandSolder" H 6750 3700 50  0001 C CNN
F 3 "" H 6750 3700 50  0001 C CNN
	1    6750 3700
	1    0    0    -1  
$EndComp
$Comp
L Ligne_RX-rescue:R- R11
U 1 1 5AC68313
P 6750 3150
F 0 "R11" V 6830 3150 50  0000 C CNN
F 1 "51R" V 6650 3150 50  0000 C CNN
F 2 "Resistor_SMD:R_0603_1608Metric_Pad1.05x0.95mm_HandSolder" V 6680 3150 50  0001 C CNN
F 3 "" H 6750 3150 50  0001 C CNN
	1    6750 3150
	1    0    0    -1  
$EndComp
Wire Wire Line
	6750 2650 6750 3000
Wire Wire Line
	7100 2700 7100 2650
Connection ~ 7100 2650
Wire Wire Line
	7350 2700 7350 2650
Connection ~ 7350 2650
Wire Wire Line
	7600 2700 7600 2650
Wire Wire Line
	7100 3000 7350 3000
Connection ~ 7350 3000
Wire Wire Line
	7100 3000 7100 3100
Wire Wire Line
	3200 3200 3200 3350
Wire Wire Line
	3200 4450 3200 4350
Wire Wire Line
	6650 3850 6750 3850
Connection ~ 6750 3850
$Comp
L Ligne_RX-rescue:C- C15
U 1 1 5AC68632
P 7650 3850
F 0 "C15" H 7675 3950 50  0000 L CNN
F 1 "10p" H 7675 3750 50  0000 L CNN
F 2 "Capacitor_SMD:C_0603_1608Metric_Pad1.05x0.95mm_HandSolder" H 7688 3700 50  0001 C CNN
F 3 "" H 7650 3850 50  0001 C CNN
	1    7650 3850
	0    1    1    0   
$EndComp
$Comp
L Ligne_RX-rescue:C- C11
U 1 1 5AC686A5
P 2400 3850
F 0 "C11" H 2425 3950 50  0000 L CNN
F 1 "10p" H 2425 3750 50  0000 L CNN
F 2 "Capacitor_SMD:C_0603_1608Metric_Pad1.05x0.95mm_HandSolder" H 2438 3700 50  0001 C CNN
F 3 "" H 2400 3850 50  0001 C CNN
	1    2400 3850
	0    1    1    0   
$EndComp
Wire Wire Line
	2750 3850 2550 3850
Wire Wire Line
	2250 3850 2000 3850
$Comp
L Ligne_RX-rescue:SMA- J1
U 1 1 5AC687B2
P 1850 4150
F 0 "J1" H 1975 4465 60  0000 C CNN
F 1 "SMA" H 2040 4390 60  0000 C CNN
F 2 "lib_kicad:SMA" H 2025 4320 50  0000 C CNN
F 3 "" H 1850 4150 60  0001 C CNN
	1    1850 4150
	-1   0    0    -1  
$EndComp
$Comp
L Ligne_RX-rescue:GND- #PWR0104
U 1 1 5AC68A39
P 1800 4150
F 0 "#PWR0104" H 1800 3900 50  0001 C CNN
F 1 "GND" H 1800 4000 50  0000 C CNN
F 2 "" H 1800 4150 50  0001 C CNN
F 3 "" H 1800 4150 50  0001 C CNN
	1    1800 4150
	1    0    0    -1  
$EndComp
Wire Wire Line
	1800 4050 1800 4150
Wire Wire Line
	1800 4050 1850 4050
Connection ~ 1850 4050
Connection ~ 1900 4050
Connection ~ 1800 4050
Connection ~ 7100 3000
Wire Wire Line
	7100 2650 6850 2650
Wire Wire Line
	7350 2650 7100 2650
Wire Wire Line
	7600 2650 7350 2650
Wire Wire Line
	7350 3000 7600 3000
Wire Wire Line
	6750 3850 7500 3850
Wire Wire Line
	1850 4050 1900 4050
Wire Wire Line
	1900 4050 1950 4050
$Comp
L Ligne_RX-rescue:L- L21
U 1 1 5AC52820
P 4650 3700
F 0 "L21" V 4600 3700 50  0000 C CNN
F 1 "230uH" V 4725 3700 50  0000 C CNN
F 2 "Inductor_SMD:L_0603_1608Metric_Pad1.05x0.95mm_HandSolder" H 4650 3700 50  0001 C CNN
F 3 "" H 4650 3700 50  0001 C CNN
	1    4650 3700
	1    0    0    -1  
$EndComp
Wire Wire Line
	4650 2650 4650 3550
$Comp
L Ligne_RX-rescue:C- C24
U 1 1 5AC52950
P 3850 2900
F 0 "C24" H 3875 3000 50  0000 L CNN
F 1 "0.1u" H 3875 2800 50  0000 L CNN
F 2 "Capacitor_SMD:C_0603_1608Metric_Pad1.05x0.95mm_HandSolder" H 3888 2750 50  0001 C CNN
F 3 "" H 3850 2900 50  0001 C CNN
	1    3850 2900
	1    0    0    -1  
$EndComp
$Comp
L Ligne_RX-rescue:C- C23
U 1 1 5AC5299B
P 4100 2900
F 0 "C23" H 4125 3000 50  0000 L CNN
F 1 "100p" H 4125 2800 50  0000 L CNN
F 2 "Capacitor_SMD:C_0603_1608Metric_Pad1.05x0.95mm_HandSolder" H 4138 2750 50  0001 C CNN
F 3 "" H 4100 2900 50  0001 C CNN
	1    4100 2900
	1    0    0    -1  
$EndComp
$Comp
L Ligne_RX-rescue:C- C22
U 1 1 5AC529D9
P 4400 2900
F 0 "C22" H 4425 3000 50  0000 L CNN
F 1 "10p" H 4425 2800 50  0000 L CNN
F 2 "Capacitor_SMD:C_0603_1608Metric_Pad1.05x0.95mm_HandSolder" H 4438 2750 50  0001 C CNN
F 3 "" H 4400 2900 50  0001 C CNN
	1    4400 2900
	1    0    0    -1  
$EndComp
$Comp
L Ligne_RX-rescue:SMA- J2
U 1 1 5AC52A8A
P 8250 4150
F 0 "J2" H 8375 4465 60  0000 C CNN
F 1 "SMA" H 8440 4390 60  0000 C CNN
F 2 "lib_kicad:SMA" H 8425 4320 50  0000 C CNN
F 3 "" H 8250 4150 60  0001 C CNN
	1    8250 4150
	1    0    0    -1  
$EndComp
$Comp
L Ligne_RX-rescue:C- C21
U 1 1 5AC52BFD
P 5050 3850
F 0 "C21" H 5075 3950 50  0000 L CNN
F 1 "100p" H 5075 3750 50  0000 L CNN
F 2 "Capacitor_SMD:C_0603_1608Metric_Pad1.05x0.95mm_HandSolder" H 5088 3700 50  0001 C CNN
F 3 "" H 5050 3850 50  0001 C CNN
	1    5050 3850
	0    1    1    0   
$EndComp
$Comp
L spf5189z:SPF5189Z U22
U 1 1 5AC52D1C
P 3200 3850
F 0 "U22" H 3200 3900 60  0000 C CNN
F 1 "SPF5189Z" H 3300 3800 60  0000 C CNN
F 2 "Package_TO_SOT_SMD:SOT-89-3_Handsoldering" H 3200 3850 60  0001 C CNN
F 3 "" H 3200 3850 60  0001 C CNN
	1    3200 3850
	1    0    0    -1  
$EndComp
$Comp
L Ligne_RX-rescue:GND- #PWR0105
U 1 1 5AC52E45
P 8150 4150
F 0 "#PWR0105" H 8150 3900 50  0001 C CNN
F 1 "GND" H 8150 4000 50  0000 C CNN
F 2 "" H 8150 4150 50  0001 C CNN
F 3 "" H 8150 4150 50  0001 C CNN
	1    8150 4150
	1    0    0    -1  
$EndComp
$Comp
L Ligne_RX-rescue:GND- #PWR0106
U 1 1 5AC52E6D
P 5950 4450
F 0 "#PWR0106" H 5950 4200 50  0001 C CNN
F 1 "GND" H 5950 4300 50  0000 C CNN
F 2 "" H 5950 4450 50  0001 C CNN
F 3 "" H 5950 4450 50  0001 C CNN
	1    5950 4450
	1    0    0    -1  
$EndComp
$Comp
L Ligne_RX-rescue:GND- #PWR0107
U 1 1 5AC52E95
P 5950 3250
F 0 "#PWR0107" H 5950 3000 50  0001 C CNN
F 1 "GND" H 5950 3100 50  0000 C CNN
F 2 "" H 5950 3250 50  0001 C CNN
F 3 "" H 5950 3250 50  0001 C CNN
	1    5950 3250
	-1   0    0    1   
$EndComp
$Comp
L Ligne_RX-rescue:GND- #PWR0108
U 1 1 5AC52F37
P 3850 3100
F 0 "#PWR0108" H 3850 2850 50  0001 C CNN
F 1 "GND" H 3850 2950 50  0000 C CNN
F 2 "" H 3850 3100 50  0001 C CNN
F 3 "" H 3850 3100 50  0001 C CNN
	1    3850 3100
	1    0    0    -1  
$EndComp
$Comp
L Ligne_RX-rescue:GND- #PWR0109
U 1 1 5AC52F5F
P 4100 3100
F 0 "#PWR0109" H 4100 2850 50  0001 C CNN
F 1 "GND" H 4100 2950 50  0000 C CNN
F 2 "" H 4100 3100 50  0001 C CNN
F 3 "" H 4100 3100 50  0001 C CNN
	1    4100 3100
	1    0    0    -1  
$EndComp
$Comp
L Ligne_RX-rescue:GND- #PWR0110
U 1 1 5AC52F87
P 4400 3100
F 0 "#PWR0110" H 4400 2850 50  0001 C CNN
F 1 "GND" H 4400 2950 50  0000 C CNN
F 2 "" H 4400 3100 50  0001 C CNN
F 3 "" H 4400 3100 50  0001 C CNN
	1    4400 3100
	1    0    0    -1  
$EndComp
Connection ~ 4650 3850
Wire Wire Line
	8150 4050 8200 4050
Connection ~ 8250 4050
Wire Wire Line
	8150 4150 8150 4050
Connection ~ 8200 4050
Wire Wire Line
	4400 3100 4400 3050
Wire Wire Line
	4100 3100 4100 3050
Wire Wire Line
	3850 3100 3850 3050
Wire Wire Line
	3850 2650 3850 2750
Wire Wire Line
	4100 2750 4100 2650
Connection ~ 4100 2650
Wire Wire Line
	4400 2750 4400 2650
Connection ~ 4400 2650
Wire Wire Line
	5950 4350 5950 4450
Connection ~ 8150 4050
Wire Wire Line
	8250 4050 8300 4050
Wire Wire Line
	8200 4050 8250 4050
Wire Wire Line
	4100 2650 4400 2650
Wire Wire Line
	4400 2650 4650 2650
Wire Wire Line
	3850 2650 4000 2650
Wire Wire Line
	5950 3350 5950 3250
Wire Wire Line
	6750 3300 6750 3550
$Comp
L Regulator_Linear:L7808 U1
U 1 1 5B8E4563
P 4900 1350
F 0 "U1" H 4900 1592 50  0000 C CNN
F 1 "L7808" H 4900 1501 50  0000 C CNN
F 2 "Package_TO_SOT_SMD:SOT-89-3_Handsoldering" H 4925 1200 50  0001 L CIN
F 3 "http://www.st.com/content/ccc/resource/technical/document/datasheet/41/4f/b3/b0/12/d4/47/88/CD00000444.pdf/files/CD00000444.pdf/jcr:content/translations/en.CD00000444.pdf" H 4900 1300 50  0001 C CNN
	1    4900 1350
	1    0    0    -1  
$EndComp
$Comp
L Regulator_Linear:AMS1117-5.0 U2
U 1 1 5B8E4709
P 5900 1350
F 0 "U2" H 5900 1592 50  0000 C CNN
F 1 "AMS1117-5.0" H 5900 1501 50  0000 C CNN
F 2 "Package_TO_SOT_SMD:SOT-223-3_TabPin2" H 5900 1550 50  0001 C CNN
F 3 "http://www.advanced-monolithic.com/pdf/ds1117.pdf" H 6000 1100 50  0001 C CNN
	1    5900 1350
	1    0    0    -1  
$EndComp
$Comp
L power:GND #PWR0111
U 1 1 5B8E48BA
P 4900 1700
F 0 "#PWR0111" H 4900 1450 50  0001 C CNN
F 1 "GND" H 4905 1527 50  0000 C CNN
F 2 "" H 4900 1700 50  0001 C CNN
F 3 "" H 4900 1700 50  0001 C CNN
	1    4900 1700
	1    0    0    -1  
$EndComp
$Comp
L power:GND #PWR0112
U 1 1 5B8E4912
P 5900 1700
F 0 "#PWR0112" H 5900 1450 50  0001 C CNN
F 1 "GND" H 5905 1527 50  0000 C CNN
F 2 "" H 5900 1700 50  0001 C CNN
F 3 "" H 5900 1700 50  0001 C CNN
	1    5900 1700
	1    0    0    -1  
$EndComp
$Comp
L power:+8V #PWR0113
U 1 1 5B8E56BF
P 6850 2650
F 0 "#PWR0113" H 6850 2500 50  0001 C CNN
F 1 "+8V" H 6865 2823 50  0000 C CNN
F 2 "" H 6850 2650 50  0001 C CNN
F 3 "" H 6850 2650 50  0001 C CNN
	1    6850 2650
	1    0    0    -1  
$EndComp
Connection ~ 6850 2650
Wire Wire Line
	6850 2650 6750 2650
$Comp
L power:+8V #PWR0114
U 1 1 5B8E5719
P 5400 1350
F 0 "#PWR0114" H 5400 1200 50  0001 C CNN
F 1 "+8V" H 5415 1523 50  0000 C CNN
F 2 "" H 5400 1350 50  0001 C CNN
F 3 "" H 5400 1350 50  0001 C CNN
	1    5400 1350
	1    0    0    -1  
$EndComp
$Comp
L power:+5V #PWR0115
U 1 1 5B8E57B0
P 6350 1350
F 0 "#PWR0115" H 6350 1200 50  0001 C CNN
F 1 "+5V" H 6365 1523 50  0000 C CNN
F 2 "" H 6350 1350 50  0001 C CNN
F 3 "" H 6350 1350 50  0001 C CNN
	1    6350 1350
	1    0    0    -1  
$EndComp
$Comp
L power:+5V #PWR0116
U 1 1 5B8E5808
P 4000 2650
F 0 "#PWR0116" H 4000 2500 50  0001 C CNN
F 1 "+5V" H 4015 2823 50  0000 C CNN
F 2 "" H 4000 2650 50  0001 C CNN
F 3 "" H 4000 2650 50  0001 C CNN
	1    4000 2650
	1    0    0    -1  
$EndComp
Connection ~ 4000 2650
Wire Wire Line
	4000 2650 4100 2650
Wire Wire Line
	4900 1700 4900 1650
Wire Wire Line
	5900 1700 5900 1650
Wire Wire Line
	6200 1350 6350 1350
Wire Wire Line
	5600 1350 5400 1350
Wire Wire Line
	5200 1350 5400 1350
Connection ~ 5400 1350
Wire Wire Line
	4600 1350 4250 1350
$Comp
L Connector:Conn_01x01_Male J3
U 1 1 5B8E8DB2
P 4050 1350
F 0 "J3" H 4156 1528 50  0000 C CNN
F 1 "Conn_01x01_Male" H 4156 1437 50  0000 C CNN
F 2 "TestPoint:TestPoint_Pad_4.0x4.0mm" H 4050 1350 50  0001 C CNN
F 3 "~" H 4050 1350 50  0001 C CNN
	1    4050 1350
	1    0    0    -1  
$EndComp
Wire Wire Line
	7800 3850 8100 3850
Wire Wire Line
	4000 3850 4650 3850
Wire Wire Line
	4650 3850 4900 3850
Wire Wire Line
	5200 3850 5300 3850
Wire Notes Line
	3700 950  6500 950 
Wire Notes Line
	6500 950  6500 2000
Wire Notes Line
	6500 2000 3700 2000
Wire Notes Line
	3700 2000 3700 950 
Text Notes 3750 1950 0    118  ~ 0
Alimentation
Wire Notes Line
	1400 2200 8750 2200
Wire Notes Line
	8750 2200 8750 5050
Wire Notes Line
	8750 5050 1400 5050
Wire Notes Line
	1400 5050 1400 2200
Text Notes 1550 2650 0    118  ~ 0
Amplificateur RX\nSPF5189Z + ERA-5
$EndSCHEMATC
