(kicad_pcb (version 20171130) (host pcbnew 5.0.1)

  (general
    (thickness 1.6)
    (drawings 7)
    (tracks 144)
    (zones 0)
    (modules 19)
    (nets 12)
  )

  (page A4)
  (layers
    (0 F.Cu signal)
    (31 B.Cu signal)
    (32 B.Adhes user)
    (33 F.Adhes user)
    (34 B.Paste user)
    (35 F.Paste user)
    (36 B.SilkS user)
    (37 F.SilkS user)
    (38 B.Mask user)
    (39 F.Mask user)
    (40 Dwgs.User user)
    (41 Cmts.User user)
    (42 Eco1.User user)
    (43 Eco2.User user)
    (44 Edge.Cuts user)
    (45 Margin user)
    (46 B.CrtYd user)
    (47 F.CrtYd user)
    (48 B.Fab user)
    (49 F.Fab user)
  )

  (setup
    (last_trace_width 1.2)
    (trace_clearance 0.5)
    (zone_clearance 0)
    (zone_45_only no)
    (trace_min 0.2)
    (segment_width 0.2)
    (edge_width 0.15)
    (via_size 1.3)
    (via_drill 0.8)
    (via_min_size 0.4)
    (via_min_drill 0.3)
    (uvia_size 0.3)
    (uvia_drill 0.1)
    (uvias_allowed no)
    (uvia_min_size 0.2)
    (uvia_min_drill 0.1)
    (pcb_text_width 0.3)
    (pcb_text_size 1.5 1.5)
    (mod_edge_width 0.15)
    (mod_text_size 1 1)
    (mod_text_width 0.15)
    (pad_size 1.524 1.524)
    (pad_drill 0.762)
    (pad_to_mask_clearance 0.2)
    (solder_mask_min_width 0.25)
    (aux_axis_origin 0 0)
    (visible_elements FFFFFF7F)
    (pcbplotparams
      (layerselection 0x00000_7fffffff)
      (usegerberextensions false)
      (usegerberattributes false)
      (usegerberadvancedattributes false)
      (creategerberjobfile false)
      (excludeedgelayer true)
      (linewidth 0.100000)
      (plotframeref false)
      (viasonmask false)
      (mode 1)
      (useauxorigin false)
      (hpglpennumber 1)
      (hpglpenspeed 20)
      (hpglpendiameter 15.000000)
      (psnegative false)
      (psa4output false)
      (plotreference true)
      (plotvalue true)
      (plotinvisibletext false)
      (padsonsilk false)
      (subtractmaskfromsilk false)
      (outputformat 4)
      (mirror true)
      (drillshape 1)
      (scaleselection 1)
      (outputdirectory ""))
  )

  (net 0 "")
  (net 1 "Net-(C11-Pad1)")
  (net 2 "Net-(C11-Pad2)")
  (net 3 GND)
  (net 4 "Net-(C15-Pad2)")
  (net 5 "Net-(C15-Pad1)")
  (net 6 "Net-(C21-Pad1)")
  (net 7 "Net-(C21-Pad2)")
  (net 8 "Net-(L11-Pad1)")
  (net 9 +8V)
  (net 10 +5V)
  (net 11 "Net-(J3-Pad1)")

  (net_class Default "Ceci est la Netclass par défaut."
    (clearance 0.5)
    (trace_width 1.2)
    (via_dia 1.3)
    (via_drill 0.8)
    (uvia_dia 0.3)
    (uvia_drill 0.1)
    (add_net GND)
    (add_net "Net-(C11-Pad1)")
    (add_net "Net-(C11-Pad2)")
    (add_net "Net-(C15-Pad1)")
    (add_net "Net-(C15-Pad2)")
    (add_net "Net-(C21-Pad1)")
    (add_net "Net-(C21-Pad2)")
  )

  (net_class DC ""
    (clearance 0.5)
    (trace_width 0.5)
    (via_dia 1.3)
    (via_drill 0.8)
    (uvia_dia 0.3)
    (uvia_drill 0.1)
    (add_net +5V)
    (add_net +8V)
    (add_net "Net-(J3-Pad1)")
    (add_net "Net-(L11-Pad1)")
  )

  (module lib_kicad:WW107 (layer F.Cu) (tedit 5BA017E2) (tstamp 5BB24E01)
    (at 144 91 270)
    (path /5AC681E4)
    (fp_text reference U11 (at -3 -2 270) (layer F.SilkS)
      (effects (font (size 1 1) (thickness 0.15)))
    )
    (fp_text value ERA-5SM (at -4 3 270) (layer F.Fab)
      (effects (font (size 1 1) (thickness 0.15)))
    )
    (fp_circle (center 0 0) (end 1.08 0) (layer F.SilkS) (width 0.15))
    (fp_circle (center 0 0.8) (end 0 1) (layer F.SilkS) (width 0.15))
    (pad 4 smd rect (at -2 0 270) (size 1.85 1.02) (layers F.Cu F.Paste F.Mask)
      (net 3 GND))
    (pad 2 smd rect (at 2 0 270) (size 1.85 1.02) (layers F.Cu F.Paste F.Mask)
      (net 3 GND))
    (pad "" np_thru_hole circle (at 0 0 270) (size 1 1) (drill 0.8) (layers *.Cu *.Mask))
    (pad 2 thru_hole circle (at 3.5 -0.75 270) (size 1.3 1.3) (drill 0.8) (layers *.Cu *.Mask)
      (net 3 GND))
    (pad 4 thru_hole circle (at -3.5 -0.75 270) (size 1.3 1.3) (drill 0.8) (layers *.Cu *.Mask)
      (net 3 GND))
    (pad 3 smd rect (at 0 -2 270) (size 1.02 1.85) (layers F.Cu F.Paste F.Mask)
      (net 4 "Net-(C15-Pad2)"))
    (pad 1 smd rect (at 0 2 270) (size 1.02 1.85) (layers F.Cu F.Paste F.Mask)
      (net 6 "Net-(C21-Pad1)"))
    (pad 2 thru_hole circle (at 5 0.75 270) (size 1.3 1.3) (drill 0.8) (layers *.Cu *.Mask)
      (net 3 GND))
    (pad 2 thru_hole circle (at 5 -0.75 270) (size 1.3 1.3) (drill 0.8) (layers *.Cu *.Mask)
      (net 3 GND))
    (pad 2 thru_hole circle (at 3.5 0.75 270) (size 1.3 1.3) (drill 0.8) (layers *.Cu *.Mask)
      (net 3 GND))
    (pad 4 thru_hole circle (at -5 0.75 270) (size 1.3 1.3) (drill 0.8) (layers *.Cu *.Mask)
      (net 3 GND))
    (pad 4 thru_hole circle (at -5 -0.75 270) (size 1.3 1.3) (drill 0.8) (layers *.Cu *.Mask)
      (net 3 GND))
    (pad 4 thru_hole circle (at -3.5 0.75 270) (size 1.3 1.3) (drill 0.8) (layers *.Cu *.Mask)
      (net 3 GND))
    (pad 2 smd rect (at 4.25 0 270) (size 3 3) (layers F.Cu F.Paste F.Mask)
      (net 3 GND))
    (pad 4 smd rect (at -4.25 0 270) (size 3 3) (layers F.Cu F.Paste F.Mask)
      (net 3 GND))
  )

  (module Capacitor_SMD:C_0603_1608Metric_Pad1.05x0.95mm_HandSolder (layer F.Cu) (tedit 5B301BBE) (tstamp 5C2A7543)
    (at 134 91 180)
    (descr "Capacitor SMD 0603 (1608 Metric), square (rectangular) end terminal, IPC_7351 nominal with elongated pad for handsoldering. (Body size source: http://www.tortai-tech.com/upload/download/2011102023233369053.pdf), generated with kicad-footprint-generator")
    (tags "capacitor handsolder")
    (path /5AC52BFD)
    (attr smd)
    (fp_text reference C21 (at 0 -1.43 180) (layer F.SilkS)
      (effects (font (size 1 1) (thickness 0.15)))
    )
    (fp_text value 100p (at 0 1.43 180) (layer F.Fab)
      (effects (font (size 1 1) (thickness 0.15)))
    )
    (fp_line (start -0.8 0.4) (end -0.8 -0.4) (layer F.Fab) (width 0.1))
    (fp_line (start -0.8 -0.4) (end 0.8 -0.4) (layer F.Fab) (width 0.1))
    (fp_line (start 0.8 -0.4) (end 0.8 0.4) (layer F.Fab) (width 0.1))
    (fp_line (start 0.8 0.4) (end -0.8 0.4) (layer F.Fab) (width 0.1))
    (fp_line (start -0.171267 -0.51) (end 0.171267 -0.51) (layer F.SilkS) (width 0.12))
    (fp_line (start -0.171267 0.51) (end 0.171267 0.51) (layer F.SilkS) (width 0.12))
    (fp_line (start -1.65 0.73) (end -1.65 -0.73) (layer F.CrtYd) (width 0.05))
    (fp_line (start -1.65 -0.73) (end 1.65 -0.73) (layer F.CrtYd) (width 0.05))
    (fp_line (start 1.65 -0.73) (end 1.65 0.73) (layer F.CrtYd) (width 0.05))
    (fp_line (start 1.65 0.73) (end -1.65 0.73) (layer F.CrtYd) (width 0.05))
    (fp_text user %R (at 0 0.5 180) (layer F.Fab)
      (effects (font (size 0.4 0.4) (thickness 0.06)))
    )
    (pad 1 smd roundrect (at -0.875 0 180) (size 1.05 0.95) (layers F.Cu F.Paste F.Mask) (roundrect_rratio 0.25)
      (net 6 "Net-(C21-Pad1)"))
    (pad 2 smd roundrect (at 0.875 0 180) (size 1.05 0.95) (layers F.Cu F.Paste F.Mask) (roundrect_rratio 0.25)
      (net 7 "Net-(C21-Pad2)"))
    (model ${KISYS3DMOD}/Capacitor_SMD.3dshapes/C_0603_1608Metric.wrl
      (at (xyz 0 0 0))
      (scale (xyz 1 1 1))
      (rotate (xyz 0 0 0))
    )
  )

  (module lib_kicad:SMA (layer F.Cu) (tedit 564238BF) (tstamp 5BB24DA3)
    (at 98 91)
    (path /5AC687B2)
    (fp_text reference J1 (at -3.5 -4.5) (layer F.SilkS)
      (effects (font (size 1 1) (thickness 0.15)))
    )
    (fp_text value SMA (at -5 0) (layer F.Fab)
      (effects (font (size 1 1) (thickness 0.15)))
    )
    (fp_line (start 0 -0.5) (end 3 -0.5) (layer F.SilkS) (width 0.15))
    (fp_line (start 3 -0.5) (end 3 0.5) (layer F.SilkS) (width 0.15))
    (fp_line (start 3 0.5) (end 0 0.5) (layer F.SilkS) (width 0.15))
    (fp_line (start -7 -3.5) (end -8 -2.5) (layer F.SilkS) (width 0.15))
    (fp_line (start -8 -2.5) (end -8 2) (layer F.SilkS) (width 0.15))
    (fp_line (start -8 2) (end -7 3) (layer F.SilkS) (width 0.15))
    (fp_line (start -3 -2.5) (end -3 -3.5) (layer F.SilkS) (width 0.15))
    (fp_line (start -3 -3.5) (end -7 -3.5) (layer F.SilkS) (width 0.15))
    (fp_line (start -7 -3.5) (end -7 3) (layer F.SilkS) (width 0.15))
    (fp_line (start -7 3) (end -3 3) (layer F.SilkS) (width 0.15))
    (fp_line (start -3 3) (end -3 2.5) (layer F.SilkS) (width 0.15))
    (fp_line (start -1 2.5) (end -3 2.5) (layer F.SilkS) (width 0.15))
    (fp_line (start -3 2.5) (end -3 -2.5) (layer F.SilkS) (width 0.15))
    (fp_line (start -3 -2.5) (end -1 -2.5) (layer F.SilkS) (width 0.15))
    (fp_line (start 3 -4) (end 3 -3) (layer F.SilkS) (width 0.15))
    (fp_line (start 3 -3) (end 0 -3) (layer F.SilkS) (width 0.15))
    (fp_line (start 0 -3) (end 0 3) (layer F.SilkS) (width 0.15))
    (fp_line (start 0 3) (end 3 3) (layer F.SilkS) (width 0.15))
    (fp_line (start 3 3) (end 3 4) (layer F.SilkS) (width 0.15))
    (fp_line (start 3 4) (end -0.5 4) (layer F.SilkS) (width 0.15))
    (fp_line (start -0.5 4) (end -1 4) (layer F.SilkS) (width 0.15))
    (fp_line (start -1 4) (end -1 -4) (layer F.SilkS) (width 0.15))
    (fp_line (start -1 -4) (end 3 -4) (layer F.SilkS) (width 0.15))
    (pad 1 smd rect (at 2.032 0) (size 4 1) (layers F.Cu F.Paste F.Mask)
      (net 2 "Net-(C11-Pad2)"))
    (pad 2 smd rect (at 2 -3.5) (size 4 3) (layers F.Cu F.Paste F.Mask)
      (net 3 GND))
    (pad 2 smd rect (at 2 3.5) (size 4 3) (layers F.Cu F.Paste F.Mask)
      (net 3 GND))
  )

  (module Resistor_SMD:R_0603_1608Metric_Pad1.05x0.95mm_HandSolder (layer F.Cu) (tedit 5B301BBD) (tstamp 5C2AA4B5)
    (at 149 85.875 270)
    (descr "Resistor SMD 0603 (1608 Metric), square (rectangular) end terminal, IPC_7351 nominal with elongated pad for handsoldering. (Body size source: http://www.tortai-tech.com/upload/download/2011102023233369053.pdf), generated with kicad-footprint-generator")
    (tags "resistor handsolder")
    (path /5AC68313)
    (attr smd)
    (fp_text reference R11 (at 0 -1.43 270) (layer F.SilkS)
      (effects (font (size 1 1) (thickness 0.15)))
    )
    (fp_text value 230nH (at 0 1.43 270) (layer F.Fab)
      (effects (font (size 1 1) (thickness 0.15)))
    )
    (fp_line (start -0.8 0.4) (end -0.8 -0.4) (layer F.Fab) (width 0.1))
    (fp_line (start -0.8 -0.4) (end 0.8 -0.4) (layer F.Fab) (width 0.1))
    (fp_line (start 0.8 -0.4) (end 0.8 0.4) (layer F.Fab) (width 0.1))
    (fp_line (start 0.8 0.4) (end -0.8 0.4) (layer F.Fab) (width 0.1))
    (fp_line (start -0.171267 -0.51) (end 0.171267 -0.51) (layer F.SilkS) (width 0.12))
    (fp_line (start -0.171267 0.51) (end 0.171267 0.51) (layer F.SilkS) (width 0.12))
    (fp_line (start -1.65 0.73) (end -1.65 -0.73) (layer F.CrtYd) (width 0.05))
    (fp_line (start -1.65 -0.73) (end 1.65 -0.73) (layer F.CrtYd) (width 0.05))
    (fp_line (start 1.65 -0.73) (end 1.65 0.73) (layer F.CrtYd) (width 0.05))
    (fp_line (start 1.65 0.73) (end -1.65 0.73) (layer F.CrtYd) (width 0.05))
    (fp_text user %R (at 0 0 270) (layer F.Fab)
      (effects (font (size 0.4 0.4) (thickness 0.06)))
    )
    (pad 1 smd roundrect (at -0.875 0 270) (size 1.05 0.95) (layers F.Cu F.Paste F.Mask) (roundrect_rratio 0.25)
      (net 9 +8V))
    (pad 2 smd roundrect (at 0.875 0 270) (size 1.05 0.95) (layers F.Cu F.Paste F.Mask) (roundrect_rratio 0.25)
      (net 8 "Net-(L11-Pad1)"))
    (model ${KISYS3DMOD}/Resistor_SMD.3dshapes/R_0603_1608Metric.wrl
      (at (xyz 0 0 0))
      (scale (xyz 1 1 1))
      (rotate (xyz 0 0 0))
    )
  )

  (module Capacitor_SMD:C_0603_1608Metric_Pad1.05x0.95mm_HandSolder (layer F.Cu) (tedit 5B301BBE) (tstamp 5C2AA34E)
    (at 151 81.75 90)
    (descr "Capacitor SMD 0603 (1608 Metric), square (rectangular) end terminal, IPC_7351 nominal with elongated pad for handsoldering. (Body size source: http://www.tortai-tech.com/upload/download/2011102023233369053.pdf), generated with kicad-footprint-generator")
    (tags "capacitor handsolder")
    (path /5AC682A0)
    (attr smd)
    (fp_text reference C13 (at 0 -1.43 90) (layer F.SilkS)
      (effects (font (size 1 1) (thickness 0.15)))
    )
    (fp_text value 1n (at 0 1.75 90) (layer F.Fab)
      (effects (font (size 1 1) (thickness 0.15)))
    )
    (fp_text user %R (at 0 0 90) (layer F.Fab)
      (effects (font (size 0.4 0.4) (thickness 0.06)))
    )
    (fp_line (start 1.65 0.73) (end -1.65 0.73) (layer F.CrtYd) (width 0.05))
    (fp_line (start 1.65 -0.73) (end 1.65 0.73) (layer F.CrtYd) (width 0.05))
    (fp_line (start -1.65 -0.73) (end 1.65 -0.73) (layer F.CrtYd) (width 0.05))
    (fp_line (start -1.65 0.73) (end -1.65 -0.73) (layer F.CrtYd) (width 0.05))
    (fp_line (start -0.171267 0.51) (end 0.171267 0.51) (layer F.SilkS) (width 0.12))
    (fp_line (start -0.171267 -0.51) (end 0.171267 -0.51) (layer F.SilkS) (width 0.12))
    (fp_line (start 0.8 0.4) (end -0.8 0.4) (layer F.Fab) (width 0.1))
    (fp_line (start 0.8 -0.4) (end 0.8 0.4) (layer F.Fab) (width 0.1))
    (fp_line (start -0.8 -0.4) (end 0.8 -0.4) (layer F.Fab) (width 0.1))
    (fp_line (start -0.8 0.4) (end -0.8 -0.4) (layer F.Fab) (width 0.1))
    (pad 2 smd roundrect (at 0.875 0 90) (size 1.05 0.95) (layers F.Cu F.Paste F.Mask) (roundrect_rratio 0.25)
      (net 3 GND))
    (pad 1 smd roundrect (at -0.875 0 90) (size 1.05 0.95) (layers F.Cu F.Paste F.Mask) (roundrect_rratio 0.25)
      (net 9 +8V))
    (model ${KISYS3DMOD}/Capacitor_SMD.3dshapes/C_0603_1608Metric.wrl
      (at (xyz 0 0 0))
      (scale (xyz 1 1 1))
      (rotate (xyz 0 0 0))
    )
  )

  (module Capacitor_SMD:C_0603_1608Metric_Pad1.05x0.95mm_HandSolder (layer F.Cu) (tedit 5B301BBE) (tstamp 5BBED805)
    (at 153 81.75 90)
    (descr "Capacitor SMD 0603 (1608 Metric), square (rectangular) end terminal, IPC_7351 nominal with elongated pad for handsoldering. (Body size source: http://www.tortai-tech.com/upload/download/2011102023233369053.pdf), generated with kicad-footprint-generator")
    (tags "capacitor handsolder")
    (path /5AC682BD)
    (attr smd)
    (fp_text reference C14 (at 0 -1.43 90) (layer F.SilkS)
      (effects (font (size 1 1) (thickness 0.15)))
    )
    (fp_text value 0.1u (at 0 1.43 90) (layer F.Fab)
      (effects (font (size 1 1) (thickness 0.15)))
    )
    (fp_line (start -0.8 0.4) (end -0.8 -0.4) (layer F.Fab) (width 0.1))
    (fp_line (start -0.8 -0.4) (end 0.8 -0.4) (layer F.Fab) (width 0.1))
    (fp_line (start 0.8 -0.4) (end 0.8 0.4) (layer F.Fab) (width 0.1))
    (fp_line (start 0.8 0.4) (end -0.8 0.4) (layer F.Fab) (width 0.1))
    (fp_line (start -0.171267 -0.51) (end 0.171267 -0.51) (layer F.SilkS) (width 0.12))
    (fp_line (start -0.171267 0.51) (end 0.171267 0.51) (layer F.SilkS) (width 0.12))
    (fp_line (start -1.65 0.73) (end -1.65 -0.73) (layer F.CrtYd) (width 0.05))
    (fp_line (start -1.65 -0.73) (end 1.65 -0.73) (layer F.CrtYd) (width 0.05))
    (fp_line (start 1.65 -0.73) (end 1.65 0.73) (layer F.CrtYd) (width 0.05))
    (fp_line (start 1.65 0.73) (end -1.65 0.73) (layer F.CrtYd) (width 0.05))
    (fp_text user %R (at 0 0 90) (layer F.Fab)
      (effects (font (size 0.4 0.4) (thickness 0.06)))
    )
    (pad 1 smd roundrect (at -0.875 0 90) (size 1.05 0.95) (layers F.Cu F.Paste F.Mask) (roundrect_rratio 0.25)
      (net 9 +8V))
    (pad 2 smd roundrect (at 0.875 0 90) (size 1.05 0.95) (layers F.Cu F.Paste F.Mask) (roundrect_rratio 0.25)
      (net 3 GND))
    (model ${KISYS3DMOD}/Capacitor_SMD.3dshapes/C_0603_1608Metric.wrl
      (at (xyz 0 0 0))
      (scale (xyz 1 1 1))
      (rotate (xyz 0 0 0))
    )
  )

  (module Capacitor_SMD:C_0603_1608Metric_Pad1.05x0.95mm_HandSolder (layer F.Cu) (tedit 5B301BBE) (tstamp 5BBED7D5)
    (at 149 81.75 90)
    (descr "Capacitor SMD 0603 (1608 Metric), square (rectangular) end terminal, IPC_7351 nominal with elongated pad for handsoldering. (Body size source: http://www.tortai-tech.com/upload/download/2011102023233369053.pdf), generated with kicad-footprint-generator")
    (tags "capacitor handsolder")
    (path /5AC68275)
    (attr smd)
    (fp_text reference C12 (at 0 -1.43 90) (layer F.SilkS)
      (effects (font (size 1 1) (thickness 0.15)))
    )
    (fp_text value 10p (at 0 1.43 90) (layer F.Fab)
      (effects (font (size 1 1) (thickness 0.15)))
    )
    (fp_line (start -0.8 0.4) (end -0.8 -0.4) (layer F.Fab) (width 0.1))
    (fp_line (start -0.8 -0.4) (end 0.8 -0.4) (layer F.Fab) (width 0.1))
    (fp_line (start 0.8 -0.4) (end 0.8 0.4) (layer F.Fab) (width 0.1))
    (fp_line (start 0.8 0.4) (end -0.8 0.4) (layer F.Fab) (width 0.1))
    (fp_line (start -0.171267 -0.51) (end 0.171267 -0.51) (layer F.SilkS) (width 0.12))
    (fp_line (start -0.171267 0.51) (end 0.171267 0.51) (layer F.SilkS) (width 0.12))
    (fp_line (start -1.65 0.73) (end -1.65 -0.73) (layer F.CrtYd) (width 0.05))
    (fp_line (start -1.65 -0.73) (end 1.65 -0.73) (layer F.CrtYd) (width 0.05))
    (fp_line (start 1.65 -0.73) (end 1.65 0.73) (layer F.CrtYd) (width 0.05))
    (fp_line (start 1.65 0.73) (end -1.65 0.73) (layer F.CrtYd) (width 0.05))
    (fp_text user %R (at 0 0 90) (layer F.Fab)
      (effects (font (size 0.4 0.4) (thickness 0.06)))
    )
    (pad 1 smd roundrect (at -0.875 0 90) (size 1.05 0.95) (layers F.Cu F.Paste F.Mask) (roundrect_rratio 0.25)
      (net 9 +8V))
    (pad 2 smd roundrect (at 0.875 0 90) (size 1.05 0.95) (layers F.Cu F.Paste F.Mask) (roundrect_rratio 0.25)
      (net 3 GND))
    (model ${KISYS3DMOD}/Capacitor_SMD.3dshapes/C_0603_1608Metric.wrl
      (at (xyz 0 0 0))
      (scale (xyz 1 1 1))
      (rotate (xyz 0 0 0))
    )
  )

  (module Package_TO_SOT_SMD:SOT-89-3_Handsoldering (layer F.Cu) (tedit 5A02FF57) (tstamp 5C2A7D49)
    (at 157.5 79.5 270)
    (descr "SOT-89-3 Handsoldering")
    (tags "SOT-89-3 Handsoldering")
    (path /5B8E4563)
    (attr smd)
    (fp_text reference U1 (at 0.45 -3.3 270) (layer F.SilkS)
      (effects (font (size 1 1) (thickness 0.15)))
    )
    (fp_text value L7808 (at 0.5 3.15 270) (layer F.Fab)
      (effects (font (size 1 1) (thickness 0.15)))
    )
    (fp_text user %R (at 0.38 0) (layer F.Fab)
      (effects (font (size 0.6 0.6) (thickness 0.09)))
    )
    (fp_line (start -3.5 2.55) (end 4.25 2.55) (layer F.CrtYd) (width 0.05))
    (fp_line (start 4.25 2.55) (end 4.25 -2.55) (layer F.CrtYd) (width 0.05))
    (fp_line (start 4.25 -2.55) (end -3.5 -2.55) (layer F.CrtYd) (width 0.05))
    (fp_line (start -3.5 -2.55) (end -3.5 2.55) (layer F.CrtYd) (width 0.05))
    (fp_line (start 1.78 1.2) (end 1.78 2.4) (layer F.SilkS) (width 0.12))
    (fp_line (start 1.78 2.4) (end -0.92 2.4) (layer F.SilkS) (width 0.12))
    (fp_line (start -2.22 -2.4) (end 1.78 -2.4) (layer F.SilkS) (width 0.12))
    (fp_line (start 1.78 -2.4) (end 1.78 -1.2) (layer F.SilkS) (width 0.12))
    (fp_line (start -0.92 -1.51) (end -0.13 -2.3) (layer F.Fab) (width 0.1))
    (fp_line (start 1.68 -2.3) (end 1.68 2.3) (layer F.Fab) (width 0.1))
    (fp_line (start 1.68 2.3) (end -0.92 2.3) (layer F.Fab) (width 0.1))
    (fp_line (start -0.92 2.3) (end -0.92 -1.51) (layer F.Fab) (width 0.1))
    (fp_line (start -0.13 -2.3) (end 1.68 -2.3) (layer F.Fab) (width 0.1))
    (pad 1 smd rect (at -1.98 -1.5 180) (size 1 2.5) (layers F.Cu F.Paste F.Mask)
      (net 11 "Net-(J3-Pad1)"))
    (pad 2 smd rect (at -1.98 0 180) (size 1 2.5) (layers F.Cu F.Paste F.Mask)
      (net 3 GND))
    (pad 3 smd rect (at -1.98 1.5 180) (size 1 2.5) (layers F.Cu F.Paste F.Mask)
      (net 9 +8V))
    (pad 2 smd rect (at 1.98 0 180) (size 2 4) (layers F.Cu F.Paste F.Mask)
      (net 3 GND))
    (pad 2 smd trapezoid (at -0.37 0) (size 1.5 0.75) (rect_delta 0 0.5 ) (layers F.Cu F.Paste F.Mask)
      (net 3 GND))
    (model ${KISYS3DMOD}/Package_TO_SOT_SMD.3dshapes/SOT-89-3.wrl
      (at (xyz 0 0 0))
      (scale (xyz 1 1 1))
      (rotate (xyz 0 0 0))
    )
  )

  (module TestPoint:TestPoint_Pad_4.0x4.0mm (layer F.Cu) (tedit 5BB28BE2) (tstamp 5BBED8B8)
    (at 164.25 77.5 90)
    (descr "SMD rectangular pad as test Point, square 4.0mm side length")
    (tags "test point SMD pad rectangle square")
    (path /5B8E8DB2)
    (attr virtual)
    (fp_text reference J3 (at 0 -2.898 90) (layer F.SilkS)
      (effects (font (size 1 1) (thickness 0.15)))
    )
    (fp_text value Conn_01x01_Male (at 0 3.1 90) (layer F.Fab)
      (effects (font (size 1 1) (thickness 0.15)))
    )
    (fp_text user %R (at 0 -2.9 90) (layer F.Fab)
      (effects (font (size 1 1) (thickness 0.15)))
    )
    (fp_line (start -2.2 -2.2) (end 2.2 -2.2) (layer F.SilkS) (width 0.12))
    (fp_line (start 2.2 -2.2) (end 2.2 2.2) (layer F.SilkS) (width 0.12))
    (fp_line (start 2.2 2.2) (end -2.2 2.2) (layer F.SilkS) (width 0.12))
    (fp_line (start -2.2 2.2) (end -2.2 -2.2) (layer F.SilkS) (width 0.12))
    (fp_line (start -2.5 -2.5) (end 2.5 -2.5) (layer F.CrtYd) (width 0.05))
    (fp_line (start -2.5 -2.5) (end -2.5 2.5) (layer F.CrtYd) (width 0.05))
    (fp_line (start 2.5 2.5) (end 2.5 -2.5) (layer F.CrtYd) (width 0.05))
    (fp_line (start 2.5 2.5) (end -2.5 2.5) (layer F.CrtYd) (width 0.05))
    (pad 1 smd rect (at 0 0 90) (size 4 4) (layers F.Cu F.Mask)
      (net 11 "Net-(J3-Pad1)"))
  )

  (module Package_TO_SOT_SMD:SOT-89-3_Handsoldering (layer F.Cu) (tedit 5A02FF57) (tstamp 5BB3D6F8)
    (at 122.75 89 90)
    (descr "SOT-89-3 Handsoldering")
    (tags "SOT-89-3 Handsoldering")
    (path /5AC52D1C)
    (attr smd)
    (fp_text reference U22 (at 0.45 -3.3 90) (layer F.SilkS)
      (effects (font (size 1 1) (thickness 0.15)))
    )
    (fp_text value SPF5189Z (at 0.5 3.15 90) (layer F.Fab)
      (effects (font (size 1 1) (thickness 0.15)))
    )
    (fp_text user %R (at 0.38 0 180) (layer F.Fab)
      (effects (font (size 0.6 0.6) (thickness 0.09)))
    )
    (fp_line (start -3.5 2.55) (end 4.25 2.55) (layer F.CrtYd) (width 0.05))
    (fp_line (start 4.25 2.55) (end 4.25 -2.55) (layer F.CrtYd) (width 0.05))
    (fp_line (start 4.25 -2.55) (end -3.5 -2.55) (layer F.CrtYd) (width 0.05))
    (fp_line (start -3.5 -2.55) (end -3.5 2.55) (layer F.CrtYd) (width 0.05))
    (fp_line (start 1.78 1.2) (end 1.78 2.4) (layer F.SilkS) (width 0.12))
    (fp_line (start 1.78 2.4) (end -0.92 2.4) (layer F.SilkS) (width 0.12))
    (fp_line (start -2.22 -2.4) (end 1.78 -2.4) (layer F.SilkS) (width 0.12))
    (fp_line (start 1.78 -2.4) (end 1.78 -1.2) (layer F.SilkS) (width 0.12))
    (fp_line (start -0.92 -1.51) (end -0.13 -2.3) (layer F.Fab) (width 0.1))
    (fp_line (start 1.68 -2.3) (end 1.68 2.3) (layer F.Fab) (width 0.1))
    (fp_line (start 1.68 2.3) (end -0.92 2.3) (layer F.Fab) (width 0.1))
    (fp_line (start -0.92 2.3) (end -0.92 -1.51) (layer F.Fab) (width 0.1))
    (fp_line (start -0.13 -2.3) (end 1.68 -2.3) (layer F.Fab) (width 0.1))
    (pad 1 smd rect (at -1.98 -1.5) (size 1 2.5) (layers F.Cu F.Paste F.Mask)
      (net 1 "Net-(C11-Pad1)"))
    (pad 2 smd rect (at -1.98 0) (size 1 2.5) (layers F.Cu F.Paste F.Mask)
      (net 3 GND))
    (pad 3 smd rect (at -1.98 1.5) (size 1 2.5) (layers F.Cu F.Paste F.Mask)
      (net 7 "Net-(C21-Pad2)"))
    (pad 2 smd rect (at 1.98 0) (size 2 4) (layers F.Cu F.Paste F.Mask)
      (net 3 GND))
    (pad 2 smd trapezoid (at -0.37 0 180) (size 1.5 0.75) (rect_delta 0 0.5 ) (layers F.Cu F.Paste F.Mask)
      (net 3 GND))
    (model ${KISYS3DMOD}/Package_TO_SOT_SMD.3dshapes/SOT-89-3.wrl
      (at (xyz 0 0 0))
      (scale (xyz 1 1 1))
      (rotate (xyz 0 0 0))
    )
  )

  (module Capacitor_SMD:C_0603_1608Metric_Pad1.05x0.95mm_HandSolder (layer F.Cu) (tedit 5B301BBE) (tstamp 5BB3D3E0)
    (at 111.125 91 180)
    (descr "Capacitor SMD 0603 (1608 Metric), square (rectangular) end terminal, IPC_7351 nominal with elongated pad for handsoldering. (Body size source: http://www.tortai-tech.com/upload/download/2011102023233369053.pdf), generated with kicad-footprint-generator")
    (tags "capacitor handsolder")
    (path /5AC686A5)
    (attr smd)
    (fp_text reference C11 (at 0 -1.43 180) (layer F.SilkS)
      (effects (font (size 1 1) (thickness 0.15)))
    )
    (fp_text value 10p (at 0 1.43 180) (layer F.Fab)
      (effects (font (size 1 1) (thickness 0.15)))
    )
    (fp_line (start -0.8 0.4) (end -0.8 -0.4) (layer F.Fab) (width 0.1))
    (fp_line (start -0.8 -0.4) (end 0.8 -0.4) (layer F.Fab) (width 0.1))
    (fp_line (start 0.8 -0.4) (end 0.8 0.4) (layer F.Fab) (width 0.1))
    (fp_line (start 0.8 0.4) (end -0.8 0.4) (layer F.Fab) (width 0.1))
    (fp_line (start -0.171267 -0.51) (end 0.171267 -0.51) (layer F.SilkS) (width 0.12))
    (fp_line (start -0.171267 0.51) (end 0.171267 0.51) (layer F.SilkS) (width 0.12))
    (fp_line (start -1.65 0.73) (end -1.65 -0.73) (layer F.CrtYd) (width 0.05))
    (fp_line (start -1.65 -0.73) (end 1.65 -0.73) (layer F.CrtYd) (width 0.05))
    (fp_line (start 1.65 -0.73) (end 1.65 0.73) (layer F.CrtYd) (width 0.05))
    (fp_line (start 1.65 0.73) (end -1.65 0.73) (layer F.CrtYd) (width 0.05))
    (fp_text user %R (at 0 0 180) (layer F.Fab)
      (effects (font (size 0.4 0.4) (thickness 0.06)))
    )
    (pad 1 smd roundrect (at -0.875 0 180) (size 1.05 0.95) (layers F.Cu F.Paste F.Mask) (roundrect_rratio 0.25)
      (net 1 "Net-(C11-Pad1)"))
    (pad 2 smd roundrect (at 0.875 0 180) (size 1.05 0.95) (layers F.Cu F.Paste F.Mask) (roundrect_rratio 0.25)
      (net 2 "Net-(C11-Pad2)"))
    (model ${KISYS3DMOD}/Capacitor_SMD.3dshapes/C_0603_1608Metric.wrl
      (at (xyz 0 0 0))
      (scale (xyz 1 1 1))
      (rotate (xyz 0 0 0))
    )
  )

  (module Capacitor_SMD:C_0603_1608Metric_Pad1.05x0.95mm_HandSolder (layer F.Cu) (tedit 5B301BBE) (tstamp 5BB24D41)
    (at 154.875 91 180)
    (descr "Capacitor SMD 0603 (1608 Metric), square (rectangular) end terminal, IPC_7351 nominal with elongated pad for handsoldering. (Body size source: http://www.tortai-tech.com/upload/download/2011102023233369053.pdf), generated with kicad-footprint-generator")
    (tags "capacitor handsolder")
    (path /5AC68632)
    (attr smd)
    (fp_text reference C15 (at 0 -1.43 180) (layer F.SilkS)
      (effects (font (size 1 1) (thickness 0.15)))
    )
    (fp_text value 10p (at 0 1.43 180) (layer F.Fab)
      (effects (font (size 1 1) (thickness 0.15)))
    )
    (fp_text user %R (at 0 0 180) (layer F.Fab)
      (effects (font (size 0.4 0.4) (thickness 0.06)))
    )
    (fp_line (start 1.65 0.73) (end -1.65 0.73) (layer F.CrtYd) (width 0.05))
    (fp_line (start 1.65 -0.73) (end 1.65 0.73) (layer F.CrtYd) (width 0.05))
    (fp_line (start -1.65 -0.73) (end 1.65 -0.73) (layer F.CrtYd) (width 0.05))
    (fp_line (start -1.65 0.73) (end -1.65 -0.73) (layer F.CrtYd) (width 0.05))
    (fp_line (start -0.171267 0.51) (end 0.171267 0.51) (layer F.SilkS) (width 0.12))
    (fp_line (start -0.171267 -0.51) (end 0.171267 -0.51) (layer F.SilkS) (width 0.12))
    (fp_line (start 0.8 0.4) (end -0.8 0.4) (layer F.Fab) (width 0.1))
    (fp_line (start 0.8 -0.4) (end 0.8 0.4) (layer F.Fab) (width 0.1))
    (fp_line (start -0.8 -0.4) (end 0.8 -0.4) (layer F.Fab) (width 0.1))
    (fp_line (start -0.8 0.4) (end -0.8 -0.4) (layer F.Fab) (width 0.1))
    (pad 2 smd roundrect (at 0.875 0 180) (size 1.05 0.95) (layers F.Cu F.Paste F.Mask) (roundrect_rratio 0.25)
      (net 4 "Net-(C15-Pad2)"))
    (pad 1 smd roundrect (at -0.875 0 180) (size 1.05 0.95) (layers F.Cu F.Paste F.Mask) (roundrect_rratio 0.25)
      (net 5 "Net-(C15-Pad1)"))
    (model ${KISYS3DMOD}/Capacitor_SMD.3dshapes/C_0603_1608Metric.wrl
      (at (xyz 0 0 0))
      (scale (xyz 1 1 1))
      (rotate (xyz 0 0 0))
    )
  )

  (module Capacitor_SMD:C_0603_1608Metric_Pad1.05x0.95mm_HandSolder (layer F.Cu) (tedit 5B301BBE) (tstamp 5BB3D2A1)
    (at 128.25 85.5 90)
    (descr "Capacitor SMD 0603 (1608 Metric), square (rectangular) end terminal, IPC_7351 nominal with elongated pad for handsoldering. (Body size source: http://www.tortai-tech.com/upload/download/2011102023233369053.pdf), generated with kicad-footprint-generator")
    (tags "capacitor handsolder")
    (path /5AC529D9)
    (attr smd)
    (fp_text reference C22 (at 0 -1.43 90) (layer F.SilkS)
      (effects (font (size 1 1) (thickness 0.15)))
    )
    (fp_text value 10p (at 0 1.43 90) (layer F.Fab)
      (effects (font (size 1 1) (thickness 0.15)))
    )
    (fp_text user %R (at 0 0 90) (layer F.Fab)
      (effects (font (size 0.4 0.4) (thickness 0.06)))
    )
    (fp_line (start 1.65 0.73) (end -1.65 0.73) (layer F.CrtYd) (width 0.05))
    (fp_line (start 1.65 -0.73) (end 1.65 0.73) (layer F.CrtYd) (width 0.05))
    (fp_line (start -1.65 -0.73) (end 1.65 -0.73) (layer F.CrtYd) (width 0.05))
    (fp_line (start -1.65 0.73) (end -1.65 -0.73) (layer F.CrtYd) (width 0.05))
    (fp_line (start -0.171267 0.51) (end 0.171267 0.51) (layer F.SilkS) (width 0.12))
    (fp_line (start -0.171267 -0.51) (end 0.171267 -0.51) (layer F.SilkS) (width 0.12))
    (fp_line (start 0.8 0.4) (end -0.8 0.4) (layer F.Fab) (width 0.1))
    (fp_line (start 0.8 -0.4) (end 0.8 0.4) (layer F.Fab) (width 0.1))
    (fp_line (start -0.8 -0.4) (end 0.8 -0.4) (layer F.Fab) (width 0.1))
    (fp_line (start -0.8 0.4) (end -0.8 -0.4) (layer F.Fab) (width 0.1))
    (pad 2 smd roundrect (at 0.875 0 90) (size 1.05 0.95) (layers F.Cu F.Paste F.Mask) (roundrect_rratio 0.25)
      (net 3 GND))
    (pad 1 smd roundrect (at -0.875 0 90) (size 1.05 0.95) (layers F.Cu F.Paste F.Mask) (roundrect_rratio 0.25)
      (net 10 +5V))
    (model ${KISYS3DMOD}/Capacitor_SMD.3dshapes/C_0603_1608Metric.wrl
      (at (xyz 0 0 0))
      (scale (xyz 1 1 1))
      (rotate (xyz 0 0 0))
    )
  )

  (module Capacitor_SMD:C_0603_1608Metric_Pad1.05x0.95mm_HandSolder (layer F.Cu) (tedit 5B301BBE) (tstamp 5BB3D241)
    (at 130.25 85.5 90)
    (descr "Capacitor SMD 0603 (1608 Metric), square (rectangular) end terminal, IPC_7351 nominal with elongated pad for handsoldering. (Body size source: http://www.tortai-tech.com/upload/download/2011102023233369053.pdf), generated with kicad-footprint-generator")
    (tags "capacitor handsolder")
    (path /5AC5299B)
    (attr smd)
    (fp_text reference C23 (at 0 -1.43 90) (layer F.SilkS)
      (effects (font (size 1 1) (thickness 0.15)))
    )
    (fp_text value 100p (at 0 1.43 90) (layer F.Fab)
      (effects (font (size 1 1) (thickness 0.15)))
    )
    (fp_line (start -0.8 0.4) (end -0.8 -0.4) (layer F.Fab) (width 0.1))
    (fp_line (start -0.8 -0.4) (end 0.8 -0.4) (layer F.Fab) (width 0.1))
    (fp_line (start 0.8 -0.4) (end 0.8 0.4) (layer F.Fab) (width 0.1))
    (fp_line (start 0.8 0.4) (end -0.8 0.4) (layer F.Fab) (width 0.1))
    (fp_line (start -0.171267 -0.51) (end 0.171267 -0.51) (layer F.SilkS) (width 0.12))
    (fp_line (start -0.171267 0.51) (end 0.171267 0.51) (layer F.SilkS) (width 0.12))
    (fp_line (start -1.65 0.73) (end -1.65 -0.73) (layer F.CrtYd) (width 0.05))
    (fp_line (start -1.65 -0.73) (end 1.65 -0.73) (layer F.CrtYd) (width 0.05))
    (fp_line (start 1.65 -0.73) (end 1.65 0.73) (layer F.CrtYd) (width 0.05))
    (fp_line (start 1.65 0.73) (end -1.65 0.73) (layer F.CrtYd) (width 0.05))
    (fp_text user %R (at 0 0 90) (layer F.Fab)
      (effects (font (size 0.4 0.4) (thickness 0.06)))
    )
    (pad 1 smd roundrect (at -0.875 0 90) (size 1.05 0.95) (layers F.Cu F.Paste F.Mask) (roundrect_rratio 0.25)
      (net 10 +5V))
    (pad 2 smd roundrect (at 0.875 0 90) (size 1.05 0.95) (layers F.Cu F.Paste F.Mask) (roundrect_rratio 0.25)
      (net 3 GND))
    (model ${KISYS3DMOD}/Capacitor_SMD.3dshapes/C_0603_1608Metric.wrl
      (at (xyz 0 0 0))
      (scale (xyz 1 1 1))
      (rotate (xyz 0 0 0))
    )
  )

  (module Capacitor_SMD:C_0603_1608Metric_Pad1.05x0.95mm_HandSolder (layer F.Cu) (tedit 5B301BBE) (tstamp 5BB3D271)
    (at 132.25 85.5 90)
    (descr "Capacitor SMD 0603 (1608 Metric), square (rectangular) end terminal, IPC_7351 nominal with elongated pad for handsoldering. (Body size source: http://www.tortai-tech.com/upload/download/2011102023233369053.pdf), generated with kicad-footprint-generator")
    (tags "capacitor handsolder")
    (path /5AC52950)
    (attr smd)
    (fp_text reference C24 (at 0 -1.43 90) (layer F.SilkS)
      (effects (font (size 1 1) (thickness 0.15)))
    )
    (fp_text value 0.1u (at 0 1.43 90) (layer F.Fab)
      (effects (font (size 1 1) (thickness 0.15)))
    )
    (fp_text user %R (at 0 0 90) (layer F.Fab)
      (effects (font (size 0.4 0.4) (thickness 0.06)))
    )
    (fp_line (start 1.65 0.73) (end -1.65 0.73) (layer F.CrtYd) (width 0.05))
    (fp_line (start 1.65 -0.73) (end 1.65 0.73) (layer F.CrtYd) (width 0.05))
    (fp_line (start -1.65 -0.73) (end 1.65 -0.73) (layer F.CrtYd) (width 0.05))
    (fp_line (start -1.65 0.73) (end -1.65 -0.73) (layer F.CrtYd) (width 0.05))
    (fp_line (start -0.171267 0.51) (end 0.171267 0.51) (layer F.SilkS) (width 0.12))
    (fp_line (start -0.171267 -0.51) (end 0.171267 -0.51) (layer F.SilkS) (width 0.12))
    (fp_line (start 0.8 0.4) (end -0.8 0.4) (layer F.Fab) (width 0.1))
    (fp_line (start 0.8 -0.4) (end 0.8 0.4) (layer F.Fab) (width 0.1))
    (fp_line (start -0.8 -0.4) (end 0.8 -0.4) (layer F.Fab) (width 0.1))
    (fp_line (start -0.8 0.4) (end -0.8 -0.4) (layer F.Fab) (width 0.1))
    (pad 2 smd roundrect (at 0.875 0 90) (size 1.05 0.95) (layers F.Cu F.Paste F.Mask) (roundrect_rratio 0.25)
      (net 3 GND))
    (pad 1 smd roundrect (at -0.875 0 90) (size 1.05 0.95) (layers F.Cu F.Paste F.Mask) (roundrect_rratio 0.25)
      (net 10 +5V))
    (model ${KISYS3DMOD}/Capacitor_SMD.3dshapes/C_0603_1608Metric.wrl
      (at (xyz 0 0 0))
      (scale (xyz 1 1 1))
      (rotate (xyz 0 0 0))
    )
  )

  (module lib_kicad:SMA (layer F.Cu) (tedit 564238BF) (tstamp 5BB3D621)
    (at 169 91 180)
    (path /5AC52A8A)
    (fp_text reference J2 (at -3.5 -4.5 180) (layer F.SilkS)
      (effects (font (size 1 1) (thickness 0.15)))
    )
    (fp_text value SMA (at -5 0 180) (layer F.Fab)
      (effects (font (size 1 1) (thickness 0.15)))
    )
    (fp_line (start -1 -4) (end 3 -4) (layer F.SilkS) (width 0.15))
    (fp_line (start -1 4) (end -1 -4) (layer F.SilkS) (width 0.15))
    (fp_line (start -0.5 4) (end -1 4) (layer F.SilkS) (width 0.15))
    (fp_line (start 3 4) (end -0.5 4) (layer F.SilkS) (width 0.15))
    (fp_line (start 3 3) (end 3 4) (layer F.SilkS) (width 0.15))
    (fp_line (start 0 3) (end 3 3) (layer F.SilkS) (width 0.15))
    (fp_line (start 0 -3) (end 0 3) (layer F.SilkS) (width 0.15))
    (fp_line (start 3 -3) (end 0 -3) (layer F.SilkS) (width 0.15))
    (fp_line (start 3 -4) (end 3 -3) (layer F.SilkS) (width 0.15))
    (fp_line (start -3 -2.5) (end -1 -2.5) (layer F.SilkS) (width 0.15))
    (fp_line (start -3 2.5) (end -3 -2.5) (layer F.SilkS) (width 0.15))
    (fp_line (start -1 2.5) (end -3 2.5) (layer F.SilkS) (width 0.15))
    (fp_line (start -3 3) (end -3 2.5) (layer F.SilkS) (width 0.15))
    (fp_line (start -7 3) (end -3 3) (layer F.SilkS) (width 0.15))
    (fp_line (start -7 -3.5) (end -7 3) (layer F.SilkS) (width 0.15))
    (fp_line (start -3 -3.5) (end -7 -3.5) (layer F.SilkS) (width 0.15))
    (fp_line (start -3 -2.5) (end -3 -3.5) (layer F.SilkS) (width 0.15))
    (fp_line (start -8 2) (end -7 3) (layer F.SilkS) (width 0.15))
    (fp_line (start -8 -2.5) (end -8 2) (layer F.SilkS) (width 0.15))
    (fp_line (start -7 -3.5) (end -8 -2.5) (layer F.SilkS) (width 0.15))
    (fp_line (start 3 0.5) (end 0 0.5) (layer F.SilkS) (width 0.15))
    (fp_line (start 3 -0.5) (end 3 0.5) (layer F.SilkS) (width 0.15))
    (fp_line (start 0 -0.5) (end 3 -0.5) (layer F.SilkS) (width 0.15))
    (pad 2 smd rect (at 2 3.5 180) (size 4 3) (layers F.Cu F.Paste F.Mask)
      (net 3 GND))
    (pad 2 smd rect (at 2 -3.5 180) (size 4 3) (layers F.Cu F.Paste F.Mask)
      (net 3 GND))
    (pad 1 smd rect (at 2.032 0 180) (size 4 1) (layers F.Cu F.Paste F.Mask)
      (net 5 "Net-(C15-Pad1)"))
  )

  (module Inductor_SMD:L_0603_1608Metric_Pad1.05x0.95mm_HandSolder (layer F.Cu) (tedit 5B301BBE) (tstamp 5C2AA415)
    (at 149 90.125 270)
    (descr "Capacitor SMD 0603 (1608 Metric), square (rectangular) end terminal, IPC_7351 nominal with elongated pad for handsoldering. (Body size source: http://www.tortai-tech.com/upload/download/2011102023233369053.pdf), generated with kicad-footprint-generator")
    (tags "inductor handsolder")
    (path /5AC682E6)
    (attr smd)
    (fp_text reference L11 (at 0 -1.43 270) (layer F.SilkS)
      (effects (font (size 1 1) (thickness 0.15)))
    )
    (fp_text value 230uH (at 0 1.43 270) (layer F.Fab)
      (effects (font (size 1 1) (thickness 0.15)))
    )
    (fp_line (start -0.8 0.4) (end -0.8 -0.4) (layer F.Fab) (width 0.1))
    (fp_line (start -0.8 -0.4) (end 0.8 -0.4) (layer F.Fab) (width 0.1))
    (fp_line (start 0.8 -0.4) (end 0.8 0.4) (layer F.Fab) (width 0.1))
    (fp_line (start 0.8 0.4) (end -0.8 0.4) (layer F.Fab) (width 0.1))
    (fp_line (start -0.171267 -0.51) (end 0.171267 -0.51) (layer F.SilkS) (width 0.12))
    (fp_line (start -0.171267 0.51) (end 0.171267 0.51) (layer F.SilkS) (width 0.12))
    (fp_line (start -1.65 0.73) (end -1.65 -0.73) (layer F.CrtYd) (width 0.05))
    (fp_line (start -1.65 -0.73) (end 1.65 -0.73) (layer F.CrtYd) (width 0.05))
    (fp_line (start 1.65 -0.73) (end 1.65 0.73) (layer F.CrtYd) (width 0.05))
    (fp_line (start 1.65 0.73) (end -1.65 0.73) (layer F.CrtYd) (width 0.05))
    (fp_text user %R (at 0 0 270) (layer F.Fab)
      (effects (font (size 0.4 0.4) (thickness 0.06)))
    )
    (pad 1 smd roundrect (at -0.875 0 270) (size 1.05 0.95) (layers F.Cu F.Paste F.Mask) (roundrect_rratio 0.25)
      (net 8 "Net-(L11-Pad1)"))
    (pad 2 smd roundrect (at 0.875 0 270) (size 1.05 0.95) (layers F.Cu F.Paste F.Mask) (roundrect_rratio 0.25)
      (net 4 "Net-(C15-Pad2)"))
    (model ${KISYS3DMOD}/Inductor_SMD.3dshapes/L_0603_1608Metric.wrl
      (at (xyz 0 0 0))
      (scale (xyz 1 1 1))
      (rotate (xyz 0 0 0))
    )
  )

  (module Inductor_SMD:L_0603_1608Metric_Pad1.05x0.95mm_HandSolder (layer F.Cu) (tedit 5B301BBE) (tstamp 5BB3D7A6)
    (at 128.25 90.125 270)
    (descr "Capacitor SMD 0603 (1608 Metric), square (rectangular) end terminal, IPC_7351 nominal with elongated pad for handsoldering. (Body size source: http://www.tortai-tech.com/upload/download/2011102023233369053.pdf), generated with kicad-footprint-generator")
    (tags "inductor handsolder")
    (path /5AC52820)
    (attr smd)
    (fp_text reference L21 (at 0 -1.43 270) (layer F.SilkS)
      (effects (font (size 1 1) (thickness 0.15)))
    )
    (fp_text value 230uH (at 0 1.43 270) (layer F.Fab)
      (effects (font (size 1 1) (thickness 0.15)))
    )
    (fp_text user %R (at 0 0 270) (layer F.Fab)
      (effects (font (size 0.4 0.4) (thickness 0.06)))
    )
    (fp_line (start 1.65 0.73) (end -1.65 0.73) (layer F.CrtYd) (width 0.05))
    (fp_line (start 1.65 -0.73) (end 1.65 0.73) (layer F.CrtYd) (width 0.05))
    (fp_line (start -1.65 -0.73) (end 1.65 -0.73) (layer F.CrtYd) (width 0.05))
    (fp_line (start -1.65 0.73) (end -1.65 -0.73) (layer F.CrtYd) (width 0.05))
    (fp_line (start -0.171267 0.51) (end 0.171267 0.51) (layer F.SilkS) (width 0.12))
    (fp_line (start -0.171267 -0.51) (end 0.171267 -0.51) (layer F.SilkS) (width 0.12))
    (fp_line (start 0.8 0.4) (end -0.8 0.4) (layer F.Fab) (width 0.1))
    (fp_line (start 0.8 -0.4) (end 0.8 0.4) (layer F.Fab) (width 0.1))
    (fp_line (start -0.8 -0.4) (end 0.8 -0.4) (layer F.Fab) (width 0.1))
    (fp_line (start -0.8 0.4) (end -0.8 -0.4) (layer F.Fab) (width 0.1))
    (pad 2 smd roundrect (at 0.875 0 270) (size 1.05 0.95) (layers F.Cu F.Paste F.Mask) (roundrect_rratio 0.25)
      (net 7 "Net-(C21-Pad2)"))
    (pad 1 smd roundrect (at -0.875 0 270) (size 1.05 0.95) (layers F.Cu F.Paste F.Mask) (roundrect_rratio 0.25)
      (net 10 +5V))
    (model ${KISYS3DMOD}/Inductor_SMD.3dshapes/L_0603_1608Metric.wrl
      (at (xyz 0 0 0))
      (scale (xyz 1 1 1))
      (rotate (xyz 0 0 0))
    )
  )

  (module Package_TO_SOT_SMD:SOT-223-3_TabPin2 (layer F.Cu) (tedit 5A02FF57) (tstamp 5C2AA965)
    (at 138.25 80 180)
    (descr "module CMS SOT223 4 pins")
    (tags "CMS SOT")
    (path /5B8E4709)
    (attr smd)
    (fp_text reference U2 (at 0 -4.5 180) (layer F.SilkS)
      (effects (font (size 1 1) (thickness 0.15)))
    )
    (fp_text value AMS1117-5.0 (at 0 4.5 180) (layer F.Fab)
      (effects (font (size 1 1) (thickness 0.15)))
    )
    (fp_text user %R (at 0 0 -90) (layer F.Fab)
      (effects (font (size 0.8 0.8) (thickness 0.12)))
    )
    (fp_line (start 1.91 3.41) (end 1.91 2.15) (layer F.SilkS) (width 0.12))
    (fp_line (start 1.91 -3.41) (end 1.91 -2.15) (layer F.SilkS) (width 0.12))
    (fp_line (start 4.4 -3.6) (end -4.4 -3.6) (layer F.CrtYd) (width 0.05))
    (fp_line (start 4.4 3.6) (end 4.4 -3.6) (layer F.CrtYd) (width 0.05))
    (fp_line (start -4.4 3.6) (end 4.4 3.6) (layer F.CrtYd) (width 0.05))
    (fp_line (start -4.4 -3.6) (end -4.4 3.6) (layer F.CrtYd) (width 0.05))
    (fp_line (start -1.85 -2.35) (end -0.85 -3.35) (layer F.Fab) (width 0.1))
    (fp_line (start -1.85 -2.35) (end -1.85 3.35) (layer F.Fab) (width 0.1))
    (fp_line (start -1.85 3.41) (end 1.91 3.41) (layer F.SilkS) (width 0.12))
    (fp_line (start -0.85 -3.35) (end 1.85 -3.35) (layer F.Fab) (width 0.1))
    (fp_line (start -4.1 -3.41) (end 1.91 -3.41) (layer F.SilkS) (width 0.12))
    (fp_line (start -1.85 3.35) (end 1.85 3.35) (layer F.Fab) (width 0.1))
    (fp_line (start 1.85 -3.35) (end 1.85 3.35) (layer F.Fab) (width 0.1))
    (pad 2 smd rect (at 3.15 0 180) (size 2 3.8) (layers F.Cu F.Paste F.Mask)
      (net 10 +5V))
    (pad 2 smd rect (at -3.15 0 180) (size 2 1.5) (layers F.Cu F.Paste F.Mask)
      (net 10 +5V))
    (pad 3 smd rect (at -3.15 2.3 180) (size 2 1.5) (layers F.Cu F.Paste F.Mask)
      (net 9 +8V))
    (pad 1 smd rect (at -3.15 -2.3 180) (size 2 1.5) (layers F.Cu F.Paste F.Mask)
      (net 3 GND))
    (model ${KISYS3DMOD}/Package_TO_SOT_SMD.3dshapes/SOT-223.wrl
      (at (xyz 0 0 0))
      (scale (xyz 1 1 1))
      (rotate (xyz 0 0 0))
    )
  )

  (gr_line (start 98 108) (end 169 108) (layer Edge.Cuts) (width 0.15))
  (gr_text "Ligne RX\n18.10 - F4HDG " (at 136.5 102.5) (layer F.Cu)
    (effects (font (size 1.5 1.5) (thickness 0.3)))
  )
  (dimension 35 (width 0.3) (layer Cmts.User)
    (gr_text "35,000 mm" (at 185.6 90.5 270) (layer Cmts.User)
      (effects (font (size 1.5 1.5) (thickness 0.3)))
    )
    (feature1 (pts (xy 172 108) (xy 184.086421 108)))
    (feature2 (pts (xy 172 73) (xy 184.086421 73)))
    (crossbar (pts (xy 183.5 73) (xy 183.5 108)))
    (arrow1a (pts (xy 183.5 108) (xy 182.913579 106.873496)))
    (arrow1b (pts (xy 183.5 108) (xy 184.086421 106.873496)))
    (arrow2a (pts (xy 183.5 73) (xy 182.913579 74.126504)))
    (arrow2b (pts (xy 183.5 73) (xy 184.086421 74.126504)))
  )
  (dimension 71 (width 0.3) (layer Cmts.User)
    (gr_text "71,000 mm" (at 133.654176 65.9) (layer Cmts.User) (tstamp 5C4E84C5)
      (effects (font (size 1.5 1.5) (thickness 0.3)))
    )
    (feature1 (pts (xy 98.154176 71.057717) (xy 98.154176 67.413579)))
    (feature2 (pts (xy 169.154176 71.057717) (xy 169.154176 67.413579)))
    (crossbar (pts (xy 169.154176 68) (xy 98.154176 68)))
    (arrow1a (pts (xy 98.154176 68) (xy 99.28068 67.413579)))
    (arrow1b (pts (xy 98.154176 68) (xy 99.28068 68.586421)))
    (arrow2a (pts (xy 169.154176 68) (xy 168.027672 67.413579)))
    (arrow2b (pts (xy 169.154176 68) (xy 168.027672 68.586421)))
  )
  (gr_line (start 98 73) (end 98 108) (layer Edge.Cuts) (width 0.15))
  (gr_line (start 169 73) (end 98 73) (layer Edge.Cuts) (width 0.15))
  (gr_line (start 169 108) (end 169 73) (layer Edge.Cuts) (width 0.15))

  (segment (start 121.129999 91) (end 121.149999 90.98) (width 1.2) (layer F.Cu) (net 1) (status 30))
  (segment (start 112 91) (end 121.129999 91) (width 1.2) (layer F.Cu) (net 1) (status 30))
  (segment (start 100.032 91) (end 110.25 91) (width 1.2) (layer F.Cu) (net 2) (status 30))
  (via (at 144 84) (size 1.3) (drill 0.8) (layers F.Cu B.Cu) (net 3) (tstamp 5BB3D88B))
  (via (at 99 74) (size 1.3) (drill 0.8) (layers F.Cu B.Cu) (net 3))
  (via (at 130 89) (size 1.3) (drill 0.8) (layers F.Cu B.Cu) (net 3) (tstamp 5BBEEA4C))
  (via (at 134 89) (size 1.3) (drill 0.8) (layers F.Cu B.Cu) (net 3) (tstamp 5BBEEA4D))
  (via (at 139 89) (size 1.3) (drill 0.8) (layers F.Cu B.Cu) (net 3) (tstamp 5BB3D8A8))
  (via (at 154 89) (size 1.3) (drill 0.8) (layers F.Cu B.Cu) (net 3) (tstamp 5BB3D22F))
  (via (at 159 89) (size 1.3) (drill 0.8) (layers F.Cu B.Cu) (net 3) (tstamp 5BBEEA52))
  (via (at 164 89) (size 1.3) (drill 0.8) (layers F.Cu B.Cu) (net 3) (tstamp 5BBEEA53))
  (via (at 104 93) (size 1.3) (drill 0.8) (layers F.Cu B.Cu) (net 3) (tstamp 5BBEEA56))
  (via (at 109 93) (size 1.3) (drill 0.8) (layers F.Cu B.Cu) (net 3) (tstamp 5BBEEA57))
  (via (at 114 93) (size 1.3) (drill 0.8) (layers F.Cu B.Cu) (net 3) (tstamp 5BBEEB52))
  (via (at 122.75 93.5) (size 1.3) (drill 0.8) (layers F.Cu B.Cu) (net 3) (tstamp 5BBEEA5A))
  (via (at 130 93) (size 1.3) (drill 0.8) (layers F.Cu B.Cu) (net 3) (tstamp 5BBEEA5B))
  (via (at 134 93) (size 1.3) (drill 0.8) (layers F.Cu B.Cu) (net 3) (tstamp 5BBEEA5C))
  (via (at 139 93) (size 1.3) (drill 0.8) (layers F.Cu B.Cu) (net 3) (tstamp 5BBEEA5D))
  (via (at 149 93) (size 1.3) (drill 0.8) (layers F.Cu B.Cu) (net 3) (tstamp 5C2AA45F))
  (via (at 154 93) (size 1.3) (drill 0.8) (layers F.Cu B.Cu) (net 3) (tstamp 5BBEEA60))
  (via (at 159 93) (size 1.3) (drill 0.8) (layers F.Cu B.Cu) (net 3) (tstamp 5BBEEA61))
  (via (at 164 93) (size 1.3) (drill 0.8) (layers F.Cu B.Cu) (net 3) (tstamp 5BBEEA62))
  (via (at 119 93) (size 1.3) (drill 0.8) (layers F.Cu B.Cu) (net 3) (tstamp 5BB3D989))
  (via (at 119 89) (size 1.3) (drill 0.8) (layers F.Cu B.Cu) (net 3) (tstamp 5BB3D983))
  (via (at 114 89) (size 1.3) (drill 0.8) (layers F.Cu B.Cu) (net 3) (tstamp 5BBEEB57))
  (via (at 109 89) (size 1.3) (drill 0.8) (layers F.Cu B.Cu) (net 3) (tstamp 5BBEEA48))
  (via (at 104 89) (size 1.3) (drill 0.8) (layers F.Cu B.Cu) (net 3) (tstamp 5BBEEA47))
  (via (at 104 74) (size 1.3) (drill 0.8) (layers F.Cu B.Cu) (net 3) (tstamp 5BB3DB44))
  (via (at 109 74) (size 1.3) (drill 0.8) (layers F.Cu B.Cu) (net 3) (tstamp 5BB3DB45))
  (via (at 114 74) (size 1.3) (drill 0.8) (layers F.Cu B.Cu) (net 3) (tstamp 5BB3DB46))
  (via (at 119 74) (size 1.3) (drill 0.8) (layers F.Cu B.Cu) (net 3) (tstamp 5BB3DB47))
  (via (at 124 74) (size 1.3) (drill 0.8) (layers F.Cu B.Cu) (net 3) (tstamp 5BB3DB48))
  (via (at 129 74) (size 1.3) (drill 0.8) (layers F.Cu B.Cu) (net 3) (tstamp 5BB3DB49))
  (via (at 134 74) (size 1.3) (drill 0.8) (layers F.Cu B.Cu) (net 3) (tstamp 5BB3DB4A))
  (via (at 139 74) (size 1.3) (drill 0.8) (layers F.Cu B.Cu) (net 3) (tstamp 5BB3DB4B))
  (via (at 144 74) (size 1.3) (drill 0.8) (layers F.Cu B.Cu) (net 3) (tstamp 5BB3DB4C))
  (via (at 149 74) (size 1.3) (drill 0.8) (layers F.Cu B.Cu) (net 3) (tstamp 5BB3DB4D))
  (via (at 154 74) (size 1.3) (drill 0.8) (layers F.Cu B.Cu) (net 3) (tstamp 5BB3DB4E))
  (via (at 164 74) (size 1.3) (drill 0.8) (layers F.Cu B.Cu) (net 3) (tstamp 5BB3DB50))
  (via (at 168 74) (size 1.3) (drill 0.8) (layers F.Cu B.Cu) (net 3) (tstamp 5BB3DB51))
  (via (at 99 79) (size 1.3) (drill 0.8) (layers F.Cu B.Cu) (net 3) (tstamp 5BB3DB52))
  (via (at 104 79) (size 1.3) (drill 0.8) (layers F.Cu B.Cu) (net 3) (tstamp 5BB3DB53))
  (via (at 144 79) (size 1.3) (drill 0.8) (layers F.Cu B.Cu) (net 3) (tstamp 5BB3DB5B))
  (via (at 149 79) (size 1.3) (drill 0.8) (layers F.Cu B.Cu) (net 3) (tstamp 5BB3DB5C))
  (via (at 153 79) (size 1.3) (drill 0.8) (layers F.Cu B.Cu) (net 3) (tstamp 5BB3DB5D))
  (via (at 168 79) (size 1.3) (drill 0.8) (layers F.Cu B.Cu) (net 3) (tstamp 5BB3DB60))
  (via (at 99 84) (size 1.3) (drill 0.8) (layers F.Cu B.Cu) (net 3) (tstamp 5BB3DB61))
  (via (at 104 84) (size 1.3) (drill 0.8) (layers F.Cu B.Cu) (net 3) (tstamp 5BB3DB62))
  (via (at 109 84) (size 1.3) (drill 0.8) (layers F.Cu B.Cu) (net 3) (tstamp 5BB3DB63))
  (via (at 114 84) (size 1.3) (drill 0.8) (layers F.Cu B.Cu) (net 3) (tstamp 5BB3DB64))
  (via (at 119 84) (size 1.3) (drill 0.8) (layers F.Cu B.Cu) (net 3) (tstamp 5BB3DB65))
  (via (at 124 84) (size 1.3) (drill 0.8) (layers F.Cu B.Cu) (net 3) (tstamp 5BB3DB66))
  (via (at 154 85.25) (size 1.3) (drill 0.8) (layers F.Cu B.Cu) (net 3) (tstamp 5BB3DB6D))
  (via (at 164 84) (size 1.3) (drill 0.8) (layers F.Cu B.Cu) (net 3) (tstamp 5BB3DB6E))
  (via (at 168 84) (size 1.3) (drill 0.8) (layers F.Cu B.Cu) (net 3) (tstamp 5BB3DB6F))
  (via (at 99 89) (size 1.3) (drill 0.8) (layers F.Cu B.Cu) (net 3) (tstamp 5BB3DB70) (status 30))
  (via (at 164 89) (size 1.3) (drill 0.8) (layers F.Cu B.Cu) (net 3) (tstamp 5BB3DB7D))
  (via (at 99 98) (size 1.3) (drill 0.8) (layers F.Cu B.Cu) (net 3) (tstamp 5BB3DB8E))
  (via (at 104 98) (size 1.3) (drill 0.8) (layers F.Cu B.Cu) (net 3) (tstamp 5BB3DB8F))
  (via (at 109 98) (size 1.3) (drill 0.8) (layers F.Cu B.Cu) (net 3) (tstamp 5BB3DB90))
  (via (at 114 98) (size 1.3) (drill 0.8) (layers F.Cu B.Cu) (net 3) (tstamp 5BB3DB91))
  (via (at 119 98) (size 1.3) (drill 0.8) (layers F.Cu B.Cu) (net 3) (tstamp 5BB3DB92))
  (via (at 124 98) (size 1.3) (drill 0.8) (layers F.Cu B.Cu) (net 3) (tstamp 5BB3DB93))
  (via (at 129 98) (size 1.3) (drill 0.8) (layers F.Cu B.Cu) (net 3) (tstamp 5BB3DB94))
  (via (at 134 98) (size 1.3) (drill 0.8) (layers F.Cu B.Cu) (net 3) (tstamp 5BB3DB95))
  (via (at 139 98) (size 1.3) (drill 0.8) (layers F.Cu B.Cu) (net 3) (tstamp 5BB3DB96))
  (via (at 144 98) (size 1.3) (drill 0.8) (layers F.Cu B.Cu) (net 3) (tstamp 5BB3DB97))
  (via (at 149 98) (size 1.3) (drill 0.8) (layers F.Cu B.Cu) (net 3) (tstamp 5BB3DB98))
  (via (at 154 98) (size 1.3) (drill 0.8) (layers F.Cu B.Cu) (net 3) (tstamp 5BB3DB99))
  (via (at 159 98) (size 1.3) (drill 0.8) (layers F.Cu B.Cu) (net 3) (tstamp 5BB3DB9A))
  (via (at 164 98) (size 1.3) (drill 0.8) (layers F.Cu B.Cu) (net 3) (tstamp 5BB3DB9B))
  (via (at 168 98) (size 1.3) (drill 0.8) (layers F.Cu B.Cu) (net 3) (tstamp 5BB3DB9C))
  (via (at 99 102.5) (size 1.3) (drill 0.8) (layers F.Cu B.Cu) (net 3) (tstamp 5BB3DB9D))
  (via (at 104 102.5) (size 1.3) (drill 0.8) (layers F.Cu B.Cu) (net 3) (tstamp 5BB3DB9E))
  (via (at 109 102.5) (size 1.3) (drill 0.8) (layers F.Cu B.Cu) (net 3) (tstamp 5BB3DB9F))
  (via (at 114 102.5) (size 1.3) (drill 0.8) (layers F.Cu B.Cu) (net 3) (tstamp 5BB3DBA0))
  (via (at 119 102.5) (size 1.3) (drill 0.8) (layers F.Cu B.Cu) (net 3) (tstamp 5BB3DBA1))
  (via (at 124 102.5) (size 1.3) (drill 0.8) (layers F.Cu B.Cu) (net 3) (tstamp 5BB3DBA2))
  (via (at 129 107) (size 1.3) (drill 0.8) (layers F.Cu B.Cu) (net 3) (tstamp 5BB3DBA3))
  (via (at 134 107) (size 1.3) (drill 0.8) (layers F.Cu B.Cu) (net 3) (tstamp 5BB3DBA4))
  (via (at 139 107) (size 1.3) (drill 0.8) (layers F.Cu B.Cu) (net 3) (tstamp 5BB3DBA5))
  (via (at 144 107) (size 1.3) (drill 0.8) (layers F.Cu B.Cu) (net 3) (tstamp 5BB3DBA6))
  (via (at 149 102.5) (size 1.3) (drill 0.8) (layers F.Cu B.Cu) (net 3) (tstamp 5BB3DBA7))
  (via (at 154 102.5) (size 1.3) (drill 0.8) (layers F.Cu B.Cu) (net 3) (tstamp 5BB3DBA8))
  (via (at 159 102.5) (size 1.3) (drill 0.8) (layers F.Cu B.Cu) (net 3) (tstamp 5BB3DBA9))
  (via (at 164 102.5) (size 1.3) (drill 0.8) (layers F.Cu B.Cu) (net 3) (tstamp 5BB3DBAA))
  (via (at 168 102.5) (size 1.3) (drill 0.8) (layers F.Cu B.Cu) (net 3) (tstamp 5BB3DBAB))
  (via (at 149 107) (size 1.3) (drill 0.8) (layers F.Cu B.Cu) (net 3) (tstamp 5BB3DD23))
  (via (at 154 107) (size 1.3) (drill 0.8) (layers F.Cu B.Cu) (net 3) (tstamp 5BB3DD24))
  (via (at 159 107) (size 1.3) (drill 0.8) (layers F.Cu B.Cu) (net 3) (tstamp 5BB3DD25))
  (via (at 164 107) (size 1.3) (drill 0.8) (layers F.Cu B.Cu) (net 3) (tstamp 5BB3DD26))
  (via (at 168 107) (size 1.3) (drill 0.8) (layers F.Cu B.Cu) (net 3) (tstamp 5BB3DD27))
  (via (at 99 107) (size 1.3) (drill 0.8) (layers F.Cu B.Cu) (net 3) (tstamp 5BB3DD2F))
  (via (at 104 107) (size 1.3) (drill 0.8) (layers F.Cu B.Cu) (net 3) (tstamp 5BB3DD30))
  (via (at 109 107) (size 1.3) (drill 0.8) (layers F.Cu B.Cu) (net 3) (tstamp 5BB3DD31))
  (via (at 114 107) (size 1.3) (drill 0.8) (layers F.Cu B.Cu) (net 3) (tstamp 5BB3DD32))
  (via (at 119 107) (size 1.3) (drill 0.8) (layers F.Cu B.Cu) (net 3) (tstamp 5BB3DD33))
  (via (at 124 107) (size 1.3) (drill 0.8) (layers F.Cu B.Cu) (net 3) (tstamp 5BB3DD34))
  (via (at 128.25 82.25) (size 1.3) (drill 0.8) (layers F.Cu B.Cu) (net 3) (tstamp 5BB3DB67))
  (via (at 129 79) (size 1.3) (drill 0.8) (layers F.Cu B.Cu) (net 3) (tstamp 5C2A7627))
  (via (at 124 79) (size 1.3) (drill 0.8) (layers F.Cu B.Cu) (net 3) (tstamp 5C2A7622))
  (via (at 119 79) (size 1.3) (drill 0.8) (layers F.Cu B.Cu) (net 3) (tstamp 5C2A7618))
  (via (at 159 74) (size 1.3) (drill 0.8) (layers F.Cu B.Cu) (net 3) (tstamp 5C2A762A))
  (via (at 159 85.25) (size 1.3) (drill 0.8) (layers F.Cu B.Cu) (net 3) (tstamp 5C2A76A5))
  (via (at 126.5 93) (size 1.3) (drill 0.8) (layers F.Cu B.Cu) (net 3) (tstamp 5C2A7744))
  (via (at 119 86.5) (size 1.3) (drill 0.8) (layers F.Cu B.Cu) (net 3) (tstamp 5C2A774A))
  (via (at 121.5 84) (size 1.3) (drill 0.8) (layers F.Cu B.Cu) (net 3) (tstamp 5C2A774E))
  (via (at 126.5 84) (size 1.3) (drill 0.8) (layers F.Cu B.Cu) (net 3) (tstamp 5C2A7750))
  (via (at 126.5 86.5) (size 1.3) (drill 0.8) (layers F.Cu B.Cu) (net 3) (tstamp 5C2A7752))
  (via (at 126.5 89) (size 1.3) (drill 0.8) (layers F.Cu B.Cu) (net 3) (tstamp 5C2A776B))
  (via (at 156.5 85.25) (size 1.3) (drill 0.8) (layers F.Cu B.Cu) (net 3) (tstamp 5C2AA88E))
  (via (at 151 79) (size 1.3) (drill 0.8) (layers F.Cu B.Cu) (net 3) (tstamp 5C2AA894))
  (via (at 130.25 82.25) (size 1.3) (drill 0.8) (layers F.Cu B.Cu) (net 3) (tstamp 5C2A9DBF))
  (via (at 132.25 82.25) (size 1.3) (drill 0.8) (layers F.Cu B.Cu) (net 3) (tstamp 5C2AAAF6))
  (via (at 114 79.25) (size 1.3) (drill 0.8) (layers F.Cu B.Cu) (net 3) (tstamp 5C2AAB0D))
  (via (at 109 79.25) (size 1.3) (drill 0.8) (layers F.Cu B.Cu) (net 3) (tstamp 5C2AAB0F))
  (via (at 121.5 86.5) (size 1.3) (drill 0.8) (layers F.Cu B.Cu) (net 3) (tstamp 5C365DC1))
  (via (at 124 86.5) (size 1.3) (drill 0.8) (layers F.Cu B.Cu) (net 3) (tstamp 5C365DC2))
  (via (at 139 84) (size 1.3) (drill 0.8) (layers F.Cu B.Cu) (net 3) (tstamp 5C365F8A))
  (segment (start 154.125 91) (end 146 91) (width 1.2) (layer F.Cu) (net 4) (status 30))
  (segment (start 155.875 91) (end 166.968 91) (width 1.2) (layer F.Cu) (net 5) (status 30))
  (segment (start 134.875 91) (end 142 91) (width 1.2) (layer F.Cu) (net 6) (status 30))
  (segment (start 124.5 91) (end 133.125 91) (width 1.2) (layer F.Cu) (net 7) (status 30))
  (segment (start 149 89.25) (end 149 86.75) (width 0.5) (layer F.Cu) (net 8) (status 30))
  (segment (start 149 85) (end 149 82.25) (width 0.5) (layer F.Cu) (net 9) (status 30))
  (segment (start 153 82.625) (end 151 82.625) (width 0.5) (layer F.Cu) (net 9) (status 30))
  (segment (start 149 82.625) (end 151 82.625) (width 0.5) (layer F.Cu) (net 9) (status 30))
  (segment (start 141.93 77.52) (end 141.75 77.7) (width 0.5) (layer F.Cu) (net 9) (status 30))
  (segment (start 156 77.52) (end 141.93 77.52) (width 0.5) (layer F.Cu) (net 9) (status 30))
  (segment (start 154.75 81.625) (end 153.75 82.625) (width 0.5) (layer F.Cu) (net 9))
  (segment (start 154.75 79.25) (end 154.75 81.625) (width 0.5) (layer F.Cu) (net 9))
  (segment (start 153.75 82.625) (end 153 82.625) (width 0.5) (layer F.Cu) (net 9) (status 20))
  (segment (start 156 78) (end 154.75 79.25) (width 0.5) (layer F.Cu) (net 9) (status 10))
  (segment (start 156 77.52) (end 156 78) (width 0.5) (layer F.Cu) (net 9) (status 30))
  (segment (start 128.25 86.375) (end 128.25 89.125) (width 0.5) (layer F.Cu) (net 10) (tstamp 5BB3D1F6) (status 30))
  (segment (start 128.25 86.375) (end 130.25 86.375) (width 0.5) (layer F.Cu) (net 10) (status 30))
  (segment (start 130.25 86.375) (end 132.25 86.375) (width 0.5) (layer F.Cu) (net 10) (status 30))
  (segment (start 141.75 80) (end 135.45 80) (width 0.5) (layer F.Cu) (net 10) (status 30))
  (segment (start 133.875 86.375) (end 132.25 86.375) (width 0.5) (layer F.Cu) (net 10) (status 20))
  (segment (start 135.1 85.15) (end 133.875 86.375) (width 0.5) (layer F.Cu) (net 10))
  (segment (start 135.1 80) (end 135.1 85.15) (width 0.5) (layer F.Cu) (net 10) (status 10))
  (segment (start 159.75 77.52) (end 164.23 77.52) (width 0.5) (layer F.Cu) (net 11) (status 20))
  (segment (start 164.23 77.52) (end 164.25 77.5) (width 0.5) (layer F.Cu) (net 11) (status 30))
  (segment (start 159 77.52) (end 164.23 77.52) (width 0.5) (layer F.Cu) (net 11) (status 30))

  (zone (net 3) (net_name GND) (layer F.Cu) (tstamp 5BB3E11E) (hatch edge 0.508)
    (connect_pads yes (clearance 0))
    (min_thickness 0.5)
    (fill yes (arc_segments 16) (thermal_gap 0.508) (thermal_bridge_width 0.508))
    (polygon
      (pts
        (xy 98 73) (xy 98 108) (xy 169 108) (xy 169 73)
      )
    )
    (filled_polygon
      (pts
        (xy 168.675001 89.735307) (xy 167.505189 89.735307) (xy 167.494744 89.728328) (xy 167.100963 89.65) (xy 155.742037 89.65)
        (xy 155.348256 89.728328) (xy 155.231684 89.806219) (xy 155.078977 89.836594) (xy 154.946377 89.925195) (xy 154.651744 89.728328)
        (xy 154.257963 89.65) (xy 150.217315 89.65) (xy 150.239693 89.5375) (xy 150.239693 88.9625) (xy 150.163406 88.578977)
        (xy 150 88.334424) (xy 150 87.665576) (xy 150.163406 87.421023) (xy 150.239693 87.0375) (xy 150.239693 86.4625)
        (xy 150.163406 86.078977) (xy 150.027112 85.875) (xy 150.163406 85.671023) (xy 150.239693 85.2875) (xy 150.239693 84.7125)
        (xy 150.163406 84.328977) (xy 150 84.084424) (xy 150 83.625) (xy 150.059594 83.625) (xy 150.378977 83.838406)
        (xy 150.7625 83.914693) (xy 151.2375 83.914693) (xy 151.621023 83.838406) (xy 151.940406 83.625) (xy 152.059594 83.625)
        (xy 152.378977 83.838406) (xy 152.7625 83.914693) (xy 153.2375 83.914693) (xy 153.621023 83.838406) (xy 153.946157 83.621157)
        (xy 153.958166 83.603184) (xy 154.140181 83.566979) (xy 154.47096 83.34596) (xy 154.526754 83.262458) (xy 155.387463 82.401751)
        (xy 155.47096 82.34596) (xy 155.691979 82.015181) (xy 155.75 81.72349) (xy 155.769591 81.625) (xy 155.75 81.52651)
        (xy 155.75 79.664212) (xy 155.879519 79.534693) (xy 156.5 79.534693) (xy 156.792635 79.476484) (xy 157.04072 79.31072)
        (xy 157.206484 79.062635) (xy 157.264693 78.77) (xy 157.264693 76.27) (xy 157.735307 76.27) (xy 157.735307 78.77)
        (xy 157.793516 79.062635) (xy 157.95928 79.31072) (xy 158.207365 79.476484) (xy 158.5 79.534693) (xy 159.5 79.534693)
        (xy 159.792635 79.476484) (xy 160.04072 79.31072) (xy 160.206484 79.062635) (xy 160.264693 78.77) (xy 160.264693 78.52)
        (xy 161.485307 78.52) (xy 161.485307 79.5) (xy 161.543516 79.792635) (xy 161.70928 80.04072) (xy 161.957365 80.206484)
        (xy 162.25 80.264693) (xy 166.25 80.264693) (xy 166.542635 80.206484) (xy 166.79072 80.04072) (xy 166.956484 79.792635)
        (xy 167.014693 79.5) (xy 167.014693 75.5) (xy 166.956484 75.207365) (xy 166.79072 74.95928) (xy 166.542635 74.793516)
        (xy 166.25 74.735307) (xy 162.25 74.735307) (xy 161.957365 74.793516) (xy 161.70928 74.95928) (xy 161.543516 75.207365)
        (xy 161.485307 75.5) (xy 161.485307 76.52) (xy 160.264693 76.52) (xy 160.264693 76.27) (xy 160.206484 75.977365)
        (xy 160.04072 75.72928) (xy 159.792635 75.563516) (xy 159.5 75.505307) (xy 158.5 75.505307) (xy 158.207365 75.563516)
        (xy 157.95928 75.72928) (xy 157.793516 75.977365) (xy 157.735307 76.27) (xy 157.264693 76.27) (xy 157.206484 75.977365)
        (xy 157.04072 75.72928) (xy 156.792635 75.563516) (xy 156.5 75.505307) (xy 155.5 75.505307) (xy 155.207365 75.563516)
        (xy 154.95928 75.72928) (xy 154.793516 75.977365) (xy 154.735307 76.27) (xy 154.735307 76.52) (xy 143.0147 76.52)
        (xy 142.94072 76.40928) (xy 142.692635 76.243516) (xy 142.4 76.185307) (xy 140.4 76.185307) (xy 140.107365 76.243516)
        (xy 139.85928 76.40928) (xy 139.693516 76.657365) (xy 139.635307 76.95) (xy 139.635307 78.45) (xy 139.693516 78.742635)
        (xy 139.765255 78.85) (xy 139.693516 78.957365) (xy 139.685035 79) (xy 136.864693 79) (xy 136.864693 78.1)
        (xy 136.806484 77.807365) (xy 136.64072 77.55928) (xy 136.392635 77.393516) (xy 136.1 77.335307) (xy 134.1 77.335307)
        (xy 133.807365 77.393516) (xy 133.55928 77.55928) (xy 133.393516 77.807365) (xy 133.335307 78.1) (xy 133.335307 81.9)
        (xy 133.393516 82.192635) (xy 133.55928 82.44072) (xy 133.807365 82.606484) (xy 134.1 82.664693) (xy 134.100001 82.664693)
        (xy 134.100001 84.735786) (xy 133.460787 85.375) (xy 133.190406 85.375) (xy 132.871023 85.161594) (xy 132.4875 85.085307)
        (xy 132.0125 85.085307) (xy 131.628977 85.161594) (xy 131.309594 85.375) (xy 131.190406 85.375) (xy 130.871023 85.161594)
        (xy 130.4875 85.085307) (xy 130.0125 85.085307) (xy 129.628977 85.161594) (xy 129.309594 85.375) (xy 129.190406 85.375)
        (xy 128.871023 85.161594) (xy 128.4875 85.085307) (xy 128.0125 85.085307) (xy 127.628977 85.161594) (xy 127.303843 85.378843)
        (xy 127.086594 85.703977) (xy 127.010307 86.0875) (xy 127.010307 86.6625) (xy 127.086594 87.046023) (xy 127.25 87.290576)
        (xy 127.250001 88.334423) (xy 127.086594 88.578977) (xy 127.010307 88.9625) (xy 127.010307 89.5375) (xy 127.032685 89.65)
        (xy 125.49878 89.65) (xy 125.456484 89.437365) (xy 125.29072 89.18928) (xy 125.042635 89.023516) (xy 124.75 88.965307)
        (xy 123.75 88.965307) (xy 123.457365 89.023516) (xy 123.20928 89.18928) (xy 123.043516 89.437365) (xy 122.985307 89.73)
        (xy 122.985307 92.23) (xy 123.043516 92.522635) (xy 123.20928 92.77072) (xy 123.457365 92.936484) (xy 123.75 92.994693)
        (xy 124.75 92.994693) (xy 125.042635 92.936484) (xy 125.29072 92.77072) (xy 125.456484 92.522635) (xy 125.490823 92.35)
        (xy 133.257963 92.35) (xy 133.651744 92.271672) (xy 134 92.038975) (xy 134.348256 92.271672) (xy 134.742037 92.35)
        (xy 142.132963 92.35) (xy 142.511556 92.274693) (xy 142.925 92.274693) (xy 143.217635 92.216484) (xy 143.390918 92.1007)
        (xy 143.75136 92.25) (xy 144.24864 92.25) (xy 144.609082 92.1007) (xy 144.782365 92.216484) (xy 145.075 92.274693)
        (xy 145.488444 92.274693) (xy 145.867037 92.35) (xy 154.257963 92.35) (xy 154.651744 92.271672) (xy 154.946377 92.074805)
        (xy 155.078977 92.163406) (xy 155.231684 92.193781) (xy 155.348256 92.271672) (xy 155.742037 92.35) (xy 167.100963 92.35)
        (xy 167.494744 92.271672) (xy 167.505189 92.264693) (xy 168.675 92.264693) (xy 168.675 107.675) (xy 98.325 107.675)
        (xy 98.325 99.32) (xy 126.1 99.32) (xy 126.1 105.92) (xy 146.9 105.92) (xy 146.9 99.32)
        (xy 126.1 99.32) (xy 98.325 99.32) (xy 98.325 92.264693) (xy 99.494811 92.264693) (xy 99.505256 92.271672)
        (xy 99.899037 92.35) (xy 110.382963 92.35) (xy 110.776744 92.271672) (xy 111.125 92.038975) (xy 111.473256 92.271672)
        (xy 111.867037 92.35) (xy 120.009177 92.35) (xy 120.043516 92.522635) (xy 120.20928 92.77072) (xy 120.457365 92.936484)
        (xy 120.75 92.994693) (xy 121.75 92.994693) (xy 122.042635 92.936484) (xy 122.29072 92.77072) (xy 122.456484 92.522635)
        (xy 122.514693 92.23) (xy 122.514693 91.039092) (xy 122.526447 90.980001) (xy 122.514693 90.92091) (xy 122.514693 89.73)
        (xy 122.456484 89.437365) (xy 122.29072 89.18928) (xy 122.042635 89.023516) (xy 121.75 88.965307) (xy 120.75 88.965307)
        (xy 120.457365 89.023516) (xy 120.20928 89.18928) (xy 120.043516 89.437365) (xy 120.00122 89.65) (xy 111.867037 89.65)
        (xy 111.473256 89.728328) (xy 111.125 89.961025) (xy 110.776744 89.728328) (xy 110.382963 89.65) (xy 99.899037 89.65)
        (xy 99.505256 89.728328) (xy 99.494811 89.735307) (xy 98.325 89.735307) (xy 98.325 73.325) (xy 168.675001 73.325)
      )
    )
    (filled_polygon
      (pts
        (xy 154.02904 78.52904) (xy 153.808022 78.859819) (xy 153.808021 78.85982) (xy 153.730409 79.25) (xy 153.75 79.348491)
        (xy 153.750001 81.210786) (xy 153.56111 81.399677) (xy 153.2375 81.335307) (xy 152.7625 81.335307) (xy 152.378977 81.411594)
        (xy 152.059594 81.625) (xy 151.940406 81.625) (xy 151.621023 81.411594) (xy 151.2375 81.335307) (xy 150.7625 81.335307)
        (xy 150.378977 81.411594) (xy 150.059594 81.625) (xy 149.940406 81.625) (xy 149.621023 81.411594) (xy 149.513045 81.390116)
        (xy 149.390181 81.308021) (xy 149 81.230409) (xy 148.60982 81.308021) (xy 148.486956 81.390116) (xy 148.378977 81.411594)
        (xy 148.053843 81.628843) (xy 147.836594 81.953977) (xy 147.760307 82.3375) (xy 147.760307 82.9125) (xy 147.836594 83.296023)
        (xy 148.000001 83.540577) (xy 148 84.084424) (xy 147.836594 84.328977) (xy 147.760307 84.7125) (xy 147.760307 85.2875)
        (xy 147.836594 85.671023) (xy 147.972888 85.875) (xy 147.836594 86.078977) (xy 147.760307 86.4625) (xy 147.760307 87.0375)
        (xy 147.836594 87.421023) (xy 148.000001 87.665577) (xy 148 88.334424) (xy 147.836594 88.578977) (xy 147.760307 88.9625)
        (xy 147.760307 89.5375) (xy 147.782685 89.65) (xy 145.867037 89.65) (xy 145.488444 89.725307) (xy 145.075 89.725307)
        (xy 144.782365 89.783516) (xy 144.609082 89.8993) (xy 144.24864 89.75) (xy 143.75136 89.75) (xy 143.390918 89.8993)
        (xy 143.217635 89.783516) (xy 142.925 89.725307) (xy 142.511556 89.725307) (xy 142.132963 89.65) (xy 134.742037 89.65)
        (xy 134.348256 89.728328) (xy 134 89.961025) (xy 133.651744 89.728328) (xy 133.257963 89.65) (xy 129.467315 89.65)
        (xy 129.489693 89.5375) (xy 129.489693 88.9625) (xy 129.413406 88.578977) (xy 129.25 88.334424) (xy 129.25 87.375)
        (xy 129.309594 87.375) (xy 129.628977 87.588406) (xy 130.0125 87.664693) (xy 130.4875 87.664693) (xy 130.871023 87.588406)
        (xy 131.190406 87.375) (xy 131.309594 87.375) (xy 131.628977 87.588406) (xy 132.0125 87.664693) (xy 132.4875 87.664693)
        (xy 132.871023 87.588406) (xy 133.190406 87.375) (xy 133.77651 87.375) (xy 133.875 87.394591) (xy 133.97349 87.375)
        (xy 134.265181 87.316979) (xy 134.59596 87.09596) (xy 134.651754 87.012458) (xy 135.737463 85.926751) (xy 135.82096 85.87096)
        (xy 136.041979 85.540181) (xy 136.1 85.24849) (xy 136.119591 85.15) (xy 136.1 85.05151) (xy 136.1 82.664693)
        (xy 136.392635 82.606484) (xy 136.64072 82.44072) (xy 136.806484 82.192635) (xy 136.864693 81.9) (xy 136.864693 81)
        (xy 139.685035 81) (xy 139.693516 81.042635) (xy 139.85928 81.29072) (xy 140.107365 81.456484) (xy 140.4 81.514693)
        (xy 142.4 81.514693) (xy 142.692635 81.456484) (xy 142.94072 81.29072) (xy 143.106484 81.042635) (xy 143.164693 80.75)
        (xy 143.164693 79.25) (xy 143.106484 78.957365) (xy 143.034745 78.85) (xy 143.106484 78.742635) (xy 143.150769 78.52)
        (xy 154.042569 78.52)
      )
    )
  )
)
